[[[9.92312622e+02 3.68404663e+02 8.70905519e-01]
  [9.74684082e+02 4.39045074e+02 9.18566465e-01]
  [9.09910706e+02 4.36156464e+02 8.96515369e-01]
  [9.01106201e+02 5.27315063e+02 7.04280257e-01]
  [8.86519897e+02 5.30298096e+02 7.77848899e-01]
  [1.03940894e+03 4.42027039e+02 8.11035037e-01]
  [1.02472412e+03 4.97949249e+02 8.76716137e-01]
  [1.01880627e+03 4.12610809e+02 8.30176950e-01]
  [9.71721313e+02 6.18577881e+02 7.48303771e-01]
  [9.30643066e+02 6.18599060e+02 7.52750635e-01]
  [9.57079285e+02 7.77532715e+02 7.97094226e-01]
  [1.00131122e+03 9.27526489e+02 8.43146205e-01]
  [1.00134650e+03 6.18588684e+02 7.22077727e-01]
  [9.89380676e+02 7.65806152e+02 8.52535307e-01]
  [9.57003357e+02 9.33488953e+02 7.94698536e-01]
  [9.77808472e+02 3.56557281e+02 8.95128667e-01]
  [1.00424268e+03 3.62570740e+02 9.06857967e-01]
  [9.57095276e+02 3.59590973e+02 8.20105374e-01]
  [1.02470056e+03 3.80147644e+02 7.91063607e-01]
  [9.04152100e+02 9.68770874e+02 7.40558743e-01]
  [9.27528076e+02 9.74588135e+02 7.39637613e-01]
  [9.65906677e+02 9.54109680e+02 7.32928753e-01]
  [1.02175677e+03 9.57141663e+02 7.07491934e-01]
  [1.00131927e+03 9.57159668e+02 6.89264834e-01]
  [1.02168536e+03 9.33563965e+02 7.05261469e-01]]]