[[[1.02168024e+03 3.83046875e+02 9.08412039e-01]
  [1.00113641e+03 4.59675751e+02 9.29375529e-01]
  [9.48145935e+02 4.50848083e+02 8.22683573e-01]
  [8.77522278e+02 3.94948151e+02 8.33782196e-01]
  [9.48263000e+02 3.80191895e+02 8.56812477e-01]
  [1.05414771e+03 4.74396332e+02 8.12260389e-01]
  [1.08658948e+03 5.65594482e+02 8.35963666e-01]
  [1.03947522e+03 5.80372314e+02 8.39035869e-01]
  [1.00425812e+03 6.47947632e+02 7.87901640e-01]
  [9.74668701e+02 6.48052734e+02 7.90216923e-01]
  [9.01018005e+02 7.86216919e+02 8.77329469e-01]
  [9.54154541e+02 9.33535645e+02 8.36945832e-01]
  [1.04523328e+03 6.45144470e+02 7.73216963e-01]
  [1.03065393e+03 7.89357117e+02 8.74978006e-01]
  [1.09545203e+03 9.30489868e+02 8.86937082e-01]
  [1.00426990e+03 3.65548798e+02 9.12139833e-01]
  [1.03356628e+03 3.68468536e+02 8.44663382e-01]
  [9.89487366e+02 3.83041779e+02 7.65444756e-01]
  [1.04827808e+03 3.89062225e+02 8.29649627e-01]
  [1.04228027e+03 9.54077148e+02 8.50121379e-01]
  [1.05419495e+03 9.57093750e+02 8.20415080e-01]
  [1.11602710e+03 9.48128418e+02 9.18817520e-01]
  [8.86398804e+02 9.56997803e+02 7.35321462e-01]
  [8.95202515e+02 9.51141174e+02 6.97656453e-01]
  [9.74803711e+02 9.51205444e+02 8.34730268e-01]]]