[[[9.54035767e+02 5.80400024e+02 9.37119901e-01]
  [9.65850830e+02 6.68613525e+02 8.74490142e-01]
  [9.24640259e+02 6.56880493e+02 8.03040028e-01]
  [8.65799988e+02 7.33354065e+02 7.91295767e-01]
  [7.95200073e+02 7.92309875e+02 8.24755549e-01]
  [1.00419293e+03 6.71704285e+02 8.50343645e-01]
  [1.00114282e+03 7.86347656e+02 9.04359639e-01]
  [9.27547241e+02 8.77582275e+02 7.57215083e-01]
  [9.71740662e+02 8.53936584e+02 7.38949835e-01]
  [9.39401489e+02 8.36300781e+02 7.02678621e-01]
  [8.12785278e+02 8.12765503e+02 8.67533028e-01]
  [9.07052490e+02 9.21783325e+02 4.61965889e-01]
  [9.98227234e+02 8.59988770e+02 6.99411869e-01]
  [8.80573242e+02 9.62904175e+02 8.54481816e-01]
  [1.02181885e+03 9.27657959e+02 7.66622066e-01]
  [9.45330505e+02 5.74376404e+02 9.09722567e-01]
  [9.71799133e+02 5.74491028e+02 9.37914371e-01]
  [9.27666748e+02 5.83323425e+02 8.99381116e-02]
  [9.98341125e+02 5.89197021e+02 7.61344135e-01]
  [1.04238599e+03 9.71812134e+02 7.94417799e-01]
  [1.04835461e+03 9.57008423e+02 7.98551857e-01]
  [1.03654700e+03 9.04141663e+02 4.29383546e-01]
  [0.00000000e+00 0.00000000e+00 0.00000000e+00]
  [0.00000000e+00 0.00000000e+00 0.00000000e+00]
  [0.00000000e+00 0.00000000e+00 0.00000000e+00]]]