[[[9.5420703e+02 3.8594846e+02 9.3732899e-01]
  [9.4827087e+02 4.5382074e+02 8.8297063e-01]
  [8.8360956e+02 4.5376425e+02 8.6290932e-01]
  [9.1880200e+02 5.2440411e+02 8.2853180e-01]
  [9.1003284e+02 4.4199823e+02 8.3708936e-01]
  [1.0013451e+03 4.5656711e+02 8.5961455e-01]
  [1.0248433e+03 5.3331580e+02 8.3555228e-01]
  [9.8354041e+02 5.9498010e+02 8.3686900e-01]
  [9.4524463e+02 6.1562415e+02 7.2089189e-01]
  [9.0700348e+02 6.1564526e+02 7.4409783e-01]
  [9.2747583e+02 7.8334595e+02 8.3541375e-01]
  [9.3359161e+02 9.0714667e+02 8.1895721e-01]
  [9.7752948e+02 6.1566064e+02 7.4332988e-01]
  [9.6294690e+02 7.3635474e+02 8.3190447e-01]
  [9.6588800e+02 8.9814740e+02 7.8092605e-01]
  [9.4817865e+02 3.6562140e+02 9.2509288e-01]
  [9.7461066e+02 3.7424469e+02 8.9554048e-01]
  [9.2469336e+02 3.8303122e+02 8.3223224e-01]
  [9.8350549e+02 3.8894427e+02 6.4427525e-01]
  [9.5402716e+02 9.3645099e+02 6.4162427e-01]
  [9.7177667e+02 9.3347919e+02 7.2152942e-01]
  [9.7173059e+02 9.0707855e+02 6.2868398e-01]
  [9.2469507e+02 9.4235162e+02 7.1016091e-01]
  [9.0712152e+02 9.3361407e+02 7.5770837e-01]
  [9.5109271e+02 9.2472144e+02 5.7426685e-01]]]