[[[1.01590125e+03 3.59548004e+02 8.85427415e-01]
  [1.02190344e+03 4.12448059e+02 9.17718589e-01]
  [9.74777832e+02 4.12641724e+02 8.33351076e-01]
  [9.18766663e+02 3.39071106e+02 8.10749769e-01]
  [8.62910645e+02 2.68375427e+02 8.48631620e-01]
  [1.06889575e+03 4.09651428e+02 8.72543097e-01]
  [1.11910120e+03 3.50757965e+02 8.26991677e-01]
  [1.16604883e+03 2.68345551e+02 8.87922645e-01]
  [1.02181183e+03 5.92060120e+02 6.82897031e-01]
  [1.00122357e+03 5.83306030e+02 6.40960872e-01]
  [1.02189789e+03 7.42268799e+02 8.35287631e-01]
  [9.98282837e+02 9.27564392e+02 7.60087669e-01]
  [1.04238293e+03 5.97904114e+02 6.47386074e-01]
  [1.06878687e+03 7.83287231e+02 8.50265026e-01]
  [9.83587036e+02 9.15884338e+02 7.53522754e-01]
  [9.98175537e+02 3.47838013e+02 8.89160216e-01]
  [1.02184631e+03 3.41862152e+02 9.50498402e-01]
  [9.77616211e+02 3.65585449e+02 7.49467731e-01]
  [1.04522119e+03 3.47841949e+02 5.58497190e-01]
  [1.03652319e+03 9.71690857e+02 4.11710858e-01]
  [1.03943176e+03 9.57057190e+02 4.40594435e-01]
  [9.57004089e+02 9.21780273e+02 6.15168035e-01]
  [1.02771497e+03 9.77576904e+02 7.39972174e-01]
  [1.00709802e+03 9.77574707e+02 6.71476603e-01]
  [9.77632629e+02 9.33497314e+02 4.85506684e-01]]]