[[[1.07190979e+03 3.62592163e+02 9.79405165e-01]
  [1.08948474e+03 4.39044220e+02 8.75794172e-01]
  [1.02780115e+03 4.41967041e+02 8.19604456e-01]
  [1.02180438e+03 5.45009033e+02 8.80397439e-01]
  [1.01003674e+03 4.77203735e+02 8.12714458e-01]
  [1.14246655e+03 4.36198364e+02 8.85618269e-01]
  [1.19249548e+03 5.27297852e+02 8.93197179e-01]
  [1.11901514e+03 5.27321472e+02 9.01915789e-01]
  [1.09229761e+03 6.09740967e+02 7.21687138e-01]
  [1.05119653e+03 6.18495178e+02 6.99643135e-01]
  [1.06599268e+03 7.74585266e+02 8.25645566e-01]
  [1.09554993e+03 9.09971680e+02 8.15347195e-01]
  [1.12188171e+03 6.03900269e+02 6.83238328e-01]
  [1.13370264e+03 7.65789185e+02 8.40632021e-01]
  [1.14255615e+03 9.36516357e+02 8.35008979e-01]
  [1.06306323e+03 3.50715546e+02 8.54833126e-01]
  [1.09233533e+03 3.47836914e+02 8.94890308e-01]
  [1.04817712e+03 3.65365570e+02 6.36734962e-01]
  [1.11587646e+03 3.62571289e+02 8.09469223e-01]
  [1.07477856e+03 9.74624512e+02 8.21695447e-01]
  [1.09539893e+03 9.77692993e+02 8.45009804e-01]
  [1.16305493e+03 9.54183533e+02 8.93478870e-01]
  [1.05125232e+03 9.45260254e+02 7.20605373e-01]
  [1.05129260e+03 9.30695740e+02 6.70722902e-01]
  [1.10723572e+03 9.27485352e+02 5.25322676e-01]]]