[[[6.0389331e+02 3.4490955e+02 8.8861513e-01]
  [6.0394141e+02 4.3321429e+02 6.1435926e-01]
  [6.0091058e+02 4.3318658e+02 8.6777067e-01]
  [5.9791144e+02 5.3622778e+02 8.6521703e-01]
  [6.8330304e+02 5.7746326e+02 8.6594284e-01]
  [6.1269421e+02 4.3311591e+02 5.3629804e-01]
  [6.0971606e+02 5.3319623e+02 7.1584307e-02]
  [0.0000000e+00 0.0000000e+00 0.0000000e+00]
  [5.8622437e+02 6.2145502e+02 6.5949470e-01]
  [5.7737805e+02 6.2151971e+02 7.2209573e-01]
  [6.1848438e+02 7.7757416e+02 8.0084705e-01]
  [5.3616394e+02 9.5712506e+02 7.9697478e-01]
  [5.9794714e+02 6.2144904e+02 6.2418270e-01]
  [6.3626013e+02 7.7755414e+02 7.7219141e-01]
  [5.8331860e+02 9.3052173e+02 8.0423051e-01]
  [5.8039124e+02 3.4783218e+02 8.8819718e-01]
  [6.0104810e+02 3.3596902e+02 8.9625412e-01]
  [5.6851398e+02 3.8309418e+02 7.9368740e-01]
  [0.0000000e+00 0.0000000e+00 0.0000000e+00]
  [6.4799219e+02 9.4824054e+02 7.1035463e-01]
  [6.4212054e+02 9.3649896e+02 6.1757666e-01]
  [5.7738702e+02 9.4232959e+02 4.1890815e-01]
  [6.0681927e+02 9.9228772e+02 7.2742474e-01]
  [5.8915973e+02 9.9820044e+02 7.5543213e-01]
  [5.2137866e+02 9.7475861e+02 8.5507351e-01]]]