[[[1.0835649e+03 3.8609439e+02 9.3324488e-01]
  [1.0924825e+03 4.6253360e+02 9.1014344e-01]
  [1.0454343e+03 4.5677197e+02 8.9472723e-01]
  [9.7464691e+02 4.7434198e+02 8.3917302e-01]
  [9.9814581e+02 4.2142230e+02 8.3508879e-01]
  [1.1395192e+03 4.7139484e+02 8.4087825e-01]
  [1.1660199e+03 5.6270697e+02 8.6354941e-01]
  [1.0778074e+03 5.9783014e+02 7.9658514e-01]
  [1.0777994e+03 6.2747400e+02 7.5345486e-01]
  [1.0483138e+03 6.2456744e+02 7.8618640e-01]
  [1.0277605e+03 7.9812134e+02 8.2565469e-01]
  [1.1013433e+03 9.1875330e+02 7.8769004e-01]
  [1.1130682e+03 6.3328961e+02 7.3946762e-01]
  [1.0954125e+03 7.4510773e+02 8.5935366e-01]
  [1.1425371e+03 9.2174957e+02 7.9596341e-01]
  [1.0717622e+03 3.7428622e+02 9.2702222e-01]
  [1.0954668e+03 3.6853586e+02 8.8642913e-01]
  [1.0629656e+03 3.8904678e+02 7.6604605e-02]
  [1.1248065e+03 3.8888586e+02 8.3504647e-01]
  [1.1160156e+03 9.7469153e+02 8.3520138e-01]
  [1.1365754e+03 9.7464569e+02 8.1431681e-01]
  [1.1630663e+03 9.3352429e+02 7.0366079e-01]
  [1.0512820e+03 9.4236346e+02 7.7425486e-01]
  [1.0600118e+03 9.3071332e+02 7.3198360e-01]
  [1.1161099e+03 9.3055792e+02 6.2358177e-01]]]