[[[1.02763525e+03 3.62417328e+02 9.45311189e-01]
  [1.01891583e+03 4.44923309e+02 8.53007674e-01]
  [9.62988464e+02 4.50845062e+02 7.98215032e-01]
  [9.51151001e+02 5.33295288e+02 9.04736578e-01]
  [9.21696350e+02 6.21500427e+02 8.54945898e-01]
  [1.06894531e+03 4.42046875e+02 8.12519729e-01]
  [1.07484888e+03 4.03778870e+02 8.30940962e-01]
  [1.05710632e+03 3.35968292e+02 7.30442524e-01]
  [1.01878271e+03 6.03830811e+02 6.94601178e-01]
  [9.77612976e+02 6.03859497e+02 7.16649652e-01]
  [9.51245483e+02 7.68790222e+02 8.81992400e-01]
  [9.09957886e+02 9.01150452e+02 8.34166169e-01]
  [1.05118604e+03 6.00993042e+02 6.91719353e-01]
  [1.06876392e+03 7.80392395e+02 8.47888589e-01]
  [1.07190039e+03 9.27567627e+02 8.64998937e-01]
  [1.02172577e+03 3.42094147e+02 9.34836745e-01]
  [1.04545093e+03 3.50702545e+02 9.08199191e-01]
  [9.98316589e+02 3.62522034e+02 5.98518312e-01]
  [1.06303918e+03 3.68453461e+02 4.67449546e-01]
  [1.11590649e+03 9.57161926e+02 7.34938800e-01]
  [1.11900037e+03 9.51228577e+02 7.76966095e-01]
  [1.06011340e+03 9.42284241e+02 8.12615037e-01]
  [9.07037415e+02 9.51035583e+02 8.26961815e-01]
  [8.86524475e+02 9.39353027e+02 7.57218301e-01]
  [9.12908508e+02 9.07072449e+02 6.89566135e-01]]]