[[[9.1881512e+02 3.4781396e+02 8.6964673e-01]
  [9.5109235e+02 4.3312695e+02 8.6518252e-01]
  [9.0708215e+02 4.5968088e+02 8.1052017e-01]
  [8.8044775e+02 5.5384827e+02 9.1258126e-01]
  [8.3644647e+02 6.3621289e+02 8.5414183e-01]
  [9.8071967e+02 4.0666800e+02 7.7929401e-01]
  [9.0698517e+02 4.0962540e+02 8.9335501e-01]
  [8.5983850e+02 3.8620004e+02 9.2135036e-01]
  [9.4810992e+02 6.0099292e+02 7.0192355e-01]
  [9.0998865e+02 6.0679236e+02 6.8999612e-01]
  [9.0113611e+02 7.7166132e+02 8.5330206e-01]
  [8.8360730e+02 9.3063489e+02 8.4653538e-01]
  [9.7477289e+02 6.0087341e+02 7.0035571e-01]
  [9.6589276e+02 7.5981079e+02 8.3519137e-01]
  [1.0748530e+03 7.8929724e+02 8.4972346e-01]
  [9.1004608e+02 3.3900256e+02 9.1625065e-01]
  [9.3348431e+02 3.4180212e+02 9.2247987e-01]
  [0.0000000e+00 0.0000000e+00 0.0000000e+00]
  [9.7173309e+02 3.6241470e+02 6.9146454e-01]
  [1.0922946e+03 8.5690948e+02 8.6715627e-01]
  [1.1013053e+03 8.3939062e+02 7.5926697e-01]
  [1.0924639e+03 7.8332135e+02 7.7460420e-01]
  [8.5990192e+02 9.5995282e+02 7.7593690e-01]
  [8.5109302e+02 9.5404370e+02 7.9412043e-01]
  [9.0109009e+02 9.5108545e+02 8.3727956e-01]]]