[[[1.09533362e+03 4.06657440e+02 9.27711964e-01]
  [1.10427515e+03 4.80237335e+02 8.57486367e-01]
  [1.06008276e+03 4.80137177e+02 8.15256774e-01]
  [1.00136304e+03 5.27254883e+02 8.75181556e-01]
  [9.48117676e+02 5.24430725e+02 8.20637226e-01]
  [1.14831934e+03 4.80373413e+02 8.46916795e-01]
  [1.18673962e+03 5.74283386e+02 9.09438312e-01]
  [1.19550122e+03 4.92011963e+02 7.51940191e-01]
  [1.12182483e+03 6.36294739e+02 7.45387256e-01]
  [1.09835608e+03 6.39143738e+02 6.83152735e-01]
  [1.21301404e+03 7.01023865e+02 8.89190316e-01]
  [1.16588464e+03 8.45188538e+02 8.29078674e-01]
  [1.14260278e+03 6.39125122e+02 7.39562869e-01]
  [1.14254773e+03 8.04044189e+02 8.42692018e-01]
  [1.09536804e+03 9.21766357e+02 8.83971393e-01]
  [1.07472949e+03 4.06612000e+02 8.95944953e-01]
  [1.09545508e+03 3.88957733e+02 9.49238300e-01]
  [1.06583386e+03 4.30158356e+02 7.78901756e-01]
  [1.11605188e+03 3.97818237e+02 2.57485390e-01]
  [1.14837634e+03 9.45210083e+02 7.13331342e-01]
  [1.14255884e+03 9.30700684e+02 7.41948307e-01]
  [1.07767981e+03 9.30502441e+02 7.95751035e-01]
  [1.18373572e+03 9.06966370e+02 5.73622167e-01]
  [1.16604529e+03 9.03965271e+02 5.93100071e-01]
  [1.15130847e+03 8.54006165e+02 7.20564306e-01]]]