[[[9.4228961e+02 3.3892767e+02 8.9923584e-01]
  [9.2463892e+02 4.0964182e+02 8.8968074e-01]
  [8.5985919e+02 4.0957733e+02 8.6209631e-01]
  [8.1276886e+02 5.0662286e+02 9.3663901e-01]
  [8.5395068e+02 5.9784033e+02 8.8142383e-01]
  [9.7776349e+02 4.0967447e+02 8.1451714e-01]
  [1.0247263e+03 3.3594815e+02 8.6502242e-01]
  [1.0365741e+03 2.3887732e+02 7.5421429e-01]
  [9.0997565e+02 6.0102759e+02 7.4767989e-01]
  [8.7168951e+02 6.0384308e+02 6.8451554e-01]
  [8.2164368e+02 7.8922650e+02 8.5719687e-01]
  [7.6280200e+02 9.3350439e+02 8.1771874e-01]
  [9.5403772e+02 6.0094702e+02 7.5535601e-01]
  [1.0689814e+03 6.9525415e+02 8.6026752e-01]
  [1.0570762e+03 8.6290942e+02 7.5905079e-01]
  [9.2763129e+02 3.1852234e+02 9.5448762e-01]
  [9.5701550e+02 3.2716843e+02 8.6373436e-01]
  [9.0403662e+02 3.3883044e+02 8.8141882e-01]
  [9.7483234e+02 3.4484174e+02 8.0621034e-01]
  [1.0923989e+03 9.4233740e+02 6.9518256e-01]
  [1.0983247e+03 9.3047504e+02 6.6551632e-01]
  [1.0365496e+03 8.7462366e+02 6.4795047e-01]
  [7.5982812e+02 9.7767609e+02 8.1040162e-01]
  [7.3919940e+02 9.7458856e+02 8.0167574e-01]
  [7.6278650e+02 9.5123102e+02 6.5148878e-01]]]