[[[9.2466400e+02 3.5945966e+02 7.3662204e-01]
  [9.2745966e+02 4.3624841e+02 8.7933928e-01]
  [8.6589172e+02 4.3615939e+02 8.2201815e-01]
  [8.5694495e+02 3.2423224e+02 8.4340709e-01]
  [8.4227753e+02 2.2710725e+02 8.6153024e-01]
  [9.7778552e+02 4.3617300e+02 8.2611084e-01]
  [9.9824426e+02 3.2721649e+02 8.4205663e-01]
  [1.0100919e+03 2.4186737e+02 8.4701604e-01]
  [9.2176367e+02 6.4210437e+02 6.8499899e-01]
  [8.8345294e+02 6.4209766e+02 7.0460010e-01]
  [8.8941034e+02 8.0404138e+02 8.3795577e-01]
  [8.8059479e+02 9.3943665e+02 8.3378828e-01]
  [9.5417035e+02 6.4210748e+02 6.8025315e-01]
  [9.3935767e+02 8.0687708e+02 8.3807927e-01]
  [9.5100653e+02 9.3361658e+02 8.2185507e-01]
  [9.0995807e+02 3.5373233e+02 4.9708709e-01]
  [9.3068585e+02 3.5661578e+02 5.5629623e-01]
  [9.0395154e+02 3.8313162e+02 3.9892417e-01]
  [9.5115686e+02 3.8597964e+02 6.6249138e-01]
  [9.5115582e+02 9.7464221e+02 7.6414418e-01]
  [9.6885980e+02 9.6884906e+02 7.4120581e-01]
  [9.3650037e+02 9.5115289e+02 6.6264153e-01]
  [8.8043762e+02 9.7455878e+02 7.8870702e-01]
  [8.5993622e+02 9.6592566e+02 7.8865224e-01]
  [8.8636670e+02 9.5404358e+02 7.4533713e-01]]]