[[[9.5408331e+02 3.5366956e+02 9.0069211e-01]
  [9.5708582e+02 4.3297955e+02 8.8572049e-01]
  [9.0412878e+02 4.3301578e+02 8.6346376e-01]
  [8.9820703e+02 5.2736060e+02 8.5647833e-01]
  [8.8344604e+02 4.6559460e+02 8.6989772e-01]
  [1.0189055e+03 4.3018405e+02 8.3971930e-01]
  [1.0454143e+03 5.2141394e+02 8.9538777e-01]
  [1.0806940e+03 5.9799463e+02 8.5692519e-01]
  [9.5416809e+02 6.1558929e+02 7.6269466e-01]
  [9.1875214e+02 6.1265808e+02 7.0823550e-01]
  [8.7758356e+02 7.5986224e+02 8.6904669e-01]
  [8.8643878e+02 9.0999969e+02 8.1378245e-01]
  [9.9814807e+02 6.1567908e+02 7.2841716e-01]
  [9.9240509e+02 7.7162231e+02 8.0551988e-01]
  [9.8652148e+02 9.1584454e+02 7.9816324e-01]
  [9.4525000e+02 3.3899847e+02 9.2217249e-01]
  [9.7177216e+02 3.4182385e+02 9.0613490e-01]
  [9.2465149e+02 3.4483997e+02 7.7814883e-01]
  [9.8940753e+02 3.5363739e+02 6.8341321e-01]
  [9.7479419e+02 9.5422882e+02 8.1853360e-01]
  [9.9828284e+02 9.5404034e+02 8.5770005e-01]
  [9.8645563e+02 9.2764282e+02 7.5190997e-01]
  [8.8040076e+02 9.5713062e+02 7.5966179e-01]
  [8.5992682e+02 9.5403802e+02 7.7253616e-01]
  [9.0414337e+02 9.2472632e+02 7.7469826e-01]]]