[[[9.95358887e+02 3.59516418e+02 9.14601326e-01]
  [1.00418298e+03 4.44961609e+02 8.34804118e-01]
  [9.65929199e+02 4.47858521e+02 7.84796655e-01]
  [9.48122864e+02 5.50783508e+02 8.73099566e-01]
  [9.04046570e+02 6.42151489e+02 9.02970672e-01]
  [1.04821716e+03 4.41992004e+02 8.35082412e-01]
  [1.04526025e+03 5.39063416e+02 7.43762493e-01]
  [1.05414893e+03 6.15616699e+02 8.08603168e-01]
  [9.98366516e+02 6.24420288e+02 7.16232479e-01]
  [9.74709595e+02 6.21520752e+02 6.72866046e-01]
  [9.62934509e+02 7.89434814e+02 8.20360959e-01]
  [8.83637085e+02 9.45280823e+02 8.21196318e-01]
  [1.02470288e+03 6.24524719e+02 6.85535610e-01]
  [1.10129919e+03 7.71612671e+02 8.05033743e-01]
  [9.80616821e+02 8.86387573e+02 7.53581524e-01]
  [9.74755127e+02 3.53667572e+02 9.08423781e-01]
  [1.00119928e+03 3.41815399e+02 9.46150124e-01]
  [9.57157654e+02 3.83031219e+02 7.94373274e-01]
  [1.02475012e+03 3.56658997e+02 7.01752365e-01]
  [1.02170801e+03 9.51086060e+02 6.90147161e-01]
  [1.02182526e+03 9.36514648e+02 6.41211450e-01]
  [9.54074585e+02 8.95252747e+02 5.94759881e-01]
  [9.45295654e+02 9.74651550e+02 8.05538535e-01]
  [9.24695068e+02 9.77569580e+02 8.34397018e-01]
  [8.65824463e+02 9.54160339e+02 7.92629361e-01]]]