[[[9.2768958e+02 3.6562183e+02 7.9019535e-01]
  [9.3056781e+02 4.4781387e+02 8.2518733e-01]
  [8.7461737e+02 4.3909555e+02 7.7537209e-01]
  [8.6298340e+02 3.2722955e+02 7.8309566e-01]
  [8.5699963e+02 2.3305728e+02 8.6804128e-01]
  [9.8652246e+02 4.5378796e+02 7.5760812e-01]
  [9.8651306e+02 3.3018994e+02 7.7710807e-01]
  [1.0041444e+03 2.4464494e+02 8.8553262e-01]
  [9.2468634e+02 6.5098560e+02 7.3222291e-01]
  [8.8350220e+02 6.5092664e+02 7.4706405e-01]
  [8.9520044e+02 8.0400574e+02 8.3124065e-01]
  [8.8056146e+02 9.4524170e+02 8.4333426e-01]
  [9.5710498e+02 6.5388055e+02 6.8355650e-01]
  [9.4824609e+02 8.0684668e+02 8.5518676e-01]
  [9.5100970e+02 9.3359216e+02 8.2323050e-01]
  [9.2166937e+02 3.6550998e+02 4.1335598e-01]
  [9.4232062e+02 3.6547894e+02 7.0939219e-01]
  [9.0695776e+02 3.8614725e+02 1.9346675e-01]
  [9.5426312e+02 3.8893161e+02 7.3439068e-01]
  [9.5123590e+02 9.7463397e+02 7.6060188e-01]
  [9.7173138e+02 9.6881561e+02 7.4549973e-01]
  [9.3645764e+02 9.5114398e+02 6.8081135e-01]
  [8.7761688e+02 9.7464124e+02 8.0067253e-01]
  [8.5986627e+02 9.6881964e+02 8.0193627e-01]
  [8.8636981e+02 9.5416028e+02 7.4535435e-01]]]