[[[7.7165686e+02 3.3911008e+02 9.1311055e-01]
  [7.6265442e+02 4.1545062e+02 8.1403989e-01]
  [7.3043884e+02 4.1546194e+02 7.0788819e-01]
  [7.1864575e+02 4.5372382e+02 1.5015063e-01]
  [0.0000000e+00 0.0000000e+00 0.0000000e+00]
  [7.8921106e+02 4.1269510e+02 8.3124685e-01]
  [8.3945197e+02 4.5965076e+02 8.7512457e-01]
  [8.5404047e+02 3.8302408e+02 8.3511746e-01]
  [7.5691400e+02 5.9210382e+02 6.3076007e-01]
  [7.5396497e+02 5.9498169e+02 6.2299442e-01]
  [7.8928058e+02 7.4524731e+02 8.6377209e-01]
  [7.4220917e+02 9.0999695e+02 8.3237648e-01]
  [7.5987006e+02 5.9210333e+02 5.2392089e-01]
  [7.5981244e+02 7.5685522e+02 8.0255628e-01]
  [7.1558575e+02 9.0391998e+02 8.4892070e-01]
  [7.5689246e+02 3.3888339e+02 9.0666103e-01]
  [7.7159790e+02 3.2717313e+02 8.0296153e-01]
  [7.2746753e+02 3.5957867e+02 8.0486679e-01]
  [0.0000000e+00 0.0000000e+00 0.0000000e+00]
  [7.5981763e+02 9.3063232e+02 7.2613969e-02]
  [7.6288055e+02 9.3357343e+02 5.6261901e-02]
  [6.9511560e+02 9.0993970e+02 8.0842328e-01]
  [7.8924146e+02 9.5401733e+02 7.9562056e-01]
  [7.6869519e+02 9.5412506e+02 7.7514577e-01]
  [7.2746191e+02 9.2748401e+02 7.1749640e-01]]]