[[[1.02487830e+03 3.38875580e+02 9.28053677e-01]
  [1.01586353e+03 4.15569794e+02 8.19640398e-01]
  [9.60032227e+02 4.09707703e+02 8.28433573e-01]
  [9.39344543e+02 3.59483124e+02 8.78351569e-01]
  [9.68873047e+02 2.97714966e+02 8.51981401e-01]
  [1.06585950e+03 4.30191498e+02 8.27457547e-01]
  [1.09252490e+03 4.59789276e+02 8.87692213e-01]
  [1.10132764e+03 3.68507568e+02 8.12057912e-01]
  [1.01004529e+03 6.09745239e+02 6.62947059e-01]
  [9.74760132e+02 6.12662842e+02 6.64419949e-01]
  [9.98154175e+02 7.86323303e+02 8.99055243e-01]
  [1.01594305e+03 9.27671692e+02 8.23682845e-01]
  [1.04817932e+03 6.06860413e+02 6.88881278e-01]
  [1.05126624e+03 7.71690796e+02 8.47500026e-01]
  [1.05118359e+03 9.06919373e+02 8.37692320e-01]
  [1.01887390e+03 3.24277222e+02 8.74706686e-01]
  [1.04547644e+03 3.35941498e+02 9.03173685e-01]
  [9.98103149e+02 3.47758240e+02 7.74752021e-01]
  [1.06585559e+03 3.62647400e+02 8.65254998e-01]
  [1.04823938e+03 9.51063232e+02 8.23428094e-01]
  [1.06887537e+03 9.45314758e+02 8.11354458e-01]
  [1.04825732e+03 9.10082520e+02 6.35968029e-01]
  [1.01003821e+03 9.60042542e+02 6.80283964e-01]
  [9.95305786e+02 9.54256165e+02 7.61448979e-01]
  [1.02468274e+03 9.33627380e+02 7.16304004e-01]]]