[[[1.00129315e+03 3.56682556e+02 8.95696402e-01]
  [1.01875598e+03 4.33120758e+02 8.71656418e-01]
  [9.54125610e+02 4.33261719e+02 8.84723544e-01]
  [9.09918945e+02 5.18534912e+02 8.30142856e-01]
  [9.33582214e+02 4.47823944e+02 7.14688659e-01]
  [1.07185742e+03 4.30153900e+02 8.33434522e-01]
  [1.13966028e+03 4.83168457e+02 8.79443526e-01]
  [1.11007385e+03 4.18458466e+02 7.88855731e-01]
  [1.02175470e+03 6.00940125e+02 8.23174477e-01]
  [9.80603088e+02 6.01033325e+02 7.65932322e-01]
  [9.80542664e+02 7.77471558e+02 7.96574533e-01]
  [9.95222778e+02 9.27481995e+02 8.22963953e-01]
  [1.05415637e+03 6.00893921e+02 7.66992748e-01]
  [1.02772498e+03 6.92234924e+02 9.00689363e-01]
  [1.06898132e+03 8.15743530e+02 8.44024599e-01]
  [9.89398376e+02 3.44853607e+02 8.77348304e-01]
  [1.01883105e+03 3.41986511e+02 9.20704067e-01]
  [9.71786438e+02 3.65529236e+02 8.82820725e-01]
  [1.03065430e+03 3.62441254e+02 7.58225918e-01]
  [1.07777417e+03 8.65834351e+02 7.17365503e-01]
  [1.09535657e+03 8.57049866e+02 7.81796753e-01]
  [1.06899463e+03 8.21681946e+02 6.56018853e-01]
  [1.04838867e+03 9.51190063e+02 7.86448956e-01]
  [1.02773047e+03 9.54191345e+02 7.84690917e-01]
  [9.77657043e+02 9.39423706e+02 8.26809466e-01]]]