[[[9.86443359e+02 4.03737091e+02 8.53316188e-01]
  [1.00133405e+03 4.80283905e+02 9.04394984e-01]
  [9.51289307e+02 4.86249512e+02 8.47126842e-01]
  [9.04031006e+02 5.74321228e+02 9.26811218e-01]
  [9.51276733e+02 6.09805908e+02 8.35012496e-01]
  [1.06007605e+03 4.65598511e+02 7.79736638e-01]
  [1.06887634e+03 5.50887695e+02 8.54414046e-01]
  [1.02177319e+03 6.33263306e+02 8.25322032e-01]
  [9.80562134e+02 6.53934753e+02 7.52056062e-01]
  [9.39396729e+02 6.48095825e+02 7.36389875e-01]
  [8.59969666e+02 7.86448425e+02 9.23135757e-01]
  [8.56985901e+02 9.33589233e+02 8.34870160e-01]
  [1.02472852e+03 6.62706177e+02 7.51652122e-01]
  [1.08954431e+03 8.18796204e+02 8.24762821e-01]
  [1.14256067e+03 9.30665283e+02 8.42812419e-01]
  [9.77611450e+02 3.88915741e+02 9.58553970e-01]
  [1.00120300e+03 3.89021851e+02 9.02369916e-01]
  [9.65903015e+02 3.91906830e+02 6.08092993e-02]
  [1.02777844e+03 4.06548309e+02 7.74207294e-01]
  [1.14544043e+03 9.68832336e+02 7.48422682e-01]
  [1.16606445e+03 9.57098022e+02 7.79742479e-01]
  [1.14549927e+03 9.45285156e+02 6.18077397e-01]
  [8.21689575e+02 9.65938904e+02 6.86869740e-01]
  [8.12873779e+02 9.54242920e+02 7.77608752e-01]
  [8.65847961e+02 9.51282593e+02 8.32380772e-01]]]