[[[1.00424677e+03 3.18359589e+02 9.23493981e-01]
  [1.00122931e+03 4.24273102e+02 8.77215505e-01]
  [9.36521851e+02 4.18438965e+02 7.96207130e-01]
  [9.36459900e+02 5.12610840e+02 6.77978635e-01]
  [9.27514465e+02 4.97931061e+02 8.37782383e-01]
  [1.06596472e+03 4.27233887e+02 8.33314419e-01]
  [1.09233777e+03 5.27389709e+02 9.28792655e-01]
  [1.07179224e+03 6.01067871e+02 9.13041592e-01]
  [1.01008386e+03 5.97905273e+02 7.26541758e-01]
  [9.74632446e+02 5.95042053e+02 7.47881889e-01]
  [9.62992065e+02 7.15724487e+02 8.35431397e-01]
  [9.45228088e+02 8.12904236e+02 8.62673461e-01]
  [1.04837097e+03 5.97985840e+02 7.61425257e-01]
  [1.06586023e+03 7.77521484e+02 7.68236876e-01]
  [1.06881543e+03 9.33560974e+02 8.17496300e-01]
  [9.95254211e+02 3.12524841e+02 8.91590476e-01]
  [1.02186621e+03 3.15265839e+02 9.32459235e-01]
  [9.71770020e+02 3.35940643e+02 8.45541477e-01]
  [1.04231323e+03 3.38988098e+02 8.04169595e-01]
  [1.07476025e+03 9.74607544e+02 6.77199364e-01]
  [1.09255518e+03 9.68782471e+02 7.19892859e-01]
  [1.05132703e+03 9.54019775e+02 7.06919372e-01]
  [9.45242920e+02 8.68791748e+02 7.58240759e-01]
  [9.27499878e+02 8.59931824e+02 7.84517348e-01]
  [9.42347107e+02 8.15860840e+02 7.46040702e-01]]]