[[[9.24597656e+02 3.41906494e+02 9.36243117e-01]
  [9.06999329e+02 4.30163025e+02 8.73469174e-01]
  [8.54071838e+02 4.18475494e+02 7.81190038e-01]
  [7.86276917e+02 4.86113190e+02 8.72164845e-01]
  [6.95131042e+02 4.89086121e+02 7.96037555e-01]
  [9.62914001e+02 4.33199066e+02 8.10107291e-01]
  [9.77729797e+02 5.39149780e+02 8.24843943e-01]
  [1.01295605e+03 4.89034760e+02 7.99478352e-01]
  [9.12952698e+02 6.27469299e+02 7.24138856e-01]
  [8.80506409e+02 6.24506409e+02 7.61813939e-01]
  [7.51085449e+02 7.06901367e+02 8.03385258e-01]
  [7.77493835e+02 8.74684814e+02 7.77210712e-01]
  [9.51173645e+02 6.33312317e+02 7.18452275e-01]
  [9.27666748e+02 7.83372925e+02 8.72847438e-01]
  [9.74658142e+02 9.39368103e+02 8.25906992e-01]
  [9.18820251e+02 3.24315399e+02 8.41597736e-01]
  [9.45251526e+02 3.41780151e+02 8.95048380e-01]
  [8.95273560e+02 3.38831482e+02 2.62024999e-01]
  [9.59957825e+02 3.65545135e+02 7.59556651e-01]
  [9.10001160e+02 9.62975708e+02 7.84990907e-01]
  [9.30476929e+02 9.71715393e+02 8.49075317e-01]
  [9.92346436e+02 9.54121643e+02 8.25748503e-01]
  [7.56887207e+02 9.33590759e+02 7.42842436e-01]
  [7.42138611e+02 9.27638916e+02 7.32529998e-01]
  [7.95186890e+02 8.80426392e+02 6.99634016e-01]]]