[[[1.1306946e+03 3.6239679e+02 9.0492082e-01]
  [1.1189799e+03 4.3609711e+02 9.2541128e-01]
  [1.0629530e+03 4.5370984e+02 7.8287125e-01]
  [9.7179950e+02 4.7719235e+02 8.0958378e-01]
  [8.8063037e+02 5.0382471e+02 8.9965707e-01]
  [1.1778220e+03 4.2140698e+02 7.7929074e-01]
  [1.1866472e+03 2.9487466e+02 9.1269797e-01]
  [1.1925548e+03 2.1825987e+02 8.8558376e-01]
  [1.1218689e+03 6.2451062e+02 7.5761420e-01]
  [1.0835830e+03 6.2748956e+02 6.8439817e-01]
  [1.0807190e+03 7.8617578e+02 8.2168013e-01]
  [1.0718666e+03 9.3361829e+02 8.4193122e-01]
  [1.1659664e+03 6.2157202e+02 7.5316501e-01]
  [1.2806505e+03 7.4804352e+02 8.3382428e-01]
  [1.3014312e+03 9.1285828e+02 7.7811658e-01]
  [1.1160430e+03 3.4205219e+02 9.4007152e-01]
  [1.1425117e+03 3.4492120e+02 9.2959219e-01]
  [1.0925294e+03 3.5960324e+02 8.2806116e-01]
  [1.1629637e+03 3.6252759e+02 6.9963312e-01]
  [1.3280099e+03 9.7456433e+02 7.4279392e-01]
  [1.3367379e+03 9.5706104e+02 6.9955951e-01]
  [1.2807227e+03 9.2758691e+02 7.2397631e-01]
  [1.0924346e+03 9.7174524e+02 7.8988045e-01]
  [1.0689353e+03 9.7175684e+02 7.8844172e-01]
  [1.0717961e+03 9.5117993e+02 6.9543445e-01]]]