[[[1.02465076e+03 3.18515930e+02 9.84708071e-01]
  [1.03357043e+03 4.12519104e+02 8.74425113e-01]
  [9.77594910e+02 4.09517059e+02 8.75756681e-01]
  [9.01034363e+02 4.44910919e+02 7.80505002e-01]
  [8.06881531e+02 4.56737762e+02 8.17937911e-01]
  [1.09246143e+03 4.15574280e+02 8.40037107e-01]
  [1.10713892e+03 5.15573486e+02 7.77575374e-01]
  [1.12200208e+03 6.00903137e+02 8.66605937e-01]
  [1.00134741e+03 5.80334412e+02 7.51904309e-01]
  [9.71704468e+02 5.74456665e+02 7.16343284e-01]
  [9.42369019e+02 7.42145813e+02 8.60744953e-01]
  [9.27534363e+02 8.65817993e+02 8.51204038e-01]
  [1.04520471e+03 5.89139343e+02 7.25511014e-01]
  [1.03354956e+03 7.65647644e+02 8.59998703e-01]
  [1.00124780e+03 9.24634888e+02 8.50182295e-01]
  [1.01005426e+03 3.15384613e+02 9.03586864e-01]
  [1.04238733e+03 3.15371918e+02 9.06209707e-01]
  [9.98267822e+02 3.38835449e+02 5.92540503e-01]
  [1.06591724e+03 3.38812439e+02 8.10083032e-01]
  [1.05129382e+03 9.59983093e+02 7.28286326e-01]
  [1.05420569e+03 9.51171082e+02 7.30560601e-01]
  [9.80569214e+02 9.33498596e+02 8.08163106e-01]
  [9.18773254e+02 9.24683289e+02 8.18374157e-01]
  [9.01178528e+02 9.12876160e+02 7.89295733e-01]
  [9.30475952e+02 8.80421936e+02 7.28079140e-01]]]