[[[9.5128284e+02 3.6238318e+02 9.4854480e-01]
  [9.5711493e+02 4.3605511e+02 9.0238005e-01]
  [9.0115759e+02 4.3911984e+02 8.3138430e-01]
  [8.2165747e+02 4.3625800e+02 8.9429158e-01]
  [8.3650458e+02 3.6554675e+02 8.6747986e-01]
  [1.0217771e+03 4.3302957e+02 8.3205557e-01]
  [1.1042448e+03 4.1546405e+02 8.5729355e-01]
  [1.0658632e+03 3.5962442e+02 8.4732378e-01]
  [9.6293439e+02 6.2147864e+02 7.3138130e-01]
  [9.2752075e+02 6.2155884e+02 7.5473255e-01]
  [8.9819824e+02 7.8047247e+02 8.4033394e-01]
  [8.4232208e+02 9.2472754e+02 8.1463945e-01]
  [1.0013023e+03 6.1860828e+02 7.3436534e-01]
  [1.0247161e+03 7.7160736e+02 8.7094855e-01]
  [1.0453726e+03 9.2755676e+02 8.7529403e-01]
  [9.3363409e+02 3.4496649e+02 8.8715291e-01]
  [9.6879974e+02 3.4492819e+02 8.6805344e-01]
  [9.2174158e+02 3.6542697e+02 8.3454889e-01]
  [9.8070959e+02 3.6533185e+02 8.4461349e-01]
  [1.0483137e+03 9.5426086e+02 7.6699179e-01]
  [1.0688838e+03 9.5125238e+02 8.2048428e-01]
  [1.0365353e+03 9.3647607e+02 6.8265963e-01]
  [8.5108136e+02 9.5705188e+02 7.5135595e-01]
  [8.3050946e+02 9.5402338e+02 7.9340410e-01]
  [8.3938306e+02 9.3348090e+02 7.0260262e-01]]]