[[[1.00120892e+03 3.42002472e+02 9.72693503e-01]
  [9.77615723e+02 4.36194580e+02 9.34606910e-01]
  [9.07179626e+02 4.42018494e+02 8.31342220e-01]
  [8.98220581e+02 5.33218994e+02 8.36549699e-01]
  [8.80474487e+02 5.98093445e+02 9.07077610e-01]
  [1.04525500e+03 4.33259308e+02 8.84198308e-01]
  [1.08651794e+03 5.27399109e+02 8.71056080e-01]
  [1.09547473e+03 5.03718018e+02 8.77713144e-01]
  [9.77573425e+02 6.18587830e+02 7.51801610e-01]
  [9.33480103e+02 6.21422058e+02 7.18010664e-01]
  [9.21730896e+02 7.92204956e+02 8.37657869e-01]
  [9.45296082e+02 9.07132935e+02 8.26343834e-01]
  [1.02167432e+03 6.18563782e+02 7.10087180e-01]
  [9.77698669e+02 7.80505554e+02 8.80490303e-01]
  [9.86516602e+02 9.51079041e+02 8.04515719e-01]
  [9.86513245e+02 3.35954468e+02 8.58517170e-01]
  [1.01302924e+03 3.38905487e+02 8.71829510e-01]
  [9.54225220e+02 3.47820190e+02 8.61071885e-01]
  [1.02194543e+03 3.62608612e+02 1.99524879e-01]
  [9.27709167e+02 9.71809265e+02 7.50553429e-01]
  [9.48243652e+02 9.77698120e+02 7.78022408e-01]
  [1.00126971e+03 9.68755066e+02 7.91618884e-01]
  [9.07023499e+02 9.51096313e+02 8.56963396e-01]
  [9.03972473e+02 9.36497070e+02 7.82394946e-01]
  [9.51315552e+02 9.24562012e+02 6.26001775e-01]]]