[[[1.0247562e+03 3.4492816e+02 9.1068405e-01]
  [1.0070603e+03 4.1562134e+02 8.2945645e-01]
  [9.5405786e+02 4.0966324e+02 8.6773622e-01]
  [9.0104163e+02 3.1840283e+02 9.2808539e-01]
  [9.6878735e+02 2.9178894e+02 8.7265623e-01]
  [1.0630295e+03 4.3309183e+02 8.3064675e-01]
  [1.0924148e+03 5.0374081e+02 9.3038225e-01]
  [1.0922811e+03 4.2427820e+02 8.3878529e-01]
  [1.0158523e+03 5.9211084e+02 6.9877267e-01]
  [9.7481842e+02 5.8918640e+02 7.2081161e-01]
  [9.7466626e+02 6.7748499e+02 8.2916141e-01]
  [9.7768066e+02 8.0693945e+02 8.8296503e-01]
  [1.0483678e+03 5.9498981e+02 7.2841918e-01]
  [1.0481908e+03 7.6588434e+02 8.8068116e-01]
  [1.0453193e+03 9.1874286e+02 8.1122798e-01]
  [1.0218628e+03 3.3598639e+02 9.1116035e-01]
  [1.0453960e+03 3.4204376e+02 9.4798130e-01]
  [1.0011358e+03 3.4181686e+02 4.7546870e-01]
  [1.0571859e+03 3.6551227e+02 7.4764234e-01]
  [1.0453564e+03 9.5705548e+02 7.7891654e-01]
  [1.0659380e+03 9.5410492e+02 8.3277065e-01]
  [1.0335769e+03 9.3048303e+02 7.1256262e-01]
  [9.7173810e+02 8.6578625e+02 8.0118811e-01]
  [9.5124243e+02 8.5702075e+02 8.2055002e-01]
  [9.8944452e+02 8.0982281e+02 7.1346074e-01]]]