[[[8.3629755e+02 3.5963708e+02 9.4386983e-01]
  [8.3342487e+02 4.3014371e+02 8.8643610e-01]
  [7.8040082e+02 4.2723373e+02 7.9748631e-01]
  [7.6869867e+02 3.3602289e+02 8.6511058e-01]
  [8.2163721e+02 3.0368863e+02 6.7506206e-01]
  [8.8352295e+02 4.3304156e+02 8.5166770e-01]
  [9.2760596e+02 3.3897427e+02 8.5063744e-01]
  [8.8357263e+02 2.9774362e+02 6.8668145e-01]
  [8.3644385e+02 6.0681891e+02 7.2246838e-01]
  [7.9809052e+02 6.1270416e+02 6.7496032e-01]
  [7.4222345e+02 7.8626709e+02 9.0846819e-01]
  [7.3333386e+02 9.3061127e+02 8.1208605e-01]
  [8.8049506e+02 6.0102258e+02 7.0635033e-01]
  [9.1585840e+02 7.8039954e+02 7.7021474e-01]
  [9.5410999e+02 9.3061243e+02 8.5951430e-01]
  [8.2164417e+02 3.4487555e+02 8.6337912e-01]
  [8.5405170e+02 3.5073581e+02 8.3153975e-01]
  [8.0110339e+02 3.6251550e+02 6.1130214e-01]
  [8.7747278e+02 3.6838580e+02 6.0190427e-01]
  [9.5114471e+02 9.6875946e+02 7.4075067e-01]
  [9.7459576e+02 9.5997571e+02 7.4806279e-01]
  [9.5419922e+02 9.4533398e+02 6.6472888e-01]
  [6.9202142e+02 9.5408429e+02 7.6944995e-01]
  [6.8916156e+02 9.4822668e+02 7.5281334e-01]
  [7.4220038e+02 9.5107947e+02 8.2817006e-01]]]