[[[1.14235974e+03 4.15552582e+02 9.22178149e-01]
  [1.09551196e+03 4.86169830e+02 8.67103398e-01]
  [1.05122729e+03 4.56574860e+02 7.38577366e-01]
  [1.01875507e+03 4.47830566e+02 7.52745211e-01]
  [1.08954553e+03 4.59651733e+02 7.18195558e-01]
  [1.14237244e+03 5.27351685e+02 7.66452730e-01]
  [1.16609082e+03 6.24382996e+02 9.13999736e-01]
  [1.10720129e+03 6.47913452e+02 8.79848838e-01]
  [1.03358093e+03 6.51018250e+02 6.87889934e-01]
  [9.92414368e+02 6.45071167e+02 6.88296258e-01]
  [8.92346130e+02 7.86472351e+02 8.51860344e-01]
  [8.56935974e+02 9.30675842e+02 8.43969882e-01]
  [1.07484131e+03 6.65639343e+02 6.88606977e-01]
  [1.15134607e+03 7.92254944e+02 8.14766407e-01]
  [1.11611902e+03 9.30513123e+02 9.08717573e-01]
  [1.13957214e+03 4.03769257e+02 8.54837835e-01]
  [1.16312292e+03 4.18472626e+02 8.81086767e-01]
  [1.11305579e+03 4.06635559e+02 3.62239391e-01]
  [1.16606824e+03 4.59706299e+02 7.86395371e-01]
  [1.16006396e+03 9.71678467e+02 7.87940502e-01]
  [1.16301709e+03 9.57025635e+02 8.18626523e-01]
  [1.09830212e+03 9.42327515e+02 7.63720334e-01]
  [8.09868164e+02 9.65870056e+02 7.09519506e-01]
  [8.06899841e+02 9.54081299e+02 7.40238667e-01]
  [8.65800720e+02 9.51275330e+02 7.96480119e-01]]]