[[[1.1660297e+03 3.9494226e+02 9.0636176e-01]
  [1.1984241e+03 4.5682614e+02 7.9410899e-01]
  [1.1778104e+03 4.5961832e+02 7.3785371e-01]
  [1.1248666e+03 5.3328973e+02 7.6759577e-01]
  [1.1571577e+03 4.7137524e+02 6.1583209e-01]
  [1.2189722e+03 4.5670175e+02 8.1646872e-01]
  [1.2278423e+03 5.3910718e+02 7.9171580e-01]
  [1.1395188e+03 5.5084595e+02 8.7389416e-01]
  [1.1631561e+03 6.1862408e+02 7.2247940e-01]
  [1.1807756e+03 6.2152185e+02 6.2230873e-01]
  [1.2160847e+03 7.9231744e+02 8.1380093e-01]
  [1.2808551e+03 9.2766840e+02 8.8388681e-01]
  [1.1454750e+03 6.1860181e+02 6.5425533e-01]
  [1.0953898e+03 7.6875220e+02 8.6031616e-01]
  [1.0541757e+03 9.2471411e+02 8.0349064e-01]
  [1.1601139e+03 3.8895761e+02 8.8644916e-01]
  [1.1778192e+03 3.8596494e+02 9.0013874e-01]
  [0.0000000e+00 0.0000000e+00 0.0000000e+00]
  [1.2102513e+03 3.8592398e+02 8.7962848e-01]
  [9.9824573e+02 9.5123346e+02 6.9593060e-01]
  [1.0041316e+03 9.5411151e+02 7.6154751e-01]
  [1.0688765e+03 9.4233563e+02 7.4100560e-01]
  [1.2425223e+03 9.3944586e+02 6.7275500e-01]
  [1.2514325e+03 9.3354486e+02 6.1228222e-01]
  [1.2926204e+03 9.4237134e+02 7.7369726e-01]]]