[[[1.0717146e+03 4.0944293e+02 9.5040238e-01]
  [1.0865106e+03 4.9203979e+02 8.0682975e-01]
  [1.0277162e+03 4.8320691e+02 8.4926796e-01]
  [9.7171350e+02 5.3623688e+02 8.2064241e-01]
  [9.0701776e+02 5.3019434e+02 9.2584848e-01]
  [1.1394971e+03 5.0385196e+02 8.8445425e-01]
  [1.1513043e+03 5.9208295e+02 6.3376290e-01]
  [1.1660648e+03 5.6558972e+02 4.7030655e-01]
  [1.0952849e+03 6.4496271e+02 8.0559391e-01]
  [1.0600414e+03 6.4214575e+02 7.0816648e-01]
  [1.1423885e+03 7.1266992e+02 8.7023139e-01]
  [1.1366475e+03 8.5111456e+02 7.7100295e-01]
  [1.1307098e+03 6.4501917e+02 7.4098361e-01]
  [1.1365508e+03 7.8940222e+02 6.9256043e-01]
  [1.0983134e+03 9.0992987e+02 7.6115519e-01]
  [1.0629697e+03 4.0080588e+02 8.2146591e-01]
  [1.0865859e+03 3.9493369e+02 8.6740500e-01]
  [1.0483024e+03 4.3015881e+02 3.1360686e-01]
  [1.1130721e+03 4.1844925e+02 8.6891556e-01]
  [1.1394769e+03 9.4522314e+02 6.7274791e-01]
  [1.1394025e+03 9.3352612e+02 6.2324095e-01]
  [1.0894628e+03 9.2458179e+02 7.1088409e-01]
  [1.1424655e+03 9.0414050e+02 4.6214771e-01]
  [1.1365457e+03 9.0109045e+02 4.5317981e-01]
  [1.1365228e+03 8.5982281e+02 6.1174136e-01]]]