[[[1.0660013e+03 4.8008963e+02 8.3944231e-01]
  [9.9231702e+02 5.0666888e+02 8.6306351e-01]
  [9.3046198e+02 4.8324365e+02 8.3349085e-01]
  [8.7461292e+02 5.7431006e+02 8.3975267e-01]
  [8.7172925e+02 6.6869757e+02 8.7302196e-01]
  [1.0482352e+03 5.3025372e+02 8.7090534e-01]
  [1.0984023e+03 6.1271234e+02 8.3809137e-01]
  [1.0689104e+03 7.0101038e+02 8.7294257e-01]
  [9.3943079e+02 6.4794238e+02 7.3714584e-01]
  [8.9824573e+02 6.4215765e+02 7.1734864e-01]
  [8.1282910e+02 7.8336273e+02 8.9428771e-01]
  [7.8043213e+02 9.3356628e+02 8.0171388e-01]
  [9.8069415e+02 6.5097266e+02 7.3804754e-01]
  [1.0482583e+03 7.8628577e+02 8.9363813e-01]
  [1.0836509e+03 9.3354858e+02 8.0976075e-01]
  [1.0659979e+03 4.5660730e+02 8.6237514e-01]
  [1.0777963e+03 4.7429501e+02 7.3248208e-01]
  [1.0277091e+03 4.3319449e+02 7.8705263e-01]
  [0.0000000e+00 0.0000000e+00 0.0000000e+00]
  [1.1247765e+03 9.6587109e+02 7.4499071e-01]
  [1.1336819e+03 9.5410657e+02 7.8330481e-01]
  [1.0690007e+03 9.5410486e+02 8.4367812e-01]
  [7.5979688e+02 9.6884930e+02 7.1393013e-01]
  [7.4217731e+02 9.5709137e+02 7.7610821e-01]
  [7.8637445e+02 9.5402240e+02 7.9897630e-01]]]