[[[7.3040149e+02 3.1552777e+02 9.2811280e-01]
  [7.2748535e+02 4.1255920e+02 8.8750166e-01]
  [6.6560767e+02 4.0970197e+02 8.6703897e-01]
  [6.4217938e+02 5.1847760e+02 8.6583668e-01]
  [6.9199536e+02 5.9492596e+02 8.7484151e-01]
  [7.9218243e+02 4.1548862e+02 8.4920520e-01]
  [8.0691998e+02 5.2440424e+02 8.2420766e-01]
  [7.6870288e+02 5.9786230e+02 8.9273345e-01]
  [7.1879449e+02 6.0387463e+02 7.7152491e-01]
  [6.7461224e+02 6.0393860e+02 7.1149325e-01]
  [6.9520325e+02 7.6588934e+02 8.7845439e-01]
  [7.1882874e+02 9.3646844e+02 8.1325829e-01]
  [7.6568311e+02 6.0382562e+02 7.6822072e-01]
  [8.4233746e+02 7.4526105e+02 8.1923169e-01]
  [8.1285669e+02 8.8337378e+02 8.9281315e-01]
  [7.1568835e+02 3.0946198e+02 9.0075576e-01]
  [7.4226978e+02 3.0657327e+02 8.8725775e-01]
  [6.9507556e+02 3.2720084e+02 8.0786097e-01]
  [7.6563892e+02 3.2721112e+02 7.8914618e-01]
  [8.5989508e+02 9.2463525e+02 6.2520385e-01]
  [8.5994385e+02 9.0716266e+02 6.3577056e-01]
  [7.9517914e+02 8.8938153e+02 6.9314045e-01]
  [7.1564062e+02 9.7479785e+02 7.8545260e-01]
  [6.9506592e+02 9.7456360e+02 8.1174028e-01]
  [7.3917279e+02 9.5121771e+02 7.5156331e-01]]]