[[[1.02475037e+03 5.74338013e+02 9.33896661e-01]
  [9.89460876e+02 6.42053101e+02 7.86293387e-01]
  [9.36473328e+02 6.68707031e+02 7.15622187e-01]
  [9.12874878e+02 7.65763672e+02 7.73213744e-01]
  [9.03945068e+02 8.36298340e+02 8.22628677e-01]
  [1.03650256e+03 6.03919617e+02 7.38474309e-01]
  [1.05424829e+03 6.68699585e+02 8.61744881e-01]
  [1.08071301e+03 7.39114746e+02 8.33597779e-01]
  [1.01294904e+03 7.39321899e+02 6.88686490e-01]
  [9.74797241e+02 7.48150146e+02 6.58388019e-01]
  [8.80580688e+02 7.68630493e+02 9.02903914e-01]
  [8.74672058e+02 9.36406433e+02 7.84096420e-01]
  [1.04537573e+03 7.30383118e+02 6.47872686e-01]
  [1.11895923e+03 7.68714417e+02 8.66510689e-01]
  [1.11892725e+03 9.30652344e+02 8.55570376e-01]
  [1.01008960e+03 5.68593323e+02 8.16170573e-01]
  [0.00000000e+00 0.00000000e+00 0.00000000e+00]
  [9.80700745e+02 5.94916199e+02 7.49740899e-01]
  [0.00000000e+00 0.00000000e+00 0.00000000e+00]
  [1.12196423e+03 9.71697083e+02 7.22492218e-01]
  [1.14251440e+03 9.62987793e+02 7.56805360e-01]
  [1.11010095e+03 9.48191772e+02 7.09793925e-01]
  [8.33439514e+02 9.57071106e+02 7.56257117e-01]
  [8.30450989e+02 9.51231445e+02 7.71645188e-01]
  [8.83458191e+02 9.54084839e+02 8.32536936e-01]]]