[[[8.09768311e+02 3.47817383e+02 9.02193248e-01]
  [7.89403931e+02 4.33135193e+02 9.24116015e-01]
  [7.42131470e+02 4.33216797e+02 8.69353056e-01]
  [6.98087769e+02 5.12630371e+02 8.13609779e-01]
  [7.21692627e+02 5.71516418e+02 6.42416120e-01]
  [8.39383240e+02 4.33044708e+02 8.50256264e-01]
  [9.15838379e+02 4.56756531e+02 8.62279773e-01]
  [1.00120264e+03 4.59544800e+02 8.24287891e-01]
  [8.09739441e+02 6.00966187e+02 7.45066345e-01]
  [7.89261169e+02 6.03866577e+02 6.85058892e-01]
  [8.83411316e+02 7.39266357e+02 9.25063968e-01]
  [8.36439697e+02 9.01103760e+02 7.86786079e-01]
  [8.21654724e+02 6.00873230e+02 6.67514324e-01]
  [7.89363403e+02 7.65632385e+02 9.10833597e-01]
  [7.39286682e+02 9.06917419e+02 8.65369380e-01]
  [7.89199402e+02 3.41863495e+02 9.81213570e-01]
  [8.12704712e+02 3.39031525e+02 9.23824310e-01]
  [7.62765747e+02 3.62542877e+02 9.13571715e-01]
  [0.00000000e+00 0.00000000e+00 0.00000000e+00]
  [7.89271362e+02 9.45248047e+02 6.54717803e-01]
  [7.80453064e+02 9.42307495e+02 5.51232219e-01]
  [7.18596985e+02 9.15864136e+02 8.09286714e-01]
  [8.83388733e+02 9.51175720e+02 7.41281152e-01]
  [8.68723511e+02 9.51093079e+02 7.02254713e-01]
  [8.15835083e+02 9.09926697e+02 6.96487725e-01]]]