[[[1.0922833e+03 3.9191202e+02 9.3077642e-01]
  [1.0953199e+03 4.5674417e+02 8.9615798e-01]
  [1.0659994e+03 4.5682452e+02 8.1863666e-01]
  [9.9837262e+02 4.7137009e+02 8.2800651e-01]
  [1.0453529e+03 4.1842950e+02 6.8791586e-01]
  [1.1247930e+03 4.5665579e+02 8.6898291e-01]
  [1.1306865e+03 5.5073059e+02 8.5832351e-01]
  [1.0719978e+03 6.2147302e+02 8.6631578e-01]
  [1.0777938e+03 6.2156348e+02 7.4317980e-01]
  [1.0512573e+03 6.1858191e+02 7.4277896e-01]
  [1.0423169e+03 7.7161273e+02 8.1528556e-01]
  [1.1129624e+03 9.2177704e+02 8.0484855e-01]
  [1.1100781e+03 6.2443329e+02 7.1040893e-01]
  [1.0719463e+03 7.6574304e+02 8.9246821e-01]
  [1.0570837e+03 9.1297040e+02 7.5380713e-01]
  [1.0749058e+03 3.8313474e+02 8.9542633e-01]
  [1.1013461e+03 3.8602899e+02 8.8193607e-01]
  [1.0659187e+03 3.8896439e+02 4.8299560e-01]
  [1.1219080e+03 3.9494720e+02 7.6336628e-01]
  [1.0277769e+03 9.5110736e+02 6.8830419e-01]
  [1.0512219e+03 9.5416046e+02 7.4812543e-01]
  [1.0512053e+03 9.3056549e+02 6.7514956e-01]
  [1.0748187e+03 9.5411877e+02 4.9868783e-01]
  [1.0718279e+03 9.4826794e+02 4.7367823e-01]
  [1.1219956e+03 9.3061603e+02 8.6795253e-01]]]