[[[9.5414185e+02 3.3594717e+02 4.8675099e-01]
  [9.7171075e+02 4.1545050e+02 8.5789204e-01]
  [9.1873334e+02 4.1549841e+02 8.0297571e-01]
  [9.3058441e+02 5.0675870e+02 7.3464811e-02]
  [0.0000000e+00 0.0000000e+00 0.0000000e+00]
  [1.0188711e+03 4.1256937e+02 7.8465742e-01]
  [9.5708411e+02 4.4792126e+02 7.6571769e-01]
  [9.7480841e+02 3.6261096e+02 8.9885354e-01]
  [9.6877527e+02 5.8913440e+02 7.1636605e-01]
  [9.2771106e+02 5.8616028e+02 7.4274713e-01]
  [9.3357135e+02 6.3621204e+02 7.6839435e-01]
  [9.2753491e+02 7.9517957e+02 8.0418152e-01]
  [1.0013250e+03 5.9211163e+02 7.2092193e-01]
  [9.9816534e+02 7.6870520e+02 8.7651080e-01]
  [9.7770270e+02 9.3353888e+02 8.3030313e-01]
  [9.5399310e+02 3.1852325e+02 5.1404577e-01]
  [9.7456836e+02 3.2136102e+02 5.7426006e-01]
  [0.0000000e+00 0.0000000e+00 0.0000000e+00]
  [9.9829089e+02 3.4484058e+02 6.2913543e-01]
  [9.5118707e+02 9.6883276e+02 7.2798204e-01]
  [9.7465131e+02 9.7180109e+02 7.6047295e-01]
  [9.8349658e+02 9.5126166e+02 6.9100803e-01]
  [9.2772211e+02 8.3632935e+02 6.9777286e-01]
  [9.0706799e+02 8.3344501e+02 7.3964590e-01]
  [9.2762958e+02 8.0996753e+02 6.8204135e-01]]]