[[[9.77739868e+02 3.44848724e+02 9.31719363e-01]
  [9.57056641e+02 4.33020020e+02 8.78590465e-01]
  [8.95220581e+02 4.36139252e+02 8.20338964e-01]
  [8.77499268e+02 5.53768250e+02 8.48977447e-01]
  [8.71681519e+02 6.56894470e+02 7.26751447e-01]
  [1.02468713e+03 4.21362976e+02 8.24318767e-01]
  [1.07489282e+03 5.06776215e+02 8.97794366e-01]
  [1.03948267e+03 5.71477966e+02 8.62237394e-01]
  [9.71813416e+02 6.06795532e+02 7.10732818e-01]
  [9.27675659e+02 6.09729431e+02 6.96179569e-01]
  [9.51304321e+02 7.89274048e+02 9.02090728e-01]
  [9.68867432e+02 9.54127197e+02 8.22351694e-01]
  [1.01302771e+03 6.03912170e+02 6.82776392e-01]
  [1.03071509e+03 7.65645813e+02 8.62937629e-01]
  [9.65886475e+02 8.86370911e+02 7.00102150e-01]
  [9.68862793e+02 3.33011078e+02 8.59720945e-01]
  [9.98217041e+02 3.38971039e+02 9.35731649e-01]
  [9.33541443e+02 3.39002350e+02 8.83264005e-01]
  [1.00425806e+03 3.56659180e+02 3.38411093e-01]
  [1.00128546e+03 9.15919922e+02 5.56218140e-02]
  [9.95352112e+02 9.15881897e+02 1.58553138e-01]
  [9.45239258e+02 8.86398987e+02 3.23646903e-01]
  [9.57133423e+02 9.95240845e+02 7.60290265e-01]
  [9.42341980e+02 9.86460388e+02 7.68113613e-01]
  [9.77634033e+02 9.71718872e+02 7.06811845e-01]]]