[[[9.54102844e+02 3.62524780e+02 9.69301879e-01]
  [9.62914001e+02 4.36112305e+02 8.75306904e-01]
  [9.06920471e+02 4.39164520e+02 8.31538141e-01]
  [8.33278625e+02 4.50840668e+02 8.94021273e-01]
  [8.48206238e+02 3.68415253e+02 8.18662167e-01]
  [1.02175372e+03 4.33147552e+02 8.64034772e-01]
  [1.09555054e+03 4.27310089e+02 8.66999805e-01]
  [1.07179907e+03 3.59635864e+02 8.98294628e-01]
  [9.71697876e+02 6.18618774e+02 7.23749578e-01]
  [9.30439880e+02 6.21434021e+02 7.45197177e-01]
  [9.03933289e+02 7.83336060e+02 8.76664519e-01]
  [8.42340759e+02 9.27505249e+02 8.16855371e-01]
  [1.00422125e+03 6.18549438e+02 6.86051071e-01]
  [1.02474402e+03 7.77481262e+02 8.59697700e-01]
  [1.04537048e+03 9.27574097e+02 8.78386497e-01]
  [9.39402588e+02 3.50793457e+02 8.59831274e-01]
  [9.71726624e+02 3.47822601e+02 8.80801678e-01]
  [9.24719116e+02 3.68420319e+02 8.41819704e-01]
  [9.89383362e+02 3.65390686e+02 8.00575793e-01]
  [1.04832471e+03 9.54236328e+02 7.64866054e-01]
  [1.06887939e+03 9.51236938e+02 8.12328100e-01]
  [1.03652148e+03 9.36486816e+02 6.80296719e-01]
  [8.51066345e+02 9.57096680e+02 7.36793160e-01]
  [8.30501648e+02 9.54044739e+02 7.80291140e-01]
  [8.39377747e+02 9.33510193e+02 6.94216311e-01]]]