[[[6.4804987e+02 3.3902118e+02 9.6409661e-01]
  [6.1858667e+02 4.0957639e+02 7.5458848e-01]
  [6.1860291e+02 4.0660956e+02 8.1912696e-01]
  [6.4494879e+02 5.0683829e+02 8.9661020e-01]
  [7.0398340e+02 4.5662015e+02 8.5374212e-01]
  [6.1860791e+02 4.0971280e+02 6.5616727e-01]
  [6.3035828e+02 5.3038129e+02 3.4362912e-01]
  [6.7154950e+02 5.5085864e+02 2.9495102e-01]
  [6.2446509e+02 6.2151801e+02 7.3149860e-01]
  [6.1568060e+02 6.2157654e+02 6.8574572e-01]
  [6.0979572e+02 7.8625751e+02 7.9510105e-01]
  [5.4498132e+02 9.5701007e+02 8.0104685e-01]
  [6.4206885e+02 6.2152283e+02 6.6466928e-01]
  [6.2740997e+02 7.8924982e+02 8.3011144e-01]
  [5.7726428e+02 9.3068024e+02 8.4686071e-01]
  [6.3327472e+02 3.2429990e+02 8.6007774e-01]
  [6.6273633e+02 3.3014856e+02 8.3665782e-01]
  [6.0382880e+02 3.4190036e+02 8.7037957e-01]
  [6.7162506e+02 3.5072858e+02 1.1608256e-01]
  [6.3916705e+02 9.5999420e+02 7.0809352e-01]
  [6.3040448e+02 9.5122113e+02 6.8329436e-01]
  [5.7427429e+02 9.5111029e+02 2.9097006e-01]
  [6.0981494e+02 9.9238312e+02 7.1265453e-01]
  [5.8919977e+02 9.9828406e+02 7.3029029e-01]
  [5.2445044e+02 9.7473273e+02 8.7937379e-01]]]