[[[1.0717090e+03 4.8009155e+02 9.3536109e-01]
  [1.0452966e+03 5.3022516e+02 8.8785917e-01]
  [1.0216549e+03 5.1554767e+02 8.2558799e-01]
  [1.0306335e+03 6.2156952e+02 8.7972981e-01]
  [1.0512229e+03 6.9224017e+02 8.9650667e-01]
  [1.0717391e+03 5.4501617e+02 8.1300741e-01]
  [1.0719563e+03 6.2746283e+02 8.7979102e-01]
  [1.0923185e+03 7.1580566e+02 8.9214206e-01]
  [9.5105078e+02 6.8623291e+02 7.5633073e-01]
  [9.1879822e+02 6.8038574e+02 6.8789971e-01]
  [8.8642694e+02 8.1586237e+02 8.5267210e-01]
  [8.3347601e+02 9.2747321e+02 8.8823259e-01]
  [9.7766962e+02 6.8921722e+02 7.3080719e-01]
  [1.0776936e+03 7.6872070e+02 8.3193290e-01]
  [1.0777416e+03 9.2172772e+02 8.1953126e-01]
  [1.0630046e+03 4.5959088e+02 9.3348080e-01]
  [1.0894305e+03 4.7142245e+02 8.6894846e-01]
  [1.0335853e+03 4.5972513e+02 8.3506095e-01]
  [1.0952798e+03 4.8616089e+02 7.2866446e-01]
  [1.1336406e+03 9.4819543e+02 7.9471695e-01]
  [1.1307102e+03 9.3359918e+02 7.4360955e-01]
  [1.0687432e+03 9.3073669e+02 8.5212618e-01]
  [8.1574982e+02 9.5126904e+02 8.0416638e-01]
  [8.0397070e+02 9.4527203e+02 7.9518831e-01]
  [8.3352368e+02 9.3360907e+02 7.4173886e-01]]]