[[[1.0394865e+03 6.2159485e+02 9.0140931e-02]
  [1.0248137e+03 5.7445325e+02 8.5947824e-01]
  [9.6006519e+02 5.6851837e+02 6.6751796e-01]
  [9.5117023e+02 6.6567365e+02 8.6371487e-01]
  [9.3071313e+02 7.6562177e+02 8.9685726e-01]
  [1.0925414e+03 5.7745337e+02 8.2829428e-01]
  [1.0952529e+03 6.8919141e+02 8.2341874e-01]
  [1.1013143e+03 7.7456378e+02 8.0541110e-01]
  [1.0276471e+03 6.4207532e+02 5.3785419e-01]
  [9.8943951e+02 6.4207776e+02 4.6482003e-01]
  [9.9818506e+02 7.6566760e+02 8.7028342e-01]
  [9.9234198e+02 9.0105933e+02 7.7163315e-01]
  [1.0689525e+03 6.4501752e+02 5.6676763e-01]
  [1.0688916e+03 7.6879297e+02 8.3627772e-01]
  [1.0658788e+03 9.3056268e+02 7.9689103e-01]
  [0.0000000e+00 0.0000000e+00 0.0000000e+00]
  [0.0000000e+00 0.0000000e+00 0.0000000e+00]
  [9.9827435e+02 5.9507910e+02 1.3447924e-01]
  [1.0542405e+03 5.9498950e+02 1.9847666e-01]
  [1.0659902e+03 9.6881946e+02 6.7585850e-01]
  [1.0835714e+03 9.6296973e+02 6.9441777e-01]
  [1.0484248e+03 9.4526190e+02 6.5319091e-01]
  [9.9240942e+02 9.3350623e+02 7.3544240e-01]
  [9.7475311e+02 9.3049426e+02 7.5279212e-01]
  [9.9529608e+02 9.0709052e+02 6.3752818e-01]]]