[[[9.77649780e+02 3.35928497e+02 9.32916462e-01]
  [9.83571655e+02 4.33038788e+02 8.77041399e-01]
  [9.24657043e+02 4.33068695e+02 8.63435149e-01]
  [9.07113708e+02 5.21498901e+02 8.73016834e-01]
  [9.04087158e+02 6.00917969e+02 9.45588171e-01]
  [1.04830554e+03 4.33088684e+02 8.79934490e-01]
  [1.06903271e+03 5.39145142e+02 8.33445311e-01]
  [1.09538879e+03 6.30423523e+02 7.59319544e-01]
  [9.98093994e+02 6.12700317e+02 7.13174105e-01]
  [9.51300110e+02 6.12692017e+02 7.14528143e-01]
  [9.21756104e+02 7.65771667e+02 8.84648263e-01]
  [9.51238281e+02 8.62891785e+02 8.88646305e-01]
  [1.03656445e+03 6.12738525e+02 6.60871983e-01]
  [1.02485864e+03 7.74534241e+02 8.32381606e-01]
  [1.03062830e+03 9.30626282e+02 8.23909044e-01]
  [9.65887878e+02 3.21266998e+02 8.88355732e-01]
  [9.98088318e+02 3.18536346e+02 9.23862636e-01]
  [9.51107056e+02 3.42025940e+02 7.71860063e-01]
  [1.01882764e+03 3.41936401e+02 8.53155196e-01]
  [9.80545593e+02 9.65829895e+02 7.86574483e-01]
  [1.00115778e+03 9.71744690e+02 7.76048422e-01]
  [1.04534497e+03 9.51160583e+02 8.31022143e-01]
  [9.24582764e+02 9.10015076e+02 8.21914017e-01]
  [9.09970886e+02 9.04018555e+02 8.06254268e-01]
  [9.65908569e+02 8.68754333e+02 7.96098888e-01]]]