[[[9.95271301e+02 4.06632660e+02 9.04344082e-01]
  [9.77671448e+02 4.80144196e+02 9.39418375e-01]
  [9.18817688e+02 4.62658722e+02 8.23076308e-01]
  [8.89429382e+02 5.50963745e+02 8.62967253e-01]
  [9.33494202e+02 5.56801819e+02 8.47068071e-01]
  [1.03654773e+03 4.86132721e+02 8.34677398e-01]
  [1.06897485e+03 5.65610779e+02 8.98822367e-01]
  [1.02483813e+03 5.92044922e+02 8.70782137e-01]
  [1.00109418e+03 6.50933960e+02 8.10085297e-01]
  [9.68816772e+02 6.50974731e+02 7.49181807e-01]
  [9.83513672e+02 7.65824036e+02 8.95213306e-01]
  [9.68802307e+02 8.92271790e+02 8.14548790e-01]
  [1.03067334e+03 6.48117004e+02 7.52494335e-01]
  [1.02460876e+03 7.86227600e+02 9.13063407e-01]
  [1.00137042e+03 9.06996643e+02 8.90110314e-01]
  [9.77689453e+02 3.89112091e+02 9.61490214e-01]
  [1.00130225e+03 3.89138275e+02 9.24194634e-01]
  [9.57003113e+02 4.03729462e+02 8.16351950e-01]
  [1.02169061e+03 4.06639923e+02 5.74266434e-01]
  [9.98238159e+02 9.36499023e+02 7.52980888e-01]
  [1.01880878e+03 9.36458191e+02 7.65909910e-01]
  [9.98323425e+02 9.15887939e+02 7.25083590e-01]
  [9.60050476e+02 9.30670593e+02 8.25116158e-01]
  [9.48241882e+02 9.27659424e+02 8.29364002e-01]
  [9.71683228e+02 9.04167297e+02 7.69788980e-01]]]