[[[9.74801636e+02 3.38986023e+02 9.82042074e-01]
  [9.77755310e+02 4.30264587e+02 8.92212749e-01]
  [9.36501648e+02 4.33167725e+02 8.36618423e-01]
  [8.83345215e+02 5.00780151e+02 9.15347636e-01]
  [8.83386047e+02 4.12606812e+02 9.44552541e-01]
  [1.02185596e+03 4.27261108e+02 8.41582239e-01]
  [1.09538684e+03 4.89138824e+02 8.63000989e-01]
  [1.06586401e+03 5.80295471e+02 8.43846858e-01]
  [9.74702393e+02 6.21553711e+02 7.56971240e-01]
  [9.51127441e+02 6.21430786e+02 7.42768586e-01]
  [9.30595581e+02 7.89293091e+02 8.00000906e-01]
  [9.80598511e+02 9.36497681e+02 7.93611526e-01]
  [9.98284424e+02 6.24441650e+02 7.08252490e-01]
  [9.30654236e+02 7.83356995e+02 8.73673260e-01]
  [1.06597461e+03 8.86370911e+02 8.13259065e-01]
  [9.71702942e+02 3.24212463e+02 8.78214121e-01]
  [9.95330505e+02 3.30192932e+02 8.76722574e-01]
  [9.51209839e+02 3.47804474e+02 7.11115226e-02]
  [1.02168445e+03 3.47823425e+02 7.66699374e-01]
  [1.02185583e+03 9.36448853e+02 6.49782896e-01]
  [1.04242004e+03 9.30685181e+02 6.64039314e-01]
  [1.08954053e+03 8.92263611e+02 6.93359673e-01]
  [9.12954468e+02 9.62974548e+02 7.45878339e-01]
  [9.24622986e+02 9.54158569e+02 7.26165473e-01]
  [1.00114325e+03 9.54022400e+02 8.11405778e-01]]]