[[[1.02192346e+03 3.91935242e+02 9.34263527e-01]
  [1.01003998e+03 4.68500000e+02 8.39548826e-01]
  [9.51290833e+02 4.65543091e+02 8.76191974e-01]
  [9.33602234e+02 5.47990540e+02 8.64992559e-01]
  [9.24609192e+02 6.24612610e+02 8.95731151e-01]
  [1.06895850e+03 4.68508423e+02 8.59727442e-01]
  [1.09238147e+03 5.50948792e+02 8.81211281e-01]
  [1.05134546e+03 6.12733032e+02 5.32590330e-01]
  [1.00422681e+03 6.24528687e+02 7.37626374e-01]
  [9.74602966e+02 6.24450989e+02 7.62045979e-01]
  [9.18775208e+02 7.62833252e+02 8.72323155e-01]
  [9.01022827e+02 9.04180115e+02 8.44664454e-01]
  [1.04532251e+03 6.27370667e+02 7.57299423e-01]
  [1.02484729e+03 7.74553467e+02 8.32504034e-01]
  [1.03939990e+03 9.12971191e+02 8.04654896e-01]
  [1.00427063e+03 3.86037018e+02 9.25458372e-01]
  [1.03066479e+03 3.85968933e+02 8.80990922e-01]
  [9.86460754e+02 4.03651550e+02 8.33189785e-01]
  [1.04821887e+03 3.94955963e+02 6.34777784e-01]
  [9.77755249e+02 9.30615601e+02 8.42889845e-01]
  [9.98287415e+02 9.36523132e+02 7.73322582e-01]
  [1.04830896e+03 9.30533203e+02 8.93758416e-01]
  [8.56924927e+02 9.33587219e+02 7.58615375e-01]
  [8.53938904e+02 9.27647278e+02 7.72730827e-01]
  [9.07145020e+02 9.24609375e+02 8.51370096e-01]]]