[[[9.0719855e+02 3.6236880e+02 9.2418039e-01]
  [9.2753314e+02 4.3601904e+02 9.2734677e-01]
  [8.5995728e+02 4.3309735e+02 8.6368799e-01]
  [7.9233282e+02 3.6263040e+02 8.5280353e-01]
  [8.8043451e+02 3.8309348e+02 7.9076409e-01]
  [9.8654718e+02 4.3621143e+02 8.0494434e-01]
  [1.0452015e+03 3.4782254e+02 8.3014810e-01]
  [9.6582385e+02 3.6536783e+02 7.7383149e-01]
  [9.1287427e+02 6.2749091e+02 6.9676632e-01]
  [8.6871606e+02 6.3622479e+02 6.7785311e-01]
  [7.6287799e+02 7.8048657e+02 8.8353157e-01]
  [7.8637671e+02 9.4529620e+02 8.0024171e-01]
  [9.5706598e+02 6.2452069e+02 6.9333118e-01]
  [1.0248947e+03 7.8930170e+02 8.7077111e-01]
  [1.0719011e+03 9.3941479e+02 8.1316245e-01]
  [9.0109711e+02 3.4779459e+02 8.6129326e-01]
  [9.2762225e+02 3.4207471e+02 9.4070578e-01]
  [8.8349091e+02 3.6551141e+02 1.9095868e-01]
  [9.5415515e+02 3.6244421e+02 8.6964178e-01]
  [1.0865327e+03 9.7474292e+02 7.5634354e-01]
  [1.1013351e+03 9.7167401e+02 7.4578714e-01]
  [1.0688960e+03 9.5425842e+02 7.0227665e-01]
  [7.1563306e+02 9.7168549e+02 7.2714508e-01]
  [7.1866754e+02 9.5710736e+02 6.6567624e-01]
  [8.0685632e+02 9.5998413e+02 7.3456222e-01]]]