[[[1.0688566e+03 3.9484100e+02 8.8391680e-01]
  [1.0453176e+03 4.5963223e+02 9.0688425e-01]
  [9.9812164e+02 4.3599265e+02 8.4258193e-01]
  [9.6875421e+02 5.2140381e+02 7.9354608e-01]
  [9.6592725e+02 6.1557343e+02 8.1154585e-01]
  [1.0924209e+03 4.8329901e+02 8.1141210e-01]
  [1.0717675e+03 5.7731433e+02 5.0515801e-01]
  [1.0542178e+03 5.7748260e+02 6.6805995e-01]
  [9.8059088e+02 6.1858466e+02 7.5977379e-01]
  [9.4229279e+02 6.0097345e+02 7.0100582e-01]
  [8.8050970e+02 7.8049432e+02 8.8458139e-01]
  [8.3932477e+02 9.3057709e+02 8.4429401e-01]
  [1.0219251e+03 6.2458777e+02 7.7870536e-01]
  [1.0687552e+03 7.9813165e+02 8.2760370e-01]
  [1.0953021e+03 9.3069257e+02 8.8013327e-01]
  [1.0630062e+03 3.8300958e+02 8.4168136e-01]
  [1.0865719e+03 3.8899976e+02 8.5951149e-01]
  [1.0453187e+03 3.8314569e+02 6.2473136e-01]
  [1.1013126e+03 4.0958484e+02 7.6853621e-01]
  [1.1366162e+03 9.7169562e+02 7.6072419e-01]
  [1.1423961e+03 9.5426703e+02 8.0597746e-01]
  [1.0835737e+03 9.5117407e+02 7.8963220e-01]
  [8.1582800e+02 9.6876935e+02 6.9044083e-01]
  [8.0690668e+02 9.5422961e+02 7.7483791e-01]
  [8.5112634e+02 9.5107062e+02 7.9343545e-01]]]