[[[1.02764502e+03 3.35993652e+02 8.99908900e-01]
  [1.02478479e+03 4.33046906e+02 9.20545220e-01]
  [9.57168274e+02 4.42029175e+02 8.11381340e-01]
  [9.60029968e+02 5.50733765e+02 8.63509774e-01]
  [1.00136957e+03 6.15610413e+02 8.72195184e-01]
  [1.09234753e+03 4.12666107e+02 8.84523451e-01]
  [1.14832312e+03 4.86144226e+02 8.65136206e-01]
  [1.09554333e+03 5.39077515e+02 8.50471854e-01]
  [1.05121533e+03 6.18534302e+02 7.59444296e-01]
  [1.00708282e+03 6.21565308e+02 7.52178669e-01]
  [9.27527466e+02 7.51028137e+02 8.57814670e-01]
  [9.01177307e+02 9.10023254e+02 8.03990483e-01]
  [1.09540344e+03 6.09791016e+02 7.53429830e-01]
  [1.12480762e+03 7.83448914e+02 8.47604156e-01]
  [1.14547131e+03 9.27662354e+02 8.25482130e-01]
  [1.01303363e+03 3.21311035e+02 8.84393156e-01]
  [1.04519458e+03 3.24262482e+02 8.88109565e-01]
  [9.83581970e+02 3.42029572e+02 8.48130941e-01]
  [1.04842859e+03 3.50697418e+02 4.95024294e-01]
  [1.15126892e+03 9.65884827e+02 7.41716385e-01]
  [1.16901257e+03 9.57134338e+02 7.90252447e-01]
  [1.14251953e+03 9.36531128e+02 7.02131391e-01]
  [8.36500366e+02 9.51044373e+02 7.42226958e-01]
  [8.36507446e+02 9.36420715e+02 6.84715986e-01]
  [9.12943604e+02 9.30487671e+02 7.67346919e-01]]]