[[[1.02192303e+03 3.41791931e+02 9.31702614e-01]
  [1.04820471e+03 4.33122284e+02 8.29392970e-01]
  [1.02188660e+03 4.15513184e+02 6.83069825e-01]
  [9.98316467e+02 5.21394470e+02 4.48111206e-01]
  [9.71700195e+02 5.97980469e+02 4.76024538e-01]
  [1.07183923e+03 4.42036774e+02 7.79947221e-01]
  [1.04532458e+03 5.47967346e+02 8.37552547e-01]
  [9.98223328e+02 6.27459229e+02 8.43845487e-01]
  [1.02464490e+03 6.18551453e+02 7.42805839e-01]
  [9.89463013e+02 6.03837891e+02 7.10574090e-01]
  [8.59914124e+02 6.68450928e+02 8.96314859e-01]
  [8.83454041e+02 8.30466248e+02 8.31282377e-01]
  [1.05717078e+03 6.24488159e+02 6.66483879e-01]
  [1.08062134e+03 7.86285767e+02 8.66515815e-01]
  [1.09533704e+03 9.30697327e+02 8.46579075e-01]
  [1.03060779e+03 3.27206696e+02 2.13224083e-01]
  [1.04237952e+03 3.38970184e+02 9.16022360e-01]
  [0.00000000e+00 0.00000000e+00 0.00000000e+00]
  [1.06876721e+03 3.65524475e+02 8.20157170e-01]
  [1.11889746e+03 9.71783142e+02 7.34217763e-01]
  [1.13650989e+03 9.60017822e+02 7.37162054e-01]
  [1.08364990e+03 9.51205444e+02 7.52409101e-01]
  [8.33459167e+02 8.83547546e+02 8.04206312e-01]
  [8.30550354e+02 8.77569763e+02 7.17226148e-01]
  [9.04195312e+02 8.39338135e+02 7.32326925e-01]]]