[[[1.01875238e+03 3.65483856e+02 9.37725842e-01]
  [1.02191669e+03 4.39101868e+02 8.77878785e-01]
  [9.68753845e+02 4.39134735e+02 7.96455801e-01]
  [8.83493408e+02 5.06707336e+02 8.97154987e-01]
  [9.18740356e+02 4.74404541e+02 8.30621600e-01]
  [1.07780054e+03 4.39115753e+02 7.57673264e-01]
  [1.16611255e+03 4.89143890e+02 8.46572697e-01]
  [1.08952405e+03 4.62617126e+02 8.12856674e-01]
  [1.02191730e+03 6.24441589e+02 6.72257423e-01]
  [9.83609314e+02 6.24473206e+02 6.20451212e-01]
  [8.95228699e+02 7.62735657e+02 7.52084970e-01]
  [8.80576172e+02 9.18753601e+02 6.82541490e-01]
  [1.06002808e+03 6.24441528e+02 5.64899623e-01]
  [1.07478613e+03 7.89236755e+02 5.69564939e-01]
  [1.10422852e+03 9.24575684e+02 4.40853894e-01]
  [1.00412366e+03 3.53684631e+02 8.95464897e-01]
  [1.03059302e+03 3.62356323e+02 8.83201361e-01]
  [9.92339478e+02 3.62581848e+02 3.88171762e-01]
  [1.05124048e+03 3.74311523e+02 7.35621035e-01]
  [1.09233972e+03 9.51146484e+02 2.57994205e-01]
  [1.09250769e+03 9.51143982e+02 2.95470834e-01]
  [1.11593164e+03 9.36444763e+02 3.88746232e-01]
  [8.24646301e+02 9.51099182e+02 5.04533470e-01]
  [8.24597839e+02 9.45287659e+02 4.44422841e-01]
  [9.01035217e+02 9.30662109e+02 5.48447192e-01]]]