[[[9.6887610e+02 4.8034457e+02 9.3649518e-01]
  [9.5126172e+02 5.5083105e+02 9.5622396e-01]
  [8.9520935e+02 5.4499469e+02 8.1546336e-01]
  [8.7467816e+02 6.2441498e+02 8.9372271e-01]
  [8.5996741e+02 6.9804663e+02 9.0689749e-01]
  [1.0100030e+03 5.5375311e+02 8.5522854e-01]
  [1.0306774e+03 6.4212366e+02 8.4443843e-01]
  [9.7465839e+02 6.6275311e+02 8.6832917e-01]
  [9.4531189e+02 7.0399377e+02 7.5465858e-01]
  [9.0411603e+02 7.0394568e+02 7.8064233e-01]
  [8.2164728e+02 8.1287402e+02 8.8161731e-01]
  [9.0107654e+02 9.0993225e+02 8.0518085e-01]
  [9.8060767e+02 7.0685480e+02 7.5175607e-01]
  [1.0718135e+03 8.2748383e+02 8.4536749e-01]
  [9.8055011e+02 9.0991736e+02 8.3603096e-01]
  [9.5402161e+02 4.6552005e+02 9.3963659e-01]
  [9.7775128e+02 4.6853528e+02 8.7466985e-01]
  [9.2772705e+02 4.7733014e+02 8.8634610e-01]
  [9.9534412e+02 4.8307581e+02 4.4268557e-01]
  [1.0247596e+03 9.4824860e+02 8.0577397e-01]
  [1.0246879e+03 9.3358606e+02 7.6409429e-01]
  [9.5706281e+02 9.1589215e+02 8.0105394e-01]
  [8.5703778e+02 9.4237830e+02 7.8530890e-01]
  [8.5706171e+02 9.3346393e+02 7.7617913e-01]
  [9.1585486e+02 9.2166766e+02 7.9991627e-01]]]