[[[1.0422905e+03 3.8890775e+02 9.4219607e-01]
  [1.0688934e+03 4.5974890e+02 7.6978451e-01]
  [1.0513285e+03 4.5678482e+02 6.2718087e-01]
  [0.0000000e+00 0.0000000e+00 0.0000000e+00]
  [0.0000000e+00 0.0000000e+00 0.0000000e+00]
  [1.0777233e+03 4.6549365e+02 8.0552024e-01]
  [1.1188181e+03 5.3614685e+02 7.3470169e-01]
  [1.1572396e+03 5.9496954e+02 5.5581969e-01]
  [1.1218765e+03 6.3033801e+02 7.3337090e-01]
  [1.0983375e+03 6.3034247e+02 7.0569354e-01]
  [1.0484606e+03 7.7166248e+02 8.6253238e-01]
  [1.0393884e+03 9.2749249e+02 8.0137765e-01]
  [1.1454377e+03 6.3033197e+02 7.1075445e-01]
  [1.1630032e+03 7.8930792e+02 9.2988104e-01]
  [1.2189863e+03 9.2171100e+02 8.0901456e-01]
  [1.0336238e+03 3.7718912e+02 8.3305430e-01]
  [1.0542147e+03 3.8315100e+02 8.8356173e-01]
  [0.0000000e+00 0.0000000e+00 0.0000000e+00]
  [1.0865842e+03 3.9786047e+02 7.4446273e-01]
  [1.1954167e+03 9.5412085e+02 8.2454163e-01]
  [1.2160375e+03 9.5401996e+02 8.2713002e-01]
  [1.2338257e+03 9.3050702e+02 8.2994872e-01]
  [9.9234753e+02 9.4533655e+02 6.9491470e-01]
  [9.8646436e+02 9.3352295e+02 7.0742995e-01]
  [1.0482567e+03 9.4523492e+02 8.0017304e-01]]]