[[[1.06590417e+03 4.06556763e+02 8.81006300e-01]
  [1.00711353e+03 4.59757538e+02 8.63323748e-01]
  [9.68846130e+02 4.33274597e+02 8.22020650e-01]
  [8.98182251e+02 4.83317291e+02 4.79970813e-01]
  [8.45264465e+02 5.18501343e+02 5.67938268e-01]
  [1.04843823e+03 4.89130676e+02 8.27564359e-01]
  [1.06593896e+03 5.74521240e+02 8.65163922e-01]
  [1.12480896e+03 5.50918640e+02 7.71594524e-01]
  [9.54229858e+02 6.06806458e+02 7.28462398e-01]
  [9.30538513e+02 6.00851746e+02 7.33925998e-01]
  [1.02186230e+03 7.33407898e+02 8.21533918e-01]
  [9.83619629e+02 9.09965881e+02 6.41766429e-01]
  [9.80680420e+02 6.18539856e+02 6.75425828e-01]
  [1.01889221e+03 7.54011047e+02 6.44597769e-01]
  [9.71733093e+02 9.07105713e+02 7.25910962e-01]
  [1.06586731e+03 3.86056061e+02 8.91085029e-01]
  [1.07486304e+03 4.06680603e+02 8.80536914e-01]
  [1.03064209e+03 3.80128906e+02 6.20522678e-01]
  [1.07479785e+03 4.30199493e+02 4.83650923e-01]
  [1.01005591e+03 9.48242920e+02 2.93509305e-01]
  [1.01592059e+03 9.36517090e+02 2.64341593e-01]
  [9.51114014e+02 9.24592834e+02 6.67714596e-01]
  [1.02167682e+03 9.51250061e+02 7.53279567e-01]
  [1.00133044e+03 9.51259155e+02 6.87228918e-01]
  [9.71788330e+02 9.27633301e+02 5.14033914e-01]]]