[[[0.0000000e+00 0.0000000e+00 0.0000000e+00]
  [8.9823962e+02 5.0389062e+02 7.6013124e-01]
  [8.3652777e+02 5.0669623e+02 6.9484001e-01]
  [8.0991705e+02 5.9793219e+02 2.9564634e-01]
  [8.1871436e+02 5.9794995e+02 1.5222956e-01]
  [9.5417206e+02 5.0378433e+02 7.8204560e-01]
  [1.0188212e+03 6.2147888e+02 7.5130826e-01]
  [9.7758691e+02 6.9203192e+02 8.3198822e-01]
  [9.1286017e+02 6.5980896e+02 6.4822578e-01]
  [8.6284009e+02 6.6267218e+02 6.3761890e-01]
  [8.1293707e+02 7.8048633e+02 8.4695542e-01]
  [7.8337067e+02 9.3352380e+02 8.2181132e-01]
  [9.6003076e+02 6.5979584e+02 6.4169681e-01]
  [1.0277145e+03 7.8942963e+02 8.5634017e-01]
  [1.0776821e+03 9.3352954e+02 8.1633419e-01]
  [0.0000000e+00 0.0000000e+00 0.0000000e+00]
  [0.0000000e+00 0.0000000e+00 0.0000000e+00]
  [0.0000000e+00 0.0000000e+00 0.0000000e+00]
  [0.0000000e+00 0.0000000e+00 0.0000000e+00]
  [1.1129819e+03 9.6590509e+02 7.1313685e-01]
  [1.1190372e+03 9.5415991e+02 7.7861851e-01]
  [1.0690156e+03 9.5410315e+02 8.2749063e-01]
  [7.4807117e+02 9.6879327e+02 7.1198624e-01]
  [7.3931543e+02 9.5423853e+02 7.8329700e-01]
  [7.8925732e+02 9.5401978e+02 8.4677178e-01]]]