[[[0.00000000e+00 0.00000000e+00 0.00000000e+00]
  [1.14548022e+03 4.18449615e+02 8.06591511e-01]
  [1.20428540e+03 4.00730164e+02 7.29269922e-01]
  [1.24843225e+03 3.09473907e+02 7.76695848e-01]
  [1.18073743e+03 3.18297363e+02 7.13983715e-01]
  [1.09550464e+03 4.39075073e+02 7.86897719e-01]
  [1.09230090e+03 5.30210510e+02 8.77734542e-01]
  [1.13653467e+03 5.71508362e+02 7.34054685e-01]
  [1.18965015e+03 6.01024170e+02 7.31990576e-01]
  [1.23366199e+03 5.97972412e+02 7.04300702e-01]
  [1.25130347e+03 7.62692810e+02 8.24769676e-01]
  [1.28389807e+03 9.06998474e+02 8.45605552e-01]
  [1.15714307e+03 6.15579773e+02 6.60675943e-01]
  [1.16897021e+03 7.65752441e+02 8.26885045e-01]
  [1.18655493e+03 9.27519470e+02 7.97097385e-01]
  [0.00000000e+00 0.00000000e+00 0.00000000e+00]
  [0.00000000e+00 0.00000000e+00 0.00000000e+00]
  [1.20134412e+03 3.62558868e+02 1.06546983e-01]
  [1.11899097e+03 3.68430206e+02 1.04706764e-01]
  [1.19249182e+03 9.39386536e+02 3.86008859e-01]
  [1.16904419e+03 9.33561829e+02 4.93716776e-01]
  [1.18663977e+03 9.48183228e+02 7.61618495e-01]
  [1.26906958e+03 9.18809204e+02 4.42538649e-01]
  [1.28377722e+03 9.21702026e+02 4.07963246e-01]
  [1.29548450e+03 9.27527893e+02 7.55326033e-01]]]