[[[1.0659309e+03 3.8596396e+02 9.2942595e-01]
  [1.0454125e+03 4.5958334e+02 9.2601240e-01]
  [9.8067700e+02 4.5669351e+02 8.3638179e-01]
  [9.7169354e+02 5.5684802e+02 7.6635867e-01]
  [9.7775946e+02 6.2751111e+02 7.5280917e-01]
  [1.1013322e+03 4.5979779e+02 8.4211397e-01]
  [1.1393657e+03 5.5969104e+02 8.5979658e-01]
  [1.0925576e+03 5.0664154e+02 8.3997756e-01]
  [1.0687440e+03 6.3914294e+02 7.4030066e-01]
  [1.0247155e+03 6.4204260e+02 7.4426955e-01]
  [9.8361145e+02 7.8934906e+02 8.5671455e-01]
  [9.3065942e+02 9.2462506e+02 8.5629821e-01]
  [1.1013485e+03 6.3332452e+02 6.8748593e-01]
  [1.1248495e+03 7.6871136e+02 8.3186215e-01]
  [1.1483177e+03 9.2174927e+02 8.1544971e-01]
  [1.0512585e+03 3.6557736e+02 9.3322629e-01]
  [1.0776786e+03 3.7435736e+02 8.4244186e-01]
  [1.0278173e+03 3.7720917e+02 7.9115063e-01]
  [1.0925173e+03 3.8917645e+02 8.0628431e-01]
  [1.1483942e+03 9.5122382e+02 8.1373990e-01]
  [1.1660715e+03 9.5106183e+02 8.3455300e-01]
  [1.1425637e+03 9.3061938e+02 7.7087402e-01]
  [9.2752600e+02 9.5403265e+02 7.9862601e-01]
  [9.0698523e+02 9.4823560e+02 8.1112206e-01]
  [9.3349451e+02 9.3071997e+02 7.3082966e-01]]]