[[[1.00711096e+03 3.59452789e+02 8.71526122e-01]
  [1.00137567e+03 4.30190704e+02 8.89206290e-01]
  [9.51278870e+02 4.33147614e+02 8.70288134e-01]
  [8.92323608e+02 4.53792206e+02 8.53159130e-01]
  [8.83473022e+02 3.92060852e+02 8.35409880e-01]
  [1.06301343e+03 4.21359894e+02 8.12159657e-01]
  [1.07486035e+03 5.12674744e+02 7.90504634e-01]
  [1.04543335e+03 5.80373901e+02 8.99223328e-01]
  [9.95361450e+02 6.03871155e+02 7.08510041e-01]
  [9.54061890e+02 6.00930481e+02 7.37470329e-01]
  [9.03905396e+02 7.71675415e+02 8.64605784e-01]
  [8.77648926e+02 9.24570190e+02 8.35776687e-01]
  [1.03068640e+03 6.09718201e+02 6.60944879e-01]
  [1.03356775e+03 7.86285767e+02 8.36829662e-01]
  [1.06883704e+03 9.27682861e+02 8.71717095e-01]
  [9.98243652e+02 3.41957336e+02 9.80782390e-01]
  [1.02188318e+03 3.42079376e+02 9.53910589e-01]
  [9.77575134e+02 3.59605896e+02 8.55627239e-01]
  [1.03943054e+03 3.62504578e+02 7.38757730e-01]
  [1.03946924e+03 9.57047363e+02 7.10486472e-01]
  [1.06295715e+03 9.57110352e+02 7.39738524e-01]
  [1.07777441e+03 9.42379517e+02 7.26622522e-01]
  [8.51088867e+02 9.54153442e+02 7.41591990e-01]
  [8.36429321e+02 9.51030884e+02 7.67047167e-01]
  [8.86399658e+02 9.33620667e+02 8.55445862e-01]]]