[[[1.09836804e+03 3.88905579e+02 9.45496559e-01]
  [1.08955896e+03 4.86079071e+02 8.88038635e-01]
  [1.02764233e+03 4.77205566e+02 8.37147772e-01]
  [9.77732788e+02 5.68594910e+02 8.83068085e-01]
  [1.02482715e+03 5.30157593e+02 9.37625647e-01]
  [1.14257129e+03 5.03763916e+02 8.27085257e-01]
  [1.18366284e+03 6.03979614e+02 8.48126352e-01]
  [1.11307068e+03 6.48095886e+02 8.44608784e-01]
  [1.11591626e+03 6.62706909e+02 7.82023489e-01]
  [1.07485291e+03 6.59779358e+02 7.47769535e-01]
  [9.77669434e+02 7.62921997e+02 9.40392733e-01]
  [1.01880664e+03 9.12915100e+02 8.04773033e-01]
  [1.14545288e+03 6.65636719e+02 7.39412785e-01]
  [1.11013684e+03 7.86471924e+02 8.87240350e-01]
  [1.16891968e+03 9.42326782e+02 8.12256098e-01]
  [1.09527893e+03 3.74284119e+02 8.95778656e-01]
  [1.11899072e+03 3.86108337e+02 9.37849760e-01]
  [1.06902478e+03 4.00760529e+02 3.50296617e-01]
  [1.13950464e+03 4.18430481e+02 8.66216242e-01]
  [1.11891077e+03 9.71781494e+02 8.29742968e-01]
  [1.13951672e+03 9.74676270e+02 8.66928279e-01]
  [1.18953735e+03 9.54153809e+02 8.69081855e-01]
  [9.62917175e+02 9.48153381e+02 7.29427397e-01]
  [9.65928894e+02 9.33570801e+02 6.86175108e-01]
  [1.03067493e+03 9.27592407e+02 8.04947019e-01]]]