[[[9.33522400e+02 3.18443909e+02 9.17041957e-01]
  [9.45227051e+02 4.12502838e+02 8.68517935e-01]
  [8.80588013e+02 4.12472992e+02 8.60098481e-01]
  [8.59795227e+02 5.15609680e+02 8.77692699e-01]
  [8.15751709e+02 5.97844116e+02 8.74583960e-01]
  [1.00414832e+03 4.12565277e+02 8.24025869e-01]
  [1.01586975e+03 5.06755157e+02 8.18449855e-01]
  [9.68846436e+02 5.92058289e+02 8.04432094e-01]
  [9.21701782e+02 6.06817932e+02 7.07822561e-01]
  [8.80597412e+02 6.03860168e+02 7.52179563e-01]
  [8.80373535e+02 7.74579712e+02 8.17798316e-01]
  [8.95204956e+02 9.12929504e+02 7.61100769e-01]
  [9.54239929e+02 6.12737305e+02 7.10564554e-01]
  [9.27497375e+02 7.65871765e+02 8.81280184e-01]
  [8.59879761e+02 9.27556458e+02 8.15219223e-01]
  [9.27604797e+02 3.09550995e+02 8.94662380e-01]
  [9.53978821e+02 3.12443024e+02 9.14283037e-01]
  [9.06891113e+02 3.24213776e+02 3.79365385e-01]
  [9.77786682e+02 3.24261444e+02 8.02913189e-01]
  [8.54075256e+02 9.74692261e+02 6.17748141e-01]
  [8.74627197e+02 9.74594055e+02 7.19326496e-01]
  [8.45197693e+02 9.36429077e+02 6.13105595e-01]
  [9.01051392e+02 9.68840881e+02 6.43649936e-01]
  [8.80483643e+02 9.59967468e+02 6.35335028e-01]
  [9.07045044e+02 9.27550171e+02 6.69318795e-01]]]