[[[9.5126923e+02 3.3902383e+02 9.4772124e-01]
  [9.3353656e+02 4.1255377e+02 8.5858572e-01]
  [9.0102832e+02 4.1254709e+02 8.2498991e-01]
  [9.0401990e+02 4.9792950e+02 8.2394040e-01]
  [9.1001788e+02 5.7737421e+02 8.8981026e-01]
  [9.7480353e+02 4.1261426e+02 8.7523884e-01]
  [9.8646393e+02 5.1267914e+02 7.7688438e-01]
  [1.0041301e+03 5.9806299e+02 8.0161339e-01]
  [9.3939252e+02 5.9505188e+02 6.9323182e-01]
  [9.0402014e+02 5.9794397e+02 6.8890846e-01]
  [8.5709906e+02 7.7752124e+02 8.6747468e-01]
  [8.1271667e+02 9.2174329e+02 8.6802065e-01]
  [9.7758813e+02 5.9209650e+02 7.3573172e-01]
  [1.0659943e+03 7.2162762e+02 8.0852818e-01]
  [1.0925166e+03 8.9813336e+02 7.6032573e-01]
  [9.3053339e+02 3.3890353e+02 9.6194184e-01]
  [9.5127856e+02 3.1850934e+02 9.3077135e-01]
  [9.0417603e+02 3.5953790e+02 8.1634784e-01]
  [0.0000000e+00 0.0000000e+00 0.0000000e+00]
  [1.0982980e+03 9.4821832e+02 3.2219815e-01]
  [0.0000000e+00 0.0000000e+00 0.0000000e+00]
  [1.0923828e+03 9.0999011e+02 5.6937253e-01]
  [7.9523444e+02 9.6880396e+02 7.5703305e-01]
  [7.8335419e+02 9.5422125e+02 8.1347340e-01]
  [8.1574866e+02 9.3059863e+02 7.1230209e-01]]]