[[[0.00000000e+00 0.00000000e+00 0.00000000e+00]
  [9.27542480e+02 4.09662079e+02 8.98588300e-01]
  [9.92303894e+02 4.09737610e+02 8.24528217e-01]
  [1.00123663e+03 5.15575012e+02 8.43005657e-01]
  [9.77634338e+02 5.80316895e+02 7.62113810e-01]
  [8.59873474e+02 4.09677765e+02 8.37259889e-01]
  [8.30500244e+02 5.06717834e+02 8.42692316e-01]
  [8.03961731e+02 5.89142212e+02 8.03044021e-01]
  [9.07157043e+02 6.00925720e+02 7.04719663e-01]
  [9.51165710e+02 6.01032898e+02 7.07158506e-01]
  [9.10056335e+02 7.77539307e+02 7.82601655e-01]
  [8.80543823e+02 9.36469849e+02 7.97174931e-01]
  [8.68767090e+02 5.98024414e+02 6.64376736e-01]
  [8.80456970e+02 7.30425659e+02 7.38957942e-01]
  [8.42255066e+02 8.06838074e+02 7.25725710e-01]
  [0.00000000e+00 0.00000000e+00 0.00000000e+00]
  [0.00000000e+00 0.00000000e+00 0.00000000e+00]
  [9.54004395e+02 3.38906433e+02 4.46134925e-01]
  [8.80520691e+02 3.41857452e+02 3.23357850e-01]
  [8.15867859e+02 8.68703674e+02 6.37361765e-01]
  [8.09890930e+02 8.62844543e+02 6.12184644e-01]
  [8.36407715e+02 8.09776917e+02 5.82307279e-01]
  [8.27594055e+02 9.57103577e+02 6.77275956e-01]
  [8.33374390e+02 9.54100159e+02 6.82501554e-01]
  [8.83576233e+02 9.57106018e+02 7.28099883e-01]]]