[[[1.1189933e+03 3.4491269e+02 9.1834426e-01]
  [1.1188538e+03 4.3598184e+02 9.2242759e-01]
  [1.0512284e+03 4.5667285e+02 8.4764028e-01]
  [1.0276699e+03 5.5388452e+02 9.0641010e-01]
  [9.7460834e+02 5.0383459e+02 9.0998483e-01]
  [1.1807423e+03 4.1258606e+02 8.2298332e-01]
  [1.2395848e+03 3.3601352e+02 8.9987248e-01]
  [1.2337269e+03 2.6843671e+02 9.0789711e-01]
  [1.1219929e+03 6.2153607e+02 7.3243499e-01]
  [1.0865535e+03 6.2449512e+02 7.0083731e-01]
  [1.0836577e+03 7.8625177e+02 8.3651578e-01]
  [1.0718860e+03 9.3645154e+02 8.3218586e-01]
  [1.1660629e+03 6.1862799e+02 7.4298298e-01]
  [1.2778975e+03 7.4517712e+02 8.4341431e-01]
  [1.3013696e+03 9.0997418e+02 7.8040969e-01]
  [1.1100565e+03 3.3884152e+02 8.8739991e-01]
  [1.1393977e+03 3.3909171e+02 9.3686497e-01]
  [1.0836686e+03 3.5367813e+02 7.7487475e-01]
  [1.1483203e+03 3.6247583e+02 6.9651902e-01]
  [1.3279850e+03 9.7175806e+02 7.5334555e-01]
  [1.3367754e+03 9.5424390e+02 7.1492898e-01]
  [1.2806896e+03 9.2755066e+02 7.0346266e-01]
  [1.0924852e+03 9.7181238e+02 7.8305531e-01]
  [1.0689862e+03 9.7182733e+02 7.7821553e-01]
  [1.0717815e+03 9.5122876e+02 6.9676614e-01]]]