[[[9.27736633e+02 4.06553070e+02 9.55579162e-01]
  [9.54177795e+02 4.83130554e+02 9.15755570e-01]
  [8.98217102e+02 4.80282257e+02 8.25131714e-01]
  [8.65810181e+02 5.59749573e+02 7.45120704e-01]
  [8.77604614e+02 5.50959290e+02 7.43648529e-01]
  [1.01883502e+03 4.83350830e+02 8.43565226e-01]
  [1.02769336e+03 6.06765198e+02 7.55815148e-01]
  [1.02176532e+03 5.97908875e+02 6.82669878e-01]
  [9.57030212e+02 6.68640564e+02 7.38574564e-01]
  [9.10000916e+02 6.68671204e+02 7.34911919e-01]
  [7.86321472e+02 7.65743469e+02 9.11067069e-01]
  [8.15788513e+02 9.27647888e+02 8.16969275e-01]
  [1.00126917e+03 6.68640686e+02 7.24014759e-01]
  [1.07180396e+03 8.10018250e+02 9.12497163e-01]
  [1.08072437e+03 9.30713501e+02 8.17682922e-01]
  [9.10054626e+02 3.94877167e+02 8.84677708e-01]
  [9.33601318e+02 3.86104980e+02 9.32180285e-01]
  [9.04169434e+02 4.12666901e+02 4.17393833e-01]
  [9.65867859e+02 3.88916321e+02 8.48501682e-01]
  [1.09550977e+03 9.71709717e+02 7.66112328e-01]
  [1.11591895e+03 9.60011658e+02 7.78537631e-01]
  [1.07173901e+03 9.51062317e+02 7.80890942e-01]
  [7.54013245e+02 9.65871094e+02 6.93189383e-01]
  [7.59852661e+02 9.54138550e+02 6.99741721e-01]
  [8.36457031e+02 9.45310303e+02 7.90393233e-01]]]