[[[9.3045868e+02 3.9196695e+02 9.5756215e-01]
  [9.5402191e+02 4.7434244e+02 8.8031209e-01]
  [8.9233777e+02 4.6550500e+02 7.8639334e-01]
  [8.3636627e+02 5.2145435e+02 8.4273410e-01]
  [8.6875012e+02 5.3020941e+02 8.2401073e-01]
  [1.0158923e+03 4.8021146e+02 8.3691210e-01]
  [1.0276827e+03 5.7738965e+02 8.5766697e-01]
  [9.7464374e+02 5.5675134e+02 6.4451706e-01]
  [9.5995990e+02 6.6565625e+02 7.2904456e-01]
  [9.1874243e+02 6.6570874e+02 7.1422243e-01]
  [7.9226337e+02 7.6588153e+02 8.7715507e-01]
  [8.1572614e+02 9.3048120e+02 8.2403660e-01]
  [1.0013366e+03 6.6561218e+02 7.1520138e-01]
  [1.0717719e+03 8.1271283e+02 9.1165382e-01]
  [1.0835789e+03 9.3348053e+02 8.1512356e-01]
  [9.1007318e+02 3.8895328e+02 9.1147250e-01]
  [9.3647443e+02 3.8300269e+02 8.6668694e-01]
  [9.0411652e+02 4.0961072e+02 5.6089461e-01]
  [9.6883478e+02 3.8603860e+02 8.1158715e-01]
  [1.0983063e+03 9.7171008e+02 7.5560689e-01]
  [1.1159667e+03 9.6000049e+02 7.7985221e-01]
  [1.0717487e+03 9.5110950e+02 7.8992212e-01]
  [7.5695685e+02 9.6586719e+02 7.0658231e-01]
  [7.5986353e+02 9.5413348e+02 7.0706165e-01]
  [8.3629553e+02 9.5102173e+02 8.0395645e-01]]]