[[[9.5109979e+02 3.4784369e+02 9.0174013e-01]
  [9.7459912e+02 4.3597638e+02 8.9112055e-01]
  [9.1879199e+02 4.3618530e+02 7.9938316e-01]
  [9.1000580e+02 5.3911981e+02 6.2612438e-01]
  [9.0707361e+02 5.4496130e+02 2.6380894e-01]
  [1.0248094e+03 4.3311234e+02 8.4493822e-01]
  [1.0336332e+03 5.1263208e+02 7.6741767e-01]
  [1.0423275e+03 5.9502649e+02 8.3206034e-01]
  [9.5701147e+02 6.0392529e+02 7.1921504e-01]
  [9.2753912e+02 6.0103589e+02 7.1717882e-01]
  [9.2459412e+02 7.6873004e+02 8.4631878e-01]
  [9.2768158e+02 9.0993182e+02 8.4784728e-01]
  [9.9532733e+02 6.0681158e+02 6.9412243e-01]
  [9.7178302e+02 7.6589429e+02 8.9090556e-01]
  [9.5999811e+02 9.1295929e+02 7.9058391e-01]
  [9.3938013e+02 3.3896567e+02 8.8894272e-01]
  [9.6586932e+02 3.3901251e+02 8.9817357e-01]
  [9.2468488e+02 3.5945560e+02 8.0222130e-02]
  [9.9817566e+02 3.5071216e+02 7.7558410e-01]
  [9.5403516e+02 9.5417535e+02 7.4688822e-01]
  [9.7468811e+02 9.5408319e+02 7.9628831e-01]
  [9.5707971e+02 9.2769989e+02 6.3065773e-01]
  [9.3062567e+02 9.5113843e+02 7.8196681e-01]
  [9.1289386e+02 9.4823962e+02 7.2549689e-01]
  [9.3050195e+02 9.2465515e+02 6.4781761e-01]]]