[[[9.5998364e+02 5.2736060e+02 9.1910124e-01]
  [9.3643311e+02 6.1273834e+02 8.4092897e-01]
  [8.8348047e+02 6.0972333e+02 8.5988408e-01]
  [8.3345813e+02 6.8919366e+02 9.0124869e-01]
  [7.7457629e+02 7.6280847e+02 8.5914803e-01]
  [9.9234833e+02 6.1851764e+02 8.2677561e-01]
  [9.8649445e+02 7.1856396e+02 8.2580382e-01]
  [9.3643823e+02 8.0689325e+02 8.1985092e-01]
  [9.5412476e+02 7.8930908e+02 8.1412333e-01]
  [9.2464746e+02 7.8638647e+02 8.0423844e-01]
  [7.9814349e+02 8.1000391e+02 8.6881453e-01]
  [8.9230750e+02 9.2470117e+02 7.8524977e-01]
  [9.8648602e+02 7.9225574e+02 7.1754467e-01]
  [9.2467352e+02 9.3352887e+02 8.2540119e-01]
  [1.0482855e+03 9.0706921e+02 8.5983628e-01]
  [9.5113159e+02 5.0971054e+02 9.3079966e-01]
  [9.7756500e+02 5.2139264e+02 9.0168029e-01]
  [9.2746448e+02 5.2737024e+02 8.7826633e-01]
  [9.8941138e+02 5.3914716e+02 6.3924968e-01]
  [1.0453038e+03 9.6877966e+02 8.1454885e-01]
  [1.0629943e+03 9.5418872e+02 7.3454672e-01]
  [1.0659490e+03 8.9519434e+02 7.2798467e-01]
  [8.5395410e+02 9.5121838e+02 7.5846571e-01]
  [8.5113019e+02 9.4527045e+02 7.3959029e-01]
  [9.0692462e+02 9.3052496e+02 4.8356846e-01]]]