[[[9.77586609e+02 4.15475647e+02 9.45913136e-01]
  [9.98319824e+02 5.03664429e+02 8.91750634e-01]
  [9.68852539e+02 5.03676727e+02 7.71902561e-01]
  [9.01083557e+02 4.89082397e+02 8.06819856e-01]
  [8.30398010e+02 4.68509613e+02 8.25608492e-01]
  [1.02474658e+03 5.00902161e+02 8.59228075e-01]
  [1.00122723e+03 5.98040222e+02 8.90771210e-01]
  [9.60043884e+02 6.71701233e+02 8.36776316e-01]
  [9.80694519e+02 6.86301880e+02 7.64960229e-01]
  [9.57030762e+02 6.86255127e+02 7.51342297e-01]
  [9.04072510e+02 8.09780273e+02 9.31184769e-01]
  [9.77814148e+02 9.21747559e+02 8.11435103e-01]
  [1.00710535e+03 6.89144714e+02 7.25583315e-01]
  [9.54095581e+02 7.83371826e+02 9.28596497e-01]
  [1.01879584e+03 9.51255249e+02 8.21654081e-01]
  [9.74623352e+02 4.09499786e+02 8.92251611e-01]
  [9.95317993e+02 4.09556000e+02 8.97322357e-01]
  [0.00000000e+00 0.00000000e+00 0.00000000e+00]
  [1.02483508e+03 4.27193542e+02 7.68545032e-01]
  [9.51225281e+02 9.77636047e+02 8.86920393e-01]
  [9.71714050e+02 9.83570251e+02 7.89535403e-01]
  [1.03067993e+03 9.68844116e+02 8.31993043e-01]
  [9.45209534e+02 9.48145508e+02 6.65551066e-01]
  [9.48157104e+02 9.36433105e+02 5.87265193e-01]
  [9.89400879e+02 9.30554138e+02 3.18646699e-01]]]