[[[1.1601704e+03 5.8615961e+02 4.4453928e-01]
  [1.0865667e+03 6.4501715e+02 6.5732628e-01]
  [1.0924453e+03 6.4517963e+02 8.1155056e-01]
  [1.0454082e+03 7.4813544e+02 7.9294556e-01]
  [9.9832324e+02 8.4231445e+02 8.1643414e-01]
  [1.0747803e+03 6.3626776e+02 4.9114263e-01]
  [1.1158204e+03 7.6577148e+02 7.7042960e-02]
  [0.0000000e+00 0.0000000e+00 0.0000000e+00]
  [1.0247322e+03 8.1288562e+02 5.8409333e-01]
  [1.0306194e+03 8.1878784e+02 6.6500431e-01]
  [1.1719497e+03 7.8923706e+02 8.3234638e-01]
  [1.1190107e+03 9.4238507e+02 8.1610644e-01]
  [1.0159345e+03 8.0981592e+02 3.6275974e-01]
  [1.1572284e+03 7.8936859e+02 6.6641194e-01]
  [1.0925477e+03 9.4239355e+02 7.9725087e-01]
  [1.1483973e+03 5.7429309e+02 4.3619531e-01]
  [0.0000000e+00 0.0000000e+00 0.0000000e+00]
  [1.1190535e+03 5.7728156e+02 6.5095752e-01]
  [0.0000000e+00 0.0000000e+00 0.0000000e+00]
  [1.1513330e+03 9.5109412e+02 1.2900506e-01]
  [0.0000000e+00 0.0000000e+00 0.0000000e+00]
  [1.0719456e+03 9.5409113e+02 7.0247084e-01]
  [1.1895234e+03 9.5707819e+02 8.0895811e-01]
  [1.1690681e+03 9.7166284e+02 7.8544086e-01]
  [1.1012716e+03 9.5417139e+02 7.0760274e-01]]]