[[[9.71731995e+02 4.80276733e+02 9.43989515e-01]
  [9.54254639e+02 5.53883911e+02 9.28422570e-01]
  [9.04008484e+02 5.56774109e+02 8.57711077e-01]
  [9.04002197e+02 6.62676758e+02 8.48180532e-01]
  [9.04194946e+02 7.42166321e+02 9.35069203e-01]
  [1.01876636e+03 5.53788147e+02 8.77552211e-01]
  [1.04822437e+03 6.03895752e+02 8.80376756e-01]
  [1.02487512e+03 6.68487610e+02 8.51292610e-01]
  [9.54084290e+02 7.12754639e+02 7.55507827e-01]
  [9.09928223e+02 7.12722900e+02 7.04066753e-01]
  [8.06851562e+02 8.09945435e+02 9.05476809e-01]
  [9.01090210e+02 9.09958252e+02 7.87525356e-01]
  [9.98234375e+02 7.15609924e+02 7.63337970e-01]
  [1.08659705e+03 8.12958801e+02 8.68299305e-01]
  [9.86524902e+02 9.15832092e+02 7.79946327e-01]
  [9.54165894e+02 4.62582275e+02 9.49999571e-01]
  [9.77829224e+02 4.71381042e+02 8.73241305e-01]
  [9.30429932e+02 4.71472626e+02 8.64079356e-01]
  [9.95219360e+02 4.83315552e+02 3.97160113e-01]
  [1.04243652e+03 9.48248596e+02 7.78517604e-01]
  [1.03653809e+03 9.36466919e+02 6.79659367e-01]
  [9.62963867e+02 9.27538147e+02 7.78240919e-01]
  [8.53956116e+02 9.36531921e+02 7.81141520e-01]
  [8.56849792e+02 9.30647949e+02 7.89527774e-01]
  [9.21686523e+02 9.24603516e+02 7.79228210e-01]]]