[[[9.0392352e+02 3.2427405e+02 8.9080983e-01]
  [8.8642480e+02 4.2435904e+02 8.2777441e-01]
  [8.3339746e+02 4.1555972e+02 8.2749492e-01]
  [8.0405579e+02 5.1855042e+02 7.3699540e-01]
  [8.0983710e+02 4.8314749e+02 7.8381306e-01]
  [9.4820514e+02 4.3307623e+02 7.9895592e-01]
  [1.0070418e+03 5.0369446e+02 7.1118551e-01]
  [9.9815527e+02 4.7434341e+02 5.7364166e-01]
  [8.8937549e+02 6.2155493e+02 7.4526966e-01]
  [8.5400269e+02 6.2162054e+02 7.5236624e-01]
  [7.8920398e+02 7.6580786e+02 8.9791942e-01]
  [7.9519440e+02 9.3065082e+02 8.1270236e-01]
  [9.3056757e+02 6.2150037e+02 7.4362731e-01]
  [9.4530804e+02 7.7451996e+02 8.0824262e-01]
  [9.8062207e+02 9.2759692e+02 8.3467829e-01]
  [8.9233453e+02 3.1530603e+02 8.7035966e-01]
  [9.2175708e+02 3.2130508e+02 8.7268472e-01]
  [8.7463684e+02 3.2721783e+02 4.8533851e-01]
  [9.3060004e+02 3.5367480e+02 8.6218458e-01]
  [9.4817493e+02 9.6004553e+02 7.1729350e-01]
  [9.7177057e+02 9.6295056e+02 7.2215945e-01]
  [9.9832953e+02 9.3944562e+02 7.6767796e-01]
  [7.2753119e+02 9.6588177e+02 7.4907696e-01]
  [7.3622003e+02 9.5413672e+02 7.3200935e-01]
  [8.1289972e+02 9.5114838e+02 8.3234859e-01]]]