[[[9.74683777e+02 3.24234406e+02 8.85875642e-01]
  [1.01876953e+03 4.33184326e+02 8.50637317e-01]
  [9.74787476e+02 4.21374268e+02 8.28212559e-01]
  [9.57011902e+02 5.09780518e+02 7.91521251e-01]
  [9.30514832e+02 5.97973877e+02 6.82313621e-01]
  [1.05130713e+03 4.42044708e+02 7.69288778e-01]
  [1.04530823e+03 5.47970581e+02 8.70872736e-01]
  [1.00118744e+03 6.45076294e+02 8.75082135e-01]
  [1.00116345e+03 6.09799133e+02 7.05645680e-01]
  [9.65923584e+02 6.00824341e+02 6.92733526e-01]
  [8.27566956e+02 6.27448303e+02 8.28840494e-01]
  [8.60026978e+02 7.92326355e+02 8.21749389e-01]
  [1.03946960e+03 6.21565918e+02 6.65024996e-01]
  [1.04535413e+03 7.86361877e+02 8.81614089e-01]
  [1.07179333e+03 9.51087280e+02 8.40257287e-01]
  [0.00000000e+00 0.00000000e+00 0.00000000e+00]
  [9.89475525e+02 3.15504242e+02 8.60558152e-01]
  [0.00000000e+00 0.00000000e+00 0.00000000e+00]
  [1.02486255e+03 3.44824402e+02 7.75642276e-01]
  [1.07479138e+03 9.83617676e+02 7.56693780e-01]
  [1.09549292e+03 9.77778748e+02 8.32230210e-01]
  [1.06592676e+03 9.57151367e+02 6.79492235e-01]
  [8.33382202e+02 8.65821777e+02 7.33752549e-01]
  [8.15860413e+02 8.57022278e+02 6.89617276e-01]
  [8.83570740e+02 8.06876770e+02 7.34671831e-01]]]