[[[1.1336538e+03 3.4181735e+02 9.1349787e-01]
  [1.1454883e+03 4.3601486e+02 9.0036625e-01]
  [1.0894033e+03 4.3616016e+02 8.0880678e-01]
  [1.0218687e+03 5.3908679e+02 8.6133111e-01]
  [1.0687693e+03 4.8319528e+02 9.0371448e-01]
  [1.2101118e+03 4.3307404e+02 7.9871869e-01]
  [1.3249781e+03 4.3626062e+02 8.8228798e-01]
  [1.2366287e+03 4.3324686e+02 8.9540148e-01]
  [1.1396150e+03 6.3031940e+02 7.6117724e-01]
  [1.0955339e+03 6.2744092e+02 7.3340839e-01]
  [1.1042638e+03 7.8631042e+02 8.4401447e-01]
  [1.0719349e+03 9.3643665e+02 8.2423991e-01]
  [1.1836505e+03 6.3037360e+02 7.1432602e-01]
  [1.2896584e+03 7.4234296e+02 8.4020859e-01]
  [1.2954777e+03 9.0997418e+02 7.5589514e-01]
  [1.1160897e+03 3.3890524e+02 9.1579843e-01]
  [1.1425587e+03 3.3594406e+02 8.8609725e-01]
  [1.1012501e+03 3.6537900e+02 8.2470304e-01]
  [1.1660162e+03 3.6239944e+02 8.3640158e-01]
  [1.3250076e+03 9.6883032e+02 7.0102239e-01]
  [1.3337648e+03 9.5414313e+02 7.3572224e-01]
  [1.2749427e+03 9.2761749e+02 6.9270831e-01]
  [1.0924254e+03 9.7464368e+02 8.1616449e-01]
  [1.0689518e+03 9.7181329e+02 8.0192119e-01]
  [1.0689053e+03 9.5115485e+02 7.4026752e-01]]]