[[[1.1631954e+03 3.6261423e+02 8.5962659e-01]
  [1.1277629e+03 4.3626624e+02 8.5268372e-01]
  [1.0806282e+03 4.3614700e+02 7.7344537e-01]
  [1.0659457e+03 3.1540005e+02 8.7006497e-01]
  [1.1277473e+03 3.1842627e+02 5.0968862e-01]
  [1.1777733e+03 4.4194263e+02 7.9017347e-01]
  [1.1896588e+03 5.3038873e+02 8.5838217e-01]
  [1.2043409e+03 5.9508350e+02 8.5640365e-01]
  [1.1542223e+03 6.2149316e+02 7.2541738e-01]
  [1.1277399e+03 6.2437238e+02 6.7877203e-01]
  [1.2367694e+03 7.3045020e+02 8.6068320e-01]
  [1.0924050e+03 7.8643365e+02 8.8152885e-01]
  [1.1807188e+03 6.1857971e+02 7.0244402e-01]
  [1.1865554e+03 7.8642035e+02 8.7973094e-01]
  [1.1454567e+03 9.3049524e+02 8.4981090e-01]
  [1.1484231e+03 3.5368732e+02 7.4043912e-01]
  [0.0000000e+00 0.0000000e+00 0.0000000e+00]
  [1.1190837e+03 3.6549933e+02 7.7990353e-01]
  [0.0000000e+00 0.0000000e+00 0.0000000e+00]
  [1.2102006e+03 9.5714520e+02 7.5474972e-01]
  [1.2043044e+03 9.5406488e+02 7.0635885e-01]
  [1.1277532e+03 9.4239246e+02 7.4750376e-01]
  [1.0687686e+03 8.4224341e+02 7.0604664e-01]
  [1.0541921e+03 8.3341095e+02 6.8045819e-01]
  [1.0747777e+03 7.7167157e+02 7.2960764e-01]]]