[[[1.0423185e+03 3.6244675e+02 9.2274201e-01]
  [1.0600977e+03 4.3015073e+02 8.2860070e-01]
  [1.0013491e+03 4.2724487e+02 8.1259829e-01]
  [1.0011629e+03 3.6254083e+02 8.2738692e-01]
  [1.0188306e+03 2.7141046e+02 8.3825397e-01]
  [1.1158938e+03 4.3021661e+02 8.3772337e-01]
  [1.1455016e+03 5.1267273e+02 8.3540910e-01]
  [1.1188442e+03 5.8321539e+02 9.0064502e-01]
  [1.0629734e+03 6.1558105e+02 6.9918251e-01]
  [1.0218096e+03 6.1267987e+02 7.1615481e-01]
  [9.7181171e+02 7.7164532e+02 8.4959406e-01]
  [9.2179089e+02 9.2458441e+02 8.0599123e-01]
  [1.0984017e+03 6.1564813e+02 7.0202035e-01]
  [1.1425006e+03 7.8338989e+02 8.8873494e-01]
  [1.1777606e+03 9.2458118e+02 7.9443073e-01]
  [1.0246786e+03 3.5370105e+02 8.7048125e-01]
  [1.0482679e+03 3.4202991e+02 9.1717845e-01]
  [1.0188221e+03 3.6558374e+02 1.7733967e-01]
  [1.0719108e+03 3.5076138e+02 7.5516367e-01]
  [1.1895363e+03 9.5423376e+02 7.8988564e-01]
  [1.2100825e+03 9.5118689e+02 8.2567334e-01]
  [1.1660658e+03 9.3348706e+02 7.9310352e-01]
  [9.2764081e+02 9.6289752e+02 7.3329276e-01]
  [9.0700781e+02 9.5425385e+02 7.7538079e-01]
  [9.1588934e+02 9.3068146e+02 6.8352455e-01]]]