[[[1.00128076e+03 3.92012360e+02 8.95958602e-01]
  [9.71700684e+02 4.77216644e+02 8.48663092e-01]
  [9.15855774e+02 4.36123505e+02 8.03141057e-01]
  [8.15862000e+02 3.89140167e+02 7.51087189e-01]
  [7.39276306e+02 3.41923523e+02 6.13019943e-01]
  [1.02169043e+03 5.09727997e+02 7.84465551e-01]
  [1.02769067e+03 6.09790405e+02 7.80091405e-01]
  [1.03354456e+03 7.15782349e+02 8.07250857e-01]
  [9.30516418e+02 6.50924255e+02 7.24965692e-01]
  [8.83497070e+02 6.45095825e+02 7.19216466e-01]
  [7.86213196e+02 7.89357910e+02 8.71437430e-01]
  [7.45192139e+02 9.42317261e+02 7.88547516e-01]
  [9.74839355e+02 6.59750305e+02 6.98504388e-01]
  [1.04845520e+03 7.92291687e+02 8.23403835e-01]
  [1.07483105e+03 9.51041870e+02 8.38569641e-01]
  [1.00117273e+03 3.80117920e+02 8.67645025e-01]
  [1.02473010e+03 3.91972290e+02 9.15540278e-01]
  [9.77556091e+02 3.83104462e+02 4.69194472e-01]
  [1.04228943e+03 4.27254913e+02 7.98653781e-01]
  [1.11904663e+03 9.80592957e+02 7.64036238e-01]
  [1.12775293e+03 9.74610168e+02 7.59148777e-01]
  [1.06595251e+03 9.62909424e+02 8.10588598e-01]
  [7.21601318e+02 9.77544067e+02 7.72891700e-01]
  [7.12761108e+02 9.71708923e+02 7.60248065e-01]
  [7.59815002e+02 9.57060425e+02 7.47497082e-01]]]