[[[1.06010767e+03 7.01031799e+02 2.37329930e-01]
  [1.02173035e+03 6.24461670e+02 5.78497589e-01]
  [1.02474854e+03 6.24433777e+02 7.12914228e-01]
  [9.98263489e+02 7.54016663e+02 8.53904188e-01]
  [9.74777771e+02 8.62920288e+02 7.02551484e-01]
  [1.01299622e+03 6.21538818e+02 3.00681591e-01]
  [9.68795776e+02 7.59894592e+02 4.95786190e-01]
  [9.65877319e+02 8.54071716e+02 5.63683391e-01]
  [8.33390503e+02 5.97980286e+02 4.47203904e-01]
  [8.36368835e+02 5.98044189e+02 5.02316236e-01]
  [9.07178162e+02 7.71621338e+02 7.65101433e-01]
  [9.07085571e+02 9.62937561e+02 7.91658461e-01]
  [8.27549316e+02 5.92091553e+02 3.16380471e-01]
  [9.21735107e+02 7.68704712e+02 6.38308704e-01]
  [9.54027710e+02 9.51099976e+02 8.18144083e-01]
  [1.07189172e+03 6.95089355e+02 2.73814261e-01]
  [0.00000000e+00 0.00000000e+00 0.00000000e+00]
  [1.08656738e+03 6.53946228e+02 2.77305484e-01]
  [0.00000000e+00 0.00000000e+00 0.00000000e+00]
  [1.02174927e+03 9.74682007e+02 6.67479694e-01]
  [1.01879236e+03 9.65857178e+02 5.97461104e-01]
  [9.51069336e+02 9.59962585e+02 3.07009786e-01]
  [9.92344543e+02 9.92410706e+02 6.59391522e-01]
  [9.62983215e+02 1.00114911e+03 6.55827880e-01]
  [8.92266724e+02 9.80560242e+02 7.41706133e-01]]]