[[[1.00422144e+03 4.03661102e+02 8.93087804e-01]
  [9.98380920e+02 4.74335022e+02 8.84476006e-01]
  [9.51252136e+02 4.62608765e+02 8.18286836e-01]
  [9.54158569e+02 4.00748718e+02 6.64287448e-01]
  [9.54072327e+02 3.83069672e+02 6.20460391e-01]
  [1.04531299e+03 4.80221313e+02 8.81096363e-01]
  [1.08942346e+03 5.53804504e+02 8.86682212e-01]
  [1.07185718e+03 5.86212341e+02 8.61747384e-01]
  [1.02768982e+03 6.47991089e+02 7.79408514e-01]
  [9.95226562e+02 6.48093567e+02 7.53650963e-01]
  [9.45284363e+02 7.92195312e+02 8.43608677e-01]
  [8.83481384e+02 9.24734009e+02 8.70030522e-01]
  [1.06890710e+03 6.45160828e+02 7.89111376e-01]
  [1.08943274e+03 7.74542603e+02 8.24543297e-01]
  [1.11009302e+03 9.24607910e+02 8.23825061e-01]
  [9.98169800e+02 3.88899933e+02 9.82246339e-01]
  [1.02185614e+03 3.89027252e+02 9.53517795e-01]
  [9.74807922e+02 3.94909821e+02 5.88094473e-01]
  [1.03938086e+03 4.06669983e+02 5.50695777e-01]
  [1.08953430e+03 9.51041138e+02 7.50044107e-01]
  [1.11295862e+03 9.51120789e+02 7.69440293e-01]
  [1.11590942e+03 9.30703918e+02 7.65363157e-01]
  [8.65792297e+02 9.51168030e+02 7.44766355e-01]
  [8.54053040e+02 9.42348572e+02 7.54303694e-01]
  [8.86421204e+02 9.36505493e+02 7.36550987e-01]]]