[[[9.2764075e+02 3.1830258e+02 9.6092033e-01]
  [8.9824249e+02 4.0961511e+02 8.7706435e-01]
  [8.3349451e+02 3.9788565e+02 8.4332961e-01]
  [8.0991235e+02 4.8915039e+02 8.5409611e-01]
  [7.6879291e+02 4.5375806e+02 8.5138738e-01]
  [9.5423590e+02 4.1558029e+02 7.8797728e-01]
  [1.0218344e+03 4.8316870e+02 8.8567573e-01]
  [1.1101140e+03 4.8030615e+02 8.3663535e-01]
  [8.8357684e+02 5.8620044e+02 7.3528147e-01]
  [8.4521741e+02 5.8323853e+02 6.9098604e-01]
  [8.1298090e+02 7.5107715e+02 8.2332802e-01]
  [8.3039313e+02 9.2169989e+02 7.9173452e-01]
  [9.2765619e+02 5.8913696e+02 7.3070341e-01]
  [9.3051349e+02 7.6272693e+02 8.8850671e-01]
  [9.3062305e+02 9.1002722e+02 8.2083607e-01]
  [9.2752460e+02 3.0074420e+02 9.0005422e-01]
  [9.5100000e+02 3.1834445e+02 9.2116809e-01]
  [9.0399780e+02 3.1242590e+02 5.3816205e-01]
  [9.5417993e+02 3.4492313e+02 8.1979507e-01]
  [8.8641608e+02 9.5410712e+02 6.5799063e-01]
  [9.1001874e+02 9.5418701e+02 6.6942215e-01]
  [9.3940015e+02 9.2767139e+02 7.3647988e-01]
  [8.3042926e+02 9.6584723e+02 7.1633136e-01]
  [8.0985480e+02 9.5709381e+02 7.4873018e-01]
  [8.3642560e+02 9.3062164e+02 7.4063051e-01]]]