[[[7.8626917e+02 3.4180084e+02 9.3655306e-01]
  [8.1582184e+02 4.1552420e+02 6.9516498e-01]
  [8.0698383e+02 4.1843558e+02 4.8960933e-01]
  [7.2460321e+02 4.3621417e+02 2.5066331e-01]
  [6.9800836e+02 3.8898352e+02 3.3116144e-01]
  [8.3046106e+02 4.1263449e+02 7.5791758e-01]
  [7.1872736e+02 4.3022632e+02 8.4244400e-01]
  [6.9497644e+02 3.8017868e+02 8.0519813e-01]
  [8.3351758e+02 6.2738611e+02 7.3178452e-01]
  [8.1283801e+02 6.3031696e+02 6.7985827e-01]
  [7.6262354e+02 7.8937830e+02 8.7833005e-01]
  [6.9218390e+02 9.4232153e+02 8.2804078e-01]
  [8.5688873e+02 6.2452020e+02 6.7446882e-01]
  [8.7764478e+02 7.9231171e+02 8.5346365e-01]
  [9.4816779e+02 9.4521338e+02 8.0084658e-01]
  [7.8643542e+02 3.3310245e+02 1.7657140e-01]
  [8.0108466e+02 3.3879486e+02 8.6434317e-01]
  [0.0000000e+00 0.0000000e+00 0.0000000e+00]
  [8.3345856e+02 3.5668375e+02 8.6609769e-01]
  [9.0693030e+02 9.7463324e+02 7.7480233e-01]
  [9.2760950e+02 9.7478375e+02 7.7873874e-01]
  [9.6001190e+02 9.5414258e+02 7.8378844e-01]
  [6.3036212e+02 9.7170129e+02 7.3871708e-01]
  [6.3330548e+02 9.5699951e+02 7.1681494e-01]
  [7.0099091e+02 9.5716241e+02 7.3659432e-01]]]