[[[1.04821155e+03 3.89176971e+02 9.39825058e-01]
  [1.03066956e+03 4.83226624e+02 8.89740527e-01]
  [9.77565247e+02 4.86114014e+02 8.76956940e-01]
  [9.77641602e+02 5.92108765e+02 8.50638747e-01]
  [9.83596619e+02 5.50795410e+02 5.55122375e-01]
  [1.09228967e+03 4.83120422e+02 8.72499287e-01]
  [1.09246436e+03 5.74354858e+02 9.00302708e-01]
  [1.02177032e+03 5.68568054e+02 7.83270359e-01]
  [1.05717468e+03 6.47982117e+02 7.50402570e-01]
  [1.02186853e+03 6.48043518e+02 7.76520193e-01]
  [9.74817200e+02 8.01029358e+02 8.68425965e-01]
  [1.02172205e+03 9.27522705e+02 8.73201787e-01]
  [1.09531592e+03 6.45159485e+02 7.76485205e-01]
  [1.10128516e+03 7.86445923e+02 8.87999177e-01]
  [1.13944531e+03 9.07036621e+02 8.56586218e-01]
  [1.03947705e+03 3.83114532e+02 8.80930722e-01]
  [1.06881543e+03 3.89015076e+02 9.40056264e-01]
  [1.01594708e+03 4.00805481e+02 7.61302292e-01]
  [1.07199487e+03 4.18501587e+02 8.36126268e-01]
  [1.14239636e+03 9.51173828e+02 8.54678750e-01]
  [1.16303479e+03 9.42360413e+02 8.16134572e-01]
  [1.13369409e+03 9.15876404e+02 6.30666614e-01]
  [9.71769226e+02 9.51040710e+02 7.92569458e-01]
  [9.71784302e+02 9.39406982e+02 7.30670750e-01]
  [1.03360925e+03 9.33629272e+02 7.80323386e-01]]]