[[[1.2130057e+03 3.3607773e+02 8.8025868e-01]
  [1.2131945e+03 4.2427954e+02 8.8212490e-01]
  [1.1631483e+03 4.3305734e+02 8.9573103e-01]
  [1.1601843e+03 5.4790192e+02 8.3084470e-01]
  [1.1425205e+03 6.2739612e+02 8.1581813e-01]
  [1.2690273e+03 4.1248245e+02 8.2508630e-01]
  [1.2219366e+03 4.5959296e+02 8.1576777e-01]
  [1.2336160e+03 3.6842575e+02 8.8550478e-01]
  [1.2308093e+03 6.1854089e+02 7.4719590e-01]
  [1.1896587e+03 6.2145813e+02 7.5000238e-01]
  [1.2248815e+03 7.6288556e+02 8.4040052e-01]
  [1.2600991e+03 9.1288879e+02 7.8782666e-01]
  [1.2632015e+03 6.1561456e+02 6.9879627e-01]
  [1.2632540e+03 7.6877356e+02 8.3303183e-01]
  [1.2368191e+03 9.2466602e+02 7.3409295e-01]
  [1.2013207e+03 3.2142978e+02 8.1408197e-01]
  [1.2278772e+03 3.2140375e+02 8.0955780e-01]
  [1.1837290e+03 3.4488522e+02 4.7291848e-01]
  [1.2513669e+03 3.4481360e+02 6.4814121e-01]
  [1.2307539e+03 9.7174548e+02 5.4845780e-01]
  [1.2395879e+03 9.6881775e+02 5.6388611e-01]
  [1.2307273e+03 9.3650427e+02 5.5604059e-01]
  [1.2425902e+03 9.6295721e+02 2.9544663e-01]
  [1.2395920e+03 9.5414838e+02 2.9259014e-01]
  [1.2748894e+03 9.2762799e+02 5.2340877e-01]]]