[[[1.03654138e+03 3.38990662e+02 3.90527904e-01]
  [1.02780176e+03 3.85974640e+02 8.45983148e-01]
  [9.71763000e+02 3.83178162e+02 7.87763238e-01]
  [9.04088501e+02 4.33059570e+02 8.84796858e-01]
  [9.77741211e+02 4.53802277e+02 7.93222964e-01]
  [1.09245154e+03 3.86073761e+02 8.66846085e-01]
  [1.14235828e+03 4.38997406e+02 8.84975791e-01]
  [1.06879370e+03 4.83177399e+02 8.69490743e-01]
  [1.02487268e+03 5.71490356e+02 7.43830264e-01]
  [9.89399048e+02 5.71486145e+02 6.75859809e-01]
  [9.89447510e+02 7.45158508e+02 8.45419407e-01]
  [9.77740295e+02 9.12940918e+02 8.22475433e-01]
  [1.06886462e+03 5.71486267e+02 7.31461048e-01]
  [1.06873315e+03 7.42339539e+02 8.76457036e-01]
  [1.06009338e+03 9.09956726e+02 7.91796446e-01]
  [1.02472083e+03 3.21376434e+02 4.12765473e-01]
  [1.04824951e+03 3.24296265e+02 4.02249873e-01]
  [1.00134247e+03 3.21311523e+02 4.52447385e-01]
  [1.06599255e+03 3.27231964e+02 3.53517085e-01]
  [1.05119519e+03 9.59986938e+02 7.78073668e-01]
  [1.07198694e+03 9.54161682e+02 7.87135541e-01]
  [1.05121033e+03 9.24719849e+02 6.82309270e-01]
  [9.98199463e+02 9.62903442e+02 6.91412628e-01]
  [9.74814514e+02 9.59995483e+02 7.19373345e-01]
  [9.80682495e+02 9.30496155e+02 7.08430529e-01]]]