[[[9.74543518e+02 3.21368866e+02 9.11557198e-01]
  [9.54019348e+02 4.09688477e+02 9.06302094e-01]
  [9.04000488e+02 4.09661377e+02 8.24332714e-01]
  [8.83547913e+02 4.83235931e+02 8.72398734e-01]
  [9.01186829e+02 4.00728088e+02 7.85315394e-01]
  [1.00414050e+03 4.12455109e+02 8.63376737e-01]
  [1.04841785e+03 3.68505615e+02 9.20057714e-01]
  [1.04241797e+03 2.97746368e+02 8.69748890e-01]
  [9.48283447e+02 5.98014526e+02 7.48008609e-01]
  [9.07078674e+02 5.98010315e+02 7.39584088e-01]
  [9.27443115e+02 7.65712952e+02 9.04226780e-01]
  [9.39382751e+02 9.10027649e+02 7.98708260e-01]
  [9.80693909e+02 5.98066162e+02 7.04591393e-01]
  [9.98166321e+02 7.62903320e+02 9.03608680e-01]
  [1.00409259e+03 9.10032532e+02 8.12975168e-01]
  [9.57146545e+02 3.12518799e+02 8.79414320e-01]
  [9.92347107e+02 3.18483582e+02 8.87526333e-01]
  [9.36426086e+02 3.27153534e+02 5.90206444e-01]
  [1.00132928e+03 3.44968781e+02 8.45073223e-01]
  [1.00130206e+03 9.59991089e+02 7.45347261e-01]
  [1.02469482e+03 9.54199524e+02 7.89581001e-01]
  [9.98347046e+02 9.27589722e+02 7.29991317e-01]
  [9.51157288e+02 9.54147949e+02 7.80775428e-01]
  [9.30540710e+02 9.54033325e+02 7.78698027e-01]
  [9.51036316e+02 9.27528992e+02 7.19784379e-01]]]