[[[1.31325879e+03 3.62366943e+02 9.06148136e-01]
  [1.33072046e+03 4.42006866e+02 8.91595364e-01]
  [1.28091931e+03 4.35987885e+02 9.04465318e-01]
  [1.28069922e+03 5.36162964e+02 3.51885647e-01]
  [1.28072632e+03 5.97979980e+02 1.22565448e-01]
  [1.37798071e+03 4.56580170e+02 8.51884842e-01]
  [1.40147925e+03 5.50759216e+02 8.89656186e-01]
  [1.32800061e+03 6.03883972e+02 8.64668131e-01]
  [1.32782922e+03 6.24418030e+02 7.97914147e-01]
  [1.28679138e+03 6.21603027e+02 7.41425931e-01]
  [1.31608691e+03 7.74571167e+02 8.17014635e-01]
  [1.35139954e+03 9.24713196e+02 8.72070849e-01]
  [1.35733984e+03 6.24480652e+02 7.54716039e-01]
  [1.36029785e+03 7.65723267e+02 8.68654490e-01]
  [1.38681421e+03 9.30494873e+02 8.25848997e-01]
  [1.30446826e+03 3.44882751e+02 9.42668915e-01]
  [1.33081055e+03 3.42054535e+02 9.56041276e-01]
  [1.29261780e+03 3.62588196e+02 1.00225344e-01]
  [1.35734204e+03 3.62457214e+02 8.45404983e-01]
  [1.33375671e+03 9.51062073e+02 6.10832274e-01]
  [1.35432227e+03 9.54072937e+02 6.68524206e-01]
  [1.40144128e+03 9.51167969e+02 8.63210917e-01]
  [1.30436011e+03 9.51024353e+02 7.96043813e-01]
  [1.30430469e+03 9.39436829e+02 7.05039263e-01]
  [1.35460999e+03 9.33604187e+02 4.76667285e-01]]]