[[[9.27743591e+02 3.89100311e+02 9.78847980e-01]
  [9.51094421e+02 4.62697784e+02 8.75704646e-01]
  [8.86482300e+02 4.59652283e+02 8.37310433e-01]
  [8.27554932e+02 5.00893036e+02 8.29122663e-01]
  [8.62877441e+02 5.21398926e+02 8.25109243e-01]
  [1.00705597e+03 4.74413391e+02 8.01890671e-01]
  [1.04830249e+03 5.62660828e+02 8.47748756e-01]
  [1.01876819e+03 5.71476685e+02 8.31667542e-01]
  [9.60062683e+02 6.59765625e+02 6.97851658e-01]
  [9.18833435e+02 6.65602783e+02 7.01504827e-01]
  [7.98108765e+02 7.65809387e+02 8.61142635e-01]
  [8.15769531e+02 9.30551086e+02 8.20675194e-01]
  [1.00411414e+03 6.53934509e+02 6.86418653e-01]
  [1.07170764e+03 8.09911377e+02 9.27435398e-01]
  [1.08358496e+03 9.33469360e+02 8.13604295e-01]
  [9.10013184e+02 3.86142212e+02 9.26730335e-01]
  [9.33623596e+02 3.74286041e+02 8.58640552e-01]
  [9.04109009e+02 4.06716675e+02 5.55202961e-01]
  [9.68832581e+02 3.80153351e+02 7.74411321e-01]
  [1.09830188e+03 9.71736328e+02 7.57477641e-01]
  [1.11597314e+03 9.60027832e+02 7.82710731e-01]
  [1.07176111e+03 9.51101074e+02 7.88906634e-01]
  [7.56847717e+02 9.62960388e+02 6.77426100e-01]
  [7.62659546e+02 9.54107910e+02 6.98980451e-01]
  [8.36309143e+02 9.51083801e+02 8.37965488e-01]]]