[[[6.4814240e+02 9.0114948e+02 8.7892318e-01]
  [7.0099866e+02 9.3056891e+02 8.2545549e-01]
  [6.7450470e+02 9.5996802e+02 7.5109380e-01]
  [5.9503937e+02 9.5421796e+02 7.7164912e-01]
  [5.0380280e+02 9.6000641e+02 7.3123246e-01]
  [7.2459760e+02 9.0408203e+02 7.0182192e-01]
  [0.0000000e+00 0.0000000e+00 0.0000000e+00]
  [0.0000000e+00 0.0000000e+00 0.0000000e+00]
  [9.2754480e+02 9.2756635e+02 6.1793405e-01]
  [9.2170013e+02 9.3059448e+02 5.8343387e-01]
  [1.0894950e+03 8.5701160e+02 8.7177217e-01]
  [1.2425179e+03 9.4813367e+02 7.4448413e-01]
  [9.2765509e+02 9.1589594e+02 5.1103741e-01]
  [1.0806244e+03 8.5697845e+02 5.2541363e-01]
  [1.1661454e+03 9.2750665e+02 6.1479938e-01]
  [6.3910181e+02 9.0992212e+02 8.3401489e-01]
  [6.4507935e+02 8.8651239e+02 8.4203506e-01]
  [6.4506158e+02 9.3362970e+02 7.3850119e-01]
  [6.6852673e+02 8.8350281e+02 1.1836244e-01]
  [1.1719010e+03 9.4528625e+02 6.2431972e-02]
  [0.0000000e+00 0.0000000e+00 0.0000000e+00]
  [1.1629220e+03 9.3942999e+02 4.8130977e-01]
  [1.3102722e+03 9.3348248e+02 6.5861499e-01]
  [1.3042445e+03 9.5102490e+02 6.7893744e-01]
  [1.2425338e+03 9.6299164e+02 6.8695498e-01]]]