[[[1.0394244e+03 4.1243256e+02 9.1429549e-01]
  [9.8647375e+02 4.8009033e+02 8.5044831e-01]
  [9.3642963e+02 4.4494635e+02 7.6295191e-01]
  [9.1879462e+02 3.7722015e+02 7.1584553e-01]
  [9.2463342e+02 3.0362878e+02 2.8731129e-01]
  [1.0365364e+03 5.0681183e+02 8.1233859e-01]
  [1.0219129e+03 6.0103583e+02 8.9844310e-01]
  [9.9520660e+02 6.7171466e+02 8.5834783e-01]
  [9.3047107e+02 6.4209558e+02 7.3372298e-01]
  [8.8936945e+02 6.2738348e+02 6.7415470e-01]
  [8.2463428e+02 8.0997461e+02 8.4573138e-01]
  [7.6272992e+02 9.4533221e+02 8.3096808e-01]
  [9.7169745e+02 6.5090649e+02 7.0673472e-01]
  [1.0806407e+03 7.7748633e+02 8.0932158e-01]
  [1.0864851e+03 9.4825842e+02 7.9859912e-01]
  [1.0277930e+03 3.8909998e+02 9.0419877e-01]
  [1.0513226e+03 4.0958694e+02 9.1635168e-01]
  [9.9833966e+02 3.8614716e+02 8.8274258e-01]
  [1.0600278e+03 4.3298550e+02 4.6670902e-01]
  [1.1454445e+03 9.7467609e+02 8.1803715e-01]
  [1.1425500e+03 9.6294989e+02 7.4056602e-01]
  [1.0687825e+03 9.6299316e+02 7.8891647e-01]
  [7.5686603e+02 9.7770905e+02 7.1364170e-01]
  [7.3634570e+02 9.7460101e+02 7.6058292e-01]
  [7.5988519e+02 9.5702069e+02 6.6050988e-01]]]