[[[1.05127417e+03 3.71298737e+02 8.73714149e-01]
  [1.02463892e+03 4.53800720e+02 9.30779576e-01]
  [9.65861511e+02 4.18429993e+02 8.06108057e-01]
  [9.30496521e+02 4.97888184e+02 8.90480995e-01]
  [9.45307495e+02 5.77438904e+02 8.85097742e-01]
  [1.08065796e+03 4.83227295e+02 8.22374821e-01]
  [1.06886487e+03 5.74390564e+02 9.09753561e-01]
  [1.04235962e+03 5.77419312e+02 8.61599386e-01]
  [9.71722229e+02 6.15611938e+02 7.46558070e-01]
  [9.27685120e+02 6.01011414e+02 7.71152258e-01]
  [8.80475525e+02 7.83301331e+02 8.79401207e-01]
  [8.42272705e+02 9.30676880e+02 8.16121697e-01]
  [1.01007056e+03 6.24409302e+02 7.39109933e-01]
  [1.04837427e+03 7.83394165e+02 8.69041920e-01]
  [1.09534290e+03 9.30565186e+02 8.70068252e-01]
  [1.04543530e+03 3.59521973e+02 9.12778199e-01]
  [1.07184900e+03 3.65513580e+02 9.26445425e-01]
  [1.02461816e+03 3.65345703e+02 7.29726732e-01]
  [1.09230115e+03 3.92037292e+02 7.82778919e-01]
  [1.13664307e+03 9.71721802e+02 7.52257168e-01]
  [1.14252063e+03 9.57019104e+02 7.87639141e-01]
  [1.08361194e+03 9.51104004e+02 7.63467133e-01]
  [8.12792114e+02 9.65865662e+02 7.01429427e-01]
  [8.04038086e+02 9.54140137e+02 7.51617193e-01]
  [8.56876587e+02 9.51223145e+02 8.32655132e-01]]]