[[[1.01891882e+03 3.71357025e+02 8.94770443e-01]
  [1.02169678e+03 4.56662994e+02 8.99110079e-01]
  [9.60050293e+02 4.56744690e+02 8.42747629e-01]
  [9.30732300e+02 5.44972168e+02 8.00160646e-01]
  [9.21697571e+02 5.74543884e+02 7.95051754e-01]
  [1.07195203e+03 4.56604187e+02 8.43252718e-01]
  [1.12190210e+03 5.30276550e+02 8.98966074e-01]
  [1.04825635e+03 5.56837463e+02 8.33505690e-01]
  [1.02180774e+03 6.24421204e+02 8.21492195e-01]
  [9.80579102e+02 6.24410095e+02 7.80699432e-01]
  [9.01021240e+02 7.62708313e+02 8.68809700e-01]
  [8.80384521e+02 9.12950867e+02 8.03664446e-01]
  [1.05718079e+03 6.24442566e+02 7.21793473e-01]
  [1.07474487e+03 7.86302734e+02 8.74071300e-01]
  [1.10717993e+03 9.27497925e+02 8.19914341e-01]
  [1.00709174e+03 3.62377075e+02 9.07852709e-01]
  [1.03360107e+03 3.65392212e+02 8.79890084e-01]
  [9.95271912e+02 3.65452026e+02 5.28466344e-01]
  [1.05417798e+03 3.85956360e+02 7.89847970e-01]
  [1.09247778e+03 9.54104919e+02 7.61699259e-01]
  [1.11588879e+03 9.54055969e+02 7.98623383e-01]
  [1.11303528e+03 9.33489746e+02 7.10592985e-01]
  [8.18775818e+02 9.54107239e+02 6.70779765e-01]
  [8.18711060e+02 9.48138306e+02 6.48614883e-01]
  [8.89442383e+02 9.30638855e+02 7.10882127e-01]]]