[[[9.3064404e+02 3.0950641e+02 8.5511774e-01]
  [9.3072137e+02 3.9204633e+02 8.6409295e-01]
  [8.8042682e+02 3.9488364e+02 7.9203010e-01]
  [7.8622614e+02 3.3596478e+02 8.4354615e-01]
  [8.5399219e+02 3.5371262e+02 8.4311682e-01]
  [9.9524500e+02 3.9780209e+02 7.4676633e-01]
  [1.0719773e+03 3.6251917e+02 9.1397190e-01]
  [9.8355328e+02 3.6534857e+02 8.3169353e-01]
  [9.2774042e+02 6.0685248e+02 7.2855407e-01]
  [8.8643835e+02 6.0677295e+02 6.9548869e-01]
  [8.8636163e+02 7.6582440e+02 8.8025028e-01]
  [8.8050012e+02 9.3351172e+02 8.3667487e-01]
  [9.7174316e+02 6.0974347e+02 6.7557520e-01]
  [9.5713690e+02 7.7161237e+02 8.2069635e-01]
  [9.5398468e+02 9.3058490e+02 8.6631054e-01]
  [9.2462299e+02 3.0068384e+02 7.6116771e-01]
  [9.5100287e+02 3.0071454e+02 8.2667917e-01]
  [9.0689899e+02 3.3306787e+02 5.7073134e-01]
  [9.6589435e+02 3.3604288e+02 7.0779419e-01]
  [9.4813348e+02 9.7170642e+02 7.1531457e-01]
  [9.6592688e+02 9.6876337e+02 7.2341853e-01]
  [9.4821851e+02 9.4814209e+02 6.4371026e-01]
  [8.8051172e+02 9.7181842e+02 8.0864191e-01]
  [8.5992114e+02 9.6587921e+02 7.8924435e-01]
  [8.8355548e+02 9.5115686e+02 7.4664009e-01]]]