[[[0.0000000e+00 0.0000000e+00 0.0000000e+00]
  [9.1581555e+02 5.7739581e+02 7.4596131e-01]
  [8.3640668e+02 5.8032227e+02 6.1421382e-01]
  [7.8331946e+02 6.0684503e+02 7.4745947e-01]
  [7.9234332e+02 6.9206323e+02 8.3784395e-01]
  [9.9524719e+02 5.6849768e+02 7.0440006e-01]
  [1.0658854e+03 6.3038098e+02 8.4724659e-01]
  [1.0453494e+03 7.2453845e+02 8.7996805e-01]
  [9.1874200e+02 6.7741473e+02 6.5555155e-01]
  [8.6283105e+02 6.7456073e+02 6.4385247e-01]
  [7.8944800e+02 7.8634698e+02 8.7062752e-01]
  [7.4815320e+02 9.4230273e+02 7.7787733e-01]
  [9.7460962e+02 6.7741064e+02 6.8541998e-01]
  [1.0454352e+03 7.8342114e+02 8.3670092e-01]
  [1.0748627e+03 9.4815167e+02 8.0911410e-01]
  [0.0000000e+00 0.0000000e+00 0.0000000e+00]
  [0.0000000e+00 0.0000000e+00 0.0000000e+00]
  [8.8340503e+02 6.0391370e+02 1.2176271e-01]
  [9.5119733e+02 5.9211267e+02 6.1509632e-02]
  [1.1188517e+03 9.7779089e+02 8.0202192e-01]
  [1.1248110e+03 9.7459479e+02 7.8738689e-01]
  [1.0660066e+03 9.6005414e+02 8.1505626e-01]
  [7.1569183e+02 9.7778442e+02 7.8090769e-01]
  [7.0397839e+02 9.7182770e+02 7.5354546e-01]
  [7.6277051e+02 9.5706238e+02 7.6812392e-01]]]