[[[1.02188965e+03 3.12483978e+02 9.38224673e-01]
  [1.04536096e+03 3.91910919e+02 8.90335381e-01]
  [9.98134949e+02 3.86060059e+02 8.42056155e-01]
  [9.57160828e+02 3.44836853e+02 7.36027181e-01]
  [9.07053528e+02 2.94829895e+02 8.89110744e-01]
  [1.09248511e+03 4.06602020e+02 8.19401264e-01]
  [1.16304749e+03 4.36270447e+02 8.97883594e-01]
  [1.18372278e+03 3.85997192e+02 8.25796723e-01]
  [1.02481641e+03 5.86194153e+02 7.27085590e-01]
  [9.89371521e+02 5.80312622e+02 6.86686873e-01]
  [9.36477661e+02 7.45194763e+02 8.37713420e-01]
  [8.80527527e+02 9.04121094e+02 8.45857978e-01]
  [1.06881006e+03 5.92086060e+02 7.07141995e-01]
  [1.06877161e+03 7.59893250e+02 8.69577408e-01]
  [1.06600464e+03 9.21752686e+02 8.12455714e-01]
  [1.00137842e+03 3.12509064e+02 8.91596198e-01]
  [1.02487537e+03 2.97728729e+02 9.01327312e-01]
  [9.95224487e+02 3.38963623e+02 8.28237534e-01]
  [1.04831506e+03 3.18329620e+02 5.37081897e-01]
  [1.10717480e+03 9.68828552e+02 7.48720825e-01]
  [1.11586255e+03 9.54152832e+02 8.03649664e-01]
  [1.04542651e+03 9.30577515e+02 8.53047550e-01]
  [8.83545837e+02 9.60065369e+02 7.49523580e-01]
  [8.62946472e+02 9.54162415e+02 7.42277026e-01]
  [8.74598877e+02 9.12893188e+02 6.64998174e-01]]]