[[[7.5102130e+02 3.5367593e+02 8.4568703e-01]
  [7.3923724e+02 4.3319553e+02 9.2850578e-01]
  [6.7455676e+02 4.3327707e+02 8.6594272e-01]
  [6.5092065e+02 5.0386496e+02 8.7872648e-01]
  [6.2460229e+02 4.7735080e+02 8.7207109e-01]
  [7.9816260e+02 4.3314804e+02 8.2021856e-01]
  [8.0993188e+02 5.2441284e+02 8.8098127e-01]
  [7.6862976e+02 6.1269238e+02 8.3878189e-01]
  [7.2748956e+02 6.0681464e+02 6.6394085e-01]
  [6.8920526e+02 6.0679053e+02 6.6601175e-01]
  [6.3330255e+02 7.8050574e+02 8.2178509e-01]
  [6.4214642e+02 9.3939642e+02 7.9462147e-01]
  [7.6864954e+02 6.0683307e+02 6.5267175e-01]
  [8.3333783e+02 8.0393359e+02 8.5451478e-01]
  [8.8937762e+02 9.3361139e+02 7.7407825e-01]
  [7.4235577e+02 3.3885272e+02 9.3354088e-01]
  [7.6869830e+02 3.4485565e+02 8.6233455e-01]
  [7.2459393e+02 3.4193637e+02 5.8833909e-01]
  [7.8917004e+02 3.6552219e+02 8.0216748e-01]
  [8.8644519e+02 9.7760907e+02 7.6053900e-01]
  [9.0992462e+02 9.7461627e+02 7.6818883e-01]
  [8.9819269e+02 9.5117578e+02 6.0859537e-01]
  [6.0386438e+02 9.7475385e+02 7.7954483e-01]
  [5.9807178e+02 9.6875842e+02 7.6982927e-01]
  [6.5102289e+02 9.5415747e+02 8.3677906e-01]]]