[[[7.8342938e+02 3.3891376e+02 9.4761759e-01]
  [7.6866986e+02 4.2136404e+02 8.4251958e-01]
  [7.0692023e+02 4.1258725e+02 7.7804154e-01]
  [6.2446100e+02 4.0370737e+02 8.4214616e-01]
  [6.8911053e+02 3.6837994e+02 8.5885596e-01]
  [8.3629059e+02 4.3311420e+02 8.0517673e-01]
  [9.3646069e+02 4.3598230e+02 7.8820795e-01]
  [9.2465662e+02 4.0956741e+02 8.7276655e-01]
  [7.4813141e+02 6.1565326e+02 7.0745605e-01]
  [7.1271704e+02 6.0972974e+02 6.7811668e-01]
  [6.7743506e+02 7.8621545e+02 8.3662760e-01]
  [6.4205170e+02 9.3650677e+02 7.9700381e-01]
  [7.8943152e+02 6.1862659e+02 7.3432177e-01]
  [8.8337250e+02 7.6274060e+02 8.8133967e-01]
  [8.7754584e+02 9.3942737e+02 7.6951575e-01]
  [7.6284888e+02 3.3590378e+02 9.2287797e-01]
  [7.8926953e+02 3.2136526e+02 9.2345893e-01]
  [7.3934827e+02 3.5662708e+02 8.0242842e-01]
  [8.0982361e+02 3.4780371e+02 3.0483520e-01]
  [9.4532062e+02 9.7479797e+02 6.9516951e-01]
  [9.3944012e+02 9.6584021e+02 6.2408191e-01]
  [8.5685645e+02 9.5700220e+02 8.0696815e-01]
  [6.3039655e+02 9.7460406e+02 7.5088263e-01]
  [6.1269153e+02 9.6592902e+02 7.3330617e-01]
  [6.4507251e+02 9.5418616e+02 7.2659516e-01]]]