[[[1.2660657e+03 3.1829068e+02 9.2353594e-01]
  [1.2425264e+03 4.1267844e+02 7.2998756e-01]
  [1.2278037e+03 4.1263092e+02 7.7143186e-01]
  [1.2396661e+03 5.0976099e+02 8.1131798e-01]
  [1.3074207e+03 5.7446179e+02 8.8007069e-01]
  [1.2631559e+03 4.1265091e+02 6.5067124e-01]
  [1.2543424e+03 5.1849792e+02 5.8979843e-02]
  [0.0000000e+00 0.0000000e+00 0.0000000e+00]
  [1.2660637e+03 6.1271143e+02 5.9721500e-01]
  [1.2719906e+03 6.0977643e+02 5.9849381e-01]
  [1.3425753e+03 7.6575598e+02 8.3359623e-01]
  [1.3602705e+03 9.3348303e+02 8.1822318e-01]
  [1.2603055e+03 6.1564758e+02 5.0246423e-01]
  [1.2572483e+03 7.8344531e+02 8.6317998e-01]
  [1.2249403e+03 9.4528076e+02 7.6839852e-01]
  [1.2542207e+03 3.0957645e+02 8.6183292e-01]
  [1.2808066e+03 3.1532657e+02 9.0362293e-01]
  [1.2219075e+03 3.3591156e+02 7.8618330e-01]
  [1.2866646e+03 3.4188583e+02 4.8716047e-01]
  [1.2866946e+03 9.7481281e+02 7.3140478e-01]
  [1.2807102e+03 9.7171259e+02 6.4578283e-01]
  [1.2072117e+03 9.5704297e+02 7.7566832e-01]
  [1.4280490e+03 9.4523492e+02 7.0988595e-01]
  [1.4162070e+03 9.5405286e+02 7.6746649e-01]
  [1.3514030e+03 9.5125629e+02 8.0112946e-01]]]