[[[1.04241797e+03 3.86063263e+02 5.05143464e-01]
  [1.07196692e+03 4.33211090e+02 7.34250128e-01]
  [1.08068701e+03 4.36134460e+02 5.23480296e-01]
  [1.02194220e+03 3.42013550e+02 3.57957333e-01]
  [1.02178015e+03 2.68216125e+02 2.33312517e-01]
  [1.06892639e+03 4.30213470e+02 8.16604733e-01]
  [1.02480981e+03 3.41931793e+02 8.35847080e-01]
  [1.02176880e+03 2.71252045e+02 8.35180461e-01]
  [1.05127026e+03 6.12698364e+02 5.83538175e-01]
  [1.05126343e+03 6.09740051e+02 5.11418641e-01]
  [1.01890576e+03 7.83434631e+02 5.68856657e-01]
  [1.06599463e+03 9.24611633e+02 4.71676767e-01]
  [1.05132336e+03 6.18557556e+02 5.75568497e-01]
  [1.00706982e+03 7.86273376e+02 8.44641805e-01]
  [1.07177612e+03 9.30494873e+02 8.27736557e-01]
  [0.00000000e+00 0.00000000e+00 0.00000000e+00]
  [1.04840906e+03 3.77195831e+02 6.52238786e-01]
  [0.00000000e+00 0.00000000e+00 0.00000000e+00]
  [1.07179041e+03 3.88918396e+02 7.42507100e-01]
  [1.01008661e+03 9.42389832e+02 7.55764186e-01]
  [1.02468176e+03 9.51132507e+02 8.36289167e-01]
  [1.09231726e+03 9.45336060e+02 8.12314510e-01]
  [1.01884436e+03 9.30575806e+02 3.09018195e-01]
  [1.02190186e+03 9.27653748e+02 2.98782259e-01]
  [1.08939526e+03 9.30614990e+02 1.29983485e-01]]]