[[[9.95347473e+02 3.68410797e+02 9.07849908e-01]
  [9.74618408e+02 4.77304199e+02 9.14103329e-01]
  [9.04171448e+02 4.65547974e+02 8.49497199e-01]
  [8.83359314e+02 5.62685303e+02 7.80022860e-01]
  [8.62821899e+02 6.45030212e+02 6.51582539e-01]
  [1.03945740e+03 4.83164062e+02 8.51172626e-01]
  [1.05125867e+03 5.77274963e+02 8.86024475e-01]
  [1.06304822e+03 6.39145142e+02 8.09897363e-01]
  [9.54214600e+02 6.47952087e+02 7.80175745e-01]
  [9.12883057e+02 6.47937683e+02 7.37119436e-01]
  [8.74692749e+02 8.09769714e+02 8.56327415e-01]
  [8.56974915e+02 9.39351929e+02 8.46063733e-01]
  [9.98385315e+02 6.48005310e+02 7.84213006e-01]
  [1.08657275e+03 7.83458130e+02 8.16404104e-01]
  [1.09543054e+03 9.27732422e+02 8.65390658e-01]
  [9.77791687e+02 3.62460968e+02 9.39528584e-01]
  [1.00415387e+03 3.65418701e+02 9.08113420e-01]
  [9.54148254e+02 3.83065033e+02 8.52815628e-01]
  [1.01889014e+03 3.92001984e+02 6.99107528e-01]
  [1.14242493e+03 9.71776733e+02 7.70292163e-01]
  [1.14545093e+03 9.57052673e+02 7.54789114e-01]
  [1.08067969e+03 9.45223145e+02 7.51966357e-01]
  [8.36421326e+02 9.68859741e+02 7.33135462e-01]
  [8.24605530e+02 9.57164490e+02 7.53693521e-01]
  [8.62900757e+02 9.54105103e+02 7.98407257e-01]]]