[[[9.74725830e+02 4.06606415e+02 9.28559899e-01]
  [9.98103882e+02 4.77271729e+02 9.00969148e-01]
  [9.30510315e+02 4.62534943e+02 8.86076868e-01]
  [8.83437256e+02 5.47895020e+02 9.16736603e-01]
  [9.30615662e+02 6.03956726e+02 8.42582643e-01]
  [1.05715771e+03 4.83190155e+02 8.40612710e-01]
  [1.07173413e+03 5.71419739e+02 8.84027779e-01]
  [1.02469910e+03 6.27373108e+02 8.93106759e-01]
  [9.63001221e+02 6.47960876e+02 7.56638408e-01]
  [9.21776245e+02 6.42071472e+02 7.37792730e-01]
  [8.59811279e+02 7.92296936e+02 8.81298244e-01]
  [8.56910156e+02 9.33508362e+02 8.26157451e-01]
  [1.00710297e+03 6.53909119e+02 7.13620901e-01]
  [1.09531873e+03 7.95196228e+02 8.35188270e-01]
  [1.14262927e+03 9.30555664e+02 8.38639379e-01]
  [9.62928650e+02 3.88978882e+02 9.12242889e-01]
  [9.89435608e+02 3.89064453e+02 8.53471339e-01]
  [9.51154114e+02 3.94928436e+02 1.37135535e-01]
  [1.02165503e+03 3.97875275e+02 7.52188981e-01]
  [1.16897974e+03 9.60048584e+02 7.13003159e-01]
  [1.18659033e+03 9.54064087e+02 7.89023459e-01]
  [1.13955640e+03 9.51122009e+02 7.71746278e-01]
  [8.27559021e+02 9.62918579e+02 6.89387381e-01]
  [8.12941833e+02 9.54148865e+02 7.79263437e-01]
  [8.62958252e+02 9.51203369e+02 8.31232548e-01]]]