[[[0.00000000e+00 0.00000000e+00 0.00000000e+00]
  [1.02168280e+03 5.77306458e+02 8.60338092e-01]
  [9.54183411e+02 5.74443604e+02 7.91369677e-01]
  [9.39372620e+02 6.68565613e+02 8.21172714e-01]
  [9.24667480e+02 7.62722900e+02 8.93635690e-01]
  [1.08653271e+03 5.77522766e+02 7.59381592e-01]
  [1.08937256e+03 6.83329529e+02 7.84280062e-01]
  [1.09242651e+03 7.65911560e+02 9.00578201e-01]
  [1.01591125e+03 6.71498901e+02 7.22992361e-01]
  [9.77681763e+02 6.68648315e+02 7.33075976e-01]
  [9.80553223e+02 7.80507812e+02 8.58268499e-01]
  [9.77575195e+02 9.24625732e+02 8.64702761e-01]
  [1.04820911e+03 6.74470825e+02 7.15758443e-01]
  [1.05131311e+03 7.65621887e+02 8.32501352e-01]
  [1.04527283e+03 9.04152710e+02 8.52523685e-01]
  [0.00000000e+00 0.00000000e+00 0.00000000e+00]
  [0.00000000e+00 0.00000000e+00 0.00000000e+00]
  [9.86463806e+02 5.98030884e+02 1.03664324e-01]
  [1.04545020e+03 5.95096436e+02 1.49911031e-01]
  [1.04538916e+03 9.45316956e+02 7.29768872e-01]
  [1.06587012e+03 9.36510071e+02 7.14604378e-01]
  [1.03062305e+03 9.15864136e+02 6.26552999e-01]
  [9.77656250e+02 9.57076477e+02 8.23235571e-01]
  [9.57101868e+02 9.54095703e+02 8.38539302e-01]
  [9.80622864e+02 9.30665527e+02 7.56747186e-01]]]