[[[7.7158917e+02 7.3037122e+02 8.5455012e-01]
  [7.8341254e+02 8.0395862e+02 8.3713788e-01]
  [7.2158447e+02 8.2169635e+02 7.6833755e-01]
  [6.5975928e+02 9.0391913e+02 8.5779214e-01]
  [5.9203821e+02 9.7464502e+02 8.4717947e-01]
  [8.3648303e+02 7.8050861e+02 7.9395777e-01]
  [8.5709790e+02 8.8059271e+02 9.1649801e-01]
  [8.3332300e+02 9.8354968e+02 8.5565907e-01]
  [9.3346228e+02 9.0414636e+02 7.0450091e-01]
  [9.1877655e+02 9.3640753e+02 6.3024485e-01]
  [1.0218759e+03 9.7481476e+02 6.4376271e-01]
  [1.1748523e+03 9.3355176e+02 6.3040555e-01]
  [9.5116144e+02 8.7172461e+02 6.7218029e-01]
  [1.0187776e+03 9.8355048e+02 7.4678892e-01]
  [1.1867214e+03 9.4814197e+02 6.8587303e-01]
  [7.5987439e+02 7.1571643e+02 9.0515798e-01]
  [7.8647803e+02 7.1576440e+02 9.1115367e-01]
  [7.3627081e+02 7.2749762e+02 7.1273685e-01]
  [8.0974860e+02 7.2746753e+02 5.4577875e-01]
  [1.2189915e+03 9.8060999e+02 3.3469990e-01]
  [1.2160853e+03 9.7461078e+02 3.6320227e-01]
  [1.2043187e+03 9.2753638e+02 4.1268107e-01]
  [1.2336902e+03 9.6591016e+02 2.3659155e-01]
  [1.2307594e+03 9.7178369e+02 2.3341766e-01]
  [1.1896390e+03 9.0710590e+02 4.7659624e-01]]]