[[[9.3067548e+02 3.0657001e+02 8.1871414e-01]
  [9.3060852e+02 3.9206503e+02 8.5528421e-01]
  [8.7461969e+02 3.9195865e+02 7.9293168e-01]
  [7.9807098e+02 3.1244061e+02 7.9455125e-01]
  [8.5690674e+02 3.1853622e+02 8.7137085e-01]
  [9.9522351e+02 3.9781699e+02 7.1729153e-01]
  [1.0688960e+03 3.2725812e+02 8.0289245e-01]
  [9.8056781e+02 3.3908417e+02 8.5259354e-01]
  [9.2771790e+02 6.1559253e+02 7.2342950e-01]
  [8.8363672e+02 6.1270160e+02 6.9120187e-01]
  [8.8363531e+02 7.7162860e+02 8.5030228e-01]
  [8.8050702e+02 9.3347028e+02 8.4030163e-01]
  [9.7177844e+02 6.1560223e+02 6.6797721e-01]
  [9.5710175e+02 7.7462640e+02 8.1326872e-01]
  [9.5129694e+02 9.3058630e+02 8.6154521e-01]
  [9.2757751e+02 2.9496497e+02 7.0063037e-01]
  [9.5114099e+02 2.9788208e+02 7.9306173e-01]
  [9.0693842e+02 3.3012677e+02 2.6814577e-01]
  [9.6591406e+02 3.2141974e+02 4.9622986e-01]
  [9.4531696e+02 9.7172394e+02 7.1486700e-01]
  [9.6591943e+02 9.6878229e+02 7.2431207e-01]
  [9.4819891e+02 9.4814343e+02 6.3204223e-01]
  [8.8053009e+02 9.7181653e+02 8.1093544e-01]
  [8.5993561e+02 9.6586566e+02 7.8794467e-01]
  [8.8355890e+02 9.5111432e+02 7.4079072e-01]]]