[[[9.01189026e+02 3.62537384e+02 9.55901325e-01]
  [8.86514771e+02 4.56689362e+02 8.86722624e-01]
  [8.56853394e+02 4.56759277e+02 8.65889192e-01]
  [8.33525269e+02 5.74374756e+02 9.13655281e-01]
  [8.09836487e+02 6.71538208e+02 9.10540640e-01]
  [9.27651978e+02 4.56709320e+02 8.81404757e-01]
  [1.01882153e+03 4.62565613e+02 6.44043982e-01]
  [1.03071265e+03 4.56604858e+02 6.96894765e-01]
  [8.80564880e+02 6.47965027e+02 7.10394323e-01]
  [8.51055176e+02 6.51033203e+02 6.49452984e-01]
  [8.12783203e+02 8.15817444e+02 8.87917995e-01]
  [7.62829712e+02 9.48174622e+02 8.55681062e-01]
  [9.10022278e+02 6.42129333e+02 6.42918885e-01]
  [1.04547070e+03 6.12656555e+02 8.34901333e-01]
  [9.92378784e+02 7.74593994e+02 7.76383460e-01]
  [8.80508911e+02 3.56678436e+02 9.06891584e-01]
  [9.06942688e+02 3.47782532e+02 9.04573262e-01]
  [8.53988281e+02 3.85916809e+02 8.58617902e-01]
  [9.21674927e+02 3.86005585e+02 9.78609324e-02]
  [1.03355884e+03 8.36347046e+02 7.56034255e-01]
  [1.04232483e+03 8.27545410e+02 7.26152658e-01]
  [9.68800354e+02 7.86288818e+02 8.18778157e-01]
  [7.62714539e+02 9.77601379e+02 7.66936123e-01]
  [7.39323975e+02 9.74583923e+02 7.90246248e-01]
  [7.62759888e+02 9.57059509e+02 6.76792800e-01]]]