[[[9.95305359e+02 3.91982086e+02 9.08921838e-01]
  [9.68800354e+02 4.80080658e+02 8.70843709e-01]
  [9.06992981e+02 4.68531647e+02 8.53726089e-01]
  [9.01031616e+02 5.62653259e+02 7.71996558e-01]
  [9.01134949e+02 6.33340027e+02 8.59234154e-01]
  [1.02192126e+03 4.80333038e+02 8.97343397e-01]
  [1.04243469e+03 5.74381531e+02 8.89593661e-01]
  [1.06012598e+03 6.50965576e+02 8.06187987e-01]
  [9.74760132e+02 6.45118774e+02 8.24864745e-01]
  [9.36432190e+02 6.45167297e+02 7.56939113e-01]
  [9.33548706e+02 7.83376465e+02 8.86965990e-01]
  [9.48166687e+02 9.12859619e+02 8.31062615e-01]
  [1.01008069e+03 6.45137451e+02 7.43709385e-01]
  [1.00133008e+03 7.74565125e+02 8.56270432e-01]
  [9.86442627e+02 9.07154297e+02 8.09518993e-01]
  [9.83546875e+02 3.85904541e+02 9.07949090e-01]
  [1.00420172e+03 3.89041656e+02 9.03869927e-01]
  [9.62967102e+02 3.89051910e+02 8.30940068e-01]
  [1.01880768e+03 4.12499969e+02 7.11787939e-01]
  [9.74692932e+02 9.45279663e+02 7.09818482e-01]
  [9.95325928e+02 9.42373047e+02 7.17248797e-01]
  [9.80697327e+02 9.24682556e+02 6.86680257e-01]
  [9.27603516e+02 9.45321228e+02 7.67520726e-01]
  [9.12947021e+02 9.33608154e+02 7.57558942e-01]
  [9.54108887e+02 9.27558960e+02 7.99163878e-01]]]