[[[1.0865276e+03 4.8017819e+02 8.9893258e-01]
  [1.0511876e+03 5.0678113e+02 7.6269829e-01]
  [1.0394594e+03 4.9791812e+02 7.9506612e-01]
  [1.0217706e+03 5.9205011e+02 8.4864354e-01]
  [1.0247576e+03 6.7167352e+02 8.3631521e-01]
  [1.0687600e+03 5.2146820e+02 6.8274784e-01]
  [1.0688684e+03 6.1267004e+02 8.4000802e-01]
  [1.0689508e+03 6.9500464e+02 9.3251759e-01]
  [9.5412549e+02 6.4511871e+02 7.7997422e-01]
  [9.2471283e+02 6.3328149e+02 6.9077802e-01]
  [8.4516705e+02 7.8043341e+02 8.2122207e-01]
  [8.3044757e+02 9.2178619e+02 8.2034743e-01]
  [9.8645850e+02 6.5393848e+02 6.9140047e-01]
  [1.0512512e+03 7.7453687e+02 8.2120728e-01]
  [1.0835875e+03 9.2174023e+02 8.0475193e-01]
  [1.0748186e+03 4.5962317e+02 9.2701322e-01]
  [1.0983396e+03 4.7431943e+02 8.5738248e-01]
  [1.0600145e+03 4.5377399e+02 7.9174310e-01]
  [1.1159396e+03 4.8035919e+02 5.3731191e-01]
  [1.1277926e+03 9.4821692e+02 7.6479542e-01]
  [1.1278287e+03 9.3358356e+02 7.3580831e-01]
  [1.0690204e+03 9.3352399e+02 8.3236724e-01]
  [8.0983209e+02 9.5107141e+02 7.4970013e-01]
  [7.9220209e+02 9.4234790e+02 7.5386947e-01]
  [8.3634125e+02 9.3354205e+02 7.8952968e-01]]]