[[[1.01302142e+03 4.12662231e+02 8.62865210e-01]
  [9.71679749e+02 5.06834839e+02 8.87091994e-01]
  [9.07059082e+02 5.15613220e+02 8.00582111e-01]
  [8.83649170e+02 6.18621155e+02 8.37520957e-01]
  [8.80492126e+02 7.15790833e+02 9.08205867e-01]
  [1.02482495e+03 5.03827301e+02 8.88612926e-01]
  [1.04525146e+03 6.06804993e+02 8.45695794e-01]
  [1.07175024e+03 6.95211121e+02 9.00511682e-01]
  [9.95352661e+02 6.74476501e+02 7.67707646e-01]
  [9.51162231e+02 6.83357849e+02 7.42813706e-01]
  [8.59966797e+02 7.86194153e+02 8.72021675e-01]
  [8.74565369e+02 9.36423950e+02 7.93596745e-01]
  [1.03363708e+03 6.68630981e+02 7.31413066e-01]
  [1.11298926e+03 7.68712952e+02 8.04208219e-01]
  [1.11887231e+03 9.30693298e+02 8.45668018e-01]
  [9.98346069e+02 4.06621429e+02 8.92433107e-01]
  [1.00414441e+03 4.06538208e+02 1.10310204e-01]
  [9.62900269e+02 4.21357086e+02 7.57672250e-01]
  [0.00000000e+00 0.00000000e+00 0.00000000e+00]
  [1.12190857e+03 9.71730103e+02 7.12520063e-01]
  [1.14244531e+03 9.62982849e+02 7.42429078e-01]
  [1.11296277e+03 9.48269470e+02 6.94371283e-01]
  [8.27555359e+02 9.65860596e+02 7.22730815e-01]
  [8.27476318e+02 9.54226257e+02 7.48197019e-01]
  [8.83611206e+02 9.54023621e+02 8.56583595e-01]]]