[[[1.01874207e+03 3.65347687e+02 9.34904158e-01]
  [1.00116949e+03 4.47881104e+02 8.79164934e-01]
  [9.48270264e+02 4.47878815e+02 8.17163587e-01]
  [9.30451294e+02 5.44980652e+02 8.92526925e-01]
  [9.04202942e+02 6.24428467e+02 9.34140563e-01]
  [1.05717847e+03 4.47816467e+02 7.66331911e-01]
  [1.07475537e+03 3.83150452e+02 7.57323563e-01]
  [1.04828552e+03 3.18345306e+02 7.83284485e-01]
  [9.95368469e+02 6.18614807e+02 6.99986041e-01]
  [9.54007629e+02 6.21465454e+02 7.02878416e-01]
  [9.33467407e+02 7.77538330e+02 8.50256324e-01]
  [9.07015625e+02 9.12968994e+02 8.49864900e-01]
  [1.03359082e+03 6.18555481e+02 6.62016153e-01]
  [1.05135962e+03 7.83284668e+02 8.41395378e-01]
  [1.07184387e+03 9.27476196e+02 8.61448169e-01]
  [1.00411334e+03 3.47841034e+02 8.84889245e-01]
  [1.03062659e+03 3.59490662e+02 8.71725917e-01]
  [9.86460388e+02 3.62440552e+02 5.94113231e-01]
  [1.04838330e+03 3.74239716e+02 6.78293288e-01]
  [1.11003052e+03 9.54261292e+02 7.58082509e-01]
  [1.11883582e+03 9.51127258e+02 8.27097058e-01]
  [1.06011719e+03 9.39408325e+02 8.27897787e-01]
  [9.06935059e+02 9.51179199e+02 8.51361334e-01]
  [8.83625183e+02 9.48150818e+02 8.07998121e-01]
  [9.07134766e+02 9.27660767e+02 7.67128348e-01]]]