[[[1.3279762e+03 3.5660590e+02 9.2993641e-01]
  [1.3337635e+03 4.3615027e+02 9.1543484e-01]
  [1.2838939e+03 4.3010580e+02 8.6236870e-01]
  [1.2337302e+03 4.8615344e+02 9.2400408e-01]
  [1.2336870e+03 5.5094415e+02 9.2955351e-01]
  [1.3838007e+03 4.5373007e+02 8.2793331e-01]
  [1.4044520e+03 5.4207611e+02 8.4192616e-01]
  [1.3308419e+03 6.0084631e+02 9.1657686e-01]
  [1.3279862e+03 6.2440167e+02 8.1917483e-01]
  [1.2926342e+03 6.2157397e+02 7.4384320e-01]
  [1.3190575e+03 7.7460547e+02 8.2172120e-01]
  [1.3514124e+03 9.2473370e+02 8.6482084e-01]
  [1.3602477e+03 6.2446362e+02 7.5352484e-01]
  [1.3602758e+03 7.6571204e+02 8.7879932e-01]
  [1.3867933e+03 9.3050153e+02 8.2440257e-01]
  [1.3190530e+03 3.4185309e+02 9.2766142e-01]
  [1.3456045e+03 3.4190253e+02 9.1639948e-01]
  [1.3043734e+03 3.5949146e+02 1.1160405e-01]
  [1.3748597e+03 3.5962805e+02 8.5707891e-01]
  [1.3308398e+03 9.5106146e+02 6.4377105e-01]
  [1.3514194e+03 9.5406226e+02 6.8555367e-01]
  [1.4014515e+03 9.5117102e+02 8.6741346e-01]
  [1.3043177e+03 9.5107147e+02 7.7924347e-01]
  [1.3042817e+03 9.4232898e+02 6.8263084e-01]
  [1.3546073e+03 9.3360980e+02 4.2733595e-01]]]