[[[9.7758026e+02 3.0659024e+02 8.7944740e-01]
  [9.6879193e+02 3.8894281e+02 8.8670468e-01]
  [9.0414636e+02 3.8315405e+02 8.6002028e-01]
  [8.5987903e+02 4.7435275e+02 8.6033452e-01]
  [8.8040948e+02 5.3620361e+02 8.6036217e-01]
  [1.0247959e+03 3.9205045e+02 7.7353847e-01]
  [9.6882220e+02 4.4489944e+02 5.5839133e-01]
  [9.3053644e+02 3.9783002e+02 5.5505779e-02]
  [9.5420642e+02 5.8918231e+02 7.1740139e-01]
  [9.1002686e+02 5.8912256e+02 6.7644292e-01]
  [8.8941382e+02 7.6288287e+02 8.4081662e-01]
  [8.5682227e+02 9.4232983e+02 7.9416633e-01]
  [1.0011461e+03 5.8917212e+02 7.2299159e-01]
  [1.0658839e+03 7.6281512e+02 8.7682629e-01]
  [1.0954005e+03 9.2175055e+02 8.1055200e-01]
  [9.7459821e+02 2.9172830e+02 9.1879022e-01]
  [9.9828821e+02 2.9495898e+02 8.3789831e-01]
  [9.5403400e+02 2.9474414e+02 1.6181587e-01]
  [1.0248286e+03 3.1826669e+02 5.5331677e-01]
  [1.0954918e+03 9.6877612e+02 6.7998743e-01]
  [1.1189286e+03 9.5714594e+02 7.2772217e-01]
  [1.0923846e+03 9.3064172e+02 6.7616606e-01]
  [7.9226581e+02 9.7773517e+02 7.0000851e-01]
  [7.9219653e+02 9.7173480e+02 6.6248173e-01]
  [8.6578180e+02 9.5707874e+02 7.7718049e-01]]]