[[[1.1395061e+03 4.3622586e+02 9.8300093e-01]
  [1.1395602e+03 5.2437000e+02 8.8034868e-01]
  [1.0982899e+03 5.2724310e+02 8.1732941e-01]
  [1.0954557e+03 6.0679504e+02 5.6996900e-01]
  [1.0953047e+03 6.6856464e+02 8.0898023e-01]
  [1.1777581e+03 5.2149969e+02 8.0386102e-01]
  [1.2306774e+03 5.8625073e+02 8.2080197e-01]
  [1.1425127e+03 6.2141608e+02 8.8166064e-01]
  [1.1601228e+03 6.8626282e+02 6.3819802e-01]
  [1.1513467e+03 6.9210028e+02 4.8528683e-01]
  [1.1160005e+03 8.1279236e+02 9.0956694e-01]
  [1.2072279e+03 9.3046210e+02 7.9046118e-01]
  [1.1631418e+03 6.7745013e+02 5.9031528e-01]
  [1.0424042e+03 7.8630688e+02 8.8909149e-01]
  [1.0954408e+03 9.1584796e+02 8.1155157e-01]
  [1.1306527e+03 4.2730438e+02 8.7094533e-01]
  [1.1571897e+03 4.3308667e+02 8.8202381e-01]
  [1.1159390e+03 4.3602060e+02 1.2760480e-01]
  [1.1835616e+03 4.4786304e+02 6.9068706e-01]
  [1.0424198e+03 9.3648694e+02 8.4010047e-01]
  [1.0513231e+03 9.4532788e+02 8.3990389e-01]
  [1.1159438e+03 9.2771716e+02 8.2623923e-01]
  [1.1629849e+03 9.5410089e+02 7.3718512e-01]
  [1.1632000e+03 9.5113104e+02 6.6016853e-01]
  [1.2248752e+03 9.3650787e+02 6.6099524e-01]]]