[[[1.14250586e+03 4.03683929e+02 9.10892248e-01]
  [1.18647375e+03 4.53690948e+02 7.74872482e-01]
  [1.19545508e+03 4.44931610e+02 6.74666762e-01]
  [0.00000000e+00 0.00000000e+00 0.00000000e+00]
  [0.00000000e+00 0.00000000e+00 0.00000000e+00]
  [1.16894458e+03 4.56572479e+02 8.58146667e-01]
  [1.16908557e+03 5.50851379e+02 8.49482775e-01]
  [1.16594910e+03 6.44982483e+02 8.29823017e-01]
  [1.21601794e+03 6.39172668e+02 6.59110427e-01]
  [1.23380811e+03 6.36276367e+02 5.78663051e-01]
  [1.23078918e+03 7.92280518e+02 8.28671992e-01]
  [1.28390015e+03 9.27737854e+02 8.50052655e-01]
  [1.20133032e+03 6.42062012e+02 6.39646828e-01]
  [1.13648267e+03 7.71613831e+02 8.10429156e-01]
  [1.07184814e+03 9.27596985e+02 8.85031819e-01]
  [1.13938379e+03 3.89048553e+02 9.46499228e-01]
  [1.16011475e+03 3.86159821e+02 9.43633437e-01]
  [0.00000000e+00 0.00000000e+00 0.00000000e+00]
  [1.18952258e+03 3.89094299e+02 9.32081103e-01]
  [1.00132550e+03 9.48109131e+02 7.54590750e-01]
  [1.01891394e+03 9.51190430e+02 8.25993776e-01]
  [1.08654834e+03 9.48244141e+02 7.60842502e-01]
  [1.23970691e+03 9.42286194e+02 7.35886812e-01]
  [1.25423535e+03 9.33536133e+02 6.86831176e-01]
  [1.30428931e+03 9.48124817e+02 7.93838263e-01]]]