[[[1.03655835e+03 3.86143250e+02 4.64450061e-01]
  [1.07195227e+03 4.36165344e+02 7.04014301e-01]
  [1.07777527e+03 4.42004608e+02 4.91023362e-01]
  [1.02460388e+03 3.42063782e+02 1.42978996e-01]
  [0.00000000e+00 0.00000000e+00 0.00000000e+00]
  [1.06899268e+03 4.33078613e+02 8.30367506e-01]
  [1.02477319e+03 3.41869904e+02 8.88497531e-01]
  [1.02176550e+03 2.71196106e+02 8.86554539e-01]
  [1.05132678e+03 6.15665955e+02 6.00993276e-01]
  [1.05131482e+03 6.12722839e+02 5.23141384e-01]
  [1.01889984e+03 7.86212036e+02 5.44412792e-01]
  [1.06600525e+03 9.24616638e+02 4.58685607e-01]
  [1.05415613e+03 6.21444519e+02 6.03247166e-01]
  [1.00705304e+03 7.86268066e+02 8.50221395e-01]
  [1.07177783e+03 9.30492798e+02 8.28891754e-01]
  [0.00000000e+00 0.00000000e+00 0.00000000e+00]
  [1.04829065e+03 3.77240967e+02 6.60504758e-01]
  [0.00000000e+00 0.00000000e+00 0.00000000e+00]
  [1.07178833e+03 3.88990753e+02 7.54402697e-01]
  [1.01005664e+03 9.45224976e+02 7.58761227e-01]
  [1.02467151e+03 9.51150085e+02 8.39711428e-01]
  [1.09233191e+03 9.45337952e+02 8.14797521e-01]
  [1.01881635e+03 9.30606079e+02 2.94884473e-01]
  [1.02188049e+03 9.27674316e+02 2.88036972e-01]
  [1.08940674e+03 9.30616028e+02 1.25570357e-01]]]