[[[9.24607178e+02 3.88884796e+02 9.39377666e-01]
  [9.04013672e+02 4.71397430e+02 8.70813131e-01]
  [8.59903809e+02 4.80305420e+02 8.38638246e-01]
  [8.09945435e+02 5.92052734e+02 8.77012551e-01]
  [7.48105286e+02 6.83328186e+02 7.95304716e-01]
  [9.45287231e+02 4.56834686e+02 8.50256205e-01]
  [1.01876215e+03 4.33143951e+02 7.66574144e-01]
  [1.05127441e+03 4.06648285e+02 7.75716901e-01]
  [8.86369629e+02 6.50999695e+02 7.14213610e-01]
  [8.57045288e+02 6.56835938e+02 6.85820699e-01]
  [8.30414917e+02 8.12988586e+02 8.70050430e-01]
  [7.65889771e+02 9.36493591e+02 8.38785708e-01]
  [9.18799316e+02 6.48112915e+02 6.66569829e-01]
  [1.06004309e+03 6.47967224e+02 8.56729567e-01]
  [9.77798401e+02 7.92217712e+02 8.23096275e-01]
  [9.04085938e+02 3.80213135e+02 9.10865724e-01]
  [9.30575378e+02 3.83052277e+02 8.97223294e-01]
  [8.77590637e+02 4.00797791e+02 8.44670236e-01]
  [9.45251526e+02 4.09430267e+02 2.59745747e-01]
  [1.02777051e+03 8.36420288e+02 7.78345883e-01]
  [1.03059790e+03 8.30422546e+02 7.33880520e-01]
  [9.54208740e+02 8.03999573e+02 7.62812138e-01]
  [7.65787476e+02 9.74795349e+02 7.83299565e-01]
  [7.45220276e+02 9.68878967e+02 7.35032976e-01]
  [7.65698181e+02 9.51070862e+02 7.02877402e-01]]]