[[[1.2161434e+03 3.3599680e+02 6.9185162e-01]
  [1.2306599e+03 4.0965771e+02 8.9015281e-01]
  [1.1661411e+03 4.2143930e+02 8.2308680e-01]
  [1.1660157e+03 5.2147931e+02 6.9949180e-01]
  [1.1601017e+03 6.0386237e+02 5.4330027e-01]
  [1.2809097e+03 3.9191043e+02 8.0948693e-01]
  [1.2337614e+03 3.8895013e+02 9.0032935e-01]
  [1.2367354e+03 3.1544739e+02 9.2417490e-01]
  [1.2337542e+03 5.9507611e+02 7.2334373e-01]
  [1.1926248e+03 5.9797424e+02 6.7814183e-01]
  [1.2367775e+03 7.3920850e+02 8.6893094e-01]
  [1.2778070e+03 9.0707782e+02 8.0660808e-01]
  [1.2690919e+03 5.9496350e+02 6.2671304e-01]
  [1.2690620e+03 7.5986505e+02 7.9440325e-01]
  [1.2366733e+03 9.2468726e+02 8.1890166e-01]
  [1.2101204e+03 3.2128149e+02 7.5639957e-01]
  [1.2336049e+03 3.2128799e+02 7.5605369e-01]
  [1.1894558e+03 3.4198862e+02 6.4983028e-01]
  [1.2571879e+03 3.3892807e+02 5.5657995e-01]
  [1.2278671e+03 9.6876013e+02 6.3048184e-01]
  [1.2454760e+03 9.6006787e+02 6.6582108e-01]
  [1.2307352e+03 9.3646844e+02 7.4525559e-01]
  [1.3219827e+03 9.3057202e+02 7.6926202e-01]
  [1.3013682e+03 9.3651123e+02 6.6297895e-01]
  [1.2778798e+03 9.3047430e+02 6.8231106e-01]]]