[[[8.0692926e+02 3.4177795e+02 9.6405685e-01]
  [8.3342139e+02 4.3299594e+02 9.1279668e-01]
  [7.6569769e+02 4.3024747e+02 8.7403095e-01]
  [7.1560468e+02 5.0673218e+02 9.2005605e-01]
  [7.6587891e+02 5.4790369e+02 8.4722626e-01]
  [8.9815021e+02 4.3300482e+02 7.9538906e-01]
  [9.7174146e+02 4.8904590e+02 8.1886268e-01]
  [9.4823370e+02 4.4195792e+02 7.1495241e-01]
  [8.3335248e+02 6.1863141e+02 7.6701158e-01]
  [7.8639807e+02 6.1862152e+02 7.7063644e-01]
  [7.0096130e+02 7.6569562e+02 8.6370844e-01]
  [6.8628162e+02 9.3059595e+02 7.9188126e-01]
  [8.7761371e+02 6.2141809e+02 7.1677905e-01]
  [9.0419128e+02 7.8626636e+02 8.8813436e-01]
  [9.3348169e+02 9.3360815e+02 8.0209249e-01]
  [7.9231342e+02 3.2723676e+02 8.7311655e-01]
  [8.1877911e+02 3.3010532e+02 8.3741277e-01]
  [0.0000000e+00 0.0000000e+00 0.0000000e+00]
  [8.5689087e+02 3.4192029e+02 8.3030534e-01]
  [9.0703363e+02 9.7182190e+02 7.4962711e-01]
  [9.3052631e+02 9.7466968e+02 7.7039832e-01]
  [9.4817487e+02 9.5402374e+02 7.3081082e-01]
  [6.1267853e+02 9.6592377e+02 6.9547474e-01]
  [6.1859839e+02 9.5418665e+02 6.9429612e-01]
  [6.9809521e+02 9.5123346e+02 7.6575232e-01]]]