[[[1.04239331e+03 3.68470642e+02 9.07937765e-01]
  [1.05710547e+03 4.36025238e+02 8.21135819e-01]
  [1.03068933e+03 4.36067719e+02 7.38104641e-01]
  [1.01294635e+03 5.15572144e+02 6.23821728e-02]
  [0.00000000e+00 0.00000000e+00 0.00000000e+00]
  [1.08069238e+03 4.33275238e+02 8.28757584e-01]
  [1.09235657e+03 5.24334167e+02 8.80512595e-01]
  [1.04240295e+03 5.92116211e+02 8.35927188e-01]
  [1.01593964e+03 6.15670410e+02 7.15243697e-01]
  [9.92299011e+02 6.09794373e+02 6.72532380e-01]
  [1.00707574e+03 7.74619751e+02 8.29800427e-01]
  [1.02768237e+03 9.24581848e+02 8.26702654e-01]
  [1.04236829e+03 6.21408508e+02 7.07427502e-01]
  [1.04819116e+03 7.65718140e+02 9.23573256e-01]
  [1.08652551e+03 9.15846619e+02 8.02224398e-01]
  [1.02488928e+03 3.62451813e+02 9.61964488e-01]
  [1.05134082e+03 3.62428070e+02 8.88727367e-01]
  [1.01879529e+03 3.68417542e+02 3.19132566e-01]
  [1.07490820e+03 3.68484100e+02 7.07321763e-01]
  [1.04239185e+03 9.48269897e+02 6.99822903e-01]
  [1.06295264e+03 9.51202637e+02 7.21029401e-01]
  [1.09827673e+03 9.30563477e+02 7.73827732e-01]
  [9.83498718e+02 9.45293945e+02 7.39612579e-01]
  [9.80689697e+02 9.33526001e+02 7.02682137e-01]
  [1.04238318e+03 9.30706421e+02 6.89855039e-01]]]