[[[1.1366146e+03 3.6240762e+02 9.2200243e-01]
  [1.1012340e+03 4.3011984e+02 8.6501610e-01]
  [1.0512289e+03 4.2142084e+02 8.0272275e-01]
  [9.4810846e+02 2.9188492e+02 8.1015438e-01]
  [9.0106683e+02 3.1238348e+02 7.8203642e-01]
  [1.1512834e+03 4.3307162e+02 8.6004877e-01]
  [1.2042515e+03 3.9495877e+02 7.9661077e-01]
  [1.2513855e+03 3.7425861e+02 8.0433291e-01]
  [1.0924136e+03 6.0683679e+02 7.2559899e-01]
  [1.0600126e+03 6.0679120e+02 6.5397894e-01]
  [1.0453271e+03 7.6572174e+02 8.8056034e-01]
  [9.8942572e+02 9.0399036e+02 8.0065560e-01]
  [1.1190747e+03 6.0686023e+02 6.9720769e-01]
  [1.1483616e+03 7.6278363e+02 8.7854582e-01]
  [1.1247738e+03 9.0108453e+02 7.9197139e-01]
  [1.1190371e+03 3.4489517e+02 9.3065375e-01]
  [1.1395905e+03 3.4781586e+02 6.9387132e-01]
  [1.0923336e+03 3.5949051e+02 8.1801426e-01]
  [0.0000000e+00 0.0000000e+00 0.0000000e+00]
  [1.1248141e+03 9.4238257e+02 7.1405357e-01]
  [1.1425565e+03 9.3651215e+02 7.4668276e-01]
  [1.1158962e+03 9.0702863e+02 7.2178596e-01]
  [1.0188088e+03 9.4525409e+02 7.8602964e-01]
  [9.9815259e+02 9.3940961e+02 7.5484300e-01]
  [9.7476501e+02 9.0708386e+02 8.0902362e-01]]]