[[[9.5410736e+02 3.6563116e+02 9.4559920e-01]
  [9.8944751e+02 4.3607169e+02 8.5654598e-01]
  [1.0248641e+03 4.3911835e+02 7.3459280e-01]
  [9.7466986e+02 5.1852850e+02 1.5479733e-01]
  [9.1293433e+02 5.0964285e+02 1.3471760e-01]
  [9.5112451e+02 4.3301517e+02 8.2605094e-01]
  [8.8058453e+02 4.8032712e+02 9.2241454e-01]
  [9.1881006e+02 5.3027911e+02 6.7631191e-01]
  [9.7472302e+02 6.2160541e+02 7.4472380e-01]
  [9.9825629e+02 6.2446979e+02 7.0238453e-01]
  [9.5410504e+02 7.8341241e+02 8.9187968e-01]
  [9.8349567e+02 9.2468915e+02 8.1295723e-01]
  [9.5117468e+02 6.2151758e+02 6.8889314e-01]
  [9.1288708e+02 7.8040564e+02 8.4733772e-01]
  [9.5426807e+02 9.3056073e+02 8.2108289e-01]
  [9.5422540e+02 3.5960153e+02 7.9253685e-01]
  [9.7460559e+02 3.6533560e+02 9.4617039e-01]
  [0.0000000e+00 0.0000000e+00 0.0000000e+00]
  [9.9831506e+02 3.8598950e+02 7.7737212e-01]
  [9.0991565e+02 9.7479401e+02 8.2988256e-01]
  [9.3046722e+02 9.7761755e+02 8.6523622e-01]
  [9.7757861e+02 9.3946033e+02 7.0774114e-01]
  [9.2750024e+02 9.3940814e+02 1.1561715e-01]
  [0.0000000e+00 0.0000000e+00 0.0000000e+00]
  [1.0011088e+03 9.3071826e+02 7.8816289e-01]]]