[[[6.9809314e+02 4.3301468e+02 2.9085553e-01]
  [7.6567163e+02 4.5964496e+02 7.6293081e-01]
  [7.6576477e+02 4.3612363e+02 5.3606755e-01]
  [6.7152985e+02 3.9783295e+02 7.1732450e-01]
  [5.7446460e+02 3.6542010e+02 8.9318538e-01]
  [7.6269849e+02 4.8031018e+02 7.1047622e-01]
  [6.7150555e+02 5.5077612e+02 8.9927197e-01]
  [6.0081165e+02 6.0391241e+02 8.6819434e-01]
  [8.1283148e+02 6.4506299e+02 7.3982155e-01]
  [7.9232452e+02 6.4510748e+02 6.7567718e-01]
  [7.5687762e+02 7.9815735e+02 8.0142218e-01]
  [6.9210730e+02 9.4521967e+02 8.2864189e-01]
  [8.3339056e+02 6.4505029e+02 6.8893135e-01]
  [8.3939404e+02 8.1270905e+02 8.9251167e-01]
  [9.4819073e+02 9.4525543e+02 7.9658312e-01]
  [0.0000000e+00 0.0000000e+00 0.0000000e+00]
  [7.1271960e+02 4.1549899e+02 2.2559993e-01]
  [0.0000000e+00 0.0000000e+00 0.0000000e+00]
  [7.3926093e+02 4.1546124e+02 3.3557582e-01]
  [9.0404974e+02 9.7459741e+02 8.1681615e-01]
  [9.2462103e+02 9.7478314e+02 7.9489172e-01]
  [9.6591107e+02 9.5412036e+02 7.7041250e-01]
  [6.3329895e+02 9.7167419e+02 7.3550761e-01]
  [6.3333069e+02 9.5424786e+02 7.2552902e-01]
  [6.9802502e+02 9.5998059e+02 7.3362046e-01]]]