[[[1.03942200e+03 3.62507996e+02 5.27026057e-01]
  [1.07483398e+03 4.12501221e+02 6.80875659e-01]
  [1.08657471e+03 4.15531250e+02 4.53984082e-01]
  [1.00717456e+03 3.33094025e+02 8.59926417e-02]
  [0.00000000e+00 0.00000000e+00 0.00000000e+00]
  [1.06899329e+03 4.06630188e+02 8.03382635e-01]
  [1.00419507e+03 3.30189148e+02 8.13896894e-01]
  [9.77731079e+02 2.62430573e+02 8.47327828e-01]
  [1.04543872e+03 5.92083191e+02 5.77835143e-01]
  [1.04824316e+03 5.92040405e+02 4.76186812e-01]
  [1.02485815e+03 7.65659912e+02 6.39873385e-01]
  [1.06886719e+03 9.18755615e+02 5.83940506e-01]
  [1.04535095e+03 5.95031555e+02 5.91596425e-01]
  [1.02489954e+03 7.65812622e+02 8.16968977e-01]
  [1.07174902e+03 9.27744995e+02 8.08046103e-01]
  [1.04520386e+03 3.53630402e+02 2.24518597e-01]
  [1.04824915e+03 3.53706543e+02 7.09831476e-01]
  [0.00000000e+00 0.00000000e+00 0.00000000e+00]
  [1.07183496e+03 3.65489655e+02 5.84264219e-01]
  [1.00999457e+03 9.42326172e+02 7.21701205e-01]
  [1.02188391e+03 9.51133850e+02 7.86999226e-01]
  [1.08946399e+03 9.45332642e+02 7.87322640e-01]
  [1.02166663e+03 9.27652771e+02 3.70644808e-01]
  [1.02469031e+03 9.27521729e+02 3.53571206e-01]
  [1.08950732e+03 9.33458679e+02 1.97247222e-01]]]