[[[9.2176501e+02 3.4209103e+02 8.0900222e-01]
  [9.1878528e+02 4.2732294e+02 8.1326234e-01]
  [8.6005212e+02 4.2140836e+02 8.1556100e-01]
  [8.5699432e+02 3.1833405e+02 8.7086743e-01]
  [8.5106561e+02 2.2411507e+02 8.8319474e-01]
  [9.7475500e+02 4.3020032e+02 8.0771452e-01]
  [9.9531018e+02 3.1829343e+02 8.5867941e-01]
  [1.0100392e+03 2.3006932e+02 8.2245028e-01]
  [9.2172449e+02 6.3917633e+02 6.7911184e-01]
  [8.8339923e+02 6.3920807e+02 6.9421685e-01]
  [8.9525757e+02 8.0393188e+02 8.3506584e-01]
  [8.8063916e+02 9.4236621e+02 8.3709121e-01]
  [9.5416144e+02 6.3914014e+02 6.7598248e-01]
  [9.4527356e+02 8.0107031e+02 8.1595647e-01]
  [9.5103674e+02 9.3643542e+02 8.2010472e-01]
  [9.0707849e+02 3.4196411e+02 7.0942223e-01]
  [9.3346265e+02 3.4207556e+02 6.8423891e-01]
  [8.9529596e+02 3.6850671e+02 5.3323662e-01]
  [9.5111365e+02 3.8022122e+02 7.0959938e-01]
  [9.5114136e+02 9.7463770e+02 7.5379950e-01]
  [9.6887573e+02 9.6885370e+02 7.3803103e-01]
  [9.3938043e+02 9.5123810e+02 6.7022318e-01]
  [8.8042035e+02 9.7460559e+02 8.0935478e-01]
  [8.5991852e+02 9.6878735e+02 8.0405444e-01]
  [8.8644617e+02 9.5414435e+02 7.4060100e-01]]]