[[[9.07143311e+02 3.30158875e+02 8.72422218e-01]
  [9.51301697e+02 4.30128662e+02 8.79534543e-01]
  [8.86501587e+02 4.33236511e+02 8.45367789e-01]
  [8.80489685e+02 5.33312805e+02 8.89312983e-01]
  [8.09879211e+02 5.94956970e+02 8.68636012e-01]
  [1.01884839e+03 4.18405243e+02 8.11058998e-01]
  [1.05129138e+03 5.00893219e+02 8.84113669e-01]
  [1.07776941e+03 4.15444122e+02 8.07535768e-01]
  [9.39398987e+02 6.15658875e+02 6.96731508e-01]
  [8.98215027e+02 6.12701904e+02 6.90468192e-01]
  [8.36391663e+02 7.65652405e+02 9.53489304e-01]
  [7.59816223e+02 7.33411621e+02 8.22032928e-01]
  [9.83529724e+02 6.18538879e+02 6.92631185e-01]
  [1.00416095e+03 7.86299072e+02 8.89336944e-01]
  [9.92349304e+02 9.27591980e+02 8.36148143e-01]
  [9.07147217e+02 3.15574036e+02 4.70136940e-01]
  [9.27598755e+02 3.18257019e+02 9.51216877e-01]
  [0.00000000e+00 0.00000000e+00 0.00000000e+00]
  [9.62990906e+02 3.33099060e+02 7.79328823e-01]
  [1.02190527e+03 9.65915039e+02 7.89079070e-01]
  [1.03065771e+03 9.54147888e+02 8.01863074e-01]
  [9.74685791e+02 9.36445496e+02 8.04176152e-01]
  [7.36216248e+02 7.80469971e+02 6.42496228e-01]
  [7.21572998e+02 7.65658508e+02 6.75305903e-01]
  [7.51039062e+02 7.12685608e+02 7.12271333e-01]]]