[[[1.2161116e+03 3.1834158e+02 9.3350112e-01]
  [1.2219438e+03 4.1261725e+02 8.7616473e-01]
  [1.1630400e+03 4.2430411e+02 8.2889342e-01]
  [1.1455157e+03 5.2722736e+02 8.6017787e-01]
  [1.1190540e+03 6.0687317e+02 8.2309711e-01]
  [1.2836858e+03 4.0671451e+02 8.4036654e-01]
  [1.3338096e+03 3.5079901e+02 8.3202881e-01]
  [1.2601063e+03 3.4204996e+02 7.9939634e-01]
  [1.2307395e+03 6.1266455e+02 7.0565861e-01]
  [1.1866304e+03 6.0979181e+02 7.1223074e-01]
  [1.1867241e+03 7.6583337e+02 8.7940794e-01]
  [1.1895338e+03 9.4823920e+02 8.2911038e-01]
  [1.2720345e+03 6.1270312e+02 6.7568231e-01]
  [1.2602183e+03 7.8640686e+02 9.3857527e-01]
  [1.2366171e+03 9.1586304e+02 7.2282588e-01]
  [1.2043013e+03 3.1241467e+02 8.8507307e-01]
  [1.2338066e+03 3.1239810e+02 9.0358263e-01]
  [1.1836509e+03 3.3304962e+02 8.1766707e-01]
  [1.2572075e+03 3.3302090e+02 7.2035432e-01]
  [1.2484294e+03 9.7773639e+02 5.0297982e-01]
  [1.2601271e+03 9.7471967e+02 5.7797408e-01]
  [1.2307588e+03 9.2765063e+02 3.4889624e-01]
  [1.2396217e+03 9.7773914e+02 5.9334880e-01]
  [1.2131996e+03 9.8063666e+02 5.5558938e-01]
  [1.1836282e+03 9.6006732e+02 7.1719122e-01]]]