[[[8.0400159e+02 3.7717865e+02 8.6215383e-01]
  [8.0997894e+02 4.5662872e+02 9.4124746e-01]
  [7.6264581e+02 4.5957184e+02 8.2986951e-01]
  [6.9516827e+02 5.3327362e+02 8.9480531e-01]
  [7.3634998e+02 4.5956091e+02 8.5951030e-01]
  [8.6296149e+02 4.4788574e+02 7.8881216e-01]
  [9.3045776e+02 3.6537900e+02 9.2497200e-01]
  [8.3647217e+02 3.8597815e+02 7.7007014e-01]
  [7.8623938e+02 6.3038666e+02 7.4012882e-01]
  [7.4218372e+02 6.2740930e+02 7.4630004e-01]
  [7.1570544e+02 7.8339606e+02 8.8509583e-01]
  [7.1562189e+02 9.2760327e+02 8.6530519e-01]
  [8.2456873e+02 6.3913684e+02 7.0096129e-01]
  [9.0113458e+02 7.6280011e+02 8.6659592e-01]
  [8.8347217e+02 9.1003296e+02 8.3033526e-01]
  [7.8918402e+02 3.6548218e+02 9.8762542e-01]
  [8.1299249e+02 3.6538354e+02 9.4338185e-01]
  [7.7160162e+02 3.8616544e+02 7.4669427e-01]
  [8.3929260e+02 3.8314420e+02 8.3427477e-01]
  [9.2761487e+02 9.5711420e+02 7.2950315e-01]
  [9.3060748e+02 9.5104303e+02 7.3916733e-01]
  [8.6289441e+02 9.2751434e+02 7.5607741e-01]
  [6.7745605e+02 9.5416565e+02 7.6622397e-01]
  [6.7155518e+02 9.4826917e+02 8.0804610e-01]
  [7.2168213e+02 9.3942938e+02 8.0742913e-01]]]