[[[1.1864529e+03 3.3015845e+02 8.9299744e-01]
  [1.2042488e+03 4.1248026e+02 8.7712038e-01]
  [1.1425940e+03 4.1244910e+02 8.5872978e-01]
  [1.1630674e+03 5.0669278e+02 3.1359550e-01]
  [0.0000000e+00 0.0000000e+00 0.0000000e+00]
  [1.2601029e+03 4.1253738e+02 8.7720406e-01]
  [1.2603436e+03 5.0978549e+02 8.5359937e-01]
  [1.2101345e+03 5.8321619e+02 8.4235173e-01]
  [1.1955028e+03 5.9205353e+02 7.2548068e-01]
  [1.1629204e+03 5.8913251e+02 7.3667902e-01]
  [1.1041733e+03 7.4519733e+02 8.0822873e-01]
  [1.0717714e+03 9.0412982e+02 8.9826548e-01]
  [1.2366395e+03 5.9494672e+02 7.5425005e-01]
  [1.2308063e+03 7.4510565e+02 8.6306190e-01]
  [1.2985115e+03 8.3048663e+02 7.6244938e-01]
  [1.1719293e+03 3.1823309e+02 9.2600596e-01]
  [1.1983896e+03 3.1831290e+02 9.0594101e-01]
  [0.0000000e+00 0.0000000e+00 0.0000000e+00]
  [1.2307703e+03 3.3592438e+02 8.2392329e-01]
  [1.3074312e+03 8.7167725e+02 6.7984575e-01]
  [1.3278643e+03 8.5984033e+02 7.5457621e-01]
  [1.3042445e+03 8.3046997e+02 6.3837999e-01]
  [1.0452203e+03 9.5424316e+02 7.7622837e-01]
  [1.0248757e+03 9.4822510e+02 7.5087494e-01]
  [1.0836172e+03 9.1293677e+02 7.3400354e-01]]]