[[[9.77670410e+02 3.65556763e+02 9.70430613e-01]
  [9.57174500e+02 4.39160431e+02 8.48736584e-01]
  [9.01153870e+02 4.36011627e+02 8.81589830e-01]
  [8.59965088e+02 5.09696716e+02 9.19578493e-01]
  [8.62940552e+02 5.74424561e+02 8.91158044e-01]
  [1.02181006e+03 4.53792969e+02 8.25034082e-01]
  [1.04528540e+03 5.47952820e+02 7.71971464e-01]
  [1.04835596e+03 5.71401855e+02 8.09334636e-01]
  [9.74613464e+02 6.33263855e+02 7.62285709e-01]
  [9.30628418e+02 6.30397034e+02 7.50489116e-01]
  [9.30652161e+02 7.92336914e+02 8.62345457e-01]
  [9.30558716e+02 8.83384644e+02 9.22225714e-01]
  [1.01003229e+03 6.33253662e+02 7.06519425e-01]
  [1.00126416e+03 7.80455322e+02 8.55415285e-01]
  [9.77670959e+02 9.30653564e+02 8.54398966e-01]
  [9.68767578e+02 3.59463348e+02 8.74471784e-01]
  [9.95316711e+02 3.59563721e+02 8.97446692e-01]
  [9.45275085e+02 3.65426361e+02 8.56719077e-01]
  [1.00706335e+03 3.68408508e+02 6.31183505e-01]
  [9.54042603e+02 9.65848145e+02 7.39238918e-01]
  [9.77692200e+02 9.71781250e+02 7.67062008e-01]
  [9.77656067e+02 9.48244751e+02 6.52185321e-01]
  [9.12902710e+02 9.30690674e+02 8.86552155e-01]
  [9.03945618e+02 9.27485046e+02 8.65691304e-01]
  [9.42281982e+02 8.83499939e+02 6.88222110e-01]]]