[[[9.33477051e+02 3.18373138e+02 9.49833632e-01]
  [9.27530701e+02 4.09635101e+02 9.19896781e-01]
  [8.65866150e+02 3.91929016e+02 8.27116668e-01]
  [8.09769287e+02 4.42038330e+02 8.63643467e-01]
  [7.62905029e+02 3.91968536e+02 8.86267185e-01]
  [9.77710144e+02 4.21404419e+02 8.20964217e-01]
  [1.00110065e+03 5.18481567e+02 8.55940878e-01]
  [1.06600403e+03 5.03757446e+02 8.49889874e-01]
  [9.27461975e+02 5.98057495e+02 7.53392935e-01]
  [8.92338623e+02 5.98022949e+02 6.89375520e-01]
  [9.48185120e+02 7.42272766e+02 8.31418097e-01]
  [8.92301025e+02 9.15891602e+02 6.94480240e-01]
  [9.54034668e+02 6.00831238e+02 7.48673379e-01]
  [9.57017212e+02 7.62793823e+02 7.78200626e-01]
  [9.04068665e+02 9.04054504e+02 7.37313867e-01]
  [9.21661865e+02 3.15268646e+02 8.94736052e-01]
  [9.48277100e+02 3.12402069e+02 8.82781327e-01]
  [8.98115234e+02 3.35936218e+02 8.08689535e-01]
  [9.62970764e+02 3.30091675e+02 5.11793315e-01]
  [9.30576965e+02 9.68787231e+02 5.81099808e-01]
  [9.33541809e+02 9.54218445e+02 5.83105862e-01]
  [8.80583740e+02 9.12894409e+02 2.74109840e-01]
  [9.07027161e+02 9.71684692e+02 6.95225775e-01]
  [8.86437744e+02 9.62904480e+02 6.19101942e-01]
  [8.80442444e+02 9.30527771e+02 6.16713524e-01]]]