[[[9.51041565e+02 3.86041473e+02 9.05341208e-01]
  [9.95266968e+02 4.35968414e+02 8.67527127e-01]
  [1.02176337e+03 4.36033813e+02 7.71059692e-01]
  [9.51229309e+02 5.15546265e+02 4.69768673e-01]
  [9.09910828e+02 4.80190948e+02 7.48340011e-01]
  [9.68755249e+02 4.33234192e+02 8.34742844e-01]
  [9.48250305e+02 5.30199524e+02 8.86640966e-01]
  [9.04067505e+02 5.77305054e+02 9.13144767e-01]
  [9.77797363e+02 6.24395386e+02 7.17495263e-01]
  [9.98246277e+02 6.21553894e+02 6.58151388e-01]
  [9.83575439e+02 7.83359131e+02 7.93793499e-01]
  [9.95349731e+02 9.27652588e+02 7.43801832e-01]
  [9.68781921e+02 6.24474243e+02 6.92919314e-01]
  [9.57047546e+02 7.86175964e+02 8.57188940e-01]
  [1.00120062e+03 9.42376221e+02 7.22009838e-01]
  [0.00000000e+00 0.00000000e+00 0.00000000e+00]
  [9.54125244e+02 3.74301422e+02 8.55704069e-01]
  [0.00000000e+00 0.00000000e+00 0.00000000e+00]
  [9.80616577e+02 3.80139343e+02 7.58294106e-01]
  [9.33478027e+02 9.45228455e+02 5.19355714e-01]
  [9.48258850e+02 9.54067383e+02 4.95903403e-01]
  [1.01880804e+03 9.62957214e+02 6.90227449e-01]
  [9.33538208e+02 9.30528320e+02 6.51148736e-01]
  [9.42308289e+02 9.27590149e+02 5.46998382e-01]
  [1.01883618e+03 9.54018433e+02 2.44832739e-01]]]