[[[9.7176624e+02 3.7432303e+02 8.8456947e-01]
  [1.0041701e+03 4.4788245e+02 8.3015633e-01]
  [1.0454043e+03 4.4497653e+02 7.6477003e-01]
  [1.0453761e+03 4.1247083e+02 1.3276468e-01]
  [0.0000000e+00 0.0000000e+00 0.0000000e+00]
  [9.7182318e+02 4.4494983e+02 8.1849515e-01]
  [9.3344934e+02 5.3317529e+02 8.6910003e-01]
  [9.0699609e+02 6.0390540e+02 8.8262510e-01]
  [9.7761609e+02 6.2157147e+02 7.1224123e-01]
  [9.9823303e+02 6.2452100e+02 6.5059364e-01]
  [9.5108459e+02 7.8924689e+02 8.6270958e-01]
  [9.7468958e+02 9.3048578e+02 7.9317307e-01]
  [9.5706464e+02 6.1860706e+02 6.4152694e-01]
  [9.1292743e+02 7.8944562e+02 8.2978708e-01]
  [9.9819550e+02 9.5128925e+02 8.3952796e-01]
  [9.7453711e+02 3.6251651e+02 9.4654906e-01]
  [9.9232965e+02 3.6839142e+02 8.7829357e-01]
  [0.0000000e+00 0.0000000e+00 0.0000000e+00]
  [1.0216977e+03 3.8904514e+02 8.5479683e-01]
  [9.2759589e+02 9.7469592e+02 7.6410347e-01]
  [9.4232404e+02 9.8063300e+02 6.5748143e-01]
  [1.0188316e+03 9.6593378e+02 8.1250715e-01]
  [9.2462292e+02 9.4816248e+02 7.1415007e-01]
  [9.2760498e+02 9.3647247e+02 6.3963765e-01]
  [9.8061987e+02 9.4232709e+02 2.2075413e-01]]]