[[[9.80717041e+02 4.47909760e+02 8.61637652e-01]
  [9.57049377e+02 5.21481079e+02 8.80167842e-01]
  [9.04128479e+02 5.09776611e+02 8.68268967e-01]
  [8.83362000e+02 6.12662781e+02 8.82683277e-01]
  [8.65792358e+02 6.92222717e+02 8.99791479e-01]
  [1.01302698e+03 5.27356506e+02 8.58322144e-01]
  [1.02483459e+03 6.24626282e+02 8.61730218e-01]
  [1.02183154e+03 5.94990112e+02 9.06183124e-01]
  [9.71825073e+02 6.86322144e+02 8.05201232e-01]
  [9.30639221e+02 6.86287415e+02 7.93491066e-01]
  [9.33613708e+02 8.12932312e+02 8.93920779e-01]
  [8.86365601e+02 9.18837585e+02 8.39161515e-01]
  [1.00417938e+03 6.89170715e+02 7.75651693e-01]
  [9.86457703e+02 8.10014160e+02 9.00598764e-01]
  [1.02471460e+03 9.15888000e+02 8.72793555e-01]
  [9.74641296e+02 4.33268097e+02 9.81415987e-01]
  [9.98272217e+02 4.36238800e+02 9.48221385e-01]
  [9.48185120e+02 4.42049347e+02 8.39365721e-01]
  [1.00136993e+03 4.59564911e+02 4.95449811e-01]
  [9.98124084e+02 9.36502258e+02 7.94905543e-01]
  [1.01301666e+03 9.45216614e+02 7.51034260e-01]
  [1.03940942e+03 9.27664001e+02 7.57337809e-01]
  [8.95268921e+02 9.48190125e+02 7.88101792e-01]
  [8.77628967e+02 9.42332397e+02 7.83007264e-01]
  [8.83391357e+02 9.27647827e+02 7.61798024e-01]]]