[[[8.5705243e+02 3.4481625e+02 9.4881862e-01]
  [8.8362384e+02 4.3304288e+02 9.1107237e-01]
  [8.3327551e+02 4.3913882e+02 8.5342908e-01]
  [7.8926099e+02 5.0969238e+02 8.2533842e-01]
  [7.8632074e+02 5.3321893e+02 7.3387593e-01]
  [9.4819226e+02 4.1262625e+02 8.4179044e-01]
  [1.0248026e+03 4.5956506e+02 9.0414929e-01]
  [1.0187580e+03 5.0962808e+02 8.4784520e-01]
  [9.0119269e+02 6.1558124e+02 7.2786999e-01]
  [8.5984290e+02 6.1563892e+02 7.5226700e-01]
  [7.8623663e+02 7.5394525e+02 8.5383850e-01]
  [8.1275134e+02 8.7750623e+02 8.7716860e-01]
  [9.3935840e+02 6.1271973e+02 6.4824539e-01]
  [9.3362433e+02 7.8042297e+02 7.7640814e-01]
  [9.4230670e+02 9.3647821e+02 7.8083521e-01]
  [8.3653845e+02 3.3892395e+02 9.4889414e-01]
  [8.7167877e+02 3.3313477e+02 8.4798431e-01]
  [8.2758789e+02 3.5954913e+02 8.1137323e-01]
  [8.9521906e+02 3.4198505e+02 8.7353379e-01]
  [9.0709583e+02 9.7174438e+02 7.6008892e-01]
  [9.3061804e+02 9.7465948e+02 7.6709282e-01]
  [9.5126599e+02 9.5403937e+02 8.0572689e-01]
  [7.7166266e+02 9.2765552e+02 8.0438834e-01]
  [7.6577625e+02 9.1585028e+02 7.5766230e-01]
  [8.3339514e+02 8.8064752e+02 8.2702446e-01]]]