[[[9.77562317e+02 3.71408203e+02 9.18426394e-01]
  [9.54216309e+02 4.50861755e+02 8.92846644e-01]
  [9.01124451e+02 4.41995453e+02 8.32653999e-01]
  [8.56912781e+02 5.30366882e+02 8.81942034e-01]
  [8.86444275e+02 5.15516052e+02 5.17537057e-01]
  [1.01593134e+03 4.56712524e+02 8.30500066e-01]
  [1.00134113e+03 5.44967407e+02 6.30511761e-01]
  [1.04233289e+03 5.74376953e+02 8.39678526e-01]
  [9.74647400e+02 6.42076050e+02 7.87946880e-01]
  [9.30674316e+02 6.42111633e+02 7.57098198e-01]
  [9.27716614e+02 8.03998718e+02 8.90204012e-01]
  [9.30670471e+02 8.83441650e+02 9.26129937e-01]
  [1.01004181e+03 6.39209167e+02 7.08888292e-01]
  [1.00112952e+03 7.83367859e+02 8.77560854e-01]
  [9.77815918e+02 9.30655029e+02 8.33578825e-01]
  [9.62971497e+02 3.62525543e+02 9.15856719e-01]
  [9.92345093e+02 3.65330231e+02 9.02809143e-01]
  [9.42291321e+02 3.68513367e+02 7.91933179e-01]
  [1.00135309e+03 3.80133179e+02 6.82267129e-01]
  [9.51246216e+02 9.63005554e+02 7.24892914e-01]
  [9.77594727e+02 9.71819946e+02 7.44323671e-01]
  [9.80676575e+02 9.48272522e+02 6.68275952e-01]
  [9.18826538e+02 9.33615967e+02 8.94488454e-01]
  [9.04156067e+02 9.27672913e+02 9.19369102e-01]
  [9.48127197e+02 8.83510986e+02 7.12975085e-01]]]