[[[9.77741455e+02 3.50725494e+02 8.91382277e-01]
  [9.62961426e+02 4.33091339e+02 8.58522654e-01]
  [9.07040833e+02 4.12494995e+02 9.03370023e-01]
  [8.57107788e+02 4.83237671e+02 9.36160862e-01]
  [8.86391113e+02 4.62570374e+02 5.75397432e-01]
  [1.02169330e+03 4.50843353e+02 8.10030282e-01]
  [1.05421375e+03 5.47861023e+02 8.34499657e-01]
  [9.98234131e+02 6.01068848e+02 9.14536476e-01]
  [9.54260742e+02 6.01010376e+02 7.46398449e-01]
  [9.18778076e+02 6.01017761e+02 6.96715534e-01]
  [9.04134766e+02 7.77560425e+02 8.57945621e-01]
  [9.07090515e+02 9.27653992e+02 8.77006292e-01]
  [9.98324585e+02 6.01033936e+02 7.34855056e-01]
  [1.04521436e+03 7.65714111e+02 8.91808212e-01]
  [1.04542004e+03 9.07152771e+02 8.21897864e-01]
  [9.80573181e+02 3.38822144e+02 9.31937695e-01]
  [1.00109503e+03 3.50802429e+02 9.01787996e-01]
  [9.68806274e+02 3.38865723e+02 7.92138129e-02]
  [1.01891052e+03 3.83023224e+02 7.79145718e-01]
  [1.04825830e+03 9.48248901e+02 6.72738254e-01]
  [1.06895947e+03 9.39437256e+02 7.11342394e-01]
  [1.03359216e+03 9.24656250e+02 6.46984160e-01]
  [8.65871521e+02 9.54219177e+02 6.98229730e-01]
  [8.62954224e+02 9.51090271e+02 7.10767388e-01]
  [9.24710205e+02 9.42327148e+02 8.26958477e-01]]]