[[[7.65747864e+02 7.39356140e+02 9.66841340e-01]
  [7.80451538e+02 8.07000488e+02 8.30978215e-01]
  [7.18641235e+02 8.33349548e+02 8.03194404e-01]
  [6.42140625e+02 9.01130737e+02 8.58392417e-01]
  [5.53923645e+02 9.68875427e+02 8.10578227e-01]
  [8.36348206e+02 7.80482544e+02 7.93187857e-01]
  [8.57096924e+02 8.80460938e+02 8.98294210e-01]
  [8.33357239e+02 9.83549927e+02 8.65882635e-01]
  [9.30522095e+02 9.04113220e+02 7.04716861e-01]
  [9.10008606e+02 9.36438599e+02 6.24440551e-01]
  [1.02182245e+03 9.71772461e+02 6.29739046e-01]
  [1.17777197e+03 9.45280579e+02 5.63231111e-01]
  [9.48266663e+02 8.68780884e+02 6.71111047e-01]
  [1.01583820e+03 9.77732788e+02 7.50753462e-01]
  [1.18668103e+03 9.51130249e+02 6.48335695e-01]
  [7.53998779e+02 7.24573730e+02 8.27222586e-01]
  [7.83384583e+02 7.24603088e+02 8.45088303e-01]
  [7.30393738e+02 7.39169312e+02 6.90441668e-01]
  [8.01073425e+02 7.36279663e+02 4.74893272e-01]
  [1.22786609e+03 9.92332642e+02 2.61654019e-01]
  [1.22493127e+03 9.77624695e+02 2.89164513e-01]
  [1.20432373e+03 9.30693542e+02 4.27386731e-01]
  [1.23671533e+03 9.74713257e+02 2.33949646e-01]
  [1.23665723e+03 9.77644897e+02 2.48952478e-01]
  [1.19842297e+03 9.24656860e+02 3.68917525e-01]]]