[[[9.0111572e+02 5.9212982e+02 8.7283134e-01]
  [8.5691187e+02 6.4518634e+02 8.7943172e-01]
  [8.1285272e+02 6.2157550e+02 8.5719347e-01]
  [8.0394171e+02 7.0982104e+02 7.9439616e-01]
  [8.8048621e+02 6.9227905e+02 8.1777334e-01]
  [8.9228400e+02 6.7150116e+02 7.2181994e-01]
  [8.8639038e+02 7.8624091e+02 5.6706876e-01]
  [9.6593518e+02 7.7752490e+02 6.4656818e-01]
  [8.3645331e+02 8.3353107e+02 6.8408167e-01]
  [8.0982715e+02 8.3936078e+02 6.3885814e-01]
  [8.7758710e+02 9.7456354e+02 8.8844901e-01]
  [7.8639301e+02 9.2464545e+02 6.9479513e-01]
  [8.6878656e+02 8.3045929e+02 6.2033516e-01]
  [9.9818445e+02 8.0984985e+02 8.9143866e-01]
  [1.0689312e+03 9.3648694e+02 8.4333783e-01]
  [8.9813629e+02 5.7448053e+02 9.1227210e-01]
  [9.1590204e+02 5.9500073e+02 8.5265249e-01]
  [8.6877716e+02 5.7456500e+02 7.8221142e-01]
  [9.2467914e+02 6.2139240e+02 7.3615128e-01]
  [1.1130704e+03 9.7171448e+02 7.8650004e-01]
  [1.1188677e+03 9.5700641e+02 8.0318069e-01]
  [1.0571566e+03 9.5422620e+02 7.6136279e-01]
  [7.6580084e+02 9.7174146e+02 7.1760583e-01]
  [7.5978180e+02 9.5419684e+02 6.9209248e-01]
  [7.8334497e+02 9.0411499e+02 4.2792624e-01]]]