[[[1.02185333e+03 4.03674500e+02 9.10063744e-01]
  [1.00116199e+03 4.71419983e+02 9.02749121e-01]
  [9.45324280e+02 4.62671112e+02 8.37580919e-01]
  [9.27529907e+02 5.51006165e+02 9.00974154e-01]
  [9.24738159e+02 6.30431335e+02 8.66725564e-01]
  [1.06293787e+03 4.77228699e+02 8.22592735e-01]
  [1.09530957e+03 5.36214783e+02 8.76184642e-01]
  [1.05416919e+03 5.92077271e+02 7.07516670e-01]
  [1.00136322e+03 6.36237427e+02 7.42340565e-01]
  [9.71793701e+02 6.39152222e+02 7.35218823e-01]
  [9.27743042e+02 7.71628906e+02 8.87228131e-01]
  [9.04116699e+02 9.18810547e+02 8.37580204e-01]
  [1.04245178e+03 6.33269287e+02 7.17092395e-01]
  [1.02491357e+03 7.74540710e+02 8.16448808e-01]
  [1.04532043e+03 9.15865479e+02 8.57028365e-01]
  [1.00703772e+03 3.88948303e+02 9.36155021e-01]
  [1.03063086e+03 3.89074219e+02 8.85342181e-01]
  [9.80696228e+02 4.03646912e+02 8.39148819e-01]
  [1.04537146e+03 4.06684875e+02 5.46738148e-01]
  [9.92409424e+02 9.18775696e+02 7.25529671e-01]
  [1.00129071e+03 9.27571594e+02 7.61229634e-01]
  [1.05121167e+03 9.30603760e+02 8.41001570e-01]
  [8.53953064e+02 9.36496704e+02 7.28346109e-01]
  [8.54026550e+02 9.30555298e+02 7.68919766e-01]
  [9.15813904e+02 9.33464111e+02 8.30216289e-01]]]