[[[9.33611145e+02 3.44819550e+02 9.01442051e-01]
  [9.51212585e+02 4.21379364e+02 8.72608602e-01]
  [9.06930725e+02 4.06626190e+02 8.53949547e-01]
  [9.98362305e+02 4.33252167e+02 8.03833961e-01]
  [1.08655481e+03 4.59667725e+02 8.88655007e-01]
  [9.98192383e+02 4.36159912e+02 7.14905202e-01]
  [1.03649719e+03 5.50752808e+02 8.38036835e-01]
  [1.00708221e+03 5.74367859e+02 8.50407481e-01]
  [9.62891479e+02 6.27491516e+02 6.95149899e-01]
  [9.24606384e+02 6.30408447e+02 6.87130451e-01]
  [8.56987854e+02 7.89249939e+02 9.17376697e-01]
  [8.21703247e+02 9.27583862e+02 8.07466149e-01]
  [1.00129987e+03 6.24581543e+02 7.17997611e-01]
  [1.04240234e+03 7.77563721e+02 8.23117197e-01]
  [1.06889392e+03 9.33493713e+02 8.41325998e-01]
  [9.24727478e+02 3.39116455e+02 9.25998330e-01]
  [9.51200684e+02 3.38955475e+02 9.57453251e-01]
  [9.06958740e+02 3.65328766e+02 8.10765982e-01]
  [9.74786133e+02 3.62381683e+02 8.59144509e-01]
  [1.04520520e+03 9.68826660e+02 7.28030443e-01]
  [1.06594470e+03 9.71670776e+02 7.50933886e-01]
  [1.07484180e+03 9.51136169e+02 6.93644524e-01]
  [7.89377686e+02 9.71685425e+02 7.37873673e-01]
  [7.83377930e+02 9.57003784e+02 7.69140184e-01]
  [8.36279358e+02 9.42375488e+02 7.55205035e-01]]]