[[[7.3927399e+02 5.7435132e+02 3.5593593e-01]
  [6.8037866e+02 5.2724603e+02 6.2685430e-01]
  [6.9225867e+02 5.0684549e+02 8.4104460e-01]
  [6.2438739e+02 5.4497351e+02 7.5054502e-01]
  [5.3624426e+02 5.9508026e+02 7.9233909e-01]
  [6.7155261e+02 5.5090466e+02 2.7373448e-01]
  [0.0000000e+00 0.0000000e+00 0.0000000e+00]
  [0.0000000e+00 0.0000000e+00 0.0000000e+00]
  [5.5974426e+02 6.2452161e+02 6.3983160e-01]
  [5.8619318e+02 6.2447748e+02 6.2460577e-01]
  [7.0101990e+02 7.0986694e+02 8.3753496e-01]
  [6.6562231e+02 8.4817328e+02 8.0645066e-01]
  [5.3328729e+02 6.2452557e+02 5.7514232e-01]
  [5.9787598e+02 7.8042059e+02 8.5796273e-01]
  [5.5381030e+02 9.2465875e+02 8.5268283e-01]
  [7.5102100e+02 5.6558459e+02 3.7126470e-01]
  [0.0000000e+00 0.0000000e+00 0.0000000e+00]
  [7.4804730e+02 5.3036609e+02 6.2163574e-01]
  [0.0000000e+00 0.0000000e+00 0.0000000e+00]
  [6.0687622e+02 9.3062762e+02 6.7882931e-01]
  [5.9807996e+02 9.3046289e+02 6.9172668e-01]
  [5.3617566e+02 9.3641443e+02 7.4999154e-01]
  [6.8041449e+02 9.1587976e+02 5.9691799e-01]
  [6.8913672e+02 9.0994598e+02 6.1430836e-01]
  [6.4791827e+02 8.5405133e+02 7.6252449e-01]]]