[[[1.02179443e+03 3.71394867e+02 8.96493793e-01]
  [1.00711456e+03 4.42030273e+02 8.30776215e-01]
  [9.51083923e+02 4.53762665e+02 8.59089911e-01]
  [9.33568298e+02 5.42107483e+02 8.25791776e-01]
  [9.27482666e+02 6.24609497e+02 8.76321971e-01]
  [1.06895166e+03 4.36033142e+02 8.92478347e-01]
  [1.10712268e+03 3.59503967e+02 8.18764269e-01]
  [1.04822412e+03 3.77202209e+02 7.85572171e-01]
  [1.00422229e+03 6.06866272e+02 7.16827214e-01]
  [9.74582397e+02 6.09800476e+02 6.95011199e-01]
  [9.80550964e+02 7.65758911e+02 8.30732167e-01]
  [1.00123926e+03 9.24623657e+02 8.13103974e-01]
  [1.04532861e+03 6.06822876e+02 7.38748312e-01]
  [1.00134528e+03 7.09767273e+02 8.55470240e-01]
  [1.01888458e+03 8.57016052e+02 8.43396008e-01]
  [1.00715601e+03 3.62439880e+02 9.14259136e-01]
  [1.03363367e+03 3.65414154e+02 8.86080861e-01]
  [9.80658081e+02 3.65513184e+02 8.90256643e-01]
  [1.04822827e+03 3.83111481e+02 6.06256962e-01]
  [1.03063013e+03 9.03944885e+02 3.99362206e-01]
  [1.04238501e+03 8.92265015e+02 5.20192564e-01]
  [1.00716431e+03 8.59984192e+02 5.50883591e-01]
  [1.03059558e+03 9.54239319e+02 7.65954792e-01]
  [1.00706451e+03 9.57061401e+02 7.40400374e-01]
  [1.00114618e+03 9.30576965e+02 7.37024069e-01]]]