[[[1.09257300e+03 4.21343842e+02 9.09411669e-01]
  [1.08359900e+03 5.06609711e+02 8.58694732e-01]
  [1.03944421e+03 4.94966614e+02 8.11509073e-01]
  [9.95314392e+02 6.00811829e+02 9.08894956e-01]
  [1.00129865e+03 6.92215027e+02 9.14879918e-01]
  [1.12489539e+03 5.15555786e+02 7.60208368e-01]
  [1.09531970e+03 6.01006531e+02 4.83556479e-01]
  [1.07777844e+03 6.50915527e+02 5.10407567e-01]
  [1.00717151e+03 6.62724854e+02 7.41482854e-01]
  [9.74682800e+02 6.48091980e+02 7.81604707e-01]
  [9.10080566e+02 7.86223633e+02 8.61607313e-01]
  [8.45157898e+02 9.07150879e+02 8.27447534e-01]
  [1.04821448e+03 6.71515442e+02 8.00872028e-01]
  [1.11583984e+03 7.89213135e+02 8.94025385e-01]
  [1.09547681e+03 9.30700195e+02 8.67968202e-01]
  [1.07770813e+03 4.12430420e+02 9.16974306e-01]
  [1.11013403e+03 4.12449036e+02 8.99608672e-01]
  [1.06010461e+03 4.33041260e+02 7.87447631e-01]
  [1.12490076e+03 4.33121002e+02 7.82542169e-01]
  [1.14240112e+03 9.71728943e+02 7.90446997e-01]
  [1.14264783e+03 9.57008667e+02 7.82343268e-01]
  [1.08068970e+03 9.51080688e+02 7.86831915e-01]
  [8.24588745e+02 9.68801270e+02 7.72547781e-01]
  [8.09798584e+02 9.54153320e+02 8.22041869e-01]
  [8.48115295e+02 9.21698608e+02 6.69638515e-01]]]