[[[9.95334900e+02 3.68411591e+02 9.13933694e-01]
  [1.00409784e+03 4.39005707e+02 7.85497785e-01]
  [9.98271240e+02 4.36009155e+02 6.81784093e-01]
  [9.80600220e+02 5.53719177e+02 4.97148424e-01]
  [9.42333618e+02 6.15624451e+02 5.90053141e-01]
  [1.00710187e+03 4.42045624e+02 7.56242335e-01]
  [1.02486768e+03 5.36184326e+02 8.16438675e-01]
  [1.06876440e+03 6.24500305e+02 8.47351372e-01]
  [9.98290466e+02 6.12674377e+02 6.95430875e-01]
  [9.98242493e+02 6.09768982e+02 5.94784558e-01]
  [1.02164380e+03 7.77554138e+02 8.14147890e-01]
  [1.06882227e+03 9.24592041e+02 8.31469536e-01]
  [9.98285217e+02 6.15622559e+02 6.59662247e-01]
  [9.27658508e+02 7.62702881e+02 8.96369100e-01]
  [9.30710449e+02 9.24681763e+02 8.24210525e-01]
  [9.86453918e+02 3.59545502e+02 8.86492729e-01]
  [1.01293152e+03 3.62657623e+02 8.86517167e-01]
  [9.74693115e+02 3.65351868e+02 9.68602449e-02]
  [1.03064319e+03 3.85988647e+02 7.91119337e-01]
  [8.80556763e+02 9.54021484e+02 7.94470310e-01]
  [9.01087708e+02 9.54225098e+02 7.81616867e-01]
  [9.51123840e+02 9.39366577e+02 8.31700146e-01]
  [1.00418182e+03 9.39408447e+02 7.12489963e-01]
  [1.01884460e+03 9.30683411e+02 6.84320629e-01]
  [1.08072241e+03 9.33624084e+02 7.50367224e-01]]]