[[[9.65842896e+02 2.94963257e+02 9.03081179e-01]
  [9.57095154e+02 3.88937805e+02 8.87311995e-01]
  [9.01030823e+02 3.91975342e+02 8.20247173e-01]
  [8.42340149e+02 4.39022064e+02 8.26650620e-01]
  [7.95203674e+02 4.09500641e+02 8.43050718e-01]
  [1.02189386e+03 3.83159668e+02 8.20104837e-01]
  [1.09550793e+03 4.15580261e+02 8.34483385e-01]
  [1.15429053e+03 4.15510468e+02 8.02946508e-01]
  [9.74801819e+02 5.83281250e+02 6.86674356e-01]
  [9.30721069e+02 5.89131470e+02 6.54442430e-01]
  [9.33614807e+02 7.68675598e+02 8.40264440e-01]
  [9.07186096e+02 9.48227600e+02 8.35792959e-01]
  [1.01887274e+03 5.80303955e+02 6.46297336e-01]
  [1.04818250e+03 7.71674377e+02 8.70236456e-01]
  [1.06892725e+03 9.30469299e+02 8.67768288e-01]
  [9.51240784e+02 2.91843658e+02 9.58391666e-01]
  [9.77683533e+02 2.94826782e+02 9.38754559e-01]
  [9.27612183e+02 3.15417603e+02 8.70867610e-01]
  [9.95222046e+02 3.24239349e+02 7.87102282e-01]
  [1.07196741e+03 9.71783997e+02 7.77415514e-01]
  [1.09536292e+03 9.62981506e+02 7.81015813e-01]
  [1.05426123e+03 9.45313599e+02 7.00883567e-01]
  [9.24658875e+02 9.80693726e+02 7.55951285e-01]
  [9.01077515e+02 9.77805908e+02 7.77658284e-01]
  [9.07130188e+02 9.57102966e+02 6.91948056e-01]]]