[[[1.02464478e+03 3.83129791e+02 9.21158552e-01]
  [1.00130377e+03 4.50852600e+02 8.88683498e-01]
  [9.51027283e+02 4.47858032e+02 8.29230011e-01]
  [9.27647583e+02 5.33336121e+02 8.67613912e-01]
  [9.18815918e+02 6.21507141e+02 8.60759497e-01]
  [1.06294958e+03 4.53674652e+02 8.04508865e-01]
  [1.04819092e+03 5.03827637e+02 8.68680894e-01]
  [1.04838684e+03 4.12453949e+02 8.42470407e-01]
  [1.00136871e+03 6.24441284e+02 7.62689650e-01]
  [9.71755554e+02 6.24490723e+02 7.31350541e-01]
  [9.74846191e+02 7.77475098e+02 8.62400889e-01]
  [9.71726013e+02 9.07058960e+02 8.47013235e-01]
  [1.04520020e+03 6.24409485e+02 7.37175465e-01]
  [1.03944153e+03 7.68719482e+02 8.18594396e-01]
  [1.02480090e+03 9.06977539e+02 8.70542824e-01]
  [1.01877380e+03 3.65463287e+02 9.43580508e-01]
  [1.04245374e+03 3.71360504e+02 8.69870126e-01]
  [9.95353821e+02 3.71391449e+02 7.05213249e-01]
  [1.06004846e+03 3.89019714e+02 6.43681645e-01]
  [1.02180933e+03 9.42334900e+02 7.68108964e-01]
  [1.04243909e+03 9.36479553e+02 7.90309727e-01]
  [1.02180536e+03 9.18812134e+02 6.52062178e-01]
  [9.71696106e+02 9.39388123e+02 7.47840643e-01]
  [9.51203735e+02 9.33465454e+02 8.04567337e-01]
  [9.74699341e+02 9.21740051e+02 7.50232816e-01]]]