[[[1.1366454e+03 3.8902466e+02 9.5866042e-01]
  [1.1425236e+03 4.6265573e+02 9.0093136e-01]
  [1.0865681e+03 4.5975098e+02 8.5121137e-01]
  [1.0717085e+03 5.6270087e+02 8.1410587e-01]
  [1.0689099e+03 6.3040570e+02 8.6182272e-01]
  [1.2071587e+03 4.6849060e+02 8.1319571e-01]
  [1.2542616e+03 5.5373242e+02 9.1801310e-01]
  [1.2101061e+03 5.7437762e+02 8.8736969e-01]
  [1.1426146e+03 6.4507477e+02 7.8820837e-01]
  [1.1042727e+03 6.4507764e+02 7.5375116e-01]
  [1.0394491e+03 7.7756366e+02 8.3738244e-01]
  [1.0923346e+03 9.0404773e+02 8.6938190e-01]
  [1.1866208e+03 6.4508795e+02 7.8255039e-01]
  [1.1864559e+03 7.8336176e+02 8.5978669e-01]
  [1.2102932e+03 9.2770758e+02 8.9337301e-01]
  [1.1190331e+03 3.8304446e+02 9.1779453e-01]
  [1.1454841e+03 3.7723425e+02 8.6766493e-01]
  [1.1101025e+03 3.8907059e+02 3.9729515e-01]
  [1.1719962e+03 3.8612100e+02 7.9552591e-01]
  [1.1601653e+03 9.5121063e+02 8.1169391e-01]
  [1.1777910e+03 9.5416254e+02 7.7061468e-01]
  [1.2278590e+03 9.4530939e+02 8.0283308e-01]
  [1.0424340e+03 9.4238806e+02 7.4318898e-01]
  [1.0423700e+03 9.3056970e+02 7.4461246e-01]
  [1.1101151e+03 9.0713342e+02 7.9330438e-01]]]