[[[1.00712854e+03 3.44965576e+02 8.86661172e-01]
  [1.02167828e+03 4.36115601e+02 8.81184042e-01]
  [9.74787903e+02 4.33258026e+02 8.14186931e-01]
  [9.60046387e+02 5.21427673e+02 3.37382406e-01]
  [9.42392639e+02 4.59735840e+02 7.93955922e-01]
  [1.06585059e+03 4.39093384e+02 7.90972710e-01]
  [1.12188928e+03 4.77218109e+02 7.80329585e-01]
  [1.18070935e+03 4.53762085e+02 7.86146998e-01]
  [9.92400818e+02 6.21504150e+02 7.45784998e-01]
  [9.54239502e+02 6.21451416e+02 7.49366045e-01]
  [9.48107971e+02 7.74540283e+02 8.21235657e-01]
  [9.83523865e+02 9.15858826e+02 7.86940992e-01]
  [1.02468176e+03 6.21591492e+02 7.52540350e-01]
  [1.03356213e+03 7.80412048e+02 8.04596603e-01]
  [1.06294946e+03 9.27650269e+02 8.46041441e-01]
  [1.00425165e+03 3.36071350e+02 8.99296761e-01]
  [1.02490454e+03 3.44872162e+02 9.09032583e-01]
  [0.00000000e+00 0.00000000e+00 0.00000000e+00]
  [1.04819495e+03 3.74320251e+02 8.34313273e-01]
  [1.00118683e+03 9.51279968e+02 8.13318729e-01]
  [1.02168262e+03 9.54227539e+02 7.98774183e-01]
  [1.07198694e+03 9.45270081e+02 8.18435311e-01]
  [9.30562683e+02 9.48119812e+02 8.27213883e-01]
  [9.30621155e+02 9.33528381e+02 7.55221009e-01]
  [1.00113660e+03 9.27739624e+02 8.43857288e-01]]]