[[[9.0704211e+02 3.6259058e+02 9.9143088e-01]
  [9.4521027e+02 4.2731168e+02 8.0833447e-01]
  [8.8054266e+02 4.1555078e+02 8.1204826e-01]
  [8.0109753e+02 4.5974353e+02 8.5328126e-01]
  [8.8359814e+02 4.8327023e+02 8.4165025e-01]
  [1.0013472e+03 4.3315985e+02 8.4095955e-01]
  [1.0924447e+03 5.0660562e+02 9.2655373e-01]
  [9.8940894e+02 5.2149353e+02 7.3932195e-01]
  [9.4528876e+02 6.2452704e+02 7.0110518e-01]
  [9.0118750e+02 6.2452557e+02 7.0873868e-01]
  [7.8331506e+02 7.5985687e+02 8.4111053e-01]
  [8.0690302e+02 9.3053644e+02 8.0810899e-01]
  [9.8648169e+02 6.2452368e+02 6.7080009e-01]
  [1.0452168e+03 8.0692511e+02 8.6161292e-01]
  [1.0719438e+03 9.4239551e+02 8.0936056e-01]
  [8.9520953e+02 3.5948181e+02 8.5803640e-01]
  [9.2165875e+02 3.4198444e+02 8.8495338e-01]
  [8.8344470e+02 3.7141580e+02 1.9692986e-01]
  [9.5119330e+02 3.4203214e+02 8.6468524e-01]
  [1.0923168e+03 9.7754175e+02 7.7364326e-01]
  [1.1071737e+03 9.7176489e+02 7.5724024e-01]
  [1.0688630e+03 9.5706580e+02 7.2824430e-01]
  [7.4212897e+02 9.7169666e+02 6.1255717e-01]
  [7.4510620e+02 9.5702844e+02 5.9554178e-01]
  [8.2167261e+02 9.5107812e+02 7.1994770e-01]]]