[[[9.42384216e+02 3.59476807e+02 8.65689456e-01]
  [9.54008484e+02 4.33233826e+02 9.31525350e-01]
  [8.89396423e+02 4.39030884e+02 8.19033206e-01]
  [8.09898193e+02 4.33074890e+02 9.37726736e-01]
  [8.36515503e+02 3.74304810e+02 8.35652590e-01]
  [1.01880688e+03 4.30179871e+02 7.93006778e-01]
  [1.10418677e+03 4.09471497e+02 8.85313928e-01]
  [1.04823743e+03 3.62468079e+02 9.14379716e-01]
  [9.54065063e+02 6.12715393e+02 7.42270768e-01]
  [9.12903625e+02 6.15650940e+02 6.84395969e-01]
  [8.83558228e+02 7.80397217e+02 8.71829867e-01]
  [8.36525513e+02 9.24678284e+02 8.54574680e-01]
  [9.98121399e+02 6.09731445e+02 6.94597781e-01]
  [1.02187775e+03 7.68712769e+02 8.85150909e-01]
  [1.04547278e+03 9.27495117e+02 8.57614756e-01]
  [9.27719849e+02 3.42044128e+02 9.69557405e-01]
  [9.54115723e+02 3.41984680e+02 9.45675135e-01]
  [9.09994507e+02 3.62542969e+02 8.46014261e-01]
  [9.77539490e+02 3.62397156e+02 8.58986735e-01]
  [1.04822473e+03 9.57092896e+02 7.59454072e-01]
  [1.06890479e+03 9.54070801e+02 8.13403666e-01]
  [1.04236548e+03 9.33594849e+02 6.89323485e-01]
  [8.51078430e+02 9.54245789e+02 7.86837339e-01]
  [8.30445068e+02 9.54026489e+02 7.99253702e-01]
  [8.36331665e+02 9.33476929e+02 7.54764974e-01]]]