[[[9.54147522e+02 3.38959137e+02 9.40941453e-01]
  [9.65843567e+02 4.18485107e+02 7.43588805e-01]
  [9.21739380e+02 3.94966034e+02 7.79784381e-01]
  [9.48270447e+02 4.33174774e+02 7.54189610e-01]
  [1.00114594e+03 4.30177032e+02 2.99343675e-01]
  [1.01875531e+03 4.50841278e+02 7.44081259e-01]
  [1.05122986e+03 5.36235718e+02 8.53273451e-01]
  [1.02479468e+03 5.59728516e+02 8.77602339e-01]
  [9.80572571e+02 6.30406311e+02 7.32079148e-01]
  [9.39410889e+02 6.36227356e+02 6.98326945e-01]
  [8.59929749e+02 7.74531555e+02 8.62563491e-01]
  [8.59985352e+02 9.36446228e+02 8.15437973e-01]
  [1.02463892e+03 6.27439941e+02 7.46563613e-01]
  [1.04828076e+03 7.77465454e+02 8.49085510e-01]
  [1.06883362e+03 9.30649292e+02 8.57403636e-01]
  [9.39408875e+02 3.35957367e+02 8.54316533e-01]
  [9.71799927e+02 3.27173981e+02 8.78247440e-01]
  [9.27569885e+02 3.62437408e+02 8.60537112e-01]
  [9.98094299e+02 3.56580780e+02 8.33448410e-01]
  [1.04825525e+03 9.68797913e+02 7.46943831e-01]
  [1.07179126e+03 9.68778076e+02 7.69052625e-01]
  [1.07180872e+03 9.48216553e+02 6.72871947e-01]
  [7.89258301e+02 9.62973572e+02 7.42244959e-01]
  [7.92317627e+02 9.54167725e+02 7.27454782e-01]
  [8.80542114e+02 9.54176270e+02 8.00871670e-01]]]