[[[9.9528595e+02 6.6573151e+02 8.5887879e-01]
  [9.3060156e+02 7.4220612e+02 8.7690014e-01]
  [8.8350635e+02 7.5399841e+02 7.5452280e-01]
  [8.3340161e+02 8.5987299e+02 9.2766351e-01]
  [7.7755096e+02 9.5119141e+02 8.8212585e-01]
  [9.7774695e+02 7.3626624e+02 8.3867812e-01]
  [1.0454784e+03 7.8039728e+02 8.4602392e-01]
  [1.1189344e+03 8.0694220e+02 8.3575070e-01]
  [9.7475073e+02 9.0415302e+02 7.3294210e-01]
  [9.5410620e+02 9.3067181e+02 6.7917937e-01]
  [1.1160001e+03 9.5120190e+02 7.8829896e-01]
  [1.3042987e+03 9.5407916e+02 8.0358797e-01]
  [9.9816516e+02 8.8042163e+02 6.6888380e-01]
  [1.0865901e+03 8.1280072e+02 8.2260662e-01]
  [1.0895417e+03 9.5119080e+02 6.4679760e-01]
  [9.7778845e+02 6.4806006e+02 8.8007796e-01]
  [9.9534802e+02 6.4789349e+02 5.6951288e-02]
  [9.4817389e+02 6.5974469e+02 7.8848773e-01]
  [0.0000000e+00 0.0000000e+00 0.0000000e+00]
  [1.0923992e+03 9.7174152e+02 5.4859605e-02]
  [0.0000000e+00 0.0000000e+00 0.0000000e+00]
  [1.0924910e+03 9.6000763e+02 2.4600932e-01]
  [1.3514871e+03 9.2170184e+02 5.4535913e-01]
  [1.3513511e+03 9.3063293e+02 5.9082359e-01]
  [1.3161193e+03 9.6294080e+02 5.7411647e-01]]]