[[[9.74556641e+02 4.74307770e+02 8.90220046e-01]
  [9.51147339e+02 5.47873047e+02 8.98924232e-01]
  [9.04039185e+02 5.42085571e+02 8.43132079e-01]
  [8.80495728e+02 6.45003662e+02 9.43269730e-01]
  [8.59815247e+02 7.21596069e+02 9.03470278e-01]
  [9.98326721e+02 5.47975525e+02 8.55086446e-01]
  [9.98348999e+02 6.09731628e+02 4.64000344e-01]
  [1.00711102e+03 6.18516602e+02 6.59650445e-01]
  [9.51246277e+02 6.95139893e+02 8.46147537e-01]
  [9.12880798e+02 6.95240051e+02 7.73693025e-01]
  [8.86445435e+02 8.12967712e+02 8.65198433e-01]
  [8.80593994e+02 9.18762817e+02 8.64324689e-01]
  [9.86547729e+02 6.95060547e+02 7.73167193e-01]
  [1.01593494e+03 8.27511902e+02 8.16674769e-01]
  [1.00715100e+03 9.12951782e+02 8.10080826e-01]
  [9.57059570e+02 4.56768799e+02 9.49844420e-01]
  [9.80639832e+02 4.59740784e+02 9.09360945e-01]
  [9.30549011e+02 4.59689087e+02 9.16332722e-01]
  [9.98111694e+02 4.80178864e+02 4.04101878e-01]
  [1.00131464e+03 9.42295837e+02 8.28910649e-01]
  [1.02461780e+03 9.39366943e+02 8.44061852e-01]
  [1.00128528e+03 9.27490845e+02 7.02853084e-01]
  [8.74655090e+02 9.51018127e+02 7.84974992e-01]
  [8.57073669e+02 9.42306702e+02 8.07218015e-01]
  [8.86443848e+02 9.27672791e+02 7.53966212e-01]]]