[[[9.8645959e+02 4.0955762e+02 8.9962345e-01]
  [9.7174243e+02 4.8009024e+02 8.9665806e-01]
  [9.1002020e+02 4.7723373e+02 8.4081662e-01]
  [9.0410577e+02 5.6857843e+02 8.7054586e-01]
  [9.0111627e+02 6.3628040e+02 8.5982829e-01]
  [1.0246503e+03 4.8014847e+02 8.9536333e-01]
  [1.0452180e+03 5.7148804e+02 8.6918229e-01]
  [1.0629360e+03 6.4806683e+02 8.0204344e-01]
  [9.7755212e+02 6.4501221e+02 8.0117965e-01]
  [9.4230048e+02 6.4505042e+02 7.2967696e-01]
  [9.3356049e+02 7.8332367e+02 8.7207890e-01]
  [9.4818646e+02 9.1287659e+02 8.3359623e-01]
  [1.0158654e+03 6.4499103e+02 7.3023170e-01]
  [1.0013606e+03 7.7461285e+02 8.5408682e-01]
  [9.8643787e+02 9.0991431e+02 8.0593216e-01]
  [9.7758502e+02 3.8914978e+02 9.7213662e-01]
  [1.0011248e+03 3.9788400e+02 8.7912536e-01]
  [9.5409363e+02 3.9493991e+02 8.5816759e-01]
  [1.0158435e+03 4.0974463e+02 4.7769696e-01]
  [9.7467175e+02 9.4526532e+02 7.1874863e-01]
  [9.9526984e+02 9.4237708e+02 7.2802901e-01]
  [9.8352747e+02 9.2747986e+02 6.9395506e-01]
  [9.2763586e+02 9.4527911e+02 7.5758737e-01]
  [9.1296246e+02 9.3359570e+02 7.5769818e-01]
  [9.5411462e+02 9.2760272e+02 8.0829072e-01]]]