[[[1.02460913e+03 3.65518555e+02 9.71484244e-01]
  [1.02186346e+03 4.47816467e+02 8.53183448e-01]
  [9.80673584e+02 4.27280640e+02 7.91221678e-01]
  [9.51039856e+02 3.21380585e+02 8.83377910e-01]
  [9.01177063e+02 2.41902908e+02 8.56854498e-01]
  [1.05715137e+03 4.65553680e+02 7.43891597e-01]
  [1.09227405e+03 5.71524231e+02 8.10054660e-01]
  [1.11299316e+03 6.48178345e+02 8.50230455e-01]
  [1.03360132e+03 6.18501465e+02 6.94481730e-01]
  [1.01005878e+03 6.12688660e+02 6.40017569e-01]
  [1.07200696e+03 7.53972900e+02 8.01410675e-01]
  [1.00118646e+03 9.27610657e+02 7.60995507e-01]
  [1.06001660e+03 6.21425720e+02 6.87187850e-01]
  [1.09251782e+03 7.68766785e+02 7.74685562e-01]
  [1.01875854e+03 9.10052246e+02 7.09685028e-01]
  [1.00415118e+03 3.62432526e+02 9.10081863e-01]
  [1.03651709e+03 3.59546967e+02 8.46692443e-01]
  [9.86507812e+02 3.83023041e+02 8.27627361e-01]
  [1.05124609e+03 3.74329590e+02 7.45343506e-01]
  [1.05128052e+03 9.71721069e+02 4.95217592e-01]
  [1.05711853e+03 9.54212280e+02 4.95927185e-01]
  [9.77742737e+02 9.27645203e+02 2.34649837e-01]
  [1.03651208e+03 9.83504211e+02 7.44530439e-01]
  [1.01591199e+03 9.80621582e+02 7.00341463e-01]
  [9.77573547e+02 9.36491211e+02 7.09237278e-01]]]