[[[0.0000000e+00 0.0000000e+00 0.0000000e+00]
  [9.5126849e+02 5.9788928e+02 8.1946659e-01]
  [8.6873419e+02 5.5686554e+02 7.1825093e-01]
  [7.7753424e+02 6.2459583e+02 8.7551105e-01]
  [7.8939001e+02 7.1852557e+02 9.3354684e-01]
  [1.0541685e+03 6.2745636e+02 6.6376406e-01]
  [1.0749114e+03 7.2452570e+02 7.3499471e-01]
  [1.0571763e+03 7.4213623e+02 7.9495919e-01]
  [9.3045563e+02 7.1268018e+02 7.4691164e-01]
  [8.7750244e+02 6.9514221e+02 7.1181518e-01]
  [7.9523724e+02 7.8344342e+02 8.2920283e-01]
  [7.8046924e+02 9.3362134e+02 8.0171156e-01]
  [9.8653345e+02 7.1876202e+02 6.5799505e-01]
  [1.0689916e+03 7.8346350e+02 9.0207052e-01]
  [1.0835874e+03 9.3643933e+02 8.0541337e-01]
  [0.0000000e+00 0.0000000e+00 0.0000000e+00]
  [0.0000000e+00 0.0000000e+00 0.0000000e+00]
  [9.0397406e+02 6.0086755e+02 8.2636170e-02]
  [9.9241663e+02 6.2458112e+02 6.3295461e-02]
  [1.1307014e+03 9.7171918e+02 7.8848881e-01]
  [1.1365057e+03 9.5703955e+02 7.8336287e-01]
  [1.0688807e+03 9.5409216e+02 8.6051083e-01]
  [7.5100446e+02 9.6589978e+02 6.8231350e-01]
  [7.3929956e+02 9.5424109e+02 7.7352709e-01]
  [7.8918213e+02 9.5403741e+02 8.2048684e-01]]]