[[[9.3060059e+02 5.7435297e+02 8.9927304e-01]
  [9.0991663e+02 5.7735541e+02 8.8317108e-01]
  [8.4524585e+02 5.6557159e+02 7.7615494e-01]
  [7.6289343e+02 6.4200879e+02 8.9044416e-01]
  [8.0104266e+02 7.1853418e+02 8.6521745e-01]
  [9.7763074e+02 5.9214307e+02 8.0472666e-01]
  [1.0601138e+03 6.4512012e+02 8.9419591e-01]
  [1.0719231e+03 7.2456183e+02 8.6888838e-01]
  [9.3051349e+02 6.9509131e+02 8.4124559e-01]
  [8.8340601e+02 6.9218292e+02 7.7789080e-01]
  [8.0979285e+02 7.8047858e+02 8.6783862e-01]
  [7.8046429e+02 9.3646051e+02 7.9160613e-01]
  [9.7764862e+02 6.9514288e+02 7.7909368e-01]
  [1.0687429e+03 7.8628821e+02 8.7781560e-01]
  [1.0835732e+03 9.3643750e+02 8.0059314e-01]
  [9.2473663e+02 5.5395239e+02 8.6349821e-01]
  [9.4822443e+02 5.5978406e+02 7.7755052e-01]
  [9.0112988e+02 5.3325519e+02 7.8558308e-01]
  [9.6007373e+02 5.4787378e+02 1.6169579e-01]
  [1.1277235e+03 9.6887012e+02 7.6878446e-01]
  [1.1336990e+03 9.5422998e+02 7.8460699e-01]
  [1.0688927e+03 9.5414160e+02 8.4781045e-01]
  [7.4226642e+02 9.6590271e+02 7.2054476e-01]
  [7.3911481e+02 9.5420013e+02 7.6218647e-01]
  [7.8918988e+02 9.5415155e+02 8.2206750e-01]]]