[[[1.02173962e+03 3.56560974e+02 8.90038192e-01]
  [9.80718506e+02 4.56590088e+02 8.86989594e-01]
  [9.21696533e+02 4.56693420e+02 8.27488184e-01]
  [9.09921997e+02 5.53882629e+02 8.92686784e-01]
  [9.24588257e+02 6.44913147e+02 8.89252067e-01]
  [1.04831787e+03 4.56541870e+02 8.45425010e-01]
  [1.06882214e+03 5.50828491e+02 9.13277268e-01]
  [1.08657251e+03 6.36223267e+02 8.15230012e-01]
  [1.00109564e+03 6.24538696e+02 7.36242473e-01]
  [9.54221863e+02 6.30366821e+02 7.06648946e-01]
  [8.80531433e+02 7.86268005e+02 9.09081399e-01]
  [8.74638489e+02 9.33597473e+02 7.85347462e-01]
  [1.04524646e+03 6.21602661e+02 7.13786006e-01]
  [1.09258203e+03 7.68736023e+02 8.82693470e-01]
  [1.11887183e+03 9.30639954e+02 8.55344057e-01]
  [1.00117902e+03 3.41896027e+02 9.63792264e-01]
  [1.02178076e+03 3.42043152e+02 6.05919361e-01]
  [9.62945618e+02 3.62512177e+02 8.14904094e-01]
  [0.00000000e+00 0.00000000e+00 0.00000000e+00]
  [1.12191553e+03 9.71772339e+02 7.55005598e-01]
  [1.14251477e+03 9.62955139e+02 7.82901585e-01]
  [1.11306616e+03 9.48242432e+02 6.67112112e-01]
  [8.27579956e+02 9.62968994e+02 7.13177025e-01]
  [8.27522827e+02 9.54147583e+02 7.48967707e-01]
  [8.83549194e+02 9.54042603e+02 8.38271022e-01]]]