[[[9.30729736e+02 3.41980194e+02 9.33660686e-01]
  [9.30529297e+02 4.06663055e+02 8.82136464e-01]
  [8.77634827e+02 4.06688293e+02 7.98753381e-01]
  [8.80609802e+02 2.77227966e+02 8.65620434e-01]
  [9.42377441e+02 2.65365295e+02 4.43093777e-01]
  [9.86491821e+02 4.06612762e+02 7.71676064e-01]
  [1.02779272e+03 3.12512268e+02 8.90266001e-01]
  [9.71804565e+02 2.74330902e+02 7.88033843e-01]
  [9.30673279e+02 6.06825134e+02 7.06186712e-01]
  [8.92309875e+02 6.15644043e+02 6.74877703e-01]
  [7.89334290e+02 7.71609497e+02 8.61180365e-01]
  [7.86451782e+02 9.45317200e+02 8.11391413e-01]
  [9.74715332e+02 6.00998413e+02 6.89913869e-01]
  [1.02180634e+03 7.74604126e+02 8.52923214e-01]
  [1.07171179e+03 9.39450012e+02 8.19556892e-01]
  [9.21770325e+02 3.30159607e+02 8.48526716e-01]
  [9.53986450e+02 3.36050751e+02 9.42477226e-01]
  [9.01053223e+02 3.39050751e+02 7.90659130e-01]
  [9.74796082e+02 3.47784088e+02 7.87096262e-01]
  [1.08655566e+03 9.77604675e+02 7.66899765e-01]
  [1.10418494e+03 9.71775208e+02 7.74997234e-01]
  [1.06591016e+03 9.57039124e+02 6.97702467e-01]
  [7.12760437e+02 9.74558655e+02 7.52839506e-01]
  [7.15719421e+02 9.59990112e+02 6.70961440e-01]
  [8.06895264e+02 9.60084412e+02 7.45631039e-01]]]