[[[1.04540442e+03 3.77254608e+02 9.14521515e-01]
  [1.02774878e+03 4.65560791e+02 8.65802824e-01]
  [9.71822266e+02 4.59769989e+02 8.72090340e-01]
  [9.60076294e+02 5.53785889e+02 8.31095934e-01]
  [9.36429993e+02 6.24517944e+02 8.22542429e-01]
  [1.09235327e+03 4.74353851e+02 8.44327331e-01]
  [1.10719458e+03 5.71423584e+02 8.22683454e-01]
  [1.12771777e+03 6.48162415e+02 8.44382226e-01]
  [1.02465186e+03 6.27492920e+02 7.51078904e-01]
  [9.86463074e+02 6.27373474e+02 7.00589716e-01]
  [9.98166565e+02 7.92240479e+02 8.82267714e-01]
  [1.01298981e+03 9.12968750e+02 8.18263888e-01]
  [1.06299304e+03 6.33261658e+02 6.93476439e-01]
  [1.06596497e+03 7.89224304e+02 9.20940280e-01]
  [1.04526709e+03 9.24583862e+02 8.71048689e-01]
  [1.03069617e+03 3.62628387e+02 9.16314363e-01]
  [1.06296191e+03 3.68384888e+02 8.61134052e-01]
  [1.00704675e+03 3.83014069e+02 7.97827959e-01]
  [1.07183752e+03 3.89151215e+02 7.84922123e-01]
  [1.03357263e+03 9.59996643e+02 7.75147498e-01]
  [1.04839807e+03 9.54251709e+02 8.44624102e-01]
  [1.04238977e+03 9.30545776e+02 7.05703795e-01]
  [9.74786438e+02 9.39435303e+02 7.32340515e-01]
  [9.74622070e+02 9.30603638e+02 7.84139633e-01]
  [1.02184003e+03 9.30443481e+02 7.92306483e-01]]]