[[[1.0188943e+03 3.3017755e+02 8.8900840e-01]
  [1.0246196e+03 4.2431494e+02 8.8795471e-01]
  [9.6291168e+02 4.1841989e+02 8.1601852e-01]
  [9.0715924e+02 5.0372174e+02 8.8817728e-01]
  [8.6009369e+02 5.6564282e+02 8.3691102e-01]
  [1.0894338e+03 4.3016977e+02 8.0203503e-01]
  [1.0954889e+03 5.1558105e+02 8.5601604e-01]
  [1.1190428e+03 6.0108801e+02 8.8306391e-01]
  [9.9534882e+02 6.0091840e+02 7.4641967e-01]
  [9.5402435e+02 5.9799408e+02 7.5689143e-01]
  [9.4813464e+02 7.6282678e+02 8.7803793e-01]
  [9.3344934e+02 9.0104144e+02 8.3380818e-01]
  [1.0306388e+03 6.0387982e+02 7.0141447e-01]
  [1.0278145e+03 7.6573285e+02 8.7302381e-01]
  [1.0277095e+03 9.2169403e+02 8.1430048e-01]
  [1.0012665e+03 3.1841672e+02 9.6656615e-01]
  [1.0306400e+03 3.1834427e+02 9.0500969e-01]
  [9.8940637e+02 3.3909470e+02 7.6276958e-01]
  [1.0542330e+03 3.3900308e+02 8.3079946e-01]
  [1.0130045e+03 9.5417615e+02 7.7271509e-01]
  [1.0336421e+03 9.5416241e+02 7.9051858e-01]
  [1.0277362e+03 9.3056653e+02 7.5792539e-01]
  [9.4230194e+02 9.4229041e+02 7.5937432e-01]
  [9.2177911e+02 9.3356262e+02 7.6054382e-01]
  [9.3941699e+02 9.0705359e+02 6.8896204e-01]]]