[[[9.8643506e+02 3.7427167e+02 8.6339825e-01]
  [9.9536792e+02 4.5666870e+02 8.9321733e-01]
  [9.4821301e+02 4.5369412e+02 8.2229376e-01]
  [8.6585052e+02 4.5654959e+02 7.9692674e-01]
  [7.8047473e+02 4.3904736e+02 8.3532244e-01]
  [1.0452480e+03 4.5958029e+02 8.8035983e-01]
  [1.0690100e+03 5.5084027e+02 9.0981048e-01]
  [9.8068140e+02 5.9800885e+02 8.2872367e-01]
  [9.8940454e+02 6.3626953e+02 7.2621709e-01]
  [9.5426794e+02 6.3624481e+02 7.3141539e-01]
  [9.2467090e+02 7.9512939e+02 8.3132696e-01]
  [9.8055267e+02 9.2467780e+02 8.1197506e-01]
  [1.0216646e+03 6.3914246e+02 7.1920925e-01]
  [9.7182654e+02 7.6877942e+02 8.6840761e-01]
  [1.0100693e+03 9.5105756e+02 8.1232685e-01]
  [9.7753339e+02 3.6532916e+02 9.9577570e-01]
  [1.0012237e+03 3.6262930e+02 9.6464133e-01]
  [9.5999744e+02 3.8299588e+02 9.6083254e-02]
  [1.0307047e+03 3.8308389e+02 7.9898894e-01]
  [9.5110706e+02 9.7172681e+02 7.8340763e-01]
  [9.6887048e+02 9.7766486e+02 7.6967609e-01]
  [1.0248416e+03 9.6588873e+02 8.0562186e-01]
  [9.3061804e+02 9.4233105e+02 7.3832297e-01]
  [9.3352167e+02 9.3345337e+02 6.6519743e-01]
  [9.8945691e+02 9.3352631e+02 3.2025197e-01]]]