[[[1.02163660e+03 3.83017242e+02 9.14970160e-01]
  [1.02771179e+03 4.62567688e+02 8.70976150e-01]
  [9.89431396e+02 4.71401215e+02 8.01674783e-01]
  [9.65856934e+02 5.53992554e+02 8.61274123e-01]
  [9.24653564e+02 6.24471924e+02 9.10165608e-01]
  [1.07175769e+03 4.59597260e+02 9.00612831e-01]
  [1.06298120e+03 5.33304993e+02 7.81674385e-01]
  [1.04540210e+03 6.21406433e+02 8.93914878e-01]
  [1.03939697e+03 6.21549316e+02 8.03171158e-01]
  [1.00128864e+03 6.18621094e+02 8.28652680e-01]
  [9.03949463e+02 7.24527832e+02 8.66377532e-01]
  [8.95293518e+02 8.80597229e+02 7.94320226e-01]
  [1.06894678e+03 6.24454468e+02 8.07663023e-01]
  [1.07472827e+03 7.86308533e+02 8.78630102e-01]
  [1.10713403e+03 9.27591614e+02 8.25447619e-01]
  [1.01000616e+03 3.65396088e+02 9.28697109e-01]
  [1.03648547e+03 3.68379211e+02 8.60792696e-01]
  [9.98221741e+02 3.80135620e+02 6.45004660e-02]
  [1.06295984e+03 3.88893646e+02 8.20751667e-01]
  [1.09240405e+03 9.54079224e+02 7.59836376e-01]
  [1.11307300e+03 9.54092712e+02 8.05649102e-01]
  [1.11308704e+03 9.36420166e+02 7.12208152e-01]
  [8.36513611e+02 9.18774231e+02 7.45290041e-01]
  [8.36524536e+02 9.06999329e+02 7.41007507e-01]
  [9.07154907e+02 8.98140015e+02 7.69195557e-01]]]