[[[9.57116821e+02 3.27175903e+02 8.66138875e-01]
  [9.51175415e+02 4.12656158e+02 8.51363778e-01]
  [9.21783569e+02 4.12581573e+02 8.01700592e-01]
  [8.86511108e+02 5.06619934e+02 8.69355738e-01]
  [8.48107361e+02 5.94966919e+02 8.33916724e-01]
  [9.77624451e+02 4.12681641e+02 7.70100892e-01]
  [9.80682373e+02 5.24410706e+02 5.44448793e-01]
  [9.95271484e+02 6.03949280e+02 5.22658229e-01]
  [9.42374390e+02 6.03856750e+02 6.68227136e-01]
  [9.33533997e+02 6.03916260e+02 6.30896926e-01]
  [1.04548059e+03 7.18584778e+02 9.28774476e-01]
  [9.77699097e+02 8.83557983e+02 7.97207296e-01]
  [9.51157288e+02 6.03826050e+02 5.62379122e-01]
  [9.54088867e+02 7.74589783e+02 8.26145172e-01]
  [9.06991638e+02 9.30510864e+02 8.64075780e-01]
  [9.36476562e+02 3.24219635e+02 8.72231722e-01]
  [9.59970703e+02 3.15366882e+02 8.84672523e-01]
  [9.18789856e+02 3.50708313e+02 7.63374686e-01]
  [0.00000000e+00 0.00000000e+00 0.00000000e+00]
  [9.68872375e+02 9.59989380e+02 6.51711941e-01]
  [9.57030334e+02 9.54242798e+02 5.89077711e-01]
  [8.83609253e+02 9.45273376e+02 7.71941364e-01]
  [1.02482092e+03 9.39447327e+02 5.65816462e-01]
  [1.01004694e+03 9.42358398e+02 5.68994820e-01]
  [9.59989441e+02 8.92337341e+02 5.87888241e-01]]]