[[[9.8055701e+02 6.8625446e+02 5.3522515e-01]
  [9.3355518e+02 7.3910303e+02 7.2970247e-01]
  [9.4521704e+02 7.3336700e+02 7.7756625e-01]
  [1.0483898e+03 7.4215002e+02 7.2958404e-01]
  [1.1219402e+03 7.6872491e+02 7.5263578e-01]
  [9.2762897e+02 7.3929242e+02 5.7684994e-01]
  [1.0424293e+03 7.5978186e+02 3.8252127e-01]
  [1.1101378e+03 7.6579559e+02 4.0044916e-01]
  [9.9532678e+02 9.2758075e+02 5.4148936e-01]
  [1.0011322e+03 9.3054022e+02 6.6473383e-01]
  [1.1395204e+03 8.3653528e+02 8.3482385e-01]
  [1.2543387e+03 9.5416742e+02 8.0318379e-01]
  [9.8063812e+02 9.2758002e+02 3.7485546e-01]
  [1.1248639e+03 8.2754590e+02 6.8184638e-01]
  [1.1719673e+03 9.2172089e+02 6.7849040e-01]
  [9.7176172e+02 6.7146417e+02 5.4420632e-01]
  [9.8069971e+02 6.6860309e+02 2.3189071e-01]
  [9.3650525e+02 6.7451343e+02 7.5590414e-01]
  [0.0000000e+00 0.0000000e+00 0.0000000e+00]
  [1.1896250e+03 9.3053711e+02 5.3671591e-02]
  [0.0000000e+00 0.0000000e+00 0.0000000e+00]
  [1.1659170e+03 9.3351404e+02 6.5533876e-01]
  [1.3278209e+03 9.7754443e+02 7.3428196e-01]
  [1.3073057e+03 9.8070819e+02 7.2002983e-01]
  [1.2425593e+03 9.7757513e+02 6.8491691e-01]]]