[[[9.3355328e+02 3.1850815e+02 9.3800545e-01]
  [9.0703705e+02 4.0964310e+02 9.0966964e-01]
  [8.5110449e+02 3.9790018e+02 7.7988344e-01]
  [7.8916913e+02 4.6265915e+02 8.8435864e-01]
  [7.1860144e+02 4.3905798e+02 8.4932673e-01]
  [9.7176190e+02 4.1842123e+02 7.8618973e-01]
  [1.0159595e+03 5.0967703e+02 8.2473129e-01]
  [1.0690211e+03 4.8014932e+02 8.1382197e-01]
  [9.0396161e+02 6.0385498e+02 7.8907269e-01]
  [8.6282953e+02 6.0099988e+02 7.6771367e-01]
  [7.8339850e+02 7.3628149e+02 8.4527862e-01]
  [8.1278491e+02 9.0104541e+02 8.0822891e-01]
  [9.3360016e+02 6.0682983e+02 7.2127265e-01]
  [9.2755475e+02 7.5980640e+02 8.8639510e-01]
  [9.7172546e+02 9.1879840e+02 7.9370373e-01]
  [9.3360907e+02 3.0954807e+02 8.5436797e-01]
  [9.5412872e+02 3.2140665e+02 9.1450405e-01]
  [9.0718542e+02 3.1550500e+02 9.6219659e-02]
  [9.6585205e+02 3.5949930e+02 7.6687795e-01]
  [9.0419379e+02 9.5111615e+02 8.1028336e-01]
  [9.2764081e+02 9.5414453e+02 7.6994282e-01]
  [9.8354309e+02 9.3058722e+02 8.0215484e-01]
  [7.8920685e+02 9.6299054e+02 7.0106441e-01]
  [7.8043030e+02 9.5414722e+02 6.6618270e-01]
  [8.3635852e+02 9.0703680e+02 7.0306855e-01]]]