[[[1.0218097e+03 3.6255649e+02 9.8027247e-01]
  [1.0277736e+03 4.5082486e+02 8.4652162e-01]
  [9.7759930e+02 4.5663675e+02 8.9312375e-01]
  [9.5701672e+02 5.5074011e+02 8.8571870e-01]
  [9.3070154e+02 5.9802136e+02 8.9061755e-01]
  [1.0894637e+03 4.3916489e+02 8.3209407e-01]
  [1.1190283e+03 5.3024237e+02 9.2987490e-01]
  [1.0719667e+03 5.8322552e+02 8.5707450e-01]
  [1.0278114e+03 6.2453662e+02 7.7863395e-01]
  [9.9810632e+02 6.2161932e+02 7.9372418e-01]
  [9.0113538e+02 7.4218817e+02 8.7870383e-01]
  [8.6876013e+02 9.0416754e+02 7.8171170e-01]
  [1.0689373e+03 6.2747858e+02 7.8009379e-01]
  [1.0806627e+03 7.8637903e+02 8.5401636e-01]
  [1.1071229e+03 9.2750403e+02 8.2194698e-01]
  [1.0158639e+03 3.4492615e+02 8.8558775e-01]
  [1.0423431e+03 3.5656644e+02 8.6271363e-01]
  [9.9830103e+02 3.6251334e+02 1.4866056e-01]
  [1.0687358e+03 3.6851511e+02 8.0491489e-01]
  [1.0923822e+03 9.5406909e+02 7.7151567e-01]
  [1.1130605e+03 9.5405951e+02 8.0327672e-01]
  [1.1130166e+03 9.3355029e+02 7.1828556e-01]
  [8.1285339e+02 9.3652350e+02 6.1209995e-01]
  [8.1281213e+02 9.2769824e+02 6.5967059e-01]
  [8.8349823e+02 9.2460162e+02 6.4700449e-01]]]