[[[7.3919989e+02 3.9784268e+02 5.6722677e-01]
  [7.1560529e+02 4.3914081e+02 7.5243223e-01]
  [6.9502344e+02 4.3619226e+02 7.7936351e-01]
  [7.1857294e+02 3.3596451e+02 8.6906469e-01]
  [7.1873633e+02 2.4772954e+02 9.1167420e-01]
  [7.2747797e+02 4.4491040e+02 6.2923139e-01]
  [7.6268597e+02 3.8891318e+02 8.5599929e-01]
  [7.7455310e+02 2.9783072e+02 7.9670942e-01]
  [6.8043402e+02 6.3333710e+02 6.6568494e-01]
  [6.8622742e+02 6.3035712e+02 6.3446909e-01]
  [8.1867554e+02 7.0392523e+02 8.2055163e-01]
  [7.3909711e+02 8.3354749e+02 8.6400288e-01]
  [6.7745319e+02 6.3922473e+02 5.8424091e-01]
  [7.0104407e+02 7.8944202e+02 8.2989210e-01]
  [6.3035162e+02 9.2461609e+02 8.1319892e-01]
  [7.2745325e+02 3.8905322e+02 5.5222249e-01]
  [7.5392419e+02 3.9785364e+02 3.4663805e-01]
  [6.9219165e+02 3.9781027e+02 4.4816118e-01]
  [0.0000000e+00 0.0000000e+00 0.0000000e+00]
  [6.8915015e+02 9.3360266e+02 6.8012172e-01]
  [6.7742236e+02 9.3051758e+02 6.5752685e-01]
  [6.1273663e+02 9.3056787e+02 7.7353406e-01]
  [7.7747083e+02 9.0110657e+02 7.5836968e-01]
  [7.5975952e+02 8.9523523e+02 7.1268398e-01]
  [7.1578601e+02 8.3642059e+02 8.6269021e-01]]]