[[[7.8618427e+02 3.4490295e+02 9.1558850e-01]
  [8.1577374e+02 4.1555832e+02 6.7942435e-01]
  [8.0695508e+02 4.1840933e+02 4.4399676e-01]
  [7.6876270e+02 4.3604245e+02 2.7115551e-01]
  [7.4813727e+02 4.1249680e+02 4.8684922e-01]
  [8.2759418e+02 4.1254138e+02 6.2565058e-01]
  [7.8929047e+02 4.4495334e+02 1.6753331e-01]
  [7.6286249e+02 4.1843243e+02 3.0717051e-01]
  [7.6286200e+02 6.0098883e+02 7.2590679e-01]
  [7.8329260e+02 6.0678308e+02 6.1506259e-01]
  [7.1871735e+02 7.6567590e+02 8.6570400e-01]
  [7.3913239e+02 9.1880414e+02 7.7213979e-01]
  [7.4512524e+02 6.0083685e+02 6.8048334e-01]
  [6.4804913e+02 7.3919226e+02 9.2332435e-01]
  [6.9813824e+02 8.8651880e+02 7.5941598e-01]
  [7.7754614e+02 3.3885416e+02 8.7536132e-01]
  [7.9816003e+02 3.3900085e+02 9.0102935e-01]
  [0.0000000e+00 0.0000000e+00 0.0000000e+00]
  [8.3345813e+02 3.5076071e+02 7.2435522e-01]
  [6.7163818e+02 9.4232935e+02 5.6301773e-01]
  [6.7452271e+02 9.3353412e+02 5.3498840e-01]
  [7.1857666e+02 9.0704742e+02 5.5057484e-01]
  [6.9220923e+02 9.5408527e+02 4.5671794e-01]
  [6.9521667e+02 9.5119690e+02 3.4057975e-01]
  [7.4234229e+02 9.3347888e+02 8.1712735e-01]]]