[[[9.5711823e+02 3.6247766e+02 9.3462718e-01]
  [9.7175409e+02 4.4197415e+02 8.6572307e-01]
  [9.2750629e+02 4.4488736e+02 8.5265595e-01]
  [9.0999927e+02 5.4493896e+02 8.2710117e-01]
  [9.0718384e+02 6.0973779e+02 8.7703496e-01]
  [1.0158823e+03 4.4202136e+02 7.9954338e-01]
  [9.4823376e+02 5.0665628e+02 8.7940538e-01]
  [9.7461224e+02 4.3306149e+02 9.0410626e-01]
  [9.6875842e+02 6.0095203e+02 7.3350555e-01]
  [9.3350696e+02 6.0387311e+02 7.3385227e-01]
  [9.3349084e+02 7.7746356e+02 8.2303220e-01]
  [9.3045618e+02 9.2465497e+02 8.7441069e-01]
  [9.9820709e+02 6.0088116e+02 7.4733663e-01]
  [9.8650000e+02 7.2170740e+02 8.1980526e-01]
  [1.0571202e+03 8.4233020e+02 7.5128525e-01]
  [9.5707037e+02 3.4206824e+02 9.2265183e-01]
  [9.7771075e+02 3.5665765e+02 9.0847027e-01]
  [0.0000000e+00 0.0000000e+00 0.0000000e+00]
  [1.0041042e+03 3.7722070e+02 7.9731989e-01]
  [1.0718163e+03 8.8344910e+02 6.7235821e-01]
  [1.0894681e+03 8.7464551e+02 6.5923846e-01]
  [1.0629629e+03 8.5690289e+02 6.3797987e-01]
  [9.1588452e+02 9.5403290e+02 8.0685192e-01]
  [9.0401825e+02 9.5101733e+02 8.4288275e-01]
  [9.3938068e+02 9.3353638e+02 7.4295282e-01]]]