[[[9.51033386e+02 3.24262299e+02 8.90628874e-01]
  [9.45202576e+02 4.09585602e+02 8.39674115e-01]
  [9.03975586e+02 4.12454468e+02 8.41837108e-01]
  [8.71660461e+02 5.00796539e+02 8.23381126e-01]
  [8.12903381e+02 5.80390869e+02 8.70966017e-01]
  [9.80554199e+02 4.06649994e+02 8.28843594e-01]
  [1.02481763e+03 4.65572601e+02 8.59629750e-01]
  [1.00422296e+03 3.68454132e+02 8.17369938e-01]
  [9.36494934e+02 5.98081848e+02 7.26306081e-01]
  [9.27496643e+02 6.00903809e+02 7.20050097e-01]
  [1.03070361e+03 7.33288513e+02 8.18625689e-01]
  [9.71691711e+02 9.01136902e+02 7.57580280e-01]
  [9.54052551e+02 5.98029175e+02 6.92897499e-01]
  [9.59995667e+02 7.83374451e+02 8.19196165e-01]
  [9.04002136e+02 9.30457153e+02 8.71951699e-01]
  [9.27618713e+02 3.18475769e+02 9.42706227e-01]
  [9.51178467e+02 3.12531586e+02 9.02450025e-01]
  [9.04075378e+02 3.44819580e+02 8.28029990e-01]
  [0.00000000e+00 0.00000000e+00 0.00000000e+00]
  [9.65835571e+02 9.71740662e+02 4.87441897e-01]
  [9.51215454e+02 9.57165649e+02 4.43644047e-01]
  [8.83389832e+02 9.39364441e+02 7.97622621e-01]
  [9.80576965e+02 9.74616455e+02 6.50172114e-01]
  [9.74810242e+02 9.68770264e+02 5.55505514e-01]
  [9.54012878e+02 9.06970764e+02 5.39608598e-01]]]