[[[9.7756976e+02 4.1246466e+02 9.7861272e-01]
  [9.8356610e+02 5.0372260e+02 8.7360859e-01]
  [9.2764075e+02 5.0374149e+02 8.9916086e-01]
  [9.0414642e+02 5.8911261e+02 8.8626134e-01]
  [9.3362561e+02 6.2753278e+02 8.6169147e-01]
  [1.0453961e+03 5.0372128e+02 8.6095375e-01]
  [1.0687927e+03 5.8625177e+02 8.6821145e-01]
  [1.0452415e+03 6.6563916e+02 8.7961137e-01]
  [9.8056274e+02 6.6569312e+02 7.9794526e-01]
  [9.4232996e+02 6.6276886e+02 7.4113214e-01]
  [8.8049615e+02 7.9514282e+02 8.7247235e-01]
  [8.3327405e+02 9.1587268e+02 8.2850605e-01]
  [1.0246324e+03 6.6857111e+02 8.0120337e-01]
  [1.0688280e+03 8.1271979e+02 9.2561215e-01]
  [1.0953126e+03 9.2168243e+02 8.5181892e-01]
  [9.6004572e+02 4.0943240e+02 8.9140081e-01]
  [9.8939008e+02 4.0075015e+02 8.3604938e-01]
  [9.5113220e+02 4.2719305e+02 8.0792952e-01]
  [1.0070957e+03 4.1256293e+02 8.0567890e-01]
  [1.0952850e+03 9.4820911e+02 7.7509421e-01]
  [1.1158728e+03 9.4522925e+02 7.8886402e-01]
  [1.0925219e+03 9.2772400e+02 6.9672340e-01]
  [8.2749933e+02 9.5119763e+02 8.1887329e-01]
  [8.0980200e+02 9.4531171e+02 8.1924284e-01]
  [8.3330908e+02 9.3047931e+02 7.1355760e-01]]]