[[[1.06003662e+03 3.21373993e+02 8.70389760e-01]
  [1.07474402e+03 4.00807495e+02 7.42718399e-01]
  [1.06006836e+03 3.92055573e+02 6.51574969e-01]
  [1.04823425e+03 4.83278900e+02 1.48871094e-01]
  [1.02167712e+03 5.30241638e+02 2.26508185e-01]
  [1.09244495e+03 4.06609161e+02 8.35916400e-01]
  [1.06588586e+03 4.83334320e+02 8.38581920e-01]
  [9.74729065e+02 4.83158051e+02 8.25542808e-01]
  [1.04835046e+03 5.77471008e+02 7.21211135e-01]
  [1.02477515e+03 5.77390076e+02 7.20454216e-01]
  [9.51178223e+02 7.09820007e+02 8.52625668e-01]
  [9.62999634e+02 8.56924438e+02 7.87130833e-01]
  [1.07190503e+03 5.80338318e+02 6.79407895e-01]
  [1.07171521e+03 7.59862000e+02 8.45379233e-01]
  [1.08066406e+03 9.27594299e+02 8.24552417e-01]
  [1.04843054e+03 3.15280334e+02 9.36767817e-01]
  [1.07201294e+03 3.15418640e+02 9.33140934e-01]
  [0.00000000e+00 0.00000000e+00 0.00000000e+00]
  [1.10421631e+03 3.33087006e+02 7.06036627e-01]
  [1.01590826e+03 9.51199646e+02 7.64588773e-01]
  [1.03363330e+03 9.57020691e+02 7.84337103e-01]
  [1.09553979e+03 9.42353394e+02 7.73846865e-01]
  [9.01084106e+02 9.07027527e+02 6.06410503e-01]
  [9.01099365e+02 8.95253113e+02 5.30894339e-01]
  [9.80693604e+02 8.65832153e+02 7.43524611e-01]]]