[[[1.02169318e+03 6.56847595e+02 6.29408956e-01]
  [9.48210815e+02 6.27431335e+02 8.09591532e-01]
  [9.15810852e+02 6.18549500e+02 7.84804881e-01]
  [8.30527954e+02 6.92025391e+02 8.65209222e-01]
  [8.80558777e+02 7.68761353e+02 8.75449002e-01]
  [9.74819336e+02 6.44968811e+02 7.56624103e-01]
  [9.74743103e+02 7.18597534e+02 8.59748721e-01]
  [1.02465552e+03 7.62803345e+02 8.51942480e-01]
  [8.57049133e+02 7.74588257e+02 6.79472446e-01]
  [8.27550171e+02 7.83334106e+02 6.33018792e-01]
  [8.80622559e+02 9.54275757e+02 8.66603851e-01]
  [7.83327820e+02 9.07183472e+02 8.40576351e-01]
  [8.89314575e+02 7.68740784e+02 6.63521171e-01]
  [1.00133026e+03 7.86297180e+02 9.01904106e-01]
  [9.51272705e+02 9.48184998e+02 8.37997437e-01]
  [1.02175452e+03 6.44976501e+02 7.02888608e-01]
  [0.00000000e+00 0.00000000e+00 0.00000000e+00]
  [9.95299255e+02 6.09703918e+02 6.55926168e-01]
  [0.00000000e+00 0.00000000e+00 0.00000000e+00]
  [1.02172821e+03 9.74606934e+02 8.11163664e-01]
  [1.01586920e+03 9.62902649e+02 7.05720127e-01]
  [9.30441711e+02 9.57076538e+02 7.66341746e-01]
  [7.65822693e+02 9.68832397e+02 8.34057927e-01]
  [7.56920105e+02 9.54133667e+02 8.03652465e-01]
  [7.68749084e+02 8.92259460e+02 6.77571714e-01]]]