[[[1.1484370e+03 3.6847885e+02 8.8747603e-01]
  [1.1160426e+03 4.4494754e+02 8.5235268e-01]
  [1.0658618e+03 4.2141788e+02 7.8535014e-01]
  [1.0659680e+03 3.3892627e+02 7.6074690e-01]
  [1.0776902e+03 2.4175906e+02 8.3793241e-01]
  [1.1659965e+03 4.6557718e+02 8.0828685e-01]
  [1.1924951e+03 5.7142310e+02 4.9212849e-01]
  [1.1896499e+03 5.3912427e+02 3.6087406e-01]
  [1.1601788e+03 6.4509119e+02 6.7542982e-01]
  [1.1189838e+03 6.4794647e+02 6.8148392e-01]
  [1.0216520e+03 7.6273608e+02 8.5534060e-01]
  [1.0248599e+03 9.2767255e+02 8.1766510e-01]
  [1.1955167e+03 6.4502002e+02 6.3037795e-01]
  [1.2071570e+03 7.8644720e+02 8.3900589e-01]
  [1.2131005e+03 9.3063849e+02 8.4641659e-01]
  [1.1454401e+03 3.5952515e+02 8.8681978e-01]
  [1.1661687e+03 3.8012726e+02 8.8153338e-01]
  [1.1160211e+03 3.6244675e+02 6.6665345e-01]
  [1.1690601e+03 4.0966086e+02 8.6699241e-01]
  [1.2013553e+03 9.5998383e+02 6.8827975e-01]
  [1.2190327e+03 9.6001489e+02 7.3640674e-01]
  [1.2132307e+03 9.4825995e+02 6.5146947e-01]
  [9.6882678e+02 9.6587921e+02 7.1628916e-01]
  [9.6884497e+02 9.5420050e+02 6.7892218e-01]
  [1.0482461e+03 9.4228748e+02 7.6946938e-01]]]