[[[1.01890149e+03 4.18491699e+02 8.68708670e-01]
  [9.86463989e+02 4.83282318e+02 8.80560696e-01]
  [9.27578003e+02 4.80346649e+02 8.89659762e-01]
  [9.15853516e+02 5.71395081e+02 7.93712258e-01]
  [9.27685730e+02 6.48056335e+02 9.61183965e-01]
  [1.04544812e+03 4.86160034e+02 8.69495332e-01]
  [1.10423523e+03 5.30268433e+02 8.84605765e-01]
  [1.06895544e+03 5.74306519e+02 8.68073165e-01]
  [1.00108179e+03 6.48064636e+02 7.81898260e-01]
  [9.65861023e+02 6.50921448e+02 7.18933940e-01]
  [9.07104553e+02 7.68658630e+02 8.97891939e-01]
  [9.04201965e+02 9.15892395e+02 8.41912031e-01]
  [1.03363147e+03 6.47973694e+02 7.03765392e-01]
  [1.02185999e+03 7.80499695e+02 8.71851921e-01]
  [1.03656201e+03 9.09958130e+02 8.39341402e-01]
  [1.00133923e+03 4.09492065e+02 9.47856843e-01]
  [1.02485315e+03 4.09726807e+02 9.37073946e-01]
  [9.77522400e+02 4.09727020e+02 9.33009684e-01]
  [1.03945154e+03 4.30092896e+02 1.23541564e-01]
  [9.98354370e+02 9.33621155e+02 7.72920132e-01]
  [1.02178113e+03 9.39454407e+02 7.38803208e-01]
  [1.04546301e+03 9.27542114e+02 8.54435086e-01]
  [8.51119080e+02 9.36534607e+02 7.46633947e-01]
  [8.53989258e+02 9.30540161e+02 7.84497261e-01]
  [9.21756287e+02 9.30657837e+02 8.65473568e-01]]]