[[[1.09245935e+03 3.56673462e+02 9.21639740e-01]
  [1.10427844e+03 4.39071838e+02 8.37481737e-01]
  [1.06590466e+03 4.42042419e+02 8.17654252e-01]
  [1.05415173e+03 5.42109375e+02 7.46353030e-01]
  [1.00120874e+03 5.30287354e+02 9.08831894e-01]
  [1.14832239e+03 4.36254089e+02 8.24699342e-01]
  [1.18657703e+03 5.27419250e+02 9.44358945e-01]
  [1.08943213e+03 5.36159485e+02 7.81796813e-01]
  [1.09542224e+03 6.21407227e+02 7.63102770e-01]
  [1.06601465e+03 6.21512268e+02 7.21059382e-01]
  [1.06010254e+03 7.83339905e+02 8.33601236e-01]
  [1.10713733e+03 9.12878601e+02 7.97347724e-01]
  [1.13069971e+03 6.18521301e+02 6.90125704e-01]
  [1.14538867e+03 7.62637268e+02 8.73892605e-01]
  [1.17777991e+03 9.30462463e+02 8.33417952e-01]
  [1.08649292e+03 3.41869446e+02 9.13606226e-01]
  [1.11292773e+03 3.41953400e+02 9.12874639e-01]
  [0.00000000e+00 0.00000000e+00 0.00000000e+00]
  [1.13957654e+03 3.62479218e+02 8.77395570e-01]
  [1.12187805e+03 9.71715759e+02 8.10772657e-01]
  [1.14241211e+03 9.74611206e+02 8.28913987e-01]
  [1.19250793e+03 9.48166321e+02 8.03442240e-01]
  [1.04836194e+03 9.42365417e+02 7.70911515e-01]
  [1.05413123e+03 9.30664429e+02 7.24606276e-01]
  [1.11902136e+03 9.27680969e+02 8.37457776e-01]]]