[[[9.27518494e+02 3.38867218e+02 9.31781113e-01]
  [9.30577698e+02 4.21440796e+02 8.23798358e-01]
  [8.86505554e+02 4.36172241e+02 7.80303895e-01]
  [8.71711670e+02 5.59781006e+02 7.22470462e-01]
  [8.83426208e+02 5.50914673e+02 5.06713629e-01]
  [9.74637878e+02 4.09482574e+02 8.08729410e-01]
  [9.33581238e+02 4.33179138e+02 5.67501903e-01]
  [9.09921936e+02 3.71318085e+02 4.54849243e-01]
  [9.27736938e+02 6.21421631e+02 7.41518199e-01]
  [8.98225464e+02 6.21489502e+02 7.31552899e-01]
  [8.06862610e+02 7.45216003e+02 8.29734921e-01]
  [8.15855835e+02 9.01073303e+02 7.62345493e-01]
  [9.57094177e+02 6.18559631e+02 6.56400204e-01]
  [9.74637268e+02 7.74598022e+02 8.24210584e-01]
  [1.00107867e+03 9.42330566e+02 8.24896157e-01]
  [9.12965637e+02 3.21302795e+02 8.71286988e-01]
  [9.42384827e+02 3.24220245e+02 8.41473877e-01]
  [9.01158997e+02 3.38957642e+02 1.26906469e-01]
  [9.71808472e+02 3.41945312e+02 7.92775095e-01]
  [9.33496765e+02 9.62895508e+02 7.54865587e-01]
  [9.54013428e+02 9.71730469e+02 8.16845655e-01]
  [1.01882153e+03 9.57099182e+02 8.10301065e-01]
  [7.45175903e+02 9.36511597e+02 6.40229225e-01]
  [7.51003174e+02 9.30461792e+02 6.06909454e-01]
  [8.39278137e+02 9.10059448e+02 7.12255120e-01]]]