[[[9.51164368e+02 5.77524780e+02 9.68684018e-01]
  [9.74561096e+02 6.68546448e+02 8.97644997e-01]
  [9.27734314e+02 6.53977356e+02 8.12163830e-01]
  [8.74615845e+02 7.27510010e+02 7.87403822e-01]
  [7.95136475e+02 7.92277832e+02 8.23755503e-01]
  [1.01296564e+03 6.71606934e+02 8.40101957e-01]
  [9.98139648e+02 7.86437683e+02 8.58298182e-01]
  [9.21769226e+02 8.80563232e+02 7.54454613e-01]
  [9.68808777e+02 8.51103333e+02 7.36736536e-01]
  [9.33595947e+02 8.33424866e+02 7.33130574e-01]
  [8.12753662e+02 8.12743225e+02 8.65579844e-01]
  [9.07055054e+02 9.21747681e+02 4.57341969e-01]
  [9.95362976e+02 8.60052979e+02 6.86963379e-01]
  [8.80572693e+02 9.60042603e+02 8.61894906e-01]
  [1.02182990e+03 9.27646729e+02 7.53192782e-01]
  [9.39364075e+02 5.74266357e+02 8.85455728e-01]
  [9.68745728e+02 5.74272522e+02 8.67536068e-01]
  [0.00000000e+00 0.00000000e+00 0.00000000e+00]
  [9.98177551e+02 5.83246948e+02 8.13646376e-01]
  [1.04242786e+03 9.71786255e+02 7.99776495e-01]
  [1.04838318e+03 9.54260742e+02 8.12041283e-01]
  [1.03948853e+03 9.04077576e+02 4.41745251e-01]
  [0.00000000e+00 0.00000000e+00 0.00000000e+00]
  [0.00000000e+00 0.00000000e+00 0.00000000e+00]
  [0.00000000e+00 0.00000000e+00 0.00000000e+00]]]