[[[1.02170093e+03 3.88904694e+02 8.31455529e-01]
  [1.00413098e+03 4.62633972e+02 8.99388909e-01]
  [9.54184631e+02 4.68530701e+02 8.57641041e-01]
  [9.33587341e+02 5.53749512e+02 8.87111962e-01]
  [9.30630615e+02 6.42143127e+02 8.76403093e-01]
  [1.05420862e+03 4.59663483e+02 8.13634634e-01]
  [1.00420569e+03 4.97861328e+02 8.21292937e-01]
  [1.02780627e+03 4.30126953e+02 8.72912586e-01]
  [1.01588257e+03 6.30352661e+02 7.00222671e-01]
  [9.77673157e+02 6.33302917e+02 7.01419711e-01]
  [9.92342041e+02 7.86188354e+02 8.73405218e-01]
  [9.74629822e+02 9.04044678e+02 8.91149879e-01]
  [1.04818420e+03 6.27458069e+02 7.18496382e-01]
  [1.04545032e+03 7.80393799e+02 8.48890543e-01]
  [1.02484216e+03 9.07007141e+02 8.67201149e-01]
  [1.01292975e+03 3.80208008e+02 7.82481909e-01]
  [1.03068225e+03 3.85905945e+02 7.86727548e-01]
  [9.98305542e+02 3.97790985e+02 5.97323716e-01]
  [1.04834399e+03 4.03773438e+02 7.20375180e-01]
  [1.02183679e+03 9.42328308e+02 7.61392832e-01]
  [1.04523376e+03 9.36490234e+02 7.80704319e-01]
  [1.02174146e+03 9.15899902e+02 6.81003451e-01]
  [9.71779053e+02 9.39423706e+02 8.03221047e-01]
  [9.54018188e+02 9.30677673e+02 8.49663079e-01]
  [9.77568481e+02 9.10072205e+02 7.34738708e-01]]]