[[[8.8943262e+02 4.7727249e+02 8.6804593e-01]
  [9.4231421e+02 5.3330261e+02 6.9187504e-01]
  [9.2174579e+02 5.3319128e+02 5.9850132e-01]
  [0.0000000e+00 0.0000000e+00 0.0000000e+00]
  [0.0000000e+00 0.0000000e+00 0.0000000e+00]
  [9.5706006e+02 5.3616400e+02 7.7658314e-01]
  [9.7781018e+02 6.2452112e+02 9.0199512e-01]
  [9.5999011e+02 6.9812054e+02 8.3057076e-01]
  [1.0483743e+03 6.5395892e+02 5.7740307e-01]
  [1.0423864e+03 6.6267090e+02 4.0743089e-01]
  [9.8354224e+02 7.6872186e+02 5.0399125e-01]
  [1.0216481e+03 9.1294879e+02 5.0839359e-01]
  [1.0570986e+03 6.5101093e+02 6.4893705e-01]
  [9.7481793e+02 7.6570154e+02 9.1337973e-01]
  [1.0218998e+03 9.2768268e+02 8.3070868e-01]
  [8.8350128e+02 4.5963220e+02 9.6092516e-01]
  [9.0703302e+02 4.5970337e+02 9.1379082e-01]
  [0.0000000e+00 0.0000000e+00 0.0000000e+00]
  [9.4233777e+02 4.7728430e+02 7.4731243e-01]
  [9.5708234e+02 9.4821729e+02 7.4600857e-01]
  [9.7458868e+02 9.5400739e+02 7.5585717e-01]
  [1.0423376e+03 9.4522101e+02 7.6785898e-01]
  [9.6296289e+02 9.3063312e+02 4.1141450e-01]
  [9.7174701e+02 9.2763983e+02 3.7176108e-01]
  [1.0365365e+03 9.2764954e+02 1.4567450e-01]]]