[[[1.04821252e+03 3.80205139e+02 9.29789245e-01]
  [1.04847021e+03 4.56732330e+02 9.08999622e-01]
  [1.00129156e+03 4.59538147e+02 8.71088982e-01]
  [9.80678711e+02 5.50947266e+02 8.57593060e-01]
  [9.54167542e+02 6.18542603e+02 8.95042062e-01]
  [1.10127319e+03 4.56609131e+02 8.40433359e-01]
  [1.10134473e+03 5.36215698e+02 8.21114004e-01]
  [1.05127783e+03 6.15619202e+02 8.32105875e-01]
  [1.02465869e+03 6.30349121e+02 7.78833866e-01]
  [9.92364624e+02 6.24535034e+02 7.42082715e-01]
  [9.98368225e+02 7.86316956e+02 8.30329955e-01]
  [1.01586694e+03 9.24649170e+02 8.22892189e-01]
  [1.05717358e+03 6.39123596e+02 7.05677032e-01]
  [1.01594867e+03 7.80468506e+02 8.55266809e-01]
  [1.06886731e+03 9.09973145e+02 8.82038295e-01]
  [1.03652429e+03 3.65411285e+02 9.13315356e-01]
  [1.06592188e+03 3.65439240e+02 9.24683928e-01]
  [1.02179822e+03 3.80187317e+02 5.80587983e-01]
  [1.08941895e+03 3.80197357e+02 7.63603270e-01]
  [1.03061597e+03 9.51031738e+02 7.93983877e-01]
  [1.04835046e+03 9.51109924e+02 8.00680041e-01]
  [1.08069360e+03 9.27587402e+02 7.47333527e-01]
  [9.92382751e+02 9.51171936e+02 7.36385584e-01]
  [9.80608582e+02 9.48122925e+02 7.05983639e-01]
  [1.02192456e+03 9.30614685e+02 7.40613520e-01]]]