[[[1.0276969e+03 3.6247818e+02 7.1997654e-01]
  [1.0688868e+03 4.1840372e+02 6.0441160e-01]
  [1.0718518e+03 4.3014209e+02 3.8793522e-01]
  [0.0000000e+00 0.0000000e+00 0.0000000e+00]
  [0.0000000e+00 0.0000000e+00 0.0000000e+00]
  [1.0630469e+03 4.0968130e+02 7.6097196e-01]
  [9.9838940e+02 3.3305905e+02 8.6916745e-01]
  [9.6877411e+02 2.6242471e+02 8.0595493e-01]
  [1.0453569e+03 6.0092859e+02 6.0326111e-01]
  [1.0453126e+03 6.0089459e+02 5.0165820e-01]
  [1.0218846e+03 7.7751440e+02 6.8922424e-01]
  [1.0659982e+03 9.2167224e+02 6.5732181e-01]
  [1.0453678e+03 6.0382941e+02 6.0316414e-01]
  [1.0247498e+03 7.8333142e+02 8.3543777e-01]
  [1.0718413e+03 9.3050494e+02 8.3839911e-01]
  [1.0364950e+03 3.5074313e+02 2.6744634e-01]
  [1.0452498e+03 3.5662140e+02 8.1604004e-01]
  [0.0000000e+00 0.0000000e+00 0.0000000e+00]
  [1.0688440e+03 3.7141565e+02 6.4673465e-01]
  [1.0129224e+03 9.4525781e+02 7.0853430e-01]
  [1.0246879e+03 9.5119489e+02 7.4072880e-01]
  [1.0895226e+03 9.4816528e+02 8.2415324e-01]
  [1.0187852e+03 9.3057941e+02 4.9140662e-01]
  [1.0218305e+03 9.2769659e+02 4.5230043e-01]
  [1.0865122e+03 9.3070569e+02 2.0062707e-01]]]