[[[1.03061023e+03 3.59603821e+02 8.54499996e-01]
  [1.06595459e+03 4.12586456e+02 6.35702908e-01]
  [1.07476123e+03 4.12675446e+02 3.57420325e-01]
  [9.89441223e+02 3.36014862e+02 4.03560340e-01]
  [9.51182129e+02 2.71354584e+02 3.45419705e-01]
  [1.06002771e+03 4.12480164e+02 7.20389366e-01]
  [9.92373657e+02 3.38933105e+02 7.96746612e-01]
  [9.51262268e+02 2.68190613e+02 8.17279398e-01]
  [1.04531860e+03 5.77328979e+02 6.09752893e-01]
  [1.04243188e+03 5.77347656e+02 5.15867233e-01]
  [1.02779736e+03 7.65654846e+02 5.54357827e-01]
  [1.06890930e+03 9.21709473e+02 5.49098134e-01]
  [1.04537915e+03 5.77395081e+02 6.19878650e-01]
  [1.03356567e+03 7.65793579e+02 7.61545599e-01]
  [1.07178699e+03 9.30462830e+02 8.09416950e-01]
  [1.03062390e+03 3.44909607e+02 7.72832692e-01]
  [1.04824963e+03 3.50736847e+02 9.22153056e-01]
  [0.00000000e+00 0.00000000e+00 0.00000000e+00]
  [1.07489282e+03 3.71342987e+02 8.07619631e-01]
  [1.00713123e+03 9.42330505e+02 6.92915380e-01]
  [1.02190308e+03 9.51171387e+02 7.53709137e-01]
  [1.08951819e+03 9.45333496e+02 7.78963923e-01]
  [1.02167126e+03 9.27680420e+02 3.90948802e-01]
  [1.02465930e+03 9.27533020e+02 3.67933661e-01]
  [1.08951843e+03 9.33601624e+02 1.79597706e-01]]]