[[[8.5981012e+02 4.8026419e+02 7.7623832e-01]
  [9.2761798e+02 5.2723743e+02 5.5548698e-01]
  [9.4231183e+02 5.2728143e+02 3.8572180e-01]
  [0.0000000e+00 0.0000000e+00 0.0000000e+00]
  [0.0000000e+00 0.0000000e+00 0.0000000e+00]
  [9.0709644e+02 5.2431689e+02 7.4194121e-01]
  [8.0999762e+02 5.3621411e+02 8.0349493e-01]
  [7.3932043e+02 4.8332959e+02 8.4878916e-01]
  [1.0924614e+03 6.2438336e+02 6.4008373e-01]
  [1.0953694e+03 6.2155847e+02 4.9212724e-01]
  [1.0717115e+03 7.7754785e+02 7.3041481e-01]
  [1.0277716e+03 9.2467151e+02 6.6976231e-01]
  [1.0923268e+03 6.2440558e+02 6.6790390e-01]
  [1.0689840e+03 7.7750391e+02 6.4563549e-01]
  [1.0247529e+03 9.2773596e+02 6.3236350e-01]
  [0.0000000e+00 0.0000000e+00 0.0000000e+00]
  [8.6577704e+02 4.6553403e+02 7.4818140e-01]
  [0.0000000e+00 0.0000000e+00 0.0000000e+00]
  [8.8363330e+02 4.8017517e+02 8.7444621e-01]
  [9.5714301e+02 9.4529834e+02 5.5653155e-01]
  [9.7472601e+02 9.5128357e+02 5.8465219e-01]
  [1.0365042e+03 9.4825537e+02 5.6677461e-01]
  [9.7173993e+02 9.3360980e+02 4.4497630e-01]
  [9.7182489e+02 9.3060852e+02 4.0206018e-01]
  [1.0453804e+03 9.4822253e+02 4.8279387e-01]]]