[[[1.2100587e+03 3.3893463e+02 9.6288234e-01]
  [1.2306925e+03 4.3012045e+02 8.4489250e-01]
  [1.1600549e+03 4.2723276e+02 7.8608310e-01]
  [1.0630127e+03 4.0945325e+02 7.4957317e-01]
  [1.0453810e+03 4.3022217e+02 6.0780895e-01]
  [1.2984038e+03 4.3017557e+02 8.0021381e-01]
  [1.3426489e+03 5.0690277e+02 8.3157235e-01]
  [1.3248870e+03 5.7146857e+02 8.4973902e-01]
  [1.2425195e+03 6.2144928e+02 7.3894513e-01]
  [1.2013263e+03 6.2150714e+02 7.2093868e-01]
  [1.1542693e+03 7.6576434e+02 8.4949678e-01]
  [1.1395294e+03 8.8936047e+02 8.4288311e-01]
  [1.2866572e+03 6.1862451e+02 7.4758631e-01]
  [1.3249955e+03 7.8336578e+02 8.3946210e-01]
  [1.3307931e+03 9.3065955e+02 8.6005747e-01]
  [1.1896108e+03 3.3305017e+02 9.2167479e-01]
  [1.2189849e+03 3.2138385e+02 8.6362004e-01]
  [1.1806705e+03 3.5656290e+02 7.3554516e-01]
  [1.2454908e+03 3.4191599e+02 8.1800443e-01]
  [1.3545194e+03 9.7165863e+02 7.1262050e-01]
  [1.3748672e+03 9.5716138e+02 7.8260416e-01]
  [1.3161527e+03 9.5115619e+02 7.8738749e-01]
  [1.1424066e+03 9.3644000e+02 7.7381921e-01]
  [1.1190339e+03 9.3061255e+02 7.8035665e-01]
  [1.1424567e+03 9.0396375e+02 6.9278646e-01]]]