[[[9.9536401e+02 4.0945029e+02 9.1424423e-01]
  [9.7166968e+02 4.7736319e+02 8.8337016e-01]
  [9.0709015e+02 4.7146408e+02 8.4879899e-01]
  [8.9818170e+02 5.6262250e+02 7.8136778e-01]
  [8.9811115e+02 6.2751807e+02 8.4116679e-01]
  [1.0246456e+03 4.8021133e+02 8.9425439e-01]
  [1.0452360e+03 5.7432202e+02 8.8824981e-01]
  [1.0630214e+03 6.5386121e+02 7.9841083e-01]
  [9.7752167e+02 6.4501831e+02 8.1222773e-01]
  [9.3940619e+02 6.4503131e+02 7.3497701e-01]
  [9.3355762e+02 7.8333411e+02 8.7488711e-01]
  [9.4817987e+02 9.1004480e+02 8.3583772e-01]
  [1.0130222e+03 6.4503870e+02 7.3924363e-01]
  [1.0013440e+03 7.7458655e+02 8.5826957e-01]
  [9.8645251e+02 9.0715491e+02 8.0605912e-01]
  [9.8069806e+02 3.8909360e+02 9.3667042e-01]
  [1.0042180e+03 3.9498206e+02 8.3332074e-01]
  [9.5998596e+02 3.9784595e+02 8.1537026e-01]
  [1.0189139e+03 4.1249203e+02 4.6212614e-01]
  [9.7466315e+02 9.4524866e+02 6.9679713e-01]
  [9.9527399e+02 9.4238715e+02 7.1648169e-01]
  [9.8353809e+02 9.2473706e+02 6.8678570e-01]
  [9.2764539e+02 9.4521222e+02 7.4685454e-01]
  [9.1580914e+02 9.3355023e+02 7.5605679e-01]
  [9.5410754e+02 9.2755548e+02 7.9056871e-01]]]