[[[9.8649713e+02 4.1255670e+02 9.1283959e-01]
  [9.7483850e+02 4.8012430e+02 9.4103003e-01]
  [9.1882373e+02 4.7141153e+02 8.0616361e-01]
  [9.0699396e+02 5.5685010e+02 8.5771209e-01]
  [9.0405853e+02 6.3039777e+02 9.1719937e-01]
  [1.0306810e+03 4.8311871e+02 8.5488039e-01]
  [1.0481829e+03 5.7742224e+02 9.0461606e-01]
  [1.0600613e+03 6.5975055e+02 7.7312845e-01]
  [9.7767041e+02 6.4211340e+02 7.6437563e-01]
  [9.4520685e+02 6.3917377e+02 6.8829441e-01]
  [9.3647656e+02 7.8344043e+02 8.7272012e-01]
  [9.4813904e+02 9.0999207e+02 8.3046812e-01]
  [1.0188282e+03 6.4496234e+02 7.2734940e-01]
  [1.0040979e+03 7.7459174e+02 8.4672356e-01]
  [9.8355603e+02 9.0998236e+02 7.9833400e-01]
  [9.7481934e+02 4.0078177e+02 9.2100745e-01]
  [1.0011177e+03 4.0370798e+02 8.9353263e-01]
  [9.5410297e+02 4.0376517e+02 8.6455500e-01]
  [1.0216535e+03 4.0953354e+02 6.8472373e-01]
  [9.7460999e+02 9.4525446e+02 6.7870378e-01]
  [9.9523633e+02 9.4237543e+02 6.9525021e-01]
  [9.8068176e+02 9.2751416e+02 6.8446040e-01]
  [9.3048712e+02 9.4529163e+02 7.5572234e-01]
  [9.1585486e+02 9.3362744e+02 7.4786681e-01]
  [9.5401007e+02 9.2751147e+02 7.6541626e-01]]]