[[[1.00128021e+03 3.68525299e+02 8.98775101e-01]
  [9.98246765e+02 4.56624634e+02 9.12347972e-01]
  [9.57159912e+02 4.56601959e+02 8.04863811e-01]
  [9.54053467e+02 5.42054077e+02 7.76034355e-01]
  [9.45225891e+02 6.15620789e+02 8.06346655e-01]
  [1.02773755e+03 4.56664093e+02 8.88193369e-01]
  [1.03067810e+03 5.53720032e+02 8.62039089e-01]
  [1.00411310e+03 6.36206909e+02 8.29981446e-01]
  [1.02464856e+03 6.27397278e+02 7.55331814e-01]
  [9.95356628e+02 6.27474060e+02 7.22402453e-01]
  [9.27600159e+02 7.80443542e+02 8.77431750e-01]
  [9.04044250e+02 9.30483765e+02 8.66970301e-01]
  [1.05120410e+03 6.27369080e+02 7.11973369e-01]
  [1.04833716e+03 7.86364929e+02 9.30641472e-01]
  [1.09526489e+03 9.27699768e+02 8.93666863e-01]
  [9.92372437e+02 3.62485657e+02 9.10608470e-01]
  [1.01890576e+03 3.62598358e+02 8.99989963e-01]
  [9.71821106e+02 3.74345184e+02 7.98629582e-01]
  [1.03070410e+03 3.83104248e+02 6.65293813e-01]
  [1.04542957e+03 9.51224976e+02 8.49779367e-01]
  [1.06599182e+03 9.54198364e+02 8.36138368e-01]
  [1.11304175e+03 9.42331909e+02 8.28976274e-01]
  [8.48166199e+02 9.54083435e+02 7.27319121e-01]
  [8.48189392e+02 9.48222839e+02 6.97183847e-01]
  [9.12921265e+02 9.51053894e+02 7.75888979e-01]]]