[[[9.95360474e+02 2.97802429e+02 9.17172730e-01]
  [9.86523071e+02 3.86114868e+02 8.48766446e-01]
  [9.30500549e+02 3.83172058e+02 8.40899348e-01]
  [9.27593384e+02 4.71406006e+02 8.70273352e-01]
  [9.42304321e+02 3.80134949e+02 7.85955191e-01]
  [1.04532458e+03 3.88978027e+02 8.74605656e-01]
  [1.09542175e+03 3.94928894e+02 8.36071372e-01]
  [1.09837561e+03 2.83054993e+02 6.73478365e-01]
  [9.74599121e+02 5.77462341e+02 7.40618825e-01]
  [9.30661865e+02 5.77348206e+02 7.34036744e-01]
  [9.57055298e+02 7.42205811e+02 8.87254119e-01]
  [9.48124268e+02 9.09930115e+02 7.93656945e-01]
  [1.00713519e+03 5.80385742e+02 6.82629704e-01]
  [1.00711066e+03 7.59853455e+02 8.44487906e-01]
  [9.77569641e+02 9.07095154e+02 8.62624347e-01]
  [9.77554138e+02 2.92003296e+02 9.44950104e-01]
  [1.00420966e+03 2.88996094e+02 8.91687989e-01]
  [9.57152466e+02 3.15488098e+02 8.02369952e-01]
  [1.02768262e+03 3.06542145e+02 8.18260729e-01]
  [9.80657227e+02 9.59965210e+02 5.83708882e-01]
  [9.98351257e+02 9.54205200e+02 6.74816966e-01]
  [9.71716858e+02 9.24609436e+02 4.71983552e-01]
  [9.71813599e+02 9.59988037e+02 7.34530628e-01]
  [9.48263855e+02 9.57141357e+02 7.03049541e-01]
  [9.36405090e+02 9.24723694e+02 6.82420790e-01]]]