[[[1.09534607e+03 3.85927032e+02 7.36641347e-01]
  [1.02174872e+03 4.15456390e+02 8.39319587e-01]
  [9.95304993e+02 3.83124908e+02 8.24375272e-01]
  [9.62962341e+02 4.47919739e+02 7.95174956e-01]
  [1.02764612e+03 5.21408081e+02 7.67060399e-01]
  [1.04529395e+03 4.56628357e+02 6.70732737e-01]
  [1.02170099e+03 5.62617981e+02 6.29526615e-01]
  [1.01880292e+03 6.27514771e+02 6.94770038e-01]
  [9.42304016e+02 5.89143005e+02 6.55972838e-01]
  [9.07058105e+02 5.77336731e+02 6.77248299e-01]
  [9.10063843e+02 7.62882568e+02 8.43789995e-01]
  [9.03979126e+02 9.42388000e+02 8.31084192e-01]
  [9.74643677e+02 6.00872192e+02 6.62559807e-01]
  [9.54191223e+02 7.65777039e+02 8.46114576e-01]
  [9.51300537e+02 9.27733521e+02 8.53484035e-01]
  [1.09240198e+03 3.62613708e+02 7.37539887e-01]
  [1.10719690e+03 3.68411926e+02 1.20381765e-01]
  [1.05133337e+03 3.44946838e+02 7.33714104e-01]
  [0.00000000e+00 0.00000000e+00 0.00000000e+00]
  [9.80717590e+02 9.74585510e+02 7.34111309e-01]
  [9.95315063e+02 9.62944763e+02 6.93089247e-01]
  [9.48238159e+02 9.39367676e+02 4.86817688e-01]
  [9.60038757e+02 9.74618225e+02 7.35879362e-01]
  [9.39441406e+02 9.77566223e+02 7.04818249e-01]
  [8.83505310e+02 9.57044250e+02 8.09930265e-01]]]