[[[9.80580017e+02 3.50756866e+02 8.64687324e-01]
  [9.74748657e+02 4.30237671e+02 9.01864707e-01]
  [9.18795349e+02 4.30238922e+02 8.14446628e-01]
  [9.27731201e+02 5.03682312e+02 8.73183012e-01]
  [9.27695984e+02 4.15511719e+02 8.41247082e-01]
  [1.02477356e+03 4.33039917e+02 8.57199311e-01]
  [1.03063159e+03 5.21392273e+02 8.35738122e-01]
  [1.05422412e+03 4.33266968e+02 8.79264891e-01]
  [9.77554749e+02 5.98016541e+02 7.13622510e-01]
  [9.36518738e+02 6.00886292e+02 6.51196897e-01]
  [9.48123108e+02 7.86207886e+02 8.62747610e-01]
  [9.51133728e+02 9.30596436e+02 8.73835802e-01]
  [1.01590875e+03 5.97974304e+02 6.63447976e-01]
  [9.98369324e+02 7.86196411e+02 8.57770085e-01]
  [9.89455322e+02 9.24651733e+02 7.92417824e-01]
  [9.71730042e+02 3.38958282e+02 9.25500929e-01]
  [9.98274353e+02 3.39050232e+02 9.63126719e-01]
  [9.51075806e+02 3.47797607e+02 8.09449136e-01]
  [1.01888782e+03 3.56661896e+02 7.87292004e-01]
  [9.89406555e+02 9.60032227e+02 7.35451221e-01]
  [1.00422205e+03 9.54254944e+02 7.74397373e-01]
  [9.80575134e+02 9.30671631e+02 6.64822876e-01]
  [9.45216797e+02 9.62982361e+02 6.80241287e-01]
  [9.27578186e+02 9.57062378e+02 7.83618867e-01]
  [9.54179016e+02 9.45331116e+02 7.11736739e-01]]]