[[[8.6011591e+02 5.5093024e+02 6.2357888e-02]
  [9.1874054e+02 5.5376575e+02 8.4976381e-01]
  [8.5707520e+02 5.5371497e+02 8.0283844e-01]
  [8.0402795e+02 6.2440375e+02 8.7606090e-01]
  [8.1286389e+02 7.1282178e+02 8.9798522e-01]
  [9.7762756e+02 5.5100989e+02 8.1792253e-01]
  [1.0689521e+03 6.4493860e+02 9.0410751e-01]
  [1.0719900e+03 7.2157263e+02 8.8084739e-01]
  [9.4524591e+02 6.9208307e+02 7.5408393e-01]
  [8.9821332e+02 6.9221521e+02 7.4217308e-01]
  [8.1292871e+02 7.7462720e+02 8.4663880e-01]
  [7.8328925e+02 9.3361963e+02 8.1063455e-01]
  [9.8940680e+02 6.8916919e+02 7.1967530e-01]
  [1.0600414e+03 7.8620038e+02 8.1942594e-01]
  [1.0836309e+03 9.3357611e+02 8.1591165e-01]
  [0.0000000e+00 0.0000000e+00 0.0000000e+00]
  [8.7462268e+02 5.3327521e+02 5.6586936e-02]
  [0.0000000e+00 0.0000000e+00 0.0000000e+00]
  [9.0704962e+02 5.5093921e+02 1.3068385e-01]
  [1.1306851e+03 9.7165540e+02 7.7360415e-01]
  [1.1365148e+03 9.5424750e+02 7.8510261e-01]
  [1.0689341e+03 9.5403668e+02 8.6343575e-01]
  [7.4517474e+02 9.6882281e+02 7.2674233e-01]
  [7.3923737e+02 9.5700146e+02 7.7147156e-01]
  [7.8924109e+02 9.5410950e+02 8.5633492e-01]]]