[[[9.74617065e+02 3.65598328e+02 9.64714944e-01]
  [9.98122681e+02 4.56779877e+02 9.04356182e-01]
  [9.30697144e+02 4.59541962e+02 8.24081361e-01]
  [9.21660278e+02 5.47890869e+02 7.62546182e-01]
  [9.30491638e+02 6.15583069e+02 8.90867114e-01]
  [1.04845093e+03 4.56581665e+02 8.35548878e-01]
  [1.13962512e+03 4.80151154e+02 9.34602976e-01]
  [1.11891931e+03 4.12564636e+02 9.04332459e-01]
  [1.00130322e+03 6.24579163e+02 7.68354416e-01]
  [9.65856750e+02 6.27476440e+02 7.31543005e-01]
  [8.80358521e+02 7.62711121e+02 8.86356473e-01]
  [8.80379028e+02 9.24638123e+02 8.11733127e-01]
  [1.04529224e+03 6.24447388e+02 7.50021458e-01]
  [1.07187537e+03 7.83336243e+02 8.64111900e-01]
  [1.10710144e+03 9.24647888e+02 8.09324384e-01]
  [9.54176819e+02 3.62647491e+02 9.65691388e-01]
  [9.80564453e+02 3.56656891e+02 8.79423976e-01]
  [9.48257202e+02 3.86082977e+02 6.88645124e-01]
  [1.00424225e+03 3.65500092e+02 8.07151496e-01]
  [1.09249866e+03 9.53994629e+02 7.83817351e-01]
  [1.11591492e+03 9.51229126e+02 8.09495211e-01]
  [1.11014893e+03 9.30709656e+02 6.95413709e-01]
  [8.15748962e+02 9.57006165e+02 7.04015195e-01]
  [8.15812805e+02 9.51047852e+02 6.90679908e-01]
  [8.92318909e+02 9.33498108e+02 7.57754087e-01]]]