[[[9.1588245e+02 3.5367108e+02 8.5267884e-01]
  [9.5401056e+02 4.3314590e+02 8.4105480e-01]
  [9.0997711e+02 4.6263055e+02 7.6444787e-01]
  [8.8046820e+02 5.4795367e+02 9.0531605e-01]
  [8.3337811e+02 6.2745825e+02 8.7932217e-01]
  [9.8643768e+02 4.0969595e+02 7.8845060e-01]
  [8.9228864e+02 4.0949780e+02 8.8399875e-01]
  [8.4227307e+02 3.6836777e+02 8.4007037e-01]
  [9.5129657e+02 6.0087524e+02 7.5773686e-01]
  [9.2469586e+02 6.0091162e+02 7.2317833e-01]
  [9.0397607e+02 7.6864038e+02 8.9230293e-01]
  [8.8358710e+02 9.3057788e+02 8.4707379e-01]
  [9.8054639e+02 6.0085834e+02 7.0234537e-01]
  [9.5406848e+02 7.6568048e+02 9.1016728e-01]
  [1.0806824e+03 7.8942303e+02 8.1209403e-01]
  [9.1880872e+02 3.4183865e+02 5.3834605e-01]
  [9.3058118e+02 3.4192181e+02 9.4995469e-01]
  [0.0000000e+00 0.0000000e+00 0.0000000e+00]
  [9.6887848e+02 3.6241623e+02 7.5316036e-01]
  [1.0954451e+03 8.5702643e+02 8.8037491e-01]
  [1.1158483e+03 8.4224762e+02 8.0038476e-01]
  [1.0953800e+03 7.8338916e+02 7.8656512e-01]
  [8.5997223e+02 9.5716199e+02 7.7728438e-01]
  [8.5112543e+02 9.5402667e+02 8.0207568e-01]
  [9.0106812e+02 9.5103601e+02 8.2250607e-01]]]