[[[1.01880951e+03 3.83163239e+02 9.14773285e-01]
  [1.01296558e+03 4.56834412e+02 8.96730125e-01]
  [9.54094421e+02 4.59561279e+02 9.17297721e-01]
  [9.36530823e+02 5.39160400e+02 8.31106305e-01]
  [9.12968933e+02 6.21486267e+02 9.02643919e-01]
  [1.06896716e+03 4.56682220e+02 9.15959835e-01]
  [1.08650305e+03 5.47928650e+02 8.36689234e-01]
  [1.06893689e+03 6.21513062e+02 8.02512944e-01]
  [1.00120959e+03 6.15676697e+02 7.51217127e-01]
  [9.68767761e+02 6.09787781e+02 6.98876441e-01]
  [9.06941406e+02 7.48087646e+02 8.90034914e-01]
  [9.24687439e+02 8.80553528e+02 8.75002027e-01]
  [1.04232361e+03 6.21421936e+02 7.11249530e-01]
  [1.02184955e+03 7.68718811e+02 8.76256108e-01]
  [1.03065808e+03 9.15840027e+02 8.06276441e-01]
  [1.00115131e+03 3.68532593e+02 9.31359529e-01]
  [1.02476892e+03 3.68404053e+02 9.11163270e-01]
  [9.80703674e+02 3.88969635e+02 8.87464046e-01]
  [1.04524854e+03 3.86052399e+02 6.65018797e-01]
  [9.74755005e+02 9.33610107e+02 8.38762045e-01]
  [9.92347717e+02 9.45265137e+02 7.75417030e-01]
  [1.04545898e+03 9.30533020e+02 8.85686815e-01]
  [8.83482605e+02 9.18795349e+02 7.37391472e-01]
  [8.80574585e+02 9.06976868e+02 7.59530008e-01]
  [9.33556519e+02 8.89337830e+02 8.51037621e-01]]]