[[[1.2101802e+03 3.6852640e+02 9.1403723e-01]
  [1.2132135e+03 4.7146939e+02 8.4170103e-01]
  [1.1659843e+03 4.7727576e+02 8.6082292e-01]
  [1.1659869e+03 5.7433099e+02 7.2649324e-01]
  [1.1336675e+03 5.4787317e+02 6.7191303e-01]
  [1.2631526e+03 4.6555603e+02 7.8484076e-01]
  [1.2808175e+03 5.6556915e+02 8.5687947e-01]
  [1.2367885e+03 6.4802161e+02 8.7629223e-01]
  [1.2306874e+03 6.4792554e+02 7.4363142e-01]
  [1.1925068e+03 6.4799194e+02 7.5838095e-01]
  [1.1867260e+03 7.9521930e+02 8.7954408e-01]
  [1.2572946e+03 9.2470959e+02 8.7702191e-01]
  [1.2601456e+03 6.4514246e+02 7.3255193e-01]
  [1.2454514e+03 7.9514929e+02 8.4091485e-01]
  [1.3073608e+03 9.2471320e+02 8.6254150e-01]
  [1.2072750e+03 3.5962863e+02 8.8784862e-01]
  [1.2307924e+03 3.6552686e+02 9.2390978e-01]
  [1.1867263e+03 3.7720270e+02 5.7273064e-02]
  [1.2484846e+03 3.9203189e+02 7.8452075e-01]
  [1.2749305e+03 9.5402258e+02 7.5410861e-01]
  [1.2896892e+03 9.5407941e+02 7.4028432e-01]
  [1.3278018e+03 9.3356238e+02 8.4574926e-01]
  [1.2101520e+03 9.4826965e+02 7.8398460e-01]
  [1.2130350e+03 9.3941309e+02 6.9660556e-01]
  [1.2690361e+03 9.3062708e+02 6.8819189e-01]]]