[[[9.5105176e+02 3.6844672e+02 9.2812556e-01]
  [9.3357971e+02 4.3309763e+02 8.8393188e-01]
  [8.8061932e+02 4.2136166e+02 8.3628273e-01]
  [8.5690149e+02 3.3608383e+02 9.3842053e-01]
  [9.2764978e+02 3.0074277e+02 8.1846738e-01]
  [9.9812030e+02 4.3621576e+02 8.4533459e-01]
  [1.0600143e+03 3.8593890e+02 8.5992658e-01]
  [1.0070642e+03 3.1531540e+02 6.7551899e-01]
  [9.4532672e+02 6.2155310e+02 7.2112489e-01]
  [9.0418561e+02 6.2445276e+02 7.4343055e-01]
  [8.7762262e+02 7.8642078e+02 8.9042193e-01]
  [8.3052679e+02 9.2468915e+02 8.3401096e-01]
  [9.8062384e+02 6.1862677e+02 6.8986583e-01]
  [1.0188680e+03 7.7462396e+02 8.3151501e-01]
  [1.0453524e+03 9.2750818e+02 8.7057924e-01]
  [9.4817657e+02 3.5959726e+02 8.9466220e-01]
  [9.7169403e+02 3.6846378e+02 8.9764929e-01]
  [9.3044250e+02 3.6247678e+02 2.5645199e-01]
  [9.8054803e+02 3.9789093e+02 8.2771552e-01]
  [1.0481958e+03 9.5419788e+02 7.8027862e-01]
  [1.0688042e+03 9.5121045e+02 8.2586086e-01]
  [1.0394967e+03 9.3359210e+02 6.7737800e-01]
  [8.2759973e+02 9.5427039e+02 7.5440645e-01]
  [8.0978912e+02 9.5123724e+02 8.2260811e-01]
  [8.3047131e+02 9.3641669e+02 7.0142972e-01]]]