[[[9.71699951e+02 4.80345306e+02 9.46946859e-01]
  [9.51037842e+02 5.53710938e+02 9.35840547e-01]
  [8.89342163e+02 5.47916931e+02 8.43042314e-01]
  [8.62830566e+02 6.39174988e+02 8.91838849e-01]
  [8.48133118e+02 7.15567200e+02 8.78925264e-01]
  [1.00127130e+03 5.56858276e+02 8.54737997e-01]
  [1.03059436e+03 6.44932739e+02 8.78595889e-01]
  [1.00109943e+03 6.48069702e+02 9.01987255e-01]
  [9.51087585e+02 6.98124634e+02 8.19610536e-01]
  [9.07135681e+02 7.01032410e+02 7.74319053e-01]
  [9.10040039e+02 8.30532288e+02 8.85025024e-01]
  [8.62883240e+02 9.10072937e+02 8.44048023e-01]
  [9.83557373e+02 6.98057861e+02 7.62579799e-01]
  [1.00125909e+03 8.33322693e+02 8.85144889e-01]
  [1.01584753e+03 9.15816345e+02 8.10276389e-01]
  [9.54106445e+02 4.65501709e+02 9.33059275e-01]
  [9.77795105e+02 4.71403534e+02 8.76790464e-01]
  [9.30517090e+02 4.77272217e+02 8.72818589e-01]
  [9.95342529e+02 4.83257782e+02 5.56930780e-01]
  [1.00131787e+03 9.36516479e+02 8.02672029e-01]
  [1.02463684e+03 9.36409119e+02 8.14014971e-01]
  [1.01292902e+03 9.27478760e+02 6.44540966e-01]
  [8.80428406e+02 9.42308411e+02 7.86817312e-01]
  [8.59841553e+02 9.36410583e+02 7.86505938e-01]
  [8.59842834e+02 9.18826843e+02 7.23559141e-01]]]