[[[9.2462158e+02 4.4791055e+02 8.6101425e-01]
  [9.7770886e+02 5.0078595e+02 8.2467115e-01]
  [1.0011993e+03 4.9201361e+02 6.6983306e-01]
  [9.5709436e+02 5.8615369e+02 7.0515442e-01]
  [9.4815240e+02 6.5392706e+02 6.9183737e-01]
  [9.5421918e+02 5.0373206e+02 8.6276752e-01]
  [9.0694562e+02 5.9501410e+02 8.8101017e-01]
  [9.0719598e+02 6.7745477e+02 8.6688483e-01]
  [1.0541959e+03 6.5391345e+02 6.6574550e-01]
  [1.0777323e+03 6.6869434e+02 6.1984265e-01]
  [9.7169708e+02 7.8640173e+02 8.5983050e-01]
  [1.0246471e+03 9.2472107e+02 7.8478754e-01]
  [1.0335881e+03 6.4499994e+02 6.7559755e-01]
  [9.2175024e+02 7.4236572e+02 8.8430619e-01]
  [9.9817487e+02 9.0705090e+02 7.3539543e-01]
  [9.1005408e+02 4.3599493e+02 9.0081537e-01]
  [9.3070868e+02 4.3316458e+02 8.9236534e-01]
  [0.0000000e+00 0.0000000e+00 0.0000000e+00]
  [9.7458160e+02 4.3326410e+02 7.6453573e-01]
  [9.6004480e+02 9.5420221e+02 6.1296409e-01]
  [9.7469232e+02 9.5416998e+02 6.2174344e-01]
  [1.0188671e+03 9.2761987e+02 5.7694173e-01]
  [9.7760822e+02 9.5707245e+02 3.3509305e-01]
  [9.7760864e+02 9.5400732e+02 2.8844947e-01]
  [1.0423279e+03 9.3644037e+02 7.2229093e-01]]]