[[[1.0952759e+03 3.7424591e+02 9.1620338e-01]
  [1.1129567e+03 4.5665475e+02 8.7950253e-01]
  [1.0687609e+03 4.5672479e+02 8.7558496e-01]
  [1.0865880e+03 5.3327124e+02 2.1061322e-01]
  [1.0954880e+03 5.9202356e+02 2.1803154e-01]
  [1.1512927e+03 4.5664310e+02 8.3102912e-01]
  [1.1424535e+03 5.3330969e+02 5.5858976e-01]
  [1.1542894e+03 5.4500525e+02 6.3382077e-01]
  [1.1365740e+03 6.3034351e+02 7.1741575e-01]
  [1.1071495e+03 6.3033514e+02 6.8490964e-01]
  [1.0688461e+03 7.7754614e+02 8.7421650e-01]
  [1.0364724e+03 9.2750043e+02 8.1437647e-01]
  [1.1630879e+03 6.3032202e+02 7.1996498e-01]
  [1.1689253e+03 7.8924780e+02 9.0242708e-01]
  [1.2219062e+03 9.2749371e+02 8.3676887e-01]
  [1.0894675e+03 3.6259656e+02 9.3445706e-01]
  [1.1130621e+03 3.6538843e+02 9.4233692e-01]
  [0.0000000e+00 0.0000000e+00 0.0000000e+00]
  [1.1396273e+03 3.8316400e+02 8.4451073e-01]
  [1.1925372e+03 9.5127332e+02 8.2941163e-01]
  [1.2131558e+03 9.5398859e+02 8.2843715e-01]
  [1.2365768e+03 9.3351733e+02 8.3301443e-01]
  [9.8943933e+02 9.4822931e+02 6.8902314e-01]
  [9.8358685e+02 9.3360815e+02 6.7625266e-01]
  [1.0454043e+03 9.4236285e+02 7.8762931e-01]]]