[[[9.71661804e+02 3.77255371e+02 8.68396699e-01]
  [9.80690369e+02 4.56554535e+02 8.07206154e-01]
  [9.68834839e+02 4.50805664e+02 7.14316547e-01]
  [9.51165833e+02 5.50940125e+02 5.13252616e-01]
  [8.95203064e+02 5.47846863e+02 7.00513482e-01]
  [1.00111053e+03 4.56656891e+02 8.76784205e-01]
  [9.98216675e+02 5.30372070e+02 8.45546007e-01]
  [9.30497192e+02 4.74397278e+02 8.43567133e-01]
  [9.68770874e+02 6.24542908e+02 7.12710083e-01]
  [9.54017090e+02 6.24543823e+02 6.89990878e-01]
  [9.27589417e+02 7.86463440e+02 7.82119513e-01]
  [9.71753235e+02 9.24699158e+02 7.68948734e-01]
  [9.77668396e+02 6.27386536e+02 7.31641531e-01]
  [9.15816772e+02 7.86215454e+02 8.41771007e-01]
  [9.80669739e+02 9.51232788e+02 8.20046067e-01]
  [9.57085449e+02 3.62645294e+02 9.57963586e-01]
  [9.83580994e+02 3.65562988e+02 8.71362746e-01]
  [9.45299500e+02 3.74345551e+02 1.56686857e-01]
  [1.01008301e+03 3.88888519e+02 7.74338961e-01]
  [9.24606567e+02 9.77671265e+02 8.03585291e-01]
  [9.36447693e+02 9.89369873e+02 7.63429999e-01]
  [1.00128015e+03 9.65839966e+02 8.32883716e-01]
  [9.24614868e+02 9.33474426e+02 6.91804647e-01]
  [9.27584167e+02 9.27657349e+02 6.42609596e-01]
  [9.86528748e+02 9.30665100e+02 2.62929499e-01]]]