[[[9.3643457e+02 2.7715903e+02 8.7083775e-01]
  [9.5111536e+02 3.7429404e+02 8.9411396e-01]
  [8.8062854e+02 3.6849600e+02 8.5982352e-01]
  [8.6284534e+02 4.7440637e+02 8.2164448e-01]
  [8.5981598e+02 5.5090527e+02 7.6982850e-01]
  [1.0188473e+03 3.8301416e+02 7.9728985e-01]
  [1.0451764e+03 4.6845450e+02 8.7083119e-01]
  [9.8053986e+02 5.3316998e+02 8.8210613e-01]
  [9.3052765e+02 5.5378564e+02 7.4279612e-01]
  [8.8932800e+02 5.5079285e+02 6.8890256e-01]
  [8.8065637e+02 7.1281769e+02 8.8519430e-01]
  [8.9232648e+02 8.3355963e+02 8.3969349e-01]
  [9.7459882e+02 5.5678668e+02 7.0122653e-01]
  [9.5397595e+02 7.3044446e+02 8.7324572e-01]
  [9.3066364e+02 9.0116412e+02 7.9735368e-01]
  [9.2758575e+02 2.7115604e+02 9.7046918e-01]
  [9.5128668e+02 2.6843222e+02 9.6567893e-01]
  [9.0717853e+02 2.9196701e+02 8.1349134e-01]
  [9.7483630e+02 2.8892615e+02 8.6180317e-01]
  [9.3054834e+02 9.3359711e+02 7.2276747e-01]
  [9.5123352e+02 9.3347998e+02 8.0456251e-01]
  [9.2748938e+02 9.0704675e+02 6.9024360e-01]
  [8.8351117e+02 8.9234552e+02 8.1592745e-01]
  [8.6876904e+02 8.8353326e+02 7.4504757e-01]
  [9.0405450e+02 8.3652649e+02 7.6465589e-01]]]