[[[9.9814545e+02 6.8910956e+02 8.9806056e-01]
  [9.4233398e+02 7.4209863e+02 7.0308375e-01]
  [9.4231421e+02 7.4217651e+02 8.3696699e-01]
  [9.2757971e+02 8.5104633e+02 8.5296446e-01]
  [9.0696918e+02 9.4527509e+02 8.8300657e-01]
  [9.4530194e+02 7.3931537e+02 5.4735965e-01]
  [9.8351093e+02 8.5111078e+02 8.7560229e-02]
  [1.0218866e+03 8.7174103e+02 5.6078646e-02]
  [9.8945422e+02 9.3056702e+02 6.0494012e-01]
  [9.8351166e+02 9.4819177e+02 6.4748251e-01]
  [1.1219441e+03 8.3649451e+02 8.2148033e-01]
  [1.2543176e+03 9.5418140e+02 7.6036060e-01]
  [9.9819745e+02 9.1295160e+02 5.1908767e-01]
  [1.1190156e+03 8.3054730e+02 7.5315332e-01]
  [1.1690679e+03 9.1880780e+02 5.7776248e-01]
  [9.8063751e+02 6.7145422e+02 9.3319136e-01]
  [1.0012108e+03 6.7168030e+02 9.2861283e-01]
  [9.5100226e+02 6.7155505e+02 7.9772568e-01]
  [0.0000000e+00 0.0000000e+00 0.0000000e+00]
  [1.1866588e+03 9.3640851e+02 5.1122032e-02]
  [0.0000000e+00 0.0000000e+00 0.0000000e+00]
  [1.1631035e+03 9.3065826e+02 5.2123952e-01]
  [1.3249750e+03 9.7767896e+02 7.3835200e-01]
  [1.3072258e+03 9.8643939e+02 6.9811350e-01]
  [1.2396886e+03 9.7762927e+02 6.5548640e-01]]]