[[[9.77572998e+02 3.85997223e+02 9.58722115e-01]
  [1.00107147e+03 4.59788483e+02 9.28809464e-01]
  [9.48173157e+02 4.59612244e+02 8.55013847e-01]
  [9.03908264e+02 3.88980865e+02 9.19010162e-01]
  [9.54101685e+02 3.83021606e+02 7.32107520e-01]
  [1.05416577e+03 4.65551758e+02 8.18310559e-01]
  [1.05711780e+03 5.53963745e+02 8.09787393e-01]
  [1.02187598e+03 6.42047668e+02 8.79722595e-01]
  [9.77801025e+02 6.42147644e+02 7.43714094e-01]
  [9.48114502e+02 6.39160400e+02 6.63344741e-01]
  [9.51295715e+02 7.95139343e+02 8.80645573e-01]
  [9.30554993e+02 9.24632507e+02 8.71024668e-01]
  [1.02167883e+03 6.45057129e+02 7.21673489e-01]
  [1.03360889e+03 7.89445129e+02 8.61261308e-01]
  [1.00999500e+03 9.10029724e+02 8.33154738e-01]
  [9.62947449e+02 3.77191406e+02 8.21730196e-01]
  [9.92414612e+02 3.68380829e+02 8.74360561e-01]
  [9.51234863e+02 3.97870575e+02 5.72464287e-01]
  [1.01876178e+03 3.86075592e+02 8.28716159e-01]
  [1.02476855e+03 9.54158447e+02 8.35697114e-01]
  [1.04241211e+03 9.51096558e+02 8.19434643e-01]
  [9.98248291e+02 9.24598511e+02 8.04592192e-01]
  [9.33602783e+02 9.54042053e+02 7.99317896e-01]
  [9.18791931e+02 9.51139832e+02 7.59240985e-01]
  [9.30575378e+02 9.30547485e+02 7.50021279e-01]]]