[[[9.3057977e+02 3.8312082e+02 9.3823087e-01]
  [9.6297760e+02 4.5665836e+02 8.6072564e-01]
  [9.1003809e+02 4.5679727e+02 8.1516194e-01]
  [8.3044696e+02 4.8038434e+02 8.5616016e-01]
  [8.8051306e+02 4.4489688e+02 5.2663094e-01]
  [1.0159124e+03 4.5667670e+02 7.7128828e-01]
  [1.0511965e+03 4.5667395e+02 8.6463726e-01]
  [9.9528442e+02 4.1259412e+02 8.3613783e-01]
  [9.5127924e+02 6.4497327e+02 7.6544869e-01]
  [9.0704956e+02 6.4208850e+02 7.3473561e-01]
  [7.8943787e+02 7.6569147e+02 8.8974124e-01]
  [8.1270319e+02 9.2767242e+02 8.5241282e-01]
  [9.9815607e+02 6.4513110e+02 7.3748493e-01]
  [1.0600454e+03 8.0972888e+02 8.4093583e-01]
  [1.0777174e+03 9.3348383e+02 8.2950884e-01]
  [9.1874304e+02 3.7430942e+02 8.3891273e-01]
  [9.4810193e+02 3.6539615e+02 9.0715277e-01]
  [9.0703778e+02 3.9785632e+02 3.3317497e-01]
  [9.7481744e+02 3.7138281e+02 7.9519331e-01]
  [1.0982878e+03 9.7168774e+02 7.6832044e-01]
  [1.1159406e+03 9.5713019e+02 8.0096716e-01]
  [1.0689740e+03 9.5115118e+02 8.0199009e-01]
  [7.5974579e+02 9.6880725e+02 7.4824125e-01]
  [7.5979211e+02 9.5418011e+02 7.3367375e-01]
  [8.3337402e+02 9.3940503e+02 7.7138823e-01]]]