[[[1.03646448e+03 4.06661560e+02 8.42002392e-01]
  [9.95226929e+02 4.91992249e+02 8.34024489e-01]
  [9.30478088e+02 4.68499481e+02 8.32683861e-01]
  [8.36381897e+02 5.30204773e+02 8.59229267e-01]
  [7.62875305e+02 5.77527588e+02 7.03034639e-01]
  [1.05126428e+03 5.12662842e+02 8.11519325e-01]
  [1.09257056e+03 6.12638184e+02 8.73076022e-01]
  [1.07183899e+03 7.09810669e+02 8.39534163e-01]
  [9.33589905e+02 6.50962463e+02 7.71244764e-01]
  [8.92292725e+02 6.42166565e+02 7.26050854e-01]
  [8.15775452e+02 7.86460144e+02 8.78725350e-01]
  [7.83297058e+02 9.36433411e+02 8.07313025e-01]
  [9.77758972e+02 6.65676880e+02 7.82229066e-01]
  [1.07184790e+03 7.83399414e+02 8.66484880e-01]
  [1.09228186e+03 9.39397583e+02 8.19336712e-01]
  [1.02469580e+03 3.89016083e+02 9.15331185e-01]
  [1.04534985e+03 3.91984924e+02 8.57277751e-01]
  [9.95281189e+02 3.94936676e+02 7.94105232e-01]
  [1.04551306e+03 4.12447327e+02 1.22490756e-01]
  [1.15128174e+03 9.68773254e+02 7.51201034e-01]
  [1.14832849e+03 9.54171936e+02 7.06919909e-01]
  [1.06901807e+03 9.54182739e+02 8.17914724e-01]
  [7.45237732e+02 9.68859375e+02 7.08332300e-01]
  [7.39270264e+02 9.57028442e+02 7.69465923e-01]
  [7.86433350e+02 9.54126770e+02 7.82697201e-01]]]