[[[8.5681073e+02 5.6857080e+02 8.8637424e-01]
  [8.1000482e+02 6.4794556e+02 9.3624425e-01]
  [7.5401898e+02 6.3038770e+02 7.9623622e-01]
  [7.3636395e+02 7.3620038e+02 8.5157102e-01]
  [7.9522198e+02 6.7146796e+02 8.4365994e-01]
  [8.6008722e+02 6.6572070e+02 8.2547081e-01]
  [8.8354510e+02 7.6570007e+02 9.0437239e-01]
  [9.6591492e+02 7.6872614e+02 8.1744713e-01]
  [8.3334888e+02 8.2168439e+02 7.1359605e-01]
  [7.9232025e+02 8.3339648e+02 7.0109189e-01]
  [8.5993030e+02 9.7182330e+02 9.0947461e-01]
  [7.8918628e+02 9.3069287e+02 7.6769531e-01]
  [8.6578253e+02 8.0990717e+02 7.0674467e-01]
  [9.9837000e+02 7.9812048e+02 8.6774492e-01]
  [1.0689131e+03 9.3650354e+02 8.4165365e-01]
  [8.4225403e+02 5.5093616e+02 9.1699761e-01]
  [8.7173962e+02 5.6560272e+02 8.3612084e-01]
  [8.1291455e+02 5.5972449e+02 7.5850236e-01]
  [8.8053021e+02 5.9505688e+02 7.7667618e-01]
  [1.1160378e+03 9.6878723e+02 7.5285280e-01]
  [1.1190004e+03 9.5409369e+02 7.6369679e-01]
  [1.0571577e+03 9.5427423e+02 7.5554252e-01]
  [7.6580206e+02 9.7458636e+02 7.1426439e-01]
  [7.6270825e+02 9.5707092e+02 7.2743219e-01]
  [7.8626343e+02 9.2174976e+02 4.8746848e-01]]]