[[[7.8626404e+02 3.6262021e+02 9.6086121e-01]
  [8.0106934e+02 4.3315698e+02 8.4446019e-01]
  [7.5393005e+02 4.3601379e+02 7.7808446e-01]
  [7.2457886e+02 3.2715604e+02 8.3027047e-01]
  [7.8343549e+02 2.8006714e+02 7.8338283e-01]
  [8.5103888e+02 4.3301651e+02 7.8842056e-01]
  [8.8351825e+02 3.0077606e+02 8.8910115e-01]
  [8.2169910e+02 2.9174457e+02 7.8975821e-01]
  [8.0987878e+02 6.3914221e+02 7.3631769e-01]
  [7.6586194e+02 6.3627509e+02 7.0656991e-01]
  [7.1264740e+02 7.8643347e+02 8.7036884e-01]
  [6.4506573e+02 9.3059320e+02 8.5547566e-01]
  [8.5108136e+02 6.3914667e+02 6.6312689e-01]
  [8.6879303e+02 7.9232416e+02 8.0493152e-01]
  [9.4526093e+02 9.3942334e+02 7.8576899e-01]
  [7.6585791e+02 3.5077328e+02 8.9317292e-01]
  [7.9814288e+02 3.4493842e+02 8.3294010e-01]
  [7.5976160e+02 3.6538431e+02 4.0551227e-01]
  [8.2754810e+02 3.6259674e+02 7.3847437e-01]
  [9.0415668e+02 9.7462585e+02 7.9188240e-01]
  [9.2756848e+02 9.7475098e+02 7.8607571e-01]
  [9.5711707e+02 9.5405273e+02 8.0760193e-01]
  [6.1850415e+02 9.6883020e+02 6.8860573e-01]
  [6.0102600e+02 9.5423175e+02 7.5708473e-01]
  [6.4800800e+02 9.5110956e+02 7.9303741e-01]]]