[[[9.80621765e+02 3.85906891e+02 9.08522248e-01]
  [9.71729431e+02 4.77335907e+02 8.96856189e-01]
  [9.07103699e+02 4.65491486e+02 8.58667254e-01]
  [8.95273132e+02 5.50858276e+02 8.02061200e-01]
  [9.01110779e+02 6.30310791e+02 8.60876441e-01]
  [1.02468823e+03 4.83130646e+02 8.97843301e-01]
  [1.04530591e+03 5.77265930e+02 9.05204117e-01]
  [1.06301099e+03 6.56892029e+02 7.88024306e-01]
  [9.74754028e+02 6.45104248e+02 8.28206301e-01]
  [9.36407959e+02 6.45127563e+02 7.52842188e-01]
  [9.36410400e+02 7.83457947e+02 8.80704999e-01]
  [9.48109131e+02 9.10049011e+02 8.20438743e-01]
  [1.01007916e+03 6.45126465e+02 7.42142081e-01]
  [1.00137195e+03 7.74593323e+02 8.44879866e-01]
  [9.83620178e+02 9.07154907e+02 8.10011804e-01]
  [9.74560852e+02 3.71425354e+02 8.87416363e-01]
  [9.98247314e+02 3.77231079e+02 9.02715862e-01]
  [9.53980347e+02 3.94952637e+02 8.59156489e-01]
  [1.01004102e+03 4.06566406e+02 7.76577830e-01]
  [9.77553284e+02 9.42350403e+02 7.12150693e-01]
  [9.98163879e+02 9.39403687e+02 7.24019527e-01]
  [9.80584961e+02 9.24670898e+02 6.92211151e-01]
  [9.27713135e+02 9.45251465e+02 7.56981313e-01]
  [9.15837708e+02 9.33602234e+02 7.55294442e-01]
  [9.54015381e+02 9.27558655e+02 8.00801456e-01]]]