[[[1.00117322e+03 3.59617157e+02 8.16974759e-01]
  [1.04542004e+03 4.12651947e+02 7.24506915e-01]
  [1.04833044e+03 4.12646301e+02 5.90513170e-01]
  [9.57046448e+02 4.30205780e+02 1.49009526e-01]
  [8.80600891e+02 4.06702850e+02 2.61909038e-01]
  [1.04522693e+03 4.12646729e+02 7.80609250e-01]
  [9.36527527e+02 4.12676880e+02 7.92027950e-01]
  [8.62870239e+02 3.94944641e+02 7.84057975e-01]
  [1.06887695e+03 6.03835510e+02 6.08417213e-01]
  [1.06590002e+03 6.03830566e+02 5.05881846e-01]
  [1.05127539e+03 7.71632874e+02 5.29428065e-01]
  [1.07174316e+03 9.24580017e+02 5.20653248e-01]
  [1.07174402e+03 6.03898743e+02 6.77153111e-01]
  [1.05134534e+03 7.74617126e+02 7.45847404e-01]
  [1.07181653e+03 9.30477783e+02 8.16825986e-01]
  [0.00000000e+00 0.00000000e+00 0.00000000e+00]
  [1.01596753e+03 3.47776581e+02 7.75703073e-01]
  [0.00000000e+00 0.00000000e+00 0.00000000e+00]
  [1.04545569e+03 3.65494843e+02 9.14582849e-01]
  [1.00715692e+03 9.42345764e+02 6.93209827e-01]
  [1.02188629e+03 9.51163635e+02 7.64694095e-01]
  [1.08951685e+03 9.48191772e+02 7.78410316e-01]
  [1.02171313e+03 9.27728210e+02 3.46399307e-01]
  [1.02470288e+03 9.27533997e+02 3.34306866e-01]
  [1.09247314e+03 9.42354980e+02 1.70286000e-01]]]