[[[9.8071985e+02 4.1556079e+02 8.8322473e-01]
  [9.7482452e+02 4.8024017e+02 9.3918562e-01]
  [9.2168976e+02 4.7735266e+02 8.2965815e-01]
  [9.0418805e+02 5.7451257e+02 8.7451392e-01]
  [9.0119037e+02 6.4214740e+02 9.0434068e-01]
  [1.0305897e+03 4.8035153e+02 8.5631990e-01]
  [1.0512084e+03 5.7733752e+02 7.2892356e-01]
  [1.0629785e+03 6.5976056e+02 6.3060009e-01]
  [9.7764789e+02 6.4808533e+02 8.2250977e-01]
  [9.4229791e+02 6.4810944e+02 7.6399243e-01]
  [9.3359467e+02 7.8332977e+02 8.6889583e-01]
  [9.4817908e+02 9.0999054e+02 8.3926934e-01]
  [1.0188707e+03 6.4808289e+02 7.7979338e-01]
  [1.0013758e+03 7.7748566e+02 8.4790874e-01]
  [9.8643738e+02 9.0994244e+02 8.0071622e-01]
  [9.7471149e+02 4.0666620e+02 9.4779927e-01]
  [9.9830438e+02 4.0950269e+02 9.1622424e-01]
  [9.5129785e+02 4.0665814e+02 8.5528064e-01]
  [1.0188267e+03 4.1252713e+02 5.3946304e-01]
  [9.7467041e+02 9.4525586e+02 7.1320194e-01]
  [9.9530542e+02 9.4237067e+02 7.1896684e-01]
  [9.8071399e+02 9.2750647e+02 6.8712914e-01]
  [9.2770093e+02 9.4529395e+02 7.6919061e-01]
  [9.1582782e+02 9.3360376e+02 7.6060945e-01]
  [9.5407208e+02 9.2752728e+02 7.7973974e-01]]]