[[[1.2131094e+03 3.1533194e+02 9.5031458e-01]
  [1.2161290e+03 4.1254269e+02 8.8971889e-01]
  [1.1513069e+03 4.1840921e+02 8.0489534e-01]
  [1.1395181e+03 5.1557568e+02 7.9594207e-01]
  [1.1394504e+03 5.5094672e+02 8.6375290e-01]
  [1.2837706e+03 4.0950021e+02 8.3435714e-01]
  [1.3337509e+03 4.8912848e+02 8.5564369e-01]
  [1.2808016e+03 4.2435522e+02 8.2057375e-01]
  [1.2336785e+03 6.0094165e+02 7.7472889e-01]
  [1.1895217e+03 6.0102106e+02 7.6139838e-01]
  [1.1894818e+03 7.6573340e+02 8.3915985e-01]
  [1.1954224e+03 9.4818933e+02 7.9735011e-01]
  [1.2777859e+03 6.0090717e+02 7.2052020e-01]
  [1.2601121e+03 7.3932654e+02 8.6248338e-01]
  [1.2542955e+03 8.3347223e+02 8.2483745e-01]
  [1.1984006e+03 3.0071887e+02 8.5982859e-01]
  [1.2335979e+03 3.0363016e+02 8.9424008e-01]
  [1.1807948e+03 3.2725723e+02 7.7295589e-01]
  [1.2514238e+03 3.3011646e+02 7.8049898e-01]
  [1.2513842e+03 8.9528302e+02 7.5026190e-01]
  [1.2632595e+03 8.8931189e+02 7.0430672e-01]
  [1.2395570e+03 8.3630011e+02 6.8358600e-01]
  [1.2542750e+03 9.7768762e+02 7.5641716e-01]
  [1.2336141e+03 9.8067981e+02 7.0117098e-01]
  [1.1866188e+03 9.6292786e+02 7.8175277e-01]]]