[[[8.92287109e+02 3.80105164e+02 8.31035614e-01]
  [9.54003357e+02 4.24333954e+02 8.57161105e-01]
  [8.98215332e+02 4.53775543e+02 7.38766432e-01]
  [9.06982300e+02 5.39092773e+02 4.26758081e-01]
  [8.86442566e+02 5.42074280e+02 5.82617939e-01]
  [1.01005786e+03 3.94888062e+02 7.67069101e-01]
  [1.09839062e+03 4.36252716e+02 8.38910699e-01]
  [1.16617383e+03 4.59578613e+02 8.72217834e-01]
  [9.80600403e+02 5.97934937e+02 7.48337209e-01]
  [9.45294556e+02 6.00864380e+02 7.38110602e-01]
  [9.04011780e+02 7.62649841e+02 8.86452198e-01]
  [9.24646729e+02 9.18775574e+02 7.93936074e-01]
  [1.02188812e+03 5.95011414e+02 7.15548933e-01]
  [1.01874097e+03 7.62933533e+02 8.75202537e-01]
  [1.03647180e+03 9.24645386e+02 8.08265328e-01]
  [8.80468933e+02 3.86043030e+02 8.70887697e-01]
  [8.89305786e+02 3.62543976e+02 8.88707340e-01]
  [8.83354614e+02 4.09578766e+02 5.55836141e-01]
  [9.12917725e+02 3.50799438e+02 7.30870187e-01]
  [9.89396729e+02 9.57146545e+02 7.89879143e-01]
  [1.01293799e+03 9.60054688e+02 7.40475833e-01]
  [1.04833789e+03 9.33622437e+02 8.37405801e-01]
  [8.60021729e+02 9.54028870e+02 7.07716465e-01]
  [8.62901062e+02 9.48126831e+02 6.34882152e-01]
  [9.36518799e+02 9.30688782e+02 8.52489769e-01]]]