[[[1.0218034e+03 3.1528323e+02 9.5034516e-01]
  [1.0423785e+03 3.9493591e+02 8.2282877e-01]
  [9.8652747e+02 3.8898318e+02 8.2628977e-01]
  [9.4820624e+02 3.4181439e+02 8.8012570e-01]
  [9.0993506e+02 2.7423505e+02 8.7152725e-01]
  [1.0924685e+03 4.0956018e+02 8.4430397e-01]
  [1.1336310e+03 4.6255475e+02 8.2346040e-01]
  [1.1896318e+03 4.1840475e+02 8.4000480e-01]
  [1.0247246e+03 5.8329132e+02 7.1007466e-01]
  [9.8354938e+02 5.8029755e+02 6.8160886e-01]
  [9.3641443e+02 7.5400189e+02 8.1326532e-01]
  [8.8356091e+02 9.0413098e+02 8.5335553e-01]
  [1.0687268e+03 5.8915735e+02 6.8538564e-01]
  [1.0687278e+03 7.6271417e+02 8.6234611e-01]
  [1.0688276e+03 9.2170581e+02 8.3400428e-01]
  [1.0013524e+03 3.1247708e+02 9.0374953e-01]
  [1.0276761e+03 2.9776868e+02 8.9366645e-01]
  [9.9530090e+02 3.3886163e+02 8.1802237e-01]
  [1.0512461e+03 3.1555533e+02 7.8717613e-01]
  [1.1071077e+03 9.6884088e+02 7.3894054e-01]
  [1.1158844e+03 9.5415442e+02 8.1077814e-01]
  [1.0482518e+03 9.3053448e+02 8.6127818e-01]
  [8.8355652e+02 9.5999036e+02 7.4235606e-01]
  [8.6580188e+02 9.5406628e+02 7.4925208e-01]
  [8.8354944e+02 9.1004749e+02 6.6296870e-01]]]