[[[1.1483439e+03 6.6848639e+02 5.2238506e-01]
  [1.0718489e+03 7.1859302e+02 7.6649392e-01]
  [1.0747881e+03 7.2449591e+02 7.4999791e-01]
  [1.0277373e+03 8.1573474e+02 8.4390414e-01]
  [9.7759015e+02 8.9817517e+02 8.6885548e-01]
  [1.0658970e+03 7.1268579e+02 5.8135223e-01]
  [0.0000000e+00 0.0000000e+00 0.0000000e+00]
  [0.0000000e+00 0.0000000e+00 0.0000000e+00]
  [1.0423336e+03 9.0401227e+02 6.6017175e-01]
  [1.0483513e+03 9.0403595e+02 6.9784957e-01]
  [1.1661736e+03 7.8926898e+02 8.8659263e-01]
  [1.1218478e+03 9.4527875e+02 8.1187224e-01]
  [1.0276570e+03 9.0407251e+02 5.6939429e-01]
  [1.1454166e+03 7.9219385e+02 3.8337266e-01]
  [1.0923246e+03 9.4821338e+02 8.5044265e-01]
  [1.1423641e+03 6.4802942e+02 5.7676870e-01]
  [0.0000000e+00 0.0000000e+00 0.0000000e+00]
  [1.1100983e+03 6.4808099e+02 6.5445596e-01]
  [0.0000000e+00 0.0000000e+00 0.0000000e+00]
  [1.1425769e+03 9.5126361e+02 1.2204032e-01]
  [1.1426942e+03 9.5416235e+02 6.8262994e-02]
  [1.0719006e+03 9.5422791e+02 7.4714953e-01]
  [1.1866487e+03 9.6000366e+02 7.6052469e-01]
  [1.1689421e+03 9.7170801e+02 7.8326035e-01]
  [1.1072065e+03 9.5419873e+02 6.7414349e-01]]]