[[[9.62943481e+02 3.85999176e+02 9.00568664e-01]
  [9.74729431e+02 4.77230225e+02 9.19789791e-01]
  [9.15860596e+02 4.62621796e+02 8.37242901e-01]
  [9.03927979e+02 5.53956665e+02 8.47435117e-01]
  [9.03929810e+02 6.24579651e+02 9.12513793e-01]
  [1.02779883e+03 4.80355957e+02 8.69632721e-01]
  [1.04545081e+03 5.77465393e+02 8.99279237e-01]
  [1.06007129e+03 6.56841370e+02 8.00895452e-01]
  [9.74784058e+02 6.45046387e+02 8.14408779e-01]
  [9.33611572e+02 6.45018677e+02 7.38211513e-01]
  [9.33604675e+02 7.86205505e+02 8.89744997e-01]
  [9.45324463e+02 9.10040344e+02 8.19959879e-01]
  [1.01297723e+03 6.45103638e+02 7.31866717e-01]
  [1.00137842e+03 7.71701111e+02 8.45439434e-01]
  [9.86443604e+02 9.07163147e+02 8.05741072e-01]
  [9.51150513e+02 3.83141602e+02 9.14619923e-01]
  [9.74692871e+02 3.71310516e+02 9.09516573e-01]
  [9.42376221e+02 4.09460785e+02 7.68377542e-01]
  [9.98345947e+02 3.88979462e+02 8.87599528e-01]
  [9.74739136e+02 9.42333740e+02 6.98975563e-01]
  [9.95369202e+02 9.39413940e+02 7.09281743e-01]
  [9.80643860e+02 9.24699890e+02 6.94177210e-01]
  [9.27724243e+02 9.45247070e+02 7.58359909e-01]
  [9.15836792e+02 9.33599731e+02 7.55660594e-01]
  [9.54001465e+02 9.27547668e+02 7.96908140e-01]]]