[[[8.1281763e+02 3.8589166e+02 9.3476892e-01]
  [8.3038452e+02 4.5679004e+02 8.9135003e-01]
  [7.7158783e+02 4.5974945e+02 8.0762547e-01]
  [7.0097852e+02 5.4798590e+02 8.5493970e-01]
  [7.3920331e+02 4.8321075e+02 8.8323271e-01]
  [8.8060608e+02 4.5086136e+02 8.5242075e-01]
  [9.4522229e+02 3.6849426e+02 8.3089787e-01]
  [8.5699890e+02 3.8911334e+02 8.2822043e-01]
  [8.0400452e+02 6.4215125e+02 7.0655775e-01]
  [7.6279761e+02 6.3623584e+02 7.0434058e-01]
  [7.1879102e+02 7.8640802e+02 8.9192843e-01]
  [7.1565851e+02 9.2757227e+02 8.9027381e-01]
  [8.3939978e+02 6.4792950e+02 7.1903527e-01]
  [9.2755560e+02 7.6872479e+02 8.5820419e-01]
  [8.8939148e+02 9.3057562e+02 8.2729256e-01]
  [8.0101471e+02 3.7134113e+02 8.5812485e-01]
  [8.3053967e+02 3.6842282e+02 8.9439124e-01]
  [7.8626837e+02 3.9192923e+02 7.5374228e-01]
  [8.5403687e+02 3.8898022e+02 8.1130999e-01]
  [9.5103198e+02 9.7175391e+02 8.6043334e-01]
  [9.4823004e+02 9.5710815e+02 7.8799468e-01]
  [8.7166876e+02 9.4530444e+02 7.9056042e-01]
  [6.8038177e+02 9.5419141e+02 7.8243184e-01]
  [6.7156403e+02 9.4828613e+02 8.2598633e-01]
  [7.2163892e+02 9.3944434e+02 8.2489979e-01]]]