[[[1.04245447e+03 3.38921448e+02 9.42154586e-01]
  [1.03943787e+03 4.27253448e+02 8.31579328e-01]
  [9.74728638e+02 4.21423981e+02 8.45477700e-01]
  [8.98212280e+02 4.89154755e+02 8.25402915e-01]
  [8.39309692e+02 5.50730896e+02 8.46293569e-01]
  [1.09830896e+03 4.27312561e+02 8.10430288e-01]
  [1.16296191e+03 4.89145599e+02 8.50045025e-01]
  [1.21015625e+03 5.50953430e+02 8.69848669e-01]
  [1.02765955e+03 6.00944092e+02 7.57338285e-01]
  [9.92355713e+02 6.00879517e+02 7.29052246e-01]
  [9.51098999e+02 7.45154175e+02 8.70386660e-01]
  [9.77639160e+02 8.68756714e+02 8.53683650e-01]
  [1.06892468e+03 6.01028320e+02 7.37015486e-01]
  [1.06584485e+03 7.71702393e+02 8.30500484e-01]
  [1.03945557e+03 9.24649170e+02 8.13751817e-01]
  [1.02769275e+03 3.21407745e+02 9.05242264e-01]
  [1.05708203e+03 3.30152771e+02 8.40673268e-01]
  [1.01000696e+03 3.41855530e+02 8.22572947e-01]
  [1.07190332e+03 3.53696320e+02 8.13961208e-01]
  [1.04534998e+03 9.60003906e+02 7.36370444e-01]
  [1.06305396e+03 9.57015503e+02 7.81078458e-01]
  [1.02185785e+03 9.30698059e+02 7.72679090e-01]
  [9.71752747e+02 9.18789246e+02 7.64294505e-01]
  [9.51280701e+02 9.07107727e+02 8.15937936e-01]
  [9.92359863e+02 8.74693298e+02 6.43435478e-01]]]