[[[9.95339905e+02 4.00803894e+02 8.80181730e-01]
  [9.68810303e+02 4.77349579e+02 8.67273927e-01]
  [9.07041260e+02 4.71394745e+02 8.49383771e-01]
  [8.95275269e+02 5.59754639e+02 7.64220297e-01]
  [9.01062378e+02 6.30419983e+02 8.52539122e-01]
  [1.02189734e+03 4.80258850e+02 8.97502422e-01]
  [1.04245435e+03 5.74354248e+02 8.92558455e-01]
  [1.06297266e+03 6.51044983e+02 8.05805206e-01]
  [9.74768127e+02 6.45148010e+02 8.32322896e-01]
  [9.36428101e+02 6.47917725e+02 7.65183389e-01]
  [9.33551941e+02 7.83336792e+02 8.78031015e-01]
  [9.48163879e+02 9.12858093e+02 8.28856230e-01]
  [1.01292920e+03 6.45171997e+02 7.50933051e-01]
  [1.00133966e+03 7.74576721e+02 8.58906269e-01]
  [9.86442627e+02 9.07158936e+02 8.08494687e-01]
  [9.80716431e+02 3.86160156e+02 9.49924827e-01]
  [1.00416779e+03 3.91922302e+02 8.74950945e-01]
  [9.60033813e+02 3.92005432e+02 8.32090855e-01]
  [1.01883185e+03 4.12425232e+02 5.72359860e-01]
  [9.74721008e+02 9.45295288e+02 7.22119689e-01]
  [9.95340881e+02 9.45226501e+02 7.35824108e-01]
  [9.80681396e+02 9.24696777e+02 6.91224396e-01]
  [9.27657166e+02 9.45231506e+02 7.44650006e-01]
  [9.15817322e+02 9.33564087e+02 7.50670493e-01]
  [9.54093262e+02 9.27571045e+02 8.01683426e-01]]]