[[[9.77754761e+02 3.65538940e+02 9.60669219e-01]
  [9.74809570e+02 4.44932770e+02 8.70024443e-01]
  [9.36494019e+02 4.41993835e+02 8.01408529e-01]
  [8.86404480e+02 5.06637939e+02 7.63391972e-01]
  [8.30524109e+02 5.09676849e+02 6.26516998e-01]
  [1.00708472e+03 4.47837799e+02 8.00300002e-01]
  [9.71808167e+02 5.24283203e+02 8.40013266e-01]
  [9.04100464e+02 5.27164429e+02 7.85634041e-01]
  [9.74761230e+02 6.21557495e+02 7.75495887e-01]
  [9.48180420e+02 6.21530029e+02 7.34559774e-01]
  [8.54078674e+02 7.42116821e+02 8.77772212e-01]
  [8.36536194e+02 8.98175415e+02 7.97648191e-01]
  [1.00124426e+03 6.21558838e+02 7.36658990e-01]
  [1.00425269e+03 7.89463562e+02 8.63437533e-01]
  [1.09229004e+03 9.18789612e+02 8.36017013e-01]
  [9.77539917e+02 3.56556610e+02 9.15421247e-01]
  [9.98385742e+02 3.62545715e+02 9.55959439e-01]
  [0.00000000e+00 0.00000000e+00 0.00000000e+00]
  [1.02477100e+03 3.86062225e+02 8.69708240e-01]
  [1.04543323e+03 9.54244324e+02 8.36248577e-01]
  [1.06887158e+03 9.54262939e+02 8.22923601e-01]
  [1.10712024e+03 9.27677002e+02 8.14980507e-01]
  [7.71642273e+02 9.27719299e+02 7.29813874e-01]
  [7.74626038e+02 9.21744446e+02 6.41821861e-01]
  [8.56989380e+02 9.09957947e+02 7.48086929e-01]]]