[[[7.4518878e+02 3.6248859e+02 9.5603961e-01]
  [7.7165955e+02 4.4490247e+02 8.1588316e-01]
  [7.1567688e+02 4.3908026e+02 8.3127147e-01]
  [6.7146576e+02 3.6247726e+02 9.2828733e-01]
  [6.3922046e+02 2.7417065e+02 8.3850831e-01]
  [8.3337146e+02 4.5076138e+02 8.3032548e-01]
  [8.3042712e+02 5.5682996e+02 7.7174723e-01]
  [7.8636322e+02 6.2463837e+02 8.9302582e-01]
  [7.3336127e+02 6.2156628e+02 7.1437263e-01]
  [6.9224542e+02 6.1563013e+02 6.9690824e-01]
  [6.4795654e+02 7.7754865e+02 8.5062253e-01]
  [6.3917694e+02 9.4236658e+02 7.6324028e-01]
  [7.6589929e+02 6.3034253e+02 7.0390189e-01]
  [8.4818237e+02 7.8643335e+02 8.5365880e-01]
  [9.0115399e+02 9.4522174e+02 7.8702193e-01]
  [7.4215961e+02 3.4497125e+02 8.9738190e-01]
  [7.6569562e+02 3.5074796e+02 8.9859176e-01]
  [0.0000000e+00 0.0000000e+00 0.0000000e+00]
  [7.9232104e+02 3.6559808e+02 8.0854034e-01]
  [9.2466602e+02 9.7767395e+02 7.5799370e-01]
  [9.3360205e+02 9.7174884e+02 7.6071781e-01]
  [8.8647382e+02 9.5998767e+02 6.9120765e-01]
  [6.0390845e+02 9.7472107e+02 7.6599276e-01]
  [5.9798773e+02 9.6591577e+02 7.7455884e-01]
  [6.4800970e+02 9.5707397e+02 7.9466635e-01]]]