[[[1.0687354e+03 3.8302591e+02 8.9461827e-01]
  [1.0484653e+03 4.6264691e+02 8.8046807e-01]
  [9.9240881e+02 4.4791345e+02 8.2853705e-01]
  [9.4827917e+02 5.3909753e+02 8.5451752e-01]
  [9.8069666e+02 6.2442096e+02 8.9555955e-01]
  [1.1160189e+03 4.8315912e+02 8.3605278e-01]
  [1.1335961e+03 5.8026660e+02 8.4258270e-01]
  [1.0719552e+03 6.4796655e+02 9.0025443e-01]
  [1.0070999e+03 6.2440338e+02 7.8851926e-01]
  [9.6297394e+02 6.1269421e+02 7.1186435e-01]
  [9.1580188e+02 7.4518219e+02 8.2638603e-01]
  [8.2459448e+02 8.6283063e+02 8.0981863e-01]
  [1.0484280e+03 6.3620831e+02 7.6902580e-01]
  [1.0982926e+03 7.8621777e+02 8.8755226e-01]
  [1.0953979e+03 9.3066681e+02 8.8171518e-01]
  [1.0484399e+03 3.6551337e+02 9.4207311e-01]
  [1.0806951e+03 3.6834689e+02 8.6482745e-01]
  [1.0277876e+03 3.8600070e+02 8.3314323e-01]
  [1.0982860e+03 3.8907697e+02 8.0580366e-01]
  [1.1335885e+03 9.7169995e+02 7.7166414e-01]
  [1.1395935e+03 9.5708710e+02 8.4018672e-01]
  [1.0806913e+03 9.5107745e+02 8.0420542e-01]
  [8.1573413e+02 9.2763928e+02 7.7350855e-01]
  [7.9808502e+02 9.1581158e+02 6.8697762e-01]
  [8.1285425e+02 8.6297894e+02 6.9969547e-01]]]