[[[9.80642639e+02 3.41847260e+02 9.51512218e-01]
  [9.92365784e+02 4.33232513e+02 8.93510044e-01]
  [9.27687622e+02 4.33250092e+02 8.77833664e-01]
  [9.21671387e+02 5.30376404e+02 8.41204226e-01]
  [9.48257324e+02 5.97884033e+02 9.05507088e-01]
  [1.04831714e+03 4.33148132e+02 9.12156940e-01]
  [1.09529138e+03 5.18486328e+02 8.84705186e-01]
  [1.09229382e+03 5.86233582e+02 8.59729588e-01]
  [9.98392090e+02 6.24495483e+02 7.75071919e-01]
  [9.54194580e+02 6.24521301e+02 7.41804719e-01]
  [9.07130859e+02 7.86255798e+02 8.83414030e-01]
  [8.48180481e+02 9.30635742e+02 8.25679958e-01]
  [1.04528784e+03 6.24423767e+02 7.73523331e-01]
  [1.06899353e+03 7.83300476e+02 8.80623400e-01]
  [1.09554810e+03 9.30650146e+02 8.48257661e-01]
  [9.68850281e+02 3.35989502e+02 8.85381103e-01]
  [9.98364075e+02 3.33025970e+02 8.95500839e-01]
  [9.51176758e+02 3.59526642e+02 8.52768004e-01]
  [1.02187616e+03 3.50796204e+02 8.71278882e-01]
  [1.13948657e+03 9.71719055e+02 7.99939394e-01]
  [1.14264294e+03 9.57070557e+02 8.09494495e-01]
  [1.08944788e+03 9.51216003e+02 8.30161214e-01]
  [8.48116516e+02 9.71810425e+02 7.77783692e-01]
  [8.30456909e+02 9.62919983e+02 7.63421774e-01]
  [8.45191406e+02 9.45276733e+02 6.98706508e-01]]]