[[[9.5412164e+02 3.2132492e+02 9.1925216e-01]
  [9.6291199e+02 4.3021484e+02 8.4366083e-01]
  [9.0110736e+02 4.3305679e+02 7.8111058e-01]
  [8.1573621e+02 4.8308777e+02 8.4552628e-01]
  [7.3338605e+02 5.2431921e+02 7.0068485e-01]
  [1.0247554e+03 4.2435715e+02 8.4517705e-01]
  [1.0688903e+03 5.1265436e+02 8.9918226e-01]
  [1.0216756e+03 5.8027777e+02 8.8306886e-01]
  [9.8350287e+02 6.1273505e+02 7.3319805e-01]
  [9.4239130e+02 6.1862762e+02 7.4039757e-01]
  [8.5402802e+02 7.6263306e+02 8.8495219e-01]
  [8.4230688e+02 9.3047333e+02 7.9983068e-01]
  [1.0248146e+03 6.0685565e+02 7.3445725e-01]
  [1.0482611e+03 7.6871411e+02 8.5699332e-01]
  [1.0688264e+03 9.3070953e+02 8.4897733e-01]
  [9.3936310e+02 3.1823859e+02 8.8751715e-01]
  [9.7183435e+02 3.1554385e+02 9.3785757e-01]
  [9.2169189e+02 3.4199704e+02 8.3177376e-01]
  [9.8944739e+02 3.4201752e+02 8.2116401e-01]
  [1.0481945e+03 9.6594434e+02 7.4529690e-01]
  [1.0690022e+03 9.6878381e+02 7.7268493e-01]
  [1.0718438e+03 9.5105426e+02 6.8112004e-01]
  [7.8338293e+02 9.7167047e+02 7.0637155e-01]
  [7.8622919e+02 9.5419739e+02 6.9920713e-01]
  [8.6009631e+02 9.4531769e+02 7.7145374e-01]]]