[[[9.74621094e+02 3.68454559e+02 9.32744801e-01]
  [9.65934448e+02 4.56633942e+02 8.59894335e-01]
  [9.24596680e+02 4.56694366e+02 8.29026580e-01]
  [9.12941101e+02 5.47931702e+02 1.93384841e-01]
  [0.00000000e+00 0.00000000e+00 0.00000000e+00]
  [1.00714435e+03 4.56641022e+02 8.45431447e-01]
  [1.02177655e+03 5.50818176e+02 8.73908341e-01]
  [1.04535767e+03 6.42143555e+02 8.08432162e-01]
  [9.51266052e+02 6.33265625e+02 7.34556556e-01]
  [9.27512268e+02 6.30331116e+02 7.15217829e-01]
  [9.07045166e+02 7.83384216e+02 8.74721408e-01]
  [1.02465356e+03 8.86395081e+02 8.47444177e-01]
  [9.77712769e+02 6.36193298e+02 7.05948949e-01]
  [9.51063965e+02 7.71615967e+02 8.84224296e-01]
  [9.33546265e+02 9.30466919e+02 8.13739538e-01]
  [9.62907898e+02 3.59610901e+02 8.88089061e-01]
  [9.92317688e+02 3.65350403e+02 8.90089810e-01]
  [9.51047791e+02 3.65587799e+02 3.86059314e-01]
  [1.00426208e+03 3.86015167e+02 8.00032854e-01]
  [8.83416443e+02 9.51207458e+02 7.85079479e-01]
  [9.03984802e+02 9.54237854e+02 8.10857356e-01]
  [9.51173645e+02 9.48268921e+02 8.17083955e-01]
  [9.95285645e+02 9.48264954e+02 8.21260214e-01]
  [9.95295288e+02 9.36432068e+02 6.72233224e-01]
  [1.04823889e+03 8.86486206e+02 7.61121929e-01]]]