[[[9.7766028e+02 3.5363425e+02 8.7728184e-01]
  [9.3640698e+02 4.3011777e+02 8.3973598e-01]
  [8.8362372e+02 4.3322656e+02 8.4155309e-01]
  [8.5684100e+02 5.4202307e+02 8.7403369e-01]
  [9.1296075e+02 6.1848126e+02 8.3582449e-01]
  [9.8938983e+02 4.1552298e+02 7.8902310e-01]
  [9.8062238e+02 5.1555737e+02 6.8305701e-01]
  [9.0705432e+02 5.3021277e+02 6.1644125e-01]
  [9.4812439e+02 6.0974677e+02 7.0778668e-01]
  [9.0407843e+02 6.1850977e+02 7.3223549e-01]
  [8.5683923e+02 7.8642090e+02 9.0097439e-01]
  [8.1274506e+02 9.2752405e+02 8.7626529e-01]
  [9.8350018e+02 6.0103052e+02 7.3138279e-01]
  [1.0924298e+03 6.9218457e+02 8.7650394e-01]
  [1.0925522e+03 8.5702612e+02 8.1049466e-01]
  [9.5996393e+02 3.3909219e+02 8.9497662e-01]
  [9.7774750e+02 3.3900159e+02 6.0116369e-01]
  [9.2472894e+02 3.5659167e+02 8.3376592e-01]
  [0.0000000e+00 0.0000000e+00 0.0000000e+00]
  [1.0954951e+03 9.0691852e+02 6.5332937e-01]
  [1.1188354e+03 9.0111682e+02 6.9631529e-01]
  [1.0836174e+03 8.6292505e+02 5.7516497e-01]
  [7.9815344e+02 9.6882867e+02 7.6312208e-01]
  [7.8345380e+02 9.5702759e+02 8.0393404e-01]
  [8.1867963e+02 9.3641364e+02 7.0747417e-01]]]