[[[1.07183252e+03 4.62538757e+02 9.54616189e-01]
  [1.04233740e+03 5.03680725e+02 8.37114751e-01]
  [1.01298584e+03 4.86190094e+02 8.01549494e-01]
  [1.00421899e+03 5.95007507e+02 8.65737319e-01]
  [1.02166711e+03 6.71467590e+02 7.77496934e-01]
  [1.06599255e+03 5.09776825e+02 7.58806348e-01]
  [1.04825720e+03 5.98102417e+02 9.23655391e-01]
  [1.04531226e+03 6.92071960e+02 8.92549038e-01]
  [9.51080139e+02 6.48087585e+02 7.95394242e-01]
  [9.21777466e+02 6.44966980e+02 7.22787619e-01]
  [8.71712036e+02 7.89313721e+02 8.48952532e-01]
  [8.30473694e+02 9.24693542e+02 8.41138005e-01]
  [9.77540527e+02 6.59796631e+02 7.56480217e-01]
  [1.04831360e+03 7.77533386e+02 8.55602622e-01]
  [1.08071606e+03 9.24589600e+02 8.19803476e-01]
  [1.06893713e+03 4.44917603e+02 9.17672455e-01]
  [1.09235986e+03 4.59579102e+02 9.49085355e-01]
  [1.04819873e+03 4.36027985e+02 8.98607671e-01]
  [1.09841809e+03 4.74402618e+02 3.87862027e-01]
  [1.13649475e+03 9.48141174e+02 7.78873801e-01]
  [1.13075647e+03 9.33539917e+02 7.45598078e-01]
  [1.06894141e+03 9.33575012e+02 8.44650567e-01]
  [8.12846924e+02 9.51135742e+02 7.73586750e-01]
  [7.95231201e+02 9.45207703e+02 7.55985320e-01]
  [8.33416626e+02 9.36454773e+02 7.51694202e-01]]]