[[[1.0719789e+03 3.5961603e+02 9.1348338e-01]
  [1.0955364e+03 4.3608658e+02 9.1486019e-01]
  [1.0453494e+03 4.3903711e+02 8.5053647e-01]
  [1.0013068e+03 5.1556201e+02 8.2977194e-01]
  [9.7169958e+02 4.9494244e+02 7.5336057e-01]
  [1.1542860e+03 4.3317242e+02 8.2788330e-01]
  [1.2278480e+03 4.8019012e+02 8.6447829e-01]
  [1.2867635e+03 4.5078326e+02 7.6920062e-01]
  [1.1159723e+03 6.0101489e+02 7.8290278e-01]
  [1.0866010e+03 6.0389319e+02 7.2077674e-01]
  [1.1306862e+03 7.5108478e+02 8.0521643e-01]
  [1.1336089e+03 9.0400275e+02 7.7488017e-01]
  [1.1425038e+03 6.0095343e+02 7.5459546e-01]
  [1.1630262e+03 7.5691235e+02 8.7672389e-01]
  [1.1159236e+03 8.8641595e+02 8.0186886e-01]
  [1.0542430e+03 3.6234885e+02 8.7133849e-01]
  [1.0748759e+03 3.4198071e+02 9.0732598e-01]
  [1.0452693e+03 3.8594141e+02 7.8268069e-01]
  [1.0953990e+03 3.5071381e+02 3.8189432e-01]
  [1.1307401e+03 9.3645123e+02 2.4575680e-01]
  [0.0000000e+00 0.0000000e+00 0.0000000e+00]
  [1.0924937e+03 9.0118634e+02 6.9480139e-01]
  [1.1629373e+03 9.4826367e+02 8.3355945e-01]
  [1.1396442e+03 9.4821790e+02 7.8213203e-01]
  [1.1218740e+03 9.1294379e+02 6.4664119e-01]]]