[[[7.0978986e+02 3.3017236e+02 8.6205715e-01]
  [6.9506293e+02 4.1559760e+02 8.9406389e-01]
  [6.4514685e+02 4.1271176e+02 8.8498425e-01]
  [5.9808197e+02 5.2139868e+02 8.9636743e-01]
  [6.7160077e+02 5.7725977e+02 9.1180730e-01]
  [7.4224152e+02 4.2133926e+02 8.2773089e-01]
  [7.5098596e+02 5.0977747e+02 6.7404032e-01]
  [7.5690186e+02 5.8324432e+02 7.9931051e-01]
  [6.9221222e+02 6.1855353e+02 7.3169768e-01]
  [6.5974817e+02 6.1561261e+02 6.6723138e-01]
  [6.9509381e+02 7.7163727e+02 8.6409813e-01]
  [7.2162268e+02 9.3937415e+02 7.9002726e-01]
  [7.2168500e+02 6.1859674e+02 6.6382384e-01]
  [6.7747424e+02 7.8330646e+02 7.7818048e-01]
  [5.9806860e+02 9.1006897e+02 8.3147001e-01]
  [6.9226178e+02 3.1828690e+02 9.8562735e-01]
  [7.1868701e+02 3.1841068e+02 9.4861531e-01]
  [6.7147388e+02 3.3885281e+02 8.7368077e-01]
  [7.3916919e+02 3.4188898e+02 7.9897010e-01]
  [6.4506573e+02 9.6296918e+02 6.4832705e-01]
  [6.3922095e+02 9.5416791e+02 6.4119387e-01]
  [5.7444043e+02 9.2470251e+02 7.8608060e-01]
  [7.0103998e+02 9.7762402e+02 6.8033069e-01]
  [6.9813800e+02 9.7468811e+02 6.8565243e-01]
  [7.3918359e+02 9.5415118e+02 7.0936549e-01]]]