[[[9.57008301e+02 4.83293549e+02 9.34308529e-01]
  [9.51065186e+02 5.27338501e+02 9.29854870e-01]
  [9.01014771e+02 5.27343933e+02 8.75778437e-01]
  [8.80522095e+02 5.92135193e+02 8.79286528e-01]
  [8.86448486e+02 6.68471558e+02 8.59857440e-01]
  [9.98319092e+02 5.27278625e+02 8.98637950e-01]
  [9.74656860e+02 6.06767883e+02 8.80812168e-01]
  [9.51088745e+02 6.92112000e+02 8.73494923e-01]
  [9.42363892e+02 6.80414795e+02 7.44380355e-01]
  [9.07038879e+02 6.77420715e+02 7.77369499e-01]
  [8.54096436e+02 8.06873901e+02 8.82799625e-01]
  [8.92344055e+02 9.09916626e+02 8.02617073e-01]
  [9.74832825e+02 6.83345947e+02 7.55521238e-01]
  [1.03951697e+03 8.12951904e+02 8.47368121e-01]
  [9.77617188e+02 9.12981140e+02 8.50427747e-01]
  [9.48170715e+02 4.74325134e+02 8.90097439e-01]
  [9.74618958e+02 4.74411835e+02 9.01978076e-01]
  [9.24633972e+02 4.77326508e+02 8.64436209e-01]
  [9.86432739e+02 4.80250305e+02 5.32798171e-01]
  [1.02187634e+03 9.51052368e+02 7.91604042e-01]
  [1.02187946e+03 9.36503174e+02 7.46826291e-01]
  [9.54267761e+02 9.27514893e+02 8.43131542e-01]
  [8.59926331e+02 9.45302124e+02 7.73079872e-01]
  [8.56966309e+02 9.33534668e+02 7.93103635e-01]
  [9.07182068e+02 9.21762024e+02 8.52634251e-01]]]