[[[9.9831342e+02 3.8613153e+02 9.7543132e-01]
  [9.9814655e+02 4.8011523e+02 8.9674580e-01]
  [9.3056946e+02 4.6256812e+02 8.4547257e-01]
  [9.2753394e+02 5.5686151e+02 8.1609476e-01]
  [9.5702222e+02 6.4492334e+02 8.6925149e-01]
  [1.0512588e+03 4.8617682e+02 8.2109940e-01]
  [1.0983433e+03 5.7740826e+02 9.0012974e-01]
  [1.0659197e+03 6.2745294e+02 8.4901172e-01]
  [1.0130042e+03 6.6851398e+02 7.3717618e-01]
  [9.7168726e+02 6.7150958e+02 7.3864543e-01]
  [8.9819562e+02 8.1590344e+02 8.1902879e-01]
  [8.5980139e+02 9.3935175e+02 8.4054869e-01]
  [1.0542258e+03 6.6268585e+02 6.9735670e-01]
  [1.1366223e+03 7.9224377e+02 8.4358031e-01]
  [1.1484286e+03 9.3346399e+02 8.0448836e-01]
  [9.8943085e+02 3.7138013e+02 8.5729063e-01]
  [1.0188270e+03 3.8016660e+02 8.7754947e-01]
  [9.7459009e+02 3.8900421e+02 4.5754135e-01]
  [1.0395072e+03 4.0079929e+02 7.7825582e-01]
  [1.1689552e+03 9.6880719e+02 7.2282833e-01]
  [1.1865873e+03 9.5710828e+02 7.9397714e-01]
  [1.1396370e+03 9.5121021e+02 7.7397406e-01]
  [8.2172577e+02 9.6886609e+02 7.0256931e-01]
  [8.1291211e+02 9.5427155e+02 7.7825391e-01]
  [8.6577649e+02 9.5413654e+02 7.6106334e-01]]]