[[[1.11014734e+03 4.36040314e+02 9.27459478e-01]
  [1.06903064e+03 5.00819763e+02 8.91314685e-01]
  [1.02479260e+03 4.65590729e+02 7.93504298e-01]
  [1.01003674e+03 4.47876801e+02 7.61907816e-01]
  [1.04537854e+03 4.36207092e+02 8.53530884e-01]
  [1.11604370e+03 5.30343140e+02 8.30401778e-01]
  [1.12773425e+03 6.24554688e+02 8.59952569e-01]
  [1.07485925e+03 6.50919006e+02 8.77740562e-01]
  [1.01001538e+03 6.53871582e+02 7.23089755e-01]
  [9.71716370e+02 6.44968750e+02 7.14583158e-01]
  [8.62978821e+02 7.89294495e+02 8.69785070e-01]
  [8.57041931e+02 9.36442078e+02 8.35359633e-01]
  [1.05120923e+03 6.68575134e+02 7.55182326e-01]
  [1.12480420e+03 7.89306824e+02 8.62504661e-01]
  [1.11883472e+03 9.30577576e+02 9.03346837e-01]
  [1.11587280e+03 4.18505981e+02 9.02567267e-01]
  [1.12774255e+03 4.39081604e+02 8.61241698e-01]
  [1.09532959e+03 4.12588531e+02 2.48222649e-01]
  [1.13655298e+03 4.74318817e+02 8.10882688e-01]
  [1.15715112e+03 9.71711792e+02 7.64630198e-01]
  [1.16309241e+03 9.57068848e+02 8.17485273e-01]
  [1.10124133e+03 9.48204712e+02 7.74857998e-01]
  [8.06958008e+02 9.65879822e+02 7.20758796e-01]
  [8.06940735e+02 9.54168945e+02 7.55317092e-01]
  [8.68762024e+02 9.54114624e+02 7.98748374e-01]]]