[[[1.0894176e+03 3.7430298e+02 8.7474912e-01]
  [1.0983750e+03 4.5674548e+02 8.9214295e-01]
  [1.0687823e+03 4.5676678e+02 8.4214044e-01]
  [1.0954703e+03 5.4500958e+02 2.8667670e-01]
  [1.0953464e+03 5.9209741e+02 4.7714135e-01]
  [1.1393955e+03 4.5675186e+02 8.9198452e-01]
  [1.1571667e+03 5.3915405e+02 4.7748595e-01]
  [1.1659254e+03 5.5386224e+02 6.9987059e-01]
  [1.1336903e+03 6.3040851e+02 7.1232134e-01]
  [1.1042194e+03 6.3039996e+02 6.9143540e-01]
  [1.0690311e+03 7.8332666e+02 8.8269180e-01]
  [1.0394095e+03 9.2473126e+02 8.2267773e-01]
  [1.1629784e+03 6.3040588e+02 7.1673065e-01]
  [1.1690153e+03 7.8920667e+02 8.8259268e-01]
  [1.2219021e+03 9.2749353e+02 8.3572364e-01]
  [1.0776890e+03 3.6533044e+02 9.2840493e-01]
  [1.1012552e+03 3.6549771e+02 9.1195059e-01]
  [1.0658707e+03 3.8602939e+02 7.6897159e-02]
  [1.1248960e+03 3.8891763e+02 8.6576730e-01]
  [1.1925436e+03 9.5126337e+02 8.2466549e-01]
  [1.2131514e+03 9.5398431e+02 8.2569790e-01]
  [1.2365685e+03 9.3353082e+02 8.2836980e-01]
  [9.8940247e+02 9.4816797e+02 7.0099491e-01]
  [9.8648438e+02 9.3356244e+02 6.8132031e-01]
  [1.0481921e+03 9.3945282e+02 8.1829369e-01]]]