[[[8.3042737e+02 3.7426901e+02 8.6710900e-01]
  [7.8040222e+02 4.3321298e+02 8.5389149e-01]
  [7.1867706e+02 4.1546249e+02 8.2705611e-01]
  [7.6578931e+02 3.1826346e+02 8.4747696e-01]
  [8.2164404e+02 2.4491782e+02 8.5120004e-01]
  [8.3348560e+02 4.5086465e+02 8.7025052e-01]
  [8.4226013e+02 5.3911346e+02 8.1305701e-01]
  [8.2463824e+02 6.1858545e+02 8.4154171e-01]
  [7.8038519e+02 6.2738135e+02 6.7667991e-01]
  [7.3636853e+02 6.3039233e+02 6.7797333e-01]
  [6.8925171e+02 7.9816315e+02 8.2757068e-01]
  [6.4212616e+02 9.3942694e+02 8.0700582e-01]
  [8.1870673e+02 6.2439606e+02 6.7106712e-01]
  [8.7756622e+02 7.8330731e+02 8.4106231e-01]
  [9.0102161e+02 9.4524426e+02 7.8226155e-01]
  [8.1572601e+02 3.5948859e+02 8.9370501e-01]
  [8.3644684e+02 3.6546310e+02 9.0867555e-01]
  [7.8335034e+02 3.5367722e+02 7.9898936e-01]
  [0.0000000e+00 0.0000000e+00 0.0000000e+00]
  [9.2756311e+02 9.7763232e+02 7.7053106e-01]
  [9.3647437e+02 9.7172058e+02 7.7226543e-01]
  [8.8347369e+02 9.5716541e+02 7.4796695e-01]
  [6.3040796e+02 9.7474872e+02 7.8391099e-01]
  [6.1272675e+02 9.7167273e+02 7.7973682e-01]
  [6.4505017e+02 9.5422241e+02 7.2440153e-01]]]