[[[9.57036316e+02 3.92016052e+02 7.81486988e-01]
  [9.98312927e+02 4.12655914e+02 8.24339688e-01]
  [9.74674988e+02 4.12697723e+02 6.92988873e-01]
  [9.62985779e+02 4.83222260e+02 5.25421277e-02]
  [0.00000000e+00 0.00000000e+00 0.00000000e+00]
  [1.02192932e+03 4.12662109e+02 8.49727571e-01]
  [9.98203857e+02 4.97873932e+02 8.53930891e-01]
  [9.36418091e+02 5.44968445e+02 8.16249490e-01]
  [9.77754883e+02 5.80338989e+02 6.82008982e-01]
  [9.68827820e+02 5.80349426e+02 5.87559044e-01]
  [9.98351868e+02 7.62730164e+02 5.97186565e-01]
  [1.01885596e+03 9.09922485e+02 6.54469311e-01]
  [9.95277588e+02 5.80339966e+02 6.93371654e-01]
  [1.00123511e+03 7.65754517e+02 8.04191947e-01]
  [1.02468213e+03 9.27570374e+02 8.14877629e-01]
  [9.51291443e+02 3.86089966e+02 5.41204810e-01]
  [9.65940369e+02 3.83132538e+02 7.23195434e-01]
  [9.42402100e+02 3.85970459e+02 5.18015921e-02]
  [9.95333008e+02 3.65345642e+02 7.72156715e-01]
  [9.57109009e+02 9.51140381e+02 7.17943490e-01]
  [9.74687195e+02 9.54134399e+02 7.21216500e-01]
  [1.04232983e+03 9.42333374e+02 7.74937928e-01]
  [9.59955688e+02 9.36472473e+02 5.27790785e-01]
  [9.65893738e+02 9.30584167e+02 4.81927633e-01]
  [1.03067468e+03 9.27652832e+02 1.94617480e-01]]]