[[[1.2189711e+03 3.3312070e+02 8.7196332e-01]
  [1.2366963e+03 4.1851160e+02 8.9794636e-01]
  [1.1836222e+03 4.2726788e+02 8.2287544e-01]
  [1.1219761e+03 4.6853506e+02 8.1993461e-01]
  [1.1336223e+03 3.8011243e+02 7.8238124e-01]
  [1.2955371e+03 4.1269324e+02 8.4159005e-01]
  [1.3337803e+03 5.0966626e+02 8.3615088e-01]
  [1.3749243e+03 5.9496906e+02 8.4955835e-01]
  [1.2603004e+03 6.0678711e+02 7.3025256e-01]
  [1.2366641e+03 6.1266217e+02 7.0629954e-01]
  [1.2955513e+03 7.8330713e+02 7.9831743e-01]
  [1.3483861e+03 9.3349542e+02 7.9007059e-01]
  [1.2867441e+03 6.0382007e+02 6.7062557e-01]
  [1.2129961e+03 7.4513055e+02 8.6126339e-01]
  [1.1453722e+03 9.0999182e+02 8.2813007e-01]
  [1.2100450e+03 3.2138541e+02 8.8834435e-01]
  [1.2338156e+03 3.1839487e+02 9.7280240e-01]
  [1.1925320e+03 3.4778543e+02 6.3205415e-01]
  [1.2602924e+03 3.3898413e+02 9.1150445e-01]
  [1.0718427e+03 9.0696979e+02 8.2692319e-01]
  [1.0895070e+03 9.1883826e+02 7.7757877e-01]
  [1.1513395e+03 9.3352838e+02 7.5246787e-01]
  [1.2837455e+03 9.4820612e+02 6.2847441e-01]
  [1.2926215e+03 9.3943500e+02 5.5142528e-01]
  [1.3573074e+03 9.5408795e+02 7.6766133e-01]]]