[[[1.01007477e+03 3.62437714e+02 8.93803716e-01]
  [1.00708563e+03 4.24336853e+02 8.22077274e-01]
  [9.54089233e+02 4.30254883e+02 8.59200597e-01]
  [8.92280273e+02 3.80126221e+02 7.09636152e-01]
  [8.12842224e+02 3.00772064e+02 7.74436355e-01]
  [1.06595654e+03 4.15566956e+02 8.15553129e-01]
  [1.13074133e+03 3.50804199e+02 7.42951274e-01]
  [1.19248950e+03 2.91810516e+02 8.35907459e-01]
  [1.01001654e+03 6.01011047e+02 7.05246150e-01]
  [9.74837402e+02 6.06848694e+02 7.05685854e-01]
  [8.86398804e+02 7.62679443e+02 8.95378113e-01]
  [8.80447632e+02 9.21787354e+02 8.20353806e-01]
  [1.04538818e+03 6.00878174e+02 7.13721097e-01]
  [1.07190759e+03 7.83342285e+02 8.50029290e-01]
  [1.10712195e+03 9.24695312e+02 8.11594605e-01]
  [1.00109540e+03 3.47780579e+02 9.29717004e-01]
  [1.02470386e+03 3.50811279e+02 8.94984663e-01]
  [9.80620239e+02 3.62580078e+02 8.58423054e-01]
  [1.04244458e+03 3.68382660e+02 7.73785353e-01]
  [1.09529797e+03 9.54117676e+02 7.58517206e-01]
  [1.11598621e+03 9.54024658e+02 8.05063248e-01]
  [1.11014526e+03 9.33455811e+02 6.97843015e-01]
  [8.15815308e+02 9.54056458e+02 6.98926389e-01]
  [8.15861938e+02 9.45322327e+02 6.51960254e-01]
  [8.95259949e+02 9.33543518e+02 7.30109751e-01]]]