[[[1.03947473e+03 4.09510651e+02 9.04144824e-01]
  [1.00708160e+03 4.86109467e+02 8.38256240e-01]
  [9.57134766e+02 4.59601440e+02 8.02226663e-01]
  [8.86426208e+02 4.12695190e+02 6.49526834e-01]
  [8.36418274e+02 3.86046631e+02 6.44589484e-01]
  [1.05707861e+03 5.15540344e+02 7.84461021e-01]
  [1.04543225e+03 6.09720154e+02 8.75442624e-01]
  [1.00412604e+03 6.71634216e+02 8.96330416e-01]
  [9.48143005e+02 6.62687073e+02 7.13178635e-01]
  [9.07082520e+02 6.48090637e+02 7.14505494e-01]
  [8.51082703e+02 8.21621521e+02 8.19613218e-01]
  [7.80450134e+02 9.36466003e+02 8.05037796e-01]
  [9.77738708e+02 6.71526306e+02 7.46169746e-01]
  [1.08358911e+03 7.80429199e+02 8.04761112e-01]
  [1.09229150e+03 9.39430786e+02 8.21219921e-01]
  [1.02188831e+03 3.89172089e+02 9.34178591e-01]
  [1.04826404e+03 3.94947205e+02 8.84702086e-01]
  [9.83608032e+02 4.09492065e+02 7.61878133e-01]
  [1.05710999e+03 4.24348877e+02 1.36859447e-01]
  [1.15427393e+03 9.68781250e+02 7.37510741e-01]
  [1.14839917e+03 9.54171326e+02 6.97805047e-01]
  [1.07173157e+03 9.54188477e+02 8.29943895e-01]
  [7.62845154e+02 9.74647034e+02 7.65772939e-01]
  [7.45101257e+02 9.59996460e+02 7.59636402e-01]
  [7.80379333e+02 9.51188293e+02 7.12601423e-01]]]