[[[1.04817102e+03 4.27213898e+02 9.13353562e-01]
  [9.98204590e+02 4.94917389e+02 8.78995180e-01]
  [9.36464478e+02 4.59749146e+02 8.32973361e-01]
  [8.39298279e+02 5.27451538e+02 7.97065139e-01]
  [7.56914978e+02 5.77403198e+02 4.40546721e-01]
  [1.05118262e+03 5.27208374e+02 8.13449800e-01]
  [1.02178784e+03 6.24398743e+02 8.81418169e-01]
  [9.95324219e+02 6.92005493e+02 8.64474773e-01]
  [9.39399475e+02 6.51007874e+02 6.98897660e-01]
  [9.01179932e+02 6.42075073e+02 6.81686163e-01]
  [8.33330933e+02 8.15764893e+02 8.68366480e-01]
  [7.62734009e+02 9.45230530e+02 8.30080748e-01]
  [9.77702515e+02 6.68572632e+02 7.39606798e-01]
  [1.08952637e+03 7.80495850e+02 8.36158216e-01]
  [1.08660901e+03 9.48264771e+02 8.12167525e-01]
  [1.04238147e+03 4.09531342e+02 9.21300650e-01]
  [1.06876379e+03 4.24272430e+02 8.83562922e-01]
  [1.01299707e+03 4.09702637e+02 8.18114817e-01]
  [1.07173120e+03 4.44930969e+02 5.72458506e-01]
  [1.14833228e+03 9.74691711e+02 8.06028008e-01]
  [1.14257385e+03 9.63000732e+02 7.34171391e-01]
  [1.06884302e+03 9.60063721e+02 8.16029727e-01]
  [7.56892639e+02 9.77714600e+02 7.26927817e-01]
  [7.39126221e+02 9.74592529e+02 7.75945783e-01]
  [7.59827576e+02 9.54144470e+02 6.59251750e-01]]]