[[[1.04518762e+03 3.77243591e+02 8.88806105e-01]
  [1.06002966e+03 4.36144562e+02 8.14872205e-01]
  [1.03359119e+03 4.36097961e+02 7.44186640e-01]
  [1.01588477e+03 5.15553589e+02 5.02352305e-02]
  [0.00000000e+00 0.00000000e+00 0.00000000e+00]
  [1.08363806e+03 4.36144073e+02 8.18778932e-01]
  [1.08951233e+03 5.27185425e+02 8.71035337e-01]
  [1.04238513e+03 5.97989136e+02 8.67570400e-01]
  [1.01005249e+03 6.12718079e+02 7.07191229e-01]
  [9.89376099e+02 6.09745850e+02 6.76393151e-01]
  [1.00414514e+03 7.71582642e+02 8.52434278e-01]
  [1.02467688e+03 9.21696899e+02 8.42590630e-01]
  [1.03363696e+03 6.15681702e+02 6.81901932e-01]
  [1.04237415e+03 7.65756775e+02 8.93905818e-01]
  [1.08066370e+03 9.15807068e+02 8.03897619e-01]
  [1.02765662e+03 3.65355774e+02 9.49777782e-01]
  [1.05418494e+03 3.62656921e+02 8.88176978e-01]
  [1.01879736e+03 3.74291412e+02 2.74935484e-01]
  [1.07774500e+03 3.74244110e+02 6.73656642e-01]
  [1.04241931e+03 9.51260681e+02 7.50132084e-01]
  [1.06301660e+03 9.54018372e+02 7.57445395e-01]
  [1.09538708e+03 9.30536438e+02 8.15682471e-01]
  [9.80702148e+02 9.48256531e+02 7.42869854e-01]
  [9.80578125e+02 9.36448364e+02 6.92512393e-01]
  [1.03647803e+03 9.30596191e+02 7.27099717e-01]]]