[[[1.04232019e+03 3.71335327e+02 8.86569917e-01]
  [1.03359766e+03 4.65535095e+02 7.93713152e-01]
  [9.86512939e+02 4.56768829e+02 7.77479351e-01]
  [9.98113953e+02 4.33070526e+02 8.54218066e-01]
  [1.06304028e+03 4.21370728e+02 5.06182671e-01]
  [1.08657617e+03 4.80285522e+02 8.47479224e-01]
  [1.09553748e+03 5.92095886e+02 8.32218707e-01]
  [1.06881238e+03 6.48001526e+02 8.95395041e-01]
  [1.01875336e+03 6.48106750e+02 7.19891310e-01]
  [9.74620178e+02 6.47979126e+02 7.42338479e-01]
  [9.07013245e+02 7.92281311e+02 8.73424709e-01]
  [8.57046631e+02 9.33603027e+02 8.41236532e-01]
  [1.05425098e+03 6.50996033e+02 6.83265150e-01]
  [1.13648718e+03 7.89366272e+02 8.58126163e-01]
  [1.20423267e+03 9.27571838e+02 7.89612591e-01]
  [1.02187299e+03 3.65535675e+02 9.52607810e-01]
  [1.04822693e+03 3.62646484e+02 9.41116929e-01]
  [1.00124133e+03 3.89174774e+02 8.60719323e-01]
  [1.06886389e+03 3.86141724e+02 7.01695204e-01]
  [1.19838464e+03 9.68820374e+02 7.34371901e-01]
  [1.21611499e+03 9.57144653e+02 7.43365526e-01]
  [1.21013184e+03 9.33483337e+02 6.67043269e-01]
  [8.39297668e+02 9.71688660e+02 7.19352424e-01]
  [8.27483704e+02 9.57126709e+02 7.45769262e-01]
  [8.60015747e+02 9.54014954e+02 7.56660223e-01]]]