[[[9.1883063e+02 3.0655151e+02 8.5521936e-01]
  [9.0703033e+02 4.0963434e+02 9.1646153e-01]
  [8.3940033e+02 4.1254642e+02 8.0239314e-01]
  [7.8045630e+02 4.9783191e+02 8.1332201e-01]
  [7.8643372e+02 4.2719516e+02 8.5661191e-01]
  [9.7458228e+02 4.0671417e+02 8.3519554e-01]
  [1.0277393e+03 4.7733182e+02 8.5874689e-01]
  [1.0570901e+03 4.3016217e+02 8.1525695e-01]
  [9.0705096e+02 5.9795410e+02 7.3316491e-01]
  [8.6577942e+02 6.0089832e+02 6.7463243e-01]
  [8.8636530e+02 7.6587408e+02 8.3577359e-01]
  [8.8636755e+02 9.5110620e+02 8.1571043e-01]
  [9.5118298e+02 5.9504059e+02 6.8726158e-01]
  [1.0541870e+03 7.3329614e+02 7.9947513e-01]
  [9.5414752e+02 8.5110522e+02 7.9763722e-01]
  [9.0693396e+02 2.9478290e+02 9.8169571e-01]
  [9.3063293e+02 2.9787338e+02 8.9511329e-01]
  [8.8061255e+02 3.1549323e+02 8.9319503e-01]
  [9.4811578e+02 3.3307794e+02 7.7234858e-01]
  [9.7179913e+02 9.0701373e+02 5.4574716e-01]
  [9.8062726e+02 9.0111151e+02 5.5151767e-01]
  [9.3051788e+02 8.5112561e+02 7.1436125e-01]
  [9.3061945e+02 9.7774139e+02 7.3678815e-01]
  [9.0706268e+02 9.8349847e+02 7.0435292e-01]
  [8.7754596e+02 9.6589160e+02 7.4357533e-01]]]