[[[6.9804688e+02 8.6293311e+02 8.2303107e-01]
  [7.2165363e+02 9.2178052e+02 7.1015614e-01]
  [6.9515747e+02 9.3937823e+02 6.3978827e-01]
  [6.2159235e+02 8.5697522e+02 7.4975598e-01]
  [5.6263672e+02 8.0400806e+02 7.4853361e-01]
  [7.5104871e+02 9.0399268e+02 5.4202420e-01]
  [0.0000000e+00 0.0000000e+00 0.0000000e+00]
  [0.0000000e+00 0.0000000e+00 0.0000000e+00]
  [9.3053027e+02 9.3049451e+02 6.0968822e-01]
  [9.2755560e+02 9.3355048e+02 5.8863276e-01]
  [1.0953319e+03 8.5682977e+02 8.6675864e-01]
  [1.2543284e+03 9.4826208e+02 7.5843352e-01]
  [9.3353467e+02 9.2177472e+02 5.1423210e-01]
  [1.0836274e+03 8.5695721e+02 4.0225470e-01]
  [1.1689677e+03 9.2176221e+02 2.7807015e-01]
  [6.8040784e+02 8.6877606e+02 7.8646946e-01]
  [6.9221021e+02 8.5407129e+02 7.7082521e-01]
  [6.6873004e+02 8.9815613e+02 6.8264943e-01]
  [0.0000000e+00 0.0000000e+00 0.0000000e+00]
  [0.0000000e+00 0.0000000e+00 0.0000000e+00]
  [0.0000000e+00 0.0000000e+00 0.0000000e+00]
  [1.1629631e+03 9.3360718e+02 2.4448204e-01]
  [1.3131509e+03 9.3352087e+02 6.6204065e-01]
  [1.3042479e+03 9.5105566e+02 7.0730019e-01]
  [1.2543447e+03 9.6590320e+02 6.1897230e-01]]]