[[[9.3072797e+02 2.9784705e+02 9.0192068e-01]
  [9.2756006e+02 4.0667365e+02 9.0465069e-01]
  [8.6286810e+02 3.8888544e+02 8.7884486e-01]
  [8.0684918e+02 4.6257065e+02 8.6772585e-01]
  [7.8919604e+02 3.8903189e+02 9.0132982e-01]
  [9.7782709e+02 4.1840488e+02 7.9742634e-01]
  [1.0482336e+03 4.8618039e+02 8.7023878e-01]
  [1.1159673e+03 4.8324136e+02 8.8043100e-01]
  [9.1880640e+02 5.9505353e+02 7.0043093e-01]
  [8.8339496e+02 5.9502673e+02 7.1510684e-01]
  [9.0116284e+02 7.5989679e+02 8.8830858e-01]
  [8.7458008e+02 9.2174011e+02 7.8043401e-01]
  [9.5401788e+02 5.9790588e+02 7.3595214e-01]
  [9.5127118e+02 7.6282709e+02 9.2523915e-01]
  [9.0998798e+02 9.0698499e+02 8.3666825e-01]
  [9.2169006e+02 2.9472122e+02 9.1443950e-01]
  [9.5111365e+02 2.9479044e+02 9.4673884e-01]
  [9.0101593e+02 3.1834641e+02 8.5497433e-01]
  [9.6586499e+02 3.2138794e+02 6.7019808e-01]
  [9.5119751e+02 9.5107825e+02 8.1949878e-01]
  [9.5405212e+02 9.3652374e+02 8.0219531e-01]
  [9.0401135e+02 9.1881042e+02 5.4883766e-01]
  [9.0110999e+02 9.7461102e+02 8.2193446e-01]
  [8.8038666e+02 9.7175958e+02 7.8434217e-01]
  [8.5993811e+02 9.3064130e+02 7.7379674e-01]]]