[[[9.5106708e+02 3.6259186e+02 9.7617233e-01]
  [9.3939862e+02 4.5657532e+02 8.7698174e-01]
  [8.8053668e+02 4.3910605e+02 8.7836230e-01]
  [8.5992340e+02 5.3043433e+02 8.7602788e-01]
  [8.5701318e+02 6.0976788e+02 8.5734135e-01]
  [1.0011012e+03 4.6256183e+02 8.7414241e-01]
  [1.0070876e+03 5.5672986e+02 8.2876205e-01]
  [1.0247823e+03 6.3920093e+02 7.7118737e-01]
  [9.3067993e+02 6.3031061e+02 7.5597554e-01]
  [8.9817084e+02 6.2455463e+02 7.2596872e-01]
  [8.8349359e+02 7.6877734e+02 8.8666677e-01]
  [9.0715527e+02 8.8061493e+02 8.5661024e-01]
  [9.7462445e+02 6.3622766e+02 7.3435831e-01]
  [9.4815637e+02 7.7459027e+02 8.3627290e-01]
  [9.3361292e+02 9.2763031e+02 8.2415313e-01]
  [9.3350378e+02 3.5073651e+02 8.8331819e-01]
  [9.6293396e+02 3.5658975e+02 8.4586513e-01]
  [9.1879749e+02 3.6551266e+02 7.9016143e-01]
  [9.7774774e+02 3.7430267e+02 7.8724271e-01]
  [8.8349707e+02 9.5402130e+02 8.4351254e-01]
  [9.0408862e+02 9.5713965e+02 7.9663700e-01]
  [9.5122229e+02 9.4532617e+02 8.3092344e-01]
  [8.7759180e+02 9.1873804e+02 7.3007131e-01]
  [8.7756421e+02 9.0696234e+02 7.3905253e-01]
  [9.1880432e+02 8.8642297e+02 4.6340007e-01]]]