[[[5.5682666e+02 4.2721341e+02 8.4310472e-01]
  [6.0087701e+02 4.9792999e+02 8.2595789e-01]
  [6.4202283e+02 4.8320071e+02 7.0756966e-01]
  [6.4801495e+02 5.8033051e+02 1.3435638e-01]
  [5.9208820e+02 6.1557214e+02 2.0049290e-01]
  [5.5970135e+02 5.0673346e+02 7.9492635e-01]
  [5.2738593e+02 6.0973450e+02 8.7568861e-01]
  [4.8327399e+02 6.9228857e+02 9.1116369e-01]
  [7.1870520e+02 6.5386639e+02 6.8867457e-01]
  [7.4210773e+02 6.4808453e+02 6.3701296e-01]
  [6.6872803e+02 8.0103925e+02 8.5374558e-01]
  [7.3037427e+02 9.3069061e+02 8.0326450e-01]
  [6.9814581e+02 6.5976636e+02 6.4778656e-01]
  [6.2161450e+02 7.8944012e+02 8.6866868e-01]
  [5.3043787e+02 9.3348492e+02 8.4966868e-01]
  [5.5400232e+02 4.0961234e+02 9.1408598e-01]
  [5.7734363e+02 4.1264661e+02 8.8906884e-01]
  [0.0000000e+00 0.0000000e+00 0.0000000e+00]
  [6.0388513e+02 4.3325327e+02 5.6016380e-01]
  [4.6850937e+02 9.4234369e+02 7.1247208e-01]
  [4.8313416e+02 9.5116327e+02 8.2576621e-01]
  [5.4495593e+02 9.5403333e+02 7.4562895e-01]
  [6.8036737e+02 9.4238678e+02 6.9299048e-01]
  [6.8925031e+02 9.3359399e+02 6.6646719e-01]
  [7.4231110e+02 9.5110706e+02 8.1949902e-01]]]