[[[7.6279657e+02 7.6877832e+02 9.2017859e-01]
  [7.6582928e+02 8.3334314e+02 8.6923754e-01]
  [7.1267352e+02 8.6006433e+02 7.5631166e-01]
  [6.1567444e+02 9.3360400e+02 8.0145377e-01]
  [5.0687152e+02 9.7769946e+02 8.4648132e-01]
  [8.3045038e+02 7.9234491e+02 7.6947707e-01]
  [8.6587170e+02 8.8639319e+02 8.7259823e-01]
  [8.3334845e+02 9.8055585e+02 8.8016713e-01]
  [9.2763892e+02 9.0993756e+02 6.9790232e-01]
  [9.1291693e+02 9.4817584e+02 5.7874811e-01]
  [1.0247520e+03 9.6878149e+02 2.8637430e-01]
  [1.1424569e+03 9.3944336e+02 3.6972612e-01]
  [9.3939880e+02 8.7463226e+02 6.4967698e-01]
  [9.8947302e+02 9.5426862e+02 7.7741241e-01]
  [1.1777975e+03 9.5715613e+02 3.7344000e-01]
  [7.4236951e+02 7.5982013e+02 8.9792562e-01]
  [7.7461780e+02 7.5987976e+02 8.5300708e-01]
  [7.1873810e+02 7.6564648e+02 8.5821825e-01]
  [7.9221918e+02 7.6578320e+02 4.3526533e-01]
  [1.1866637e+03 9.7758197e+02 6.9788739e-02]
  [1.1925344e+03 9.7762158e+02 8.6958237e-02]
  [1.2071920e+03 9.6289813e+02 3.0486694e-01]
  [1.2102458e+03 9.7171252e+02 9.2602611e-02]
  [1.2101613e+03 9.7472235e+02 8.5169002e-02]
  [1.1571882e+03 9.2470862e+02 2.1855509e-01]]]