[[[9.51216003e+02 3.77203003e+02 8.93233359e-01]
  [9.86508301e+02 4.47876129e+02 7.97499835e-01]
  [1.02470239e+03 4.50868591e+02 7.54040360e-01]
  [9.74720276e+02 5.24322083e+02 1.62330851e-01]
  [9.18750549e+02 5.27286804e+02 1.98808387e-01]
  [9.51158813e+02 4.39134613e+02 8.16128373e-01]
  [8.74589539e+02 4.80330719e+02 8.64143372e-01]
  [9.06967712e+02 5.24385681e+02 6.34512424e-01]
  [9.74820251e+02 6.24564392e+02 7.33423591e-01]
  [9.98374512e+02 6.30325073e+02 6.71040893e-01]
  [9.48141968e+02 7.86348633e+02 8.77765775e-01]
  [9.80714905e+02 9.24719238e+02 7.95612812e-01]
  [9.51253845e+02 6.24445679e+02 6.89718187e-01]
  [9.01182556e+02 7.86181946e+02 9.00020778e-01]
  [9.71689087e+02 9.30651978e+02 7.95893252e-01]
  [9.54134216e+02 3.62621765e+02 5.80931902e-01]
  [9.71700745e+02 3.68348694e+02 8.61827016e-01]
  [0.00000000e+00 0.00000000e+00 0.00000000e+00]
  [9.98188049e+02 3.89023407e+02 7.87001014e-01]
  [9.09982361e+02 9.74658569e+02 7.77107239e-01]
  [9.30533325e+02 9.77592590e+02 8.10704589e-01]
  [9.89433105e+02 9.45318298e+02 7.05176830e-01]
  [9.24615479e+02 9.36414795e+02 3.08436871e-01]
  [9.24614380e+02 9.30671265e+02 3.04221749e-01]
  [1.00126263e+03 9.33495544e+02 6.19197309e-01]]]