[[[9.7178754e+02 3.6256973e+02 9.5200825e-01]
  [9.7764307e+02 4.3611469e+02 8.0181319e-01]
  [9.7176392e+02 4.3317896e+02 7.0502579e-01]
  [9.3050568e+02 5.4494763e+02 8.2756764e-01]
  [8.5980261e+02 5.9791290e+02 9.1537321e-01]
  [9.8065985e+02 4.3624570e+02 7.8855705e-01]
  [9.8061603e+02 5.2722729e+02 8.1902701e-01]
  [9.7760956e+02 6.1561670e+02 8.4138197e-01]
  [9.5108545e+02 6.4797791e+02 7.1913308e-01]
  [9.3055103e+02 6.4500043e+02 7.1422702e-01]
  [8.8038251e+02 7.8327887e+02 8.6508942e-01]
  [9.1295746e+02 9.3053314e+02 8.1081343e-01]
  [9.6588159e+02 6.5387567e+02 6.4859962e-01]
  [9.4228387e+02 8.0400128e+02 8.2346749e-01]
  [1.0249105e+03 9.3069061e+02 8.4639513e-01]
  [9.6296228e+02 3.4494263e+02 8.8621998e-01]
  [9.8946240e+02 3.5945673e+02 8.5541844e-01]
  [0.0000000e+00 0.0000000e+00 0.0000000e+00]
  [1.0187750e+03 3.7430267e+02 7.5073105e-01]
  [9.7763550e+02 9.6004443e+02 8.2892662e-01]
  [9.9829352e+02 9.6878308e+02 7.8106141e-01]
  [1.0482650e+03 9.4815472e+02 8.8539791e-01]
  [8.5983966e+02 9.5702881e+02 7.6957446e-01]
  [8.6000287e+02 9.5118512e+02 7.7371037e-01]
  [9.3066669e+02 9.4819824e+02 8.5086036e-01]]]