[[[1.0511870e+03 3.8308411e+02 9.0675688e-01]
  [1.0600587e+03 4.5672397e+02 8.7793982e-01]
  [9.9837830e+02 4.4496564e+02 8.4526265e-01]
  [9.7179993e+02 3.6538919e+02 8.8102627e-01]
  [9.4817682e+02 2.8602838e+02 7.7829415e-01]
  [1.1161100e+03 4.6264731e+02 8.6510092e-01]
  [1.1425504e+03 5.5371118e+02 9.3200058e-01]
  [1.1129961e+03 6.1560510e+02 8.4053409e-01]
  [1.0482827e+03 6.3911969e+02 7.4874729e-01]
  [1.0041528e+03 6.3622882e+02 7.0348799e-01]
  [9.5710663e+02 7.8633575e+02 8.5654795e-01]
  [9.2768256e+02 9.3050586e+02 8.9167076e-01]
  [1.0924570e+03 6.4203949e+02 7.4924606e-01]
  [1.1659039e+03 7.8927600e+02 9.0697575e-01]
  [1.1630286e+03 9.2462115e+02 8.5904467e-01]
  [1.0395037e+03 3.6842636e+02 8.7710404e-01]
  [1.0687488e+03 3.6559277e+02 9.2161298e-01]
  [1.0216977e+03 3.8616357e+02 8.1555480e-01]
  [1.0864818e+03 3.8601556e+02 7.5377154e-01]
  [1.2042612e+03 9.6293658e+02 7.2680938e-01]
  [1.2101128e+03 9.5127228e+02 7.9549766e-01]
  [1.1425386e+03 9.3071350e+02 8.3225185e-01]
  [9.2463721e+02 9.6002393e+02 7.6002115e-01]
  [9.0408844e+02 9.5417407e+02 8.4221196e-01]
  [9.3064679e+02 9.4530267e+02 7.1226883e-01]]]