[[[9.39360840e+02 5.97903198e+02 9.03006554e-01]
  [9.71702026e+02 6.68568542e+02 8.69662404e-01]
  [9.24695251e+02 6.62744568e+02 7.75358677e-01]
  [8.62960083e+02 7.27444275e+02 7.33197451e-01]
  [8.01090698e+02 7.89399719e+02 8.27385783e-01]
  [1.01592596e+03 6.71491516e+02 8.47424865e-01]
  [9.95302917e+02 7.74567017e+02 8.11612666e-01]
  [9.30432617e+02 8.62849121e+02 8.09877515e-01]
  [9.71667236e+02 8.51079712e+02 7.34134793e-01]
  [9.39366333e+02 8.36281250e+02 7.14223146e-01]
  [8.15868042e+02 8.09818970e+02 8.17273915e-01]
  [9.06948303e+02 9.15827759e+02 5.44896245e-01]
  [9.98145569e+02 8.59895996e+02 7.07820356e-01]
  [8.80511536e+02 9.60045166e+02 8.49839389e-01]
  [1.02176910e+03 9.27668213e+02 7.80049920e-01]
  [9.27559814e+02 5.92048828e+02 9.03404057e-01]
  [9.51159241e+02 5.77375305e+02 9.60113049e-01]
  [9.15867798e+02 6.03953430e+02 1.93704709e-01]
  [9.80551514e+02 5.77517944e+02 8.71740878e-01]
  [1.04526172e+03 9.71807312e+02 8.15813661e-01]
  [1.04842786e+03 9.54259949e+02 8.04399312e-01]
  [1.03356116e+03 9.06973755e+02 4.74126190e-01]
  [0.00000000e+00 0.00000000e+00 0.00000000e+00]
  [0.00000000e+00 0.00000000e+00 0.00000000e+00]
  [9.36423340e+02 9.30601685e+02 1.09449893e-01]]]