[[[1.09247607e+03 6.68457153e+02 9.41803873e-01]
  [1.04533496e+03 7.39332397e+02 8.82402539e-01]
  [1.01294385e+03 7.42127502e+02 8.04080367e-01]
  [9.74822144e+02 8.56951782e+02 9.04845953e-01]
  [9.51001465e+02 9.53998047e+02 8.94395769e-01]
  [1.07479553e+03 7.39270142e+02 8.00525546e-01]
  [1.15722729e+03 8.04014343e+02 8.04026783e-01]
  [1.25135913e+03 8.57003967e+02 8.33221078e-01]
  [1.02173682e+03 9.03960449e+02 6.92926288e-01]
  [1.00126080e+03 9.27564209e+02 6.58277035e-01]
  [1.14833057e+03 9.18788452e+02 7.22849727e-01]
  [1.32500403e+03 9.51249329e+02 7.60139346e-01]
  [1.03950964e+03 8.74663086e+02 6.25870824e-01]
  [1.12188733e+03 7.95174011e+02 8.50960135e-01]
  [1.08954077e+03 9.27577515e+02 4.67250943e-01]
  [1.07474060e+03 6.48056763e+02 9.37145054e-01]
  [1.10419922e+03 6.50928528e+02 8.73488009e-01]
  [1.04537109e+03 6.62679138e+02 7.95119464e-01]
  [1.11609460e+03 6.71571594e+02 1.73230276e-01]
  [1.05717639e+03 9.42314941e+02 8.33990350e-02]
  [0.00000000e+00 0.00000000e+00 0.00000000e+00]
  [1.05133179e+03 9.54154846e+02 1.79903552e-01]
  [1.38677698e+03 9.07099854e+02 6.48608565e-01]
  [1.37794336e+03 9.27529236e+02 5.99063635e-01]
  [1.33378516e+03 9.65855286e+02 5.98584831e-01]]]