[[[7.4215717e+02 4.3608160e+02 2.5117648e-01]
  [8.0110400e+02 4.6551837e+02 3.9744267e-01]
  [7.7166705e+02 4.1254492e+02 2.1569075e-01]
  [6.9210114e+02 3.9202008e+02 5.8298552e-01]
  [5.9494336e+02 3.6247934e+02 8.4195995e-01]
  [7.6576935e+02 4.9791458e+02 3.1288153e-01]
  [6.9503577e+02 5.5978754e+02 4.5493883e-01]
  [6.2462390e+02 6.2153455e+02 5.1666188e-01]
  [8.1877258e+02 6.4504803e+02 6.7312449e-01]
  [8.0399829e+02 6.4507410e+02 6.4377546e-01]
  [7.5976672e+02 7.9521863e+02 8.2190078e-01]
  [6.9220258e+02 9.4234039e+02 8.3184814e-01]
  [8.3932037e+02 6.4502594e+02 6.3504529e-01]
  [8.4820428e+02 8.1000720e+02 8.7941533e-01]
  [9.4825708e+02 9.4525598e+02 7.9890299e-01]
  [7.4511145e+02 4.2729501e+02 6.4840764e-02]
  [7.4811499e+02 4.2139145e+02 1.7655008e-01]
  [0.0000000e+00 0.0000000e+00 0.0000000e+00]
  [0.0000000e+00 0.0000000e+00 0.0000000e+00]
  [9.0416937e+02 9.7458398e+02 7.8591722e-01]
  [9.2749872e+02 9.7476447e+02 7.7909338e-01]
  [9.6877985e+02 9.5413617e+02 7.5338471e-01]
  [6.3335638e+02 9.6879083e+02 7.3481262e-01]
  [6.3622791e+02 9.5416071e+02 7.4446952e-01]
  [6.9813715e+02 9.5719470e+02 7.3562407e-01]]

 [[0.0000000e+00 0.0000000e+00 0.0000000e+00]
  [0.0000000e+00 0.0000000e+00 0.0000000e+00]
  [7.6279108e+02 5.0666696e+02 2.4229033e-01]
  [6.9503845e+02 5.6267499e+02 5.1136535e-01]
  [6.2747003e+02 6.2144476e+02 4.0553081e-01]
  [0.0000000e+00 0.0000000e+00 0.0000000e+00]
  [0.0000000e+00 0.0000000e+00 0.0000000e+00]
  [0.0000000e+00 0.0000000e+00 0.0000000e+00]
  [0.0000000e+00 0.0000000e+00 0.0000000e+00]
  [0.0000000e+00 0.0000000e+00 0.0000000e+00]
  [0.0000000e+00 0.0000000e+00 0.0000000e+00]
  [0.0000000e+00 0.0000000e+00 0.0000000e+00]
  [0.0000000e+00 0.0000000e+00 0.0000000e+00]
  [0.0000000e+00 0.0000000e+00 0.0000000e+00]
  [0.0000000e+00 0.0000000e+00 0.0000000e+00]
  [0.0000000e+00 0.0000000e+00 0.0000000e+00]
  [0.0000000e+00 0.0000000e+00 0.0000000e+00]
  [0.0000000e+00 0.0000000e+00 0.0000000e+00]
  [0.0000000e+00 0.0000000e+00 0.0000000e+00]
  [0.0000000e+00 0.0000000e+00 0.0000000e+00]
  [0.0000000e+00 0.0000000e+00 0.0000000e+00]
  [0.0000000e+00 0.0000000e+00 0.0000000e+00]
  [0.0000000e+00 0.0000000e+00 0.0000000e+00]
  [0.0000000e+00 0.0000000e+00 0.0000000e+00]
  [0.0000000e+00 0.0000000e+00 0.0000000e+00]]]