[[[9.4814838e+02 3.5948688e+02 9.0487051e-01]
  [9.7477344e+02 4.3614267e+02 7.0053738e-01]
  [9.6293182e+02 4.3316180e+02 5.5493951e-01]
  [0.0000000e+00 0.0000000e+00 0.0000000e+00]
  [0.0000000e+00 0.0000000e+00 0.0000000e+00]
  [9.7776440e+02 4.3915225e+02 8.2095504e-01]
  [9.7462225e+02 5.4499481e+02 8.5988581e-01]
  [9.3354987e+02 6.2455212e+02 8.3485192e-01]
  [9.7463843e+02 6.2444226e+02 7.2834688e-01]
  [9.5700684e+02 6.2444781e+02 6.5851295e-01]
  [9.3641669e+02 7.7170166e+02 7.9070902e-01]
  [9.7478558e+02 9.2176672e+02 8.2927465e-01]
  [9.8350671e+02 6.2451508e+02 6.9180286e-01]
  [9.7463873e+02 7.7458337e+02 8.4447092e-01]
  [1.0041968e+03 9.4229492e+02 7.9079491e-01]
  [9.4526886e+02 3.4192697e+02 8.9871728e-01]
  [9.6289020e+02 3.4491260e+02 8.7374991e-01]
  [0.0000000e+00 0.0000000e+00 0.0000000e+00]
  [9.9536578e+02 3.6554190e+02 8.6816341e-01]
  [9.4237225e+02 9.7466071e+02 7.7316600e-01]
  [9.5710864e+02 9.8055298e+02 7.6497078e-01]
  [1.0247739e+03 9.5419098e+02 8.4077173e-01]
  [9.2465649e+02 9.3942584e+02 7.4846458e-01]
  [9.2763867e+02 9.3062915e+02 7.1156752e-01]
  [9.7776440e+02 9.3064984e+02 4.4632918e-01]]]