[[[0.0000000e+00 0.0000000e+00 0.0000000e+00]
  [9.0417303e+02 5.5380328e+02 8.9436883e-01]
  [8.3640997e+02 5.5381793e+02 8.1126606e-01]
  [8.3341925e+02 6.5976495e+02 8.4238440e-01]
  [8.1280414e+02 7.6282977e+02 9.2790163e-01]
  [9.7476239e+02 5.5371393e+02 8.4408462e-01]
  [9.7465723e+02 6.6563123e+02 8.2851529e-01]
  [9.8059814e+02 7.6581146e+02 8.5320532e-01]
  [9.0416254e+02 6.6272650e+02 7.4426448e-01]
  [8.6878809e+02 6.6273047e+02 6.6840947e-01]
  [8.7173218e+02 7.7462640e+02 8.2560462e-01]
  [8.6581158e+02 9.2769678e+02 8.2740402e-01]
  [9.3652563e+02 6.6559253e+02 6.7700309e-01]
  [9.4824377e+02 7.6589331e+02 8.6763346e-01]
  [9.4817377e+02 9.1883533e+02 7.9670072e-01]
  [0.0000000e+00 0.0000000e+00 0.0000000e+00]
  [0.0000000e+00 0.0000000e+00 0.0000000e+00]
  [8.6585797e+02 5.7450836e+02 9.3731135e-02]
  [9.3051093e+02 5.7440479e+02 1.7582113e-01]
  [9.4530267e+02 9.6875317e+02 8.0576360e-01]
  [9.6296899e+02 9.5715686e+02 7.7652675e-01]
  [9.3356799e+02 9.3058691e+02 7.0962715e-01]
  [8.6578625e+02 9.7170496e+02 7.5096762e-01]
  [8.4815479e+02 9.6289490e+02 7.3690236e-01]
  [8.7759290e+02 9.3935931e+02 7.0740026e-01]]]