[[[6.2457794e+02 3.4187027e+02 9.5223862e-01]
  [6.2455524e+02 4.3011386e+02 8.7875813e-01]
  [5.7139728e+02 4.1852417e+02 7.8198457e-01]
  [4.9789331e+02 4.0963446e+02 9.1096747e-01]
  [5.5100873e+02 3.6848764e+02 8.5051435e-01]
  [6.8924701e+02 4.3310367e+02 8.2962900e-01]
  [7.1864325e+02 5.2143939e+02 8.3714199e-01]
  [6.6847424e+02 5.7733533e+02 9.0232915e-01]
  [5.9806433e+02 6.1559210e+02 7.3937517e-01]
  [5.5686151e+02 6.0393591e+02 7.0104390e-01]
  [5.2741083e+02 7.5985022e+02 9.2914337e-01]
  [5.8618408e+02 8.0692566e+02 6.9873554e-01]
  [6.3920563e+02 6.2147253e+02 6.8856013e-01]
  [6.0097296e+02 7.7753424e+02 8.3375001e-01]
  [5.7142328e+02 9.2768787e+02 8.6179429e-01]
  [6.1848798e+02 3.3303198e+02 8.6744255e-01]
  [6.4507141e+02 3.3595786e+02 9.1848302e-01]
  [5.9797101e+02 3.4482401e+02 8.1560695e-01]
  [6.6567303e+02 3.5660989e+02 8.2074988e-01]
  [5.5968237e+02 9.6007135e+02 7.4518377e-01]
  [5.7749817e+02 9.6007532e+02 8.1969023e-01]
  [5.5968903e+02 9.3643121e+02 6.8310905e-01]
  [5.6555145e+02 8.2754706e+02 2.2900496e-01]
  [5.5684741e+02 8.1873523e+02 2.5332007e-01]
  [6.0085779e+02 8.0690479e+02 3.3973432e-01]]]