[[[9.0392523e+02 3.6266232e+02 9.5259988e-01]
  [8.8641919e+02 4.5968161e+02 9.0648401e-01]
  [8.3047839e+02 4.5670502e+02 8.5748291e-01]
  [7.6579578e+02 5.0367004e+02 9.0793794e-01]
  [7.5397253e+02 5.5396497e+02 8.6908996e-01]
  [9.5104633e+02 4.6551196e+02 8.2683218e-01]
  [1.0130292e+03 5.2739764e+02 8.9949298e-01]
  [9.6883063e+02 5.9809277e+02 8.5789990e-01]
  [8.6294336e+02 6.2743671e+02 7.1646124e-01]
  [8.3048730e+02 6.2444708e+02 7.1919924e-01]
  [7.7462750e+02 7.8047241e+02 8.2273722e-01]
  [7.8632092e+02 9.1879340e+02 8.3455110e-01]
  [9.0418176e+02 6.3039252e+02 7.2451937e-01]
  [9.3052795e+02 7.8940283e+02 9.1076589e-01]
  [1.0452483e+03 9.0418311e+02 8.2202148e-01]
  [8.8652649e+02 3.5364322e+02 8.6109400e-01]
  [9.1884027e+02 3.6236932e+02 8.6946702e-01]
  [8.7172314e+02 3.7426996e+02 6.5123957e-01]
  [9.3067065e+02 3.8607101e+02 8.7566054e-01]
  [1.0336310e+03 9.5114355e+02 7.7269751e-01]
  [1.0513270e+03 9.4521625e+02 7.4505550e-01]
  [1.0629879e+03 9.0995508e+02 6.2254918e-01]
  [7.3636511e+02 9.5101422e+02 8.2415688e-01]
  [7.3631952e+02 9.3643579e+02 7.6929480e-01]
  [7.9810382e+02 9.3066382e+02 8.4491795e-01]]]