[[[1.1895205e+03 6.4805542e+02 8.5394430e-01]
  [1.1454567e+03 7.1558521e+02 7.7889252e-01]
  [1.1248563e+03 7.1862036e+02 7.4513817e-01]
  [1.1336116e+03 8.2753156e+02 6.6562396e-01]
  [0.0000000e+00 0.0000000e+00 0.0000000e+00]
  [1.1690067e+03 7.0686859e+02 6.4880496e-01]
  [1.2130709e+03 7.8938831e+02 8.3304745e-01]
  [1.2836406e+03 8.8348615e+02 9.1355860e-01]
  [1.0512798e+03 8.6002588e+02 5.6228465e-01]
  [1.0394550e+03 8.7754877e+02 6.2651569e-01]
  [1.1924816e+03 8.3340045e+02 8.7610734e-01]
  [1.0865590e+03 9.5122858e+02 7.9500508e-01]
  [1.0719089e+03 8.5110535e+02 4.6427217e-01]
  [1.2013948e+03 8.2166986e+02 6.6404444e-01]
  [1.1335869e+03 9.3644751e+02 5.9789884e-01]
  [1.1719711e+03 6.3625226e+02 7.4391872e-01]
  [1.1984366e+03 6.3624438e+02 7.2690207e-01]
  [1.1424648e+03 6.4504242e+02 7.2511536e-01]
  [1.2130853e+03 6.4516339e+02 1.6659944e-01]
  [1.1629756e+03 9.5706519e+02 3.7276304e-01]
  [1.1601476e+03 9.5114325e+02 3.7431744e-01]
  [1.1218641e+03 9.4531262e+02 1.4090140e-01]
  [1.1424865e+03 9.7459637e+02 7.0885605e-01]
  [1.1248256e+03 9.7477173e+02 6.7180800e-01]
  [1.0659919e+03 9.5708673e+02 7.3580605e-01]]]