[[[9.5129102e+02 5.9796466e+02 9.8436534e-01]
  [9.7484406e+02 6.6851959e+02 9.0702617e-01]
  [9.3065179e+02 6.6570874e+02 8.1946969e-01]
  [8.7762097e+02 7.2163715e+02 8.2881975e-01]
  [8.0981171e+02 7.8633270e+02 8.8430923e-01]
  [1.0217189e+03 6.6860132e+02 8.7457657e-01]
  [9.9536011e+02 7.7169501e+02 8.2198048e-01]
  [9.2766388e+02 8.6875415e+02 7.6298201e-01]
  [9.7459265e+02 8.4812292e+02 7.5148869e-01]
  [9.4530994e+02 8.3345758e+02 7.3136890e-01]
  [8.1868542e+02 8.0696136e+02 7.8762531e-01]
  [9.0699506e+02 9.1586267e+02 5.1503611e-01]
  [9.9826215e+02 8.5986194e+02 7.1465766e-01]
  [8.8055322e+02 9.6004425e+02 8.4600216e-01]
  [1.0219049e+03 9.2764844e+02 7.6722276e-01]
  [9.3647198e+02 5.8912872e+02 8.6028981e-01]
  [9.6290979e+02 5.7744586e+02 8.8550556e-01]
  [9.2768304e+02 6.0385883e+02 1.3248208e-01]
  [9.9814618e+02 5.8027173e+02 8.4924626e-01]
  [1.0452762e+03 9.7455957e+02 7.9799449e-01]
  [1.0512177e+03 9.5702606e+02 7.8668189e-01]
  [1.0423732e+03 9.0411853e+02 4.5729554e-01]
  [0.0000000e+00 0.0000000e+00 0.0000000e+00]
  [0.0000000e+00 0.0000000e+00 0.0000000e+00]
  [0.0000000e+00 0.0000000e+00 0.0000000e+00]]]