[[[9.6000177e+02 3.3905737e+02 9.2613488e-01]
  [9.5104614e+02 4.3603107e+02 8.9508867e-01]
  [8.9226270e+02 4.3310376e+02 8.3678699e-01]
  [8.4811957e+02 5.0691150e+02 8.5295576e-01]
  [7.8942017e+02 4.6558279e+02 8.5879797e-01]
  [1.0012348e+03 4.3905444e+02 8.2708341e-01]
  [1.0483394e+03 5.1555121e+02 8.1911641e-01]
  [1.0953489e+03 4.8326016e+02 8.0788445e-01]
  [9.5128229e+02 6.1848059e+02 7.8171813e-01]
  [9.1297888e+02 6.1269122e+02 7.1210396e-01]
  [8.0984851e+02 7.2452527e+02 8.7422353e-01]
  [8.7750610e+02 8.8042950e+02 8.0362219e-01]
  [9.8943140e+02 6.1852979e+02 6.9313967e-01]
  [9.7483154e+02 7.7747327e+02 8.6497802e-01]
  [1.0071137e+03 9.3065143e+02 8.2850647e-01]
  [9.5998633e+02 3.2129788e+02 8.8590580e-01]
  [9.8059869e+02 3.3905887e+02 9.2866969e-01]
  [9.3649670e+02 3.3017703e+02 8.2618013e-02]
  [9.9823413e+02 3.6839056e+02 8.2582611e-01]
  [9.5123914e+02 9.6289874e+02 8.4652936e-01]
  [9.7172449e+02 9.6882831e+02 7.8171527e-01]
  [1.0247843e+03 9.5108801e+02 8.9597082e-01]
  [8.3636444e+02 9.3049469e+02 7.9502702e-01]
  [8.3055475e+02 9.2171265e+02 7.1001720e-01]
  [8.9527185e+02 8.8357019e+02 7.4550539e-01]]]