[[[8.1276984e+02 3.8601376e+02 9.8093086e-01]
  [8.1874194e+02 4.7433600e+02 8.1900346e-01]
  [7.6879871e+02 4.8311749e+02 8.1189346e-01]
  [7.5982367e+02 5.7148193e+02 7.0494246e-01]
  [7.3926752e+02 5.2431506e+02 8.6454457e-01]
  [8.6873584e+02 4.5969623e+02 7.8132313e-01]
  [8.5402063e+02 3.3893933e+02 8.1714129e-01]
  [7.9222113e+02 2.8601950e+02 8.5355020e-01]
  [7.7746545e+02 6.4513470e+02 7.1186537e-01]
  [7.3923376e+02 6.4506061e+02 7.1137202e-01]
  [7.1874530e+02 7.8917670e+02 8.9179206e-01]
  [6.9809363e+02 9.3047223e+02 8.6019224e-01]
  [8.1292462e+02 6.4801453e+02 7.2469664e-01]
  [9.1581458e+02 7.6584149e+02 8.5413057e-01]
  [9.0400470e+02 9.3647321e+02 8.1764376e-01]
  [7.9518677e+02 3.7425934e+02 8.5091305e-01]
  [8.3050958e+02 3.6848166e+02 9.0537822e-01]
  [7.8329950e+02 3.9494073e+02 6.1789107e-01]
  [8.5400134e+02 3.8902417e+02 6.0760635e-01]
  [9.6882300e+02 9.7457306e+02 7.3119742e-01]
  [9.6299237e+02 9.5712604e+02 6.7148727e-01]
  [8.8057611e+02 9.5413562e+02 7.9622573e-01]
  [6.9210669e+02 9.5716669e+02 7.3483860e-01]
  [6.7154822e+02 9.5411029e+02 8.3431011e-01]
  [7.1269550e+02 9.4523267e+02 7.3314047e-01]]]