[[[6.3326947e+02 3.3303949e+02 8.6132139e-01]
  [6.2162421e+02 4.1552542e+02 9.1399890e-01]
  [5.7731750e+02 4.0969418e+02 9.0274310e-01]
  [6.1855994e+02 4.7142734e+02 7.7665794e-01]
  [6.1273322e+02 3.8912439e+02 7.1535307e-01]
  [6.6869122e+02 4.3012091e+02 8.2684320e-01]
  [6.6855133e+02 5.1551953e+02 7.4946368e-01]
  [6.4798993e+02 5.8034680e+02 8.8974226e-01]
  [5.9508118e+02 5.9798090e+02 7.5107133e-01]
  [5.6267828e+02 5.9494647e+02 6.8308008e-01]
  [5.7750342e+02 7.1873236e+02 9.0206236e-01]
  [5.0374817e+02 7.8920630e+02 8.8775265e-01]
  [6.2435577e+02 6.0100470e+02 7.2578716e-01]
  [5.9800714e+02 7.7161896e+02 8.3695674e-01]
  [5.7152429e+02 9.2773169e+02 8.4385806e-01]
  [6.2140582e+02 3.1843073e+02 9.5745671e-01]
  [6.4520386e+02 3.1840884e+02 9.6028638e-01]
  [5.9804535e+02 3.3905646e+02 8.5114044e-01]
  [6.6569556e+02 3.4181021e+02 6.8694818e-01]
  [6.0980524e+02 9.5998676e+02 6.8818808e-01]
  [6.1563580e+02 9.5402972e+02 7.2512847e-01]
  [5.5373309e+02 9.4813550e+02 7.6450288e-01]
  [4.8023468e+02 8.5406476e+02 7.9595095e-01]
  [4.5978430e+02 8.3643817e+02 7.3546273e-01]
  [4.9492596e+02 7.8342267e+02 6.8872190e-01]]]