[[[9.77699158e+02 4.15619049e+02 9.21386659e-01]
  [9.98117004e+02 5.03697784e+02 8.84998083e-01]
  [9.59999939e+02 5.03681946e+02 7.95575321e-01]
  [8.95244019e+02 4.89127502e+02 7.90865481e-01]
  [8.21719055e+02 4.71413116e+02 8.15390348e-01]
  [1.02467578e+03 5.03659760e+02 8.78744721e-01]
  [1.01006525e+03 6.00851562e+02 8.52324188e-01]
  [9.62928589e+02 6.71722351e+02 8.37844014e-01]
  [9.80709351e+02 6.89257263e+02 7.79525220e-01]
  [9.54268127e+02 6.89227234e+02 7.71275699e-01]
  [9.01119690e+02 8.09989258e+02 9.25008416e-01]
  [9.77798950e+02 9.21736145e+02 8.20171714e-01]
  [1.00716699e+03 6.92036438e+02 7.40972340e-01]
  [9.54123901e+02 7.83323425e+02 9.15498078e-01]
  [1.01877313e+03 9.51197449e+02 8.16192865e-01]
  [9.74682556e+02 4.09656769e+02 9.45751429e-01]
  [9.98140381e+02 4.09616547e+02 9.17682052e-01]
  [0.00000000e+00 0.00000000e+00 0.00000000e+00]
  [1.02491150e+03 4.24373840e+02 7.47773707e-01]
  [9.51180786e+02 9.77682007e+02 8.80046964e-01]
  [9.71692200e+02 9.83599487e+02 7.81967759e-01]
  [1.03067249e+03 9.65932373e+02 8.29304278e-01]
  [9.42361206e+02 9.48183960e+02 6.43845379e-01]
  [9.45333923e+02 9.36470947e+02 5.60007215e-01]
  [9.89434814e+02 9.30520630e+02 3.29106331e-01]]]