[[[6.9524695e+02 4.2136606e+02 2.9885280e-01]
  [7.5692755e+02 4.6554065e+02 6.8987858e-01]
  [7.6870532e+02 4.4200641e+02 4.6449408e-01]
  [6.6868036e+02 3.9780945e+02 6.4800793e-01]
  [5.7443567e+02 3.6260092e+02 8.8981974e-01]
  [7.4215155e+02 4.8324045e+02 5.2745980e-01]
  [6.6873187e+02 5.5378656e+02 7.3545861e-01]
  [5.9804865e+02 6.1272949e+02 7.0188338e-01]
  [8.1282446e+02 6.4512030e+02 7.3869050e-01]
  [7.9219897e+02 6.4799304e+02 6.8411994e-01]
  [7.5687915e+02 7.9813715e+02 8.0803853e-01]
  [6.9213696e+02 9.4238617e+02 8.2917774e-01]
  [8.3348694e+02 6.4503229e+02 6.8166316e-01]
  [8.4812103e+02 8.0995294e+02 8.7540066e-01]
  [9.4820325e+02 9.4527838e+02 7.9808980e-01]
  [0.0000000e+00 0.0000000e+00 0.0000000e+00]
  [7.1270923e+02 4.0666147e+02 2.5540480e-01]
  [0.0000000e+00 0.0000000e+00 0.0000000e+00]
  [7.3924988e+02 4.0967712e+02 4.4936407e-01]
  [9.0405432e+02 9.7457550e+02 8.1331110e-01]
  [9.2461646e+02 9.7476538e+02 7.9181552e-01]
  [9.6592096e+02 9.5417462e+02 7.6037097e-01]
  [6.3331720e+02 9.6886224e+02 7.2590333e-01]
  [6.3618872e+02 9.5420868e+02 7.2385979e-01]
  [6.9805646e+02 9.5995569e+02 7.3050421e-01]]]