[[[1.1335842e+03 3.6237067e+02 9.0243900e-01]
  [1.1190822e+03 4.3609744e+02 9.1021597e-01]
  [1.0688364e+03 4.5376971e+02 8.1551790e-01]
  [9.8939197e+02 4.8034332e+02 8.5584658e-01]
  [8.8349072e+02 4.8333453e+02 8.8261169e-01]
  [1.1777905e+03 4.1847742e+02 7.7645081e-01]
  [1.1894672e+03 2.9493417e+02 8.9148957e-01]
  [1.1897268e+03 2.1834767e+02 9.2541808e-01]
  [1.1219893e+03 6.2159155e+02 7.2012234e-01]
  [1.0865389e+03 6.2455365e+02 6.8042451e-01]
  [1.0835623e+03 7.8617926e+02 8.1771147e-01]
  [1.0718580e+03 9.3361902e+02 8.3957928e-01]
  [1.1660780e+03 6.2145135e+02 7.2212601e-01]
  [1.2806708e+03 7.4805450e+02 8.3465755e-01]
  [1.3014202e+03 9.1006305e+02 7.7598619e-01]
  [1.1188208e+03 3.4202057e+02 9.5605683e-01]
  [1.1425881e+03 3.4489017e+02 9.1952962e-01]
  [1.0953137e+03 3.5951773e+02 8.1519884e-01]
  [1.1630288e+03 3.6253018e+02 6.7331421e-01]
  [1.3279546e+03 9.7179767e+02 7.4257779e-01]
  [1.3367206e+03 9.5704236e+02 7.0678109e-01]
  [1.2807307e+03 9.2759570e+02 7.1572924e-01]
  [1.0924414e+03 9.7174548e+02 7.9229116e-01]
  [1.0689371e+03 9.7175732e+02 7.8850138e-01]
  [1.0717787e+03 9.5117694e+02 6.9264483e-01]]]