[[[1.01587341e+03 3.80124512e+02 8.61095846e-01]
  [1.02470386e+03 4.44878937e+02 8.85069907e-01]
  [9.86490784e+02 4.47906342e+02 7.92618752e-01]
  [9.77684021e+02 5.27325623e+02 1.01281248e-01]
  [0.00000000e+00 0.00000000e+00 0.00000000e+00]
  [1.06597693e+03 4.39048157e+02 8.23680937e-01]
  [1.07484253e+03 5.00761963e+02 6.07007086e-01]
  [1.06877747e+03 4.68499329e+02 7.24660039e-01]
  [1.00419116e+03 6.21480164e+02 7.54681885e-01]
  [9.83537537e+02 6.21432861e+02 7.14408278e-01]
  [9.74811890e+02 7.68666138e+02 7.92902112e-01]
  [1.02165509e+03 9.18754456e+02 8.13162029e-01]
  [1.02765320e+03 6.21532837e+02 7.33300030e-01]
  [9.77798157e+02 7.62729065e+02 8.95723999e-01]
  [1.04819250e+03 9.07020874e+02 8.08518946e-01]
  [1.00413763e+03 3.65334106e+02 9.57259119e-01]
  [1.02768286e+03 3.65513367e+02 9.19151127e-01]
  [0.00000000e+00 0.00000000e+00 0.00000000e+00]
  [1.05715149e+03 3.85907104e+02 7.68118024e-01]
  [1.04232910e+03 9.57089600e+02 8.29164088e-01]
  [1.05419971e+03 9.54075989e+02 7.87886918e-01]
  [1.06302380e+03 9.21772339e+02 6.13562226e-01]
  [9.68815369e+02 9.45212280e+02 7.86655843e-01]
  [9.74602051e+02 9.33470398e+02 7.96904683e-01]
  [1.02772815e+03 9.30652588e+02 6.98956907e-01]]]