[[[1.0217130e+03 4.5974402e+02 9.0864497e-01]
  [9.7469476e+02 5.5074402e+02 9.0817833e-01]
  [9.1583099e+02 5.5672571e+02 7.6727086e-01]
  [9.0110358e+02 6.6846173e+02 8.4917194e-01]
  [8.8065765e+02 7.5103650e+02 8.3011168e-01]
  [1.0276930e+03 5.3330701e+02 8.4514505e-01]
  [1.0454696e+03 6.4202948e+02 8.7233329e-01]
  [1.0747852e+03 7.2158435e+02 8.5055506e-01]
  [1.0011396e+03 7.0094745e+02 7.7102131e-01]
  [9.5995575e+02 7.0692639e+02 6.9798064e-01]
  [8.5998706e+02 7.8341199e+02 8.5779905e-01]
  [8.7175238e+02 9.3357458e+02 7.9763556e-01]
  [1.0423287e+03 6.9506042e+02 7.2737420e-01]
  [1.1158979e+03 7.6566669e+02 8.8195276e-01]
  [1.1189156e+03 9.3066779e+02 8.4884346e-01]
  [1.0041253e+03 4.5369275e+02 8.7063915e-01]
  [0.0000000e+00 0.0000000e+00 0.0000000e+00]
  [9.7457751e+02 4.6258246e+02 7.7886385e-01]
  [0.0000000e+00 0.0000000e+00 0.0000000e+00]
  [1.1218574e+03 9.7173212e+02 7.2943211e-01]
  [1.1424420e+03 9.6586255e+02 7.6413065e-01]
  [1.1130247e+03 9.4818854e+02 6.9704998e-01]
  [8.3050531e+02 9.6003107e+02 7.3186862e-01]
  [8.3038159e+02 9.5411646e+02 7.6161790e-01]
  [8.8356433e+02 9.5129315e+02 8.5583758e-01]]]