[[[1.1396523e+03 4.1271127e+02 9.7241306e-01]
  [1.1425682e+03 4.9201205e+02 8.7633997e-01]
  [1.0894824e+03 4.8910284e+02 8.3218855e-01]
  [1.0690306e+03 5.9507166e+02 8.6068714e-01]
  [1.0718469e+03 6.6563763e+02 8.8962519e-01]
  [1.2071353e+03 4.9495734e+02 8.0349940e-01]
  [1.2543159e+03 5.8031128e+02 8.7257224e-01]
  [1.2072689e+03 5.8625751e+02 8.4038669e-01]
  [1.1484258e+03 6.6869104e+02 7.7816314e-01]
  [1.1158325e+03 6.7145776e+02 8.0568039e-01]
  [1.0365723e+03 7.8921259e+02 8.8807410e-01]
  [1.0983578e+03 9.1882257e+02 8.1627470e-01]
  [1.1894611e+03 6.6866913e+02 7.9966551e-01]
  [1.1631641e+03 7.9222980e+02 9.0430617e-01]
  [1.2102834e+03 9.3045483e+02 9.0740204e-01]
  [1.1306460e+03 4.0671350e+02 8.8081521e-01]
  [1.1571636e+03 4.0670688e+02 8.7375987e-01]
  [1.1159926e+03 4.1264420e+02 2.9786289e-01]
  [1.1835924e+03 4.1265030e+02 7.5044334e-01]
  [1.1629879e+03 9.5113696e+02 8.2069796e-01]
  [1.1778285e+03 9.5406641e+02 7.8999585e-01]
  [1.2278832e+03 9.4529608e+02 8.2880795e-01]
  [1.0454072e+03 9.4231952e+02 8.0193394e-01]
  [1.0484003e+03 9.3070490e+02 8.0091369e-01]
  [1.1188849e+03 9.3048309e+02 8.5535371e-01]]]