[[[9.0712366e+02 3.6264587e+02 9.7139108e-01]
  [9.3069080e+02 4.1842886e+02 8.1477576e-01]
  [8.8638202e+02 4.2435275e+02 7.3318678e-01]
  [8.5114185e+02 3.3596075e+02 8.2795417e-01]
  [9.0395947e+02 2.9491306e+02 7.8228611e-01]
  [9.7778076e+02 4.1558060e+02 7.6033264e-01]
  [9.6590576e+02 3.3604697e+02 6.1225539e-01]
  [9.3646094e+02 2.9478918e+02 3.8575086e-01]
  [9.5423444e+02 6.1269226e+02 6.9233704e-01]
  [9.2177728e+02 6.1862256e+02 6.7509735e-01]
  [8.3335114e+02 7.6590118e+02 8.5129493e-01]
  [8.1581476e+02 9.3353876e+02 8.0280006e-01]
  [9.9534540e+02 6.0681177e+02 6.5024471e-01]
  [1.0423174e+03 7.8631543e+02 8.6074817e-01]
  [1.0748660e+03 9.3060107e+02 8.3812666e-01]
  [8.9816455e+02 3.5658569e+02 8.4169370e-01]
  [9.2754498e+02 3.4777176e+02 9.0346360e-01]
  [8.8352252e+02 3.6847623e+02 1.5676981e-01]
  [9.5411627e+02 3.6249094e+02 7.6275122e-01]
  [1.0953374e+03 9.6879315e+02 7.4956775e-01]
  [1.1130461e+03 9.5706622e+02 7.9086858e-01]
  [1.0717531e+03 9.4826917e+02 7.4437809e-01]
  [7.4809369e+02 9.6880878e+02 7.2992754e-01]
  [7.5107556e+02 9.5701825e+02 6.6596854e-01]
  [8.3627222e+02 9.5402142e+02 8.1065345e-01]]]