[[[1.01294641e+03 3.38944336e+02 9.18695986e-01]
  [1.01587622e+03 4.12613647e+02 8.44553351e-01]
  [9.71787781e+02 4.24372589e+02 7.77334273e-01]
  [9.51026123e+02 5.12671326e+02 7.50985086e-01]
  [9.27669800e+02 4.56628845e+02 8.67048621e-01]
  [1.05711658e+03 4.09486969e+02 8.16313982e-01]
  [1.14249023e+03 4.12479584e+02 8.21624398e-01]
  [1.21027771e+03 3.92050751e+02 7.72687435e-01]
  [9.92362915e+02 6.03828369e+02 7.42272377e-01]
  [9.57085632e+02 6.01031799e+02 7.44795740e-01]
  [9.42278564e+02 7.59875122e+02 8.49281192e-01]
  [9.71796448e+02 9.04143372e+02 8.27347696e-01]
  [1.02183026e+03 6.03936462e+02 7.41470993e-01]
  [1.01001648e+03 7.59813049e+02 8.62451494e-01]
  [1.05415955e+03 9.06957153e+02 8.43671322e-01]
  [1.00716351e+03 3.18554962e+02 9.03896332e-01]
  [1.03062195e+03 3.38858063e+02 8.96526456e-01]
  [0.00000000e+00 0.00000000e+00 0.00000000e+00]
  [1.04838879e+03 3.62474945e+02 8.55656028e-01]
  [9.89437988e+02 9.36505249e+02 7.32246816e-01]
  [1.00423346e+03 9.45251831e+02 7.24141121e-01]
  [1.07185498e+03 9.21738037e+02 8.36987197e-01]
  [9.33491394e+02 9.48209106e+02 7.56154537e-01]
  [9.27726624e+02 9.33508179e+02 7.49082804e-01]
  [9.83516724e+02 9.15809875e+02 7.30341256e-01]]]