[[[9.0692426e+02 3.3881711e+02 9.4897068e-01]
  [9.0718152e+02 4.0662585e+02 8.6902243e-01]
  [8.5704724e+02 4.0665161e+02 8.5308748e-01]
  [8.3627203e+02 4.5968951e+02 9.1658401e-01]
  [8.7760736e+02 3.9497015e+02 8.3670336e-01]
  [9.6297522e+02 4.0079865e+02 7.2668028e-01]
  [9.7467224e+02 4.1549850e+02 8.4093654e-01]
  [9.5405267e+02 3.6536810e+02 7.5477952e-01]
  [9.2171326e+02 6.0390698e+02 7.0649546e-01]
  [8.8334125e+02 6.0682184e+02 7.1465808e-01]
  [9.0409644e+02 7.8042157e+02 8.5893816e-01]
  [9.4814423e+02 9.3062671e+02 8.4611994e-01]
  [9.5421320e+02 6.0102197e+02 7.1213794e-01]
  [9.7173688e+02 7.6282788e+02 8.5659587e-01]
  [9.8651294e+02 9.3058612e+02 8.0215979e-01]
  [8.9228998e+02 3.2426385e+02 8.5282475e-01]
  [9.2461090e+02 3.2136569e+02 8.7579346e-01]
  [8.8048724e+02 3.4484573e+02 6.4807701e-01]
  [9.4818646e+02 3.4182986e+02 7.3650801e-01]
  [9.3056061e+02 9.5702795e+02 5.9670079e-01]
  [9.5118420e+02 9.6004907e+02 5.7551891e-01]
  [1.0012210e+03 9.5125385e+02 8.7140208e-01]
  [8.9817126e+02 9.6000519e+02 7.1226215e-01]
  [8.9816095e+02 9.5404736e+02 7.0354676e-01]
  [9.5425629e+02 9.5105066e+02 5.0961101e-01]]]