[[[0.00000000e+00 0.00000000e+00 0.00000000e+00]
  [9.98130737e+02 5.97929199e+02 7.29494393e-01]
  [9.30597351e+02 5.77434204e+02 6.79592848e-01]
  [9.21661987e+02 6.65720337e+02 7.53946662e-01]
  [9.03936523e+02 7.51027954e+02 8.32499027e-01]
  [1.05419543e+03 6.00880371e+02 7.13102520e-01]
  [1.06895288e+03 6.80420959e+02 8.66584182e-01]
  [1.08356799e+03 7.62658325e+02 8.47865999e-01]
  [1.01882416e+03 5.74435608e+02 5.02040267e-01]
  [9.74699951e+02 5.71506042e+02 3.95942420e-01]
  [9.54140137e+02 7.65822815e+02 8.13101232e-01]
  [9.51135010e+02 9.06964966e+02 8.33995998e-01]
  [1.05712903e+03 5.74504272e+02 4.59637642e-01]
  [1.01885889e+03 7.65872986e+02 7.99778223e-01]
  [1.02164307e+03 9.24616638e+02 8.00738692e-01]
  [0.00000000e+00 0.00000000e+00 0.00000000e+00]
  [0.00000000e+00 0.00000000e+00 0.00000000e+00]
  [9.60027466e+02 6.06790039e+02 1.22935116e-01]
  [1.00713361e+03 6.21420959e+02 1.94518894e-01]
  [1.00116663e+03 9.54261414e+02 7.29193807e-01]
  [1.02188525e+03 9.54259155e+02 7.68418849e-01]
  [1.01891443e+03 9.30671631e+02 6.23983085e-01]
  [9.48127869e+02 9.54132690e+02 7.58331895e-01]
  [9.30486694e+02 9.51102783e+02 7.41955996e-01]
  [9.54065308e+02 9.21675659e+02 6.65446281e-01]]]