[[[1.02172534e+03 4.12616974e+02 9.54222739e-01]
  [9.92399719e+02 4.80346924e+02 8.93774867e-01]
  [9.30493591e+02 4.77344696e+02 8.76993060e-01]
  [9.21699890e+02 5.59773682e+02 7.83038497e-01]
  [9.27631287e+02 6.45146423e+02 9.58243489e-01]
  [1.04822693e+03 4.83200745e+02 8.86811495e-01]
  [1.10420898e+03 5.30289001e+02 8.83045077e-01]
  [1.06875122e+03 5.77267029e+02 8.39199424e-01]
  [1.00112592e+03 6.45074463e+02 7.68685043e-01]
  [9.65937866e+02 6.45136475e+02 7.18162298e-01]
  [9.12886902e+02 7.68755615e+02 8.51111472e-01]
  [9.04194214e+02 9.18829773e+02 8.46127748e-01]
  [1.03651062e+03 6.44978027e+02 6.90056562e-01]
  [1.02469836e+03 7.80429993e+02 8.63501906e-01]
  [1.03944409e+03 9.09935242e+02 8.46086919e-01]
  [1.00413574e+03 4.03658142e+02 8.88997018e-01]
  [1.02771277e+03 4.06645538e+02 8.86091113e-01]
  [9.77663330e+02 4.09609619e+02 9.37500358e-01]
  [1.04532532e+03 4.12677856e+02 1.52759790e-01]
  [9.98212402e+02 9.30500244e+02 7.47730374e-01]
  [1.01880762e+03 9.33469360e+02 7.16302514e-01]
  [1.04823901e+03 9.27596558e+02 8.70336533e-01]
  [8.51107483e+02 9.36527771e+02 7.42976487e-01]
  [8.53979858e+02 9.30560242e+02 7.76253939e-01]
  [9.21682617e+02 9.33456543e+02 8.39088559e-01]]]