[[[9.5716785e+02 4.0083493e+02 8.6364901e-01]
  [9.7778674e+02 4.9783078e+02 8.6633271e-01]
  [9.2177496e+02 5.0372949e+02 8.5538983e-01]
  [8.5983160e+02 5.6850739e+02 8.9563620e-01]
  [8.1876251e+02 5.0690314e+02 8.4100902e-01]
  [1.0424420e+03 4.8332687e+02 8.5580361e-01]
  [1.1013401e+03 5.5684216e+02 8.2789075e-01]
  [1.1807314e+03 5.5387103e+02 8.3734667e-01]
  [9.7771033e+02 6.7153729e+02 7.2070312e-01]
  [9.3937311e+02 6.7743445e+02 6.3095921e-01]
  [9.0398645e+02 8.0989630e+02 7.3354506e-01]
  [9.7177826e+02 9.2468536e+02 7.8389716e-01]
  [1.0188240e+03 6.6855109e+02 6.5885234e-01]
  [9.0696289e+02 6.4809949e+02 9.3197846e-01]
  [9.0416162e+02 8.2171832e+02 7.5577646e-01]
  [9.5111121e+02 4.0073605e+02 8.4367537e-01]
  [9.7472882e+02 3.8918655e+02 9.4293356e-01]
  [9.3944885e+02 4.3319623e+02 7.0644391e-01]
  [1.0011138e+03 4.1841751e+02 8.1463778e-01]
  [8.6281445e+02 8.5109070e+02 5.4829544e-01]
  [8.7170215e+02 8.5401685e+02 6.1436415e-01]
  [9.1294263e+02 8.3637848e+02 5.6622177e-01]
  [9.2178021e+02 9.3939966e+02 7.2656870e-01]
  [9.2471185e+02 9.3072662e+02 7.0254159e-01]
  [9.8357959e+02 9.3063635e+02 7.3689479e-01]]]