[[[1.00706659e+03 3.09541534e+02 8.28558803e-01]
  [9.68748352e+02 3.89061615e+02 8.77900362e-01]
  [9.04078735e+02 3.89016174e+02 8.58265579e-01]
  [8.59970032e+02 4.80178650e+02 9.18814361e-01]
  [8.09958069e+02 5.53895447e+02 9.28015232e-01]
  [1.02768726e+03 3.91898865e+02 8.51581752e-01]
  [1.06294629e+03 4.83064392e+02 9.07335758e-01]
  [1.00409601e+03 5.50716003e+02 8.81745398e-01]
  [9.57098511e+02 5.56847595e+02 7.47426391e-01]
  [9.24706970e+02 5.56811401e+02 7.34278560e-01]
  [9.15868286e+02 7.45141296e+02 8.30104887e-01]
  [9.07114136e+02 9.07055847e+02 8.83223236e-01]
  [9.98268555e+02 5.59715210e+02 7.56274462e-01]
  [9.80676941e+02 6.83309937e+02 7.98367441e-01]
  [9.98221008e+02 8.27491516e+02 8.18429112e-01]
  [9.95224609e+02 2.94896332e+02 9.01635945e-01]
  [1.00999969e+03 2.97772064e+02 4.59982872e-01]
  [9.54070251e+02 3.15470947e+02 8.90294790e-01]
  [0.00000000e+00 0.00000000e+00 0.00000000e+00]
  [1.00128040e+03 8.77495056e+02 7.48398542e-01]
  [1.02170557e+03 8.62883911e+02 7.62971699e-01]
  [9.89444275e+02 8.33501526e+02 6.68319523e-01]
  [8.92368774e+02 9.57087952e+02 8.02503824e-01]
  [8.80470825e+02 9.51242981e+02 8.37573111e-01]
  [9.24640991e+02 9.18830383e+02 7.66441345e-01]]]