[[[9.8067407e+02 3.1530444e+02 9.1636527e-01]
  [9.7777570e+02 3.8594110e+02 9.2370456e-01]
  [9.2753809e+02 3.8597653e+02 8.6527783e-01]
  [8.7747046e+02 3.8314719e+02 8.7916589e-01]
  [9.0708405e+02 3.1539548e+02 8.8646972e-01]
  [1.0335872e+03 3.8599808e+02 8.3888280e-01]
  [1.0925520e+03 3.8305420e+02 8.8152909e-01]
  [1.0836418e+03 2.8888290e+02 7.5560892e-01]
  [9.9833960e+02 5.7439081e+02 7.6194614e-01]
  [9.5709247e+02 5.7448376e+02 7.0655656e-01]
  [9.3351715e+02 7.5978986e+02 8.6008447e-01]
  [9.5401514e+02 9.0698370e+02 8.6866343e-01]
  [1.0395009e+03 5.7435016e+02 6.7567611e-01]
  [1.0484150e+03 7.5986517e+02 8.6992168e-01]
  [1.0689977e+03 9.0115320e+02 8.4115940e-01]
  [9.6888226e+02 3.0066287e+02 8.7531149e-01]
  [9.9829877e+02 3.0067896e+02 9.2949975e-01]
  [9.4824689e+02 3.1830655e+02 8.1312591e-01]
  [1.0188181e+03 3.1847211e+02 8.1362510e-01]
  [1.0719668e+03 9.5408429e+02 8.4457469e-01]
  [1.0954126e+03 9.4823444e+02 8.0504286e-01]
  [1.0630027e+03 9.0997321e+02 6.8588722e-01]
  [9.2757855e+02 9.5420868e+02 7.5893629e-01]
  [9.1293732e+02 9.5102234e+02 7.4031186e-01]
  [9.7178467e+02 9.1591748e+02 7.4425578e-01]]]