[[[9.5427966e+02 3.8315179e+02 9.2179650e-01]
  [9.5707025e+02 4.5669412e+02 9.1553640e-01]
  [9.0413013e+02 4.5669043e+02 9.2552352e-01]
  [8.9527319e+02 5.4201825e+02 8.1601518e-01]
  [9.1585956e+02 4.8620990e+02 8.3130085e-01]
  [1.0187838e+03 4.5677454e+02 8.7770468e-01]
  [1.0249211e+03 5.4792255e+02 8.6559278e-01]
  [9.9809473e+02 6.1854901e+02 8.7230337e-01]
  [9.5426471e+02 6.2157855e+02 7.6093102e-01]
  [9.2466327e+02 6.2440454e+02 7.2782826e-01]
  [9.3646985e+02 7.8646442e+02 8.2472682e-01]
  [9.6878583e+02 9.1293408e+02 7.6250905e-01]
  [9.9534125e+02 6.2155444e+02 7.3249722e-01]
  [9.8056598e+02 7.6589166e+02 8.5406244e-01]
  [9.5403674e+02 9.2171558e+02 7.9193348e-01]
  [9.4819006e+02 3.6840344e+02 9.1385663e-01]
  [9.7462549e+02 3.6843164e+02 9.2169183e-01]
  [9.2769904e+02 3.8600974e+02 9.0737927e-01]
  [9.8944293e+02 3.8612839e+02 7.9469937e-01]
  [9.3651941e+02 9.5402759e+02 6.3717467e-01]
  [9.5703748e+02 9.5415918e+02 6.9780141e-01]
  [9.4815521e+02 9.3641028e+02 5.4207605e-01]
  [9.6290540e+02 9.5401270e+02 4.7791421e-01]
  [9.4822443e+02 9.5111084e+02 5.1321912e-01]
  [9.7757892e+02 9.3046558e+02 5.4361635e-01]]]