[[[9.98296265e+02 3.68394012e+02 9.37173545e-01]
  [9.74677063e+02 4.56794128e+02 9.16178584e-01]
  [9.07028015e+02 4.59611908e+02 8.21998000e-01]
  [8.09906799e+02 4.80103149e+02 8.09750795e-01]
  [7.18637390e+02 4.86091156e+02 8.68387341e-01]
  [1.04232996e+03 4.56650055e+02 8.28186750e-01]
  [1.12189563e+03 4.56637573e+02 8.08128417e-01]
  [1.22489795e+03 4.59553772e+02 8.39897454e-01]
  [9.98159058e+02 6.42176147e+02 7.90736675e-01]
  [9.54202209e+02 6.42177979e+02 7.70836055e-01]
  [9.36509399e+02 7.86291626e+02 8.65957737e-01]
  [9.57070129e+02 9.24708435e+02 8.42285931e-01]
  [1.03354211e+03 6.42157166e+02 6.99310899e-01]
  [1.02188739e+03 7.86257385e+02 9.03523326e-01]
  [9.98363464e+02 9.24695923e+02 8.91128540e-01]
  [9.80629333e+02 3.62402191e+02 9.11244750e-01]
  [1.00127203e+03 3.62517883e+02 9.16558325e-01]
  [9.51249329e+02 3.74244507e+02 8.43434691e-01]
  [0.00000000e+00 0.00000000e+00 0.00000000e+00]
  [9.89392517e+02 9.60033813e+02 7.40214825e-01]
  [1.00423877e+03 9.57021118e+02 8.29655349e-01]
  [9.98225891e+02 9.30638062e+02 7.40636051e-01]
  [9.54076355e+02 9.59970703e+02 7.11109698e-01]
  [9.36411926e+02 9.54218567e+02 7.31178582e-01]
  [9.68866272e+02 9.30635559e+02 6.98070347e-01]]]