[[[9.48270691e+02 5.36237366e+02 8.71889353e-01]
  [9.71804565e+02 6.27374451e+02 8.88503194e-01]
  [9.04187073e+02 6.39144958e+02 8.32030416e-01]
  [8.86362366e+02 7.36207031e+02 8.42302620e-01]
  [8.30426025e+02 7.62754211e+02 8.41469407e-01]
  [1.03066858e+03 6.21644836e+02 8.56548429e-01]
  [1.06601709e+03 7.18647949e+02 8.71875763e-01]
  [1.09546716e+03 8.09750061e+02 8.76348376e-01]
  [9.71830933e+02 7.92321472e+02 7.90085495e-01]
  [9.27679626e+02 7.92190552e+02 7.90955305e-01]
  [8.15893738e+02 8.09951599e+02 9.09117341e-01]
  [8.89418701e+02 9.27589050e+02 8.23224306e-01]
  [1.01591516e+03 7.95181641e+02 7.33303666e-01]
  [1.11589673e+03 8.62894104e+02 8.79782736e-01]
  [1.02187946e+03 9.18737427e+02 8.33113194e-01]
  [9.30718811e+02 5.27420959e+02 9.28022921e-01]
  [9.60023743e+02 5.27318604e+02 8.83305728e-01]
  [9.24660400e+02 5.47965149e+02 3.59344095e-01]
  [9.89436890e+02 5.44934998e+02 7.45813489e-01]
  [1.05124988e+03 9.62919678e+02 8.21160316e-01]
  [1.06295178e+03 9.54017090e+02 8.24711442e-01]
  [1.00117578e+03 9.15899719e+02 7.82557487e-01]
  [8.45254211e+02 9.57165405e+02 7.39624918e-01]
  [8.48148499e+02 9.51276367e+02 7.48243511e-01]
  [9.10048950e+02 9.33448975e+02 8.00978720e-01]]]