[[[1.01879584e+03 3.59470734e+02 8.88603210e-01]
  [1.01595337e+03 4.39065796e+02 8.44422042e-01]
  [9.60047058e+02 4.36157990e+02 8.34264815e-01]
  [8.83371338e+02 4.71387634e+02 8.67173374e-01]
  [8.12960022e+02 4.42062225e+02 8.41167808e-01]
  [1.06888489e+03 4.44886292e+02 8.28077078e-01]
  [1.11603662e+03 5.24426086e+02 8.79875422e-01]
  [1.12774585e+03 4.56788147e+02 8.26479673e-01]
  [1.01000433e+03 6.27431519e+02 7.49123335e-01]
  [9.80633911e+02 6.24484619e+02 7.65527308e-01]
  [8.71720947e+02 7.15684265e+02 8.70699048e-01]
  [9.15866455e+02 8.56881409e+02 7.92662799e-01]
  [1.03944788e+03 6.33304260e+02 6.96390212e-01]
  [1.00120532e+03 7.80393372e+02 8.86816859e-01]
  [1.05419250e+03 9.27510010e+02 8.33352029e-01]
  [1.01303021e+03 3.41819885e+02 9.30071831e-01]
  [1.03647424e+03 3.53684814e+02 8.55508089e-01]
  [9.98159729e+02 3.56636993e+02 6.00513071e-02]
  [1.05136572e+03 3.80202789e+02 7.98389971e-01]
  [9.92412903e+02 9.48243103e+02 7.96309769e-01]
  [1.00714142e+03 9.54048340e+02 8.06444824e-01]
  [1.07191296e+03 9.36503784e+02 8.09975922e-01]
  [9.04041016e+02 9.12900330e+02 6.90392494e-01]
  [8.89359314e+02 9.06964661e+02 6.51482522e-01]
  [9.33509644e+02 8.57084167e+02 7.64578581e-01]]]