[[[9.6589252e+02 5.0079941e+02 3.1126997e-01]
  [9.7457941e+02 5.0075235e+02 8.5864568e-01]
  [9.0690863e+02 5.0672192e+02 8.3725607e-01]
  [9.1583215e+02 6.0091742e+02 7.7463859e-01]
  [9.2772406e+02 7.1281244e+02 8.3440691e-01]
  [1.0365620e+03 4.8608359e+02 8.1553018e-01]
  [1.0454512e+03 5.8621094e+02 8.2841784e-01]
  [1.0630267e+03 6.7743030e+02 8.1872559e-01]
  [1.0013468e+03 6.4799030e+02 7.1988225e-01]
  [9.6004370e+02 6.5386633e+02 6.7754412e-01]
  [8.8349042e+02 7.8331714e+02 8.4724003e-01]
  [8.7462531e+02 9.3643372e+02 7.7985001e-01]
  [1.0454547e+03 6.4499738e+02 7.0824164e-01]
  [1.0952596e+03 7.7752106e+02 8.3482695e-01]
  [1.1160680e+03 9.3055621e+02 8.6305708e-01]
  [9.5110242e+02 4.8610605e+02 3.0084282e-01]
  [9.7756848e+02 4.8020401e+02 3.4552062e-01]
  [9.2458313e+02 4.6849680e+02 3.2404613e-01]
  [9.9831433e+02 4.3902805e+02 7.6611346e-01]
  [1.1247808e+03 9.6887610e+02 7.1083772e-01]
  [1.1425083e+03 9.5995490e+02 7.7299339e-01]
  [1.1071486e+03 9.4817957e+02 6.4820719e-01]
  [8.2760162e+02 9.6593237e+02 7.3174423e-01]
  [8.2463617e+02 9.5419305e+02 7.5414461e-01]
  [8.8352490e+02 9.5406525e+02 8.3658451e-01]]]