[[[8.1878253e+02 3.3896991e+02 9.2738062e-01]
  [8.3038599e+02 4.1553818e+02 8.5145456e-01]
  [7.8329010e+02 4.2141699e+02 7.7475059e-01]
  [7.2158624e+02 5.0389240e+02 8.9160895e-01]
  [7.2452948e+02 4.5080182e+02 8.4402502e-01]
  [8.7761255e+02 4.1259360e+02 8.4973013e-01]
  [9.4529065e+02 4.7429138e+02 8.0926639e-01]
  [1.0158553e+03 4.4790738e+02 7.8963345e-01]
  [8.3927698e+02 5.8327277e+02 6.4859390e-01]
  [8.2164471e+02 5.8911786e+02 6.0494244e-01]
  [8.5392401e+02 7.4515472e+02 7.7837038e-01]
  [8.2751343e+02 9.1006305e+02 7.7522039e-01]
  [8.5990057e+02 5.8033844e+02 6.0380948e-01]
  [8.4517389e+02 7.4519171e+02 7.3239094e-01]
  [7.8918231e+02 8.8941638e+02 7.8207862e-01]
  [8.0111255e+02 3.3609052e+02 8.9096081e-01]
  [8.2464911e+02 3.2143048e+02 8.1941652e-01]
  [7.7755054e+02 3.6238629e+02 8.3498156e-01]
  [0.0000000e+00 0.0000000e+00 0.0000000e+00]
  [8.3335223e+02 9.2774304e+02 1.0408864e-01]
  [8.3648132e+02 9.3062225e+02 5.5813432e-02]
  [7.6874231e+02 9.0409253e+02 7.9643905e-01]
  [8.7170654e+02 9.5125098e+02 7.8609538e-01]
  [8.5403851e+02 9.5409998e+02 7.7533537e-01]
  [8.0988940e+02 9.2757965e+02 7.1617675e-01]]]