[[[1.12485779e+03 3.39010925e+02 9.15351212e-01]
  [1.14259106e+03 4.33058960e+02 9.08526897e-01]
  [1.08651245e+03 4.35991150e+02 7.91707456e-01]
  [1.01586487e+03 5.30446289e+02 8.21456194e-01]
  [1.05421130e+03 4.80216095e+02 8.52751732e-01]
  [1.20431128e+03 4.24335144e+02 7.25551784e-01]
  [1.31320972e+03 4.30137878e+02 8.38778257e-01]
  [1.23361621e+03 4.15584961e+02 8.47645819e-01]
  [1.14238318e+03 6.21607605e+02 7.96714604e-01]
  [1.09836230e+03 6.21535034e+02 7.35234559e-01]
  [1.09844312e+03 7.83453674e+02 8.49272490e-01]
  [1.07193652e+03 9.33587219e+02 8.31880033e-01]
  [1.18373096e+03 6.24437866e+02 7.54616797e-01]
  [1.28960242e+03 7.42324280e+02 8.44883442e-01]
  [1.29549207e+03 9.09953979e+02 7.64231145e-01]
  [1.11586365e+03 3.35962921e+02 8.93426120e-01]
  [1.13955884e+03 3.30170319e+02 8.76498640e-01]
  [1.09541248e+03 3.59578400e+02 8.31486166e-01]
  [1.16297803e+03 3.53714325e+02 7.29124725e-01]
  [1.32499756e+03 9.71670959e+02 7.05353320e-01]
  [1.33374438e+03 9.54163147e+02 7.37069905e-01]
  [1.27495361e+03 9.27506165e+02 7.02003002e-01]
  [1.09241394e+03 9.74658936e+02 8.19218993e-01]
  [1.06893433e+03 9.71834473e+02 8.04851711e-01]
  [1.06894873e+03 9.51128174e+02 7.39905596e-01]]]