[[[1.03071021e+03 3.53640900e+02 8.52465987e-01]
  [1.01000281e+03 4.33119049e+02 8.59509826e-01]
  [9.71711182e+02 4.09473602e+02 8.15039337e-01]
  [8.98227234e+02 3.53662445e+02 7.36121595e-01]
  [9.04192688e+02 4.09571686e+02 9.17115569e-01]
  [1.05119763e+03 4.59580719e+02 7.94807434e-01]
  [1.05127563e+03 5.62620056e+02 6.97352469e-01]
  [1.03068677e+03 6.06794189e+02 7.68460512e-01]
  [9.80699829e+02 6.21482056e+02 7.03054786e-01]
  [9.51095825e+02 6.18602539e+02 6.78504944e-01]
  [9.04017822e+02 7.95162964e+02 8.72183919e-01]
  [8.56958313e+02 9.33573303e+02 8.37777793e-01]
  [1.02173065e+03 6.21582336e+02 7.16740370e-01]
  [1.11903674e+03 7.06923828e+02 8.38092327e-01]
  [1.13957007e+03 8.68767151e+02 8.38506401e-01]
  [1.01885071e+03 3.42055969e+02 9.17553961e-01]
  [1.04521887e+03 3.41959259e+02 9.40242112e-01]
  [9.95302490e+02 3.65431915e+02 8.60319436e-01]
  [1.05135144e+03 3.68432251e+02 1.74721807e-01]
  [1.19254993e+03 9.07128662e+02 7.10615933e-01]
  [1.19545044e+03 9.01046936e+02 6.82059050e-01]
  [1.11904785e+03 8.83527588e+02 7.84007013e-01]
  [8.39411804e+02 9.74558167e+02 7.55225539e-01]
  [8.27540527e+02 9.60070190e+02 7.55093455e-01]
  [8.59892334e+02 9.51287354e+02 7.56333590e-01]]]