[[[1.2132332e+03 3.5372208e+02 8.7747383e-01]
  [1.2132815e+03 4.4496481e+02 8.7451136e-01]
  [1.1571892e+03 4.4788632e+02 8.0796105e-01]
  [1.1689232e+03 5.3915643e+02 8.3941817e-01]
  [1.2602281e+03 5.3017914e+02 8.1539685e-01]
  [1.2808418e+03 4.4200070e+02 8.7261528e-01]
  [1.2778490e+03 5.3035016e+02 8.5927534e-01]
  [1.1867272e+03 5.3032111e+02 7.4646586e-01]
  [1.2132792e+03 6.2453766e+02 7.8258443e-01]
  [1.1719219e+03 6.2454980e+02 7.3130578e-01]
  [1.1248733e+03 7.8646948e+02 8.4919059e-01]
  [1.0718060e+03 9.3065356e+02 8.6354595e-01]
  [1.2601677e+03 6.2452960e+02 7.8794992e-01]
  [1.3131553e+03 7.8924664e+02 8.6093062e-01]
  [1.3307279e+03 9.3346375e+02 8.5842580e-01]
  [1.2042910e+03 3.3911230e+02 9.0940499e-01]
  [1.2336832e+03 3.4183755e+02 9.5015097e-01]
  [1.1864636e+03 3.6238818e+02 7.7425182e-01]
  [1.2542957e+03 3.6248767e+02 8.4948123e-01]
  [1.3574064e+03 9.7173383e+02 7.0888215e-01]
  [1.3748895e+03 9.5715668e+02 7.5662780e-01]
  [1.3132637e+03 9.5126569e+02 7.8474575e-01]
  [1.0719540e+03 9.7466296e+02 7.5923562e-01]
  [1.0512393e+03 9.6592932e+02 7.0787686e-01]
  [1.0689122e+03 9.4527655e+02 6.6781676e-01]]]