[[[8.3935638e+02 3.3894373e+02 9.2870378e-01]
  [8.0109399e+02 4.1253702e+02 8.7158984e-01]
  [7.4218616e+02 4.0079437e+02 8.2243216e-01]
  [6.9514130e+02 2.8016122e+02 8.4769762e-01]
  [6.5390222e+02 2.1539299e+02 8.2707876e-01]
  [8.5700708e+02 4.3016336e+02 8.5626000e-01]
  [8.7756146e+02 5.1268085e+02 7.9313368e-01]
  [8.6878162e+02 5.8623669e+02 7.8812271e-01]
  [7.7754089e+02 6.1566217e+02 6.9022018e-01]
  [7.3337415e+02 6.0684528e+02 6.6165215e-01]
  [6.8920697e+02 7.8346344e+02 8.6933708e-01]
  [6.4217584e+02 9.3641656e+02 8.1911027e-01]
  [8.2170605e+02 6.2149628e+02 6.9999075e-01]
  [8.9234644e+02 7.6568896e+02 8.4230065e-01]
  [8.8351593e+02 9.3939606e+02 8.1630832e-01]
  [8.3329797e+02 3.1844983e+02 9.4861090e-01]
  [8.5407983e+02 3.3302896e+02 8.3331633e-01]
  [7.8946075e+02 3.2140472e+02 8.3728755e-01]
  [0.0000000e+00 0.0000000e+00 0.0000000e+00]
  [9.5119482e+02 9.7758350e+02 6.7863488e-01]
  [9.5110339e+02 9.6586078e+02 6.1668414e-01]
  [8.6005042e+02 9.5424396e+02 7.7811670e-01]
  [6.3624377e+02 9.7456012e+02 7.4397635e-01]
  [6.1567859e+02 9.6585278e+02 7.4403793e-01]
  [6.4507727e+02 9.5408752e+02 7.4029863e-01]]]