[[[1.0306785e+03 3.1555441e+02 9.0744364e-01]
  [1.0394845e+03 4.0962521e+02 8.6451197e-01]
  [9.9534851e+02 4.0962677e+02 7.7750778e-01]
  [9.9831305e+02 3.6552414e+02 2.0658235e-01]
  [0.0000000e+00 0.0000000e+00 0.0000000e+00]
  [1.0806733e+03 4.0959827e+02 8.2328677e-01]
  [1.1719436e+03 4.0076712e+02 8.1400478e-01]
  [1.1365775e+03 3.1547107e+02 8.8855064e-01]
  [1.0276488e+03 5.9801282e+02 7.5388694e-01]
  [9.9528986e+02 5.9797589e+02 7.2448587e-01]
  [9.3939417e+02 7.4519141e+02 8.3076757e-01]
  [8.5998932e+02 8.8933472e+02 8.2534367e-01]
  [1.0687993e+03 5.9805023e+02 7.4009836e-01]
  [1.0747854e+03 7.6272449e+02 8.8142788e-01]
  [1.0690052e+03 9.2463458e+02 8.7777424e-01]
  [1.0129319e+03 3.1547305e+02 8.9942837e-01]
  [1.0248721e+03 3.0951715e+02 5.0923902e-01]
  [9.8060559e+02 3.4779272e+02 7.7632248e-01]
  [0.0000000e+00 0.0000000e+00 0.0000000e+00]
  [1.1012711e+03 9.6877234e+02 7.4783272e-01]
  [1.1158923e+03 9.5418323e+02 8.2465595e-01]
  [1.0512380e+03 9.3345544e+02 8.3737028e-01]
  [8.6290698e+02 9.5400305e+02 7.9693031e-01]
  [8.4521521e+02 9.4812231e+02 7.2639251e-01]
  [8.5398450e+02 8.9526440e+02 6.6292554e-01]]]