[[[9.89452454e+02 3.44958496e+02 8.70547771e-01]
  [9.74824463e+02 4.33160431e+02 9.36305165e-01]
  [9.24640320e+02 4.36158569e+02 8.54062617e-01]
  [8.80530090e+02 3.97856018e+02 8.78559470e-01]
  [8.62869812e+02 3.18327118e+02 8.80484223e-01]
  [1.02771521e+03 4.30192413e+02 8.09293509e-01]
  [1.09245703e+03 4.09557983e+02 9.05915141e-01]
  [1.10129468e+03 3.35999237e+02 8.58063698e-01]
  [9.68870850e+02 6.18521301e+02 7.09553182e-01]
  [9.27674561e+02 6.15658813e+02 7.23077834e-01]
  [8.86498352e+02 7.74552368e+02 8.36219013e-01]
  [8.54018494e+02 9.30699280e+02 8.43310416e-01]
  [1.00705933e+03 6.18547058e+02 6.88469708e-01]
  [1.04844055e+03 7.89170715e+02 8.89574289e-01]
  [1.09554456e+03 9.30712891e+02 8.38676989e-01]
  [9.77663269e+02 3.38993652e+02 9.69013572e-01]
  [1.00133813e+03 3.44803772e+02 8.96929741e-01]
  [9.54108276e+02 3.59603302e+02 8.74689817e-01]
  [1.01874097e+03 3.77183777e+02 8.04450274e-01]
  [1.13943030e+03 9.65930115e+02 7.31524169e-01]
  [1.14262537e+03 9.54167908e+02 7.89785266e-01]
  [1.09232312e+03 9.54071411e+02 8.27370763e-01]
  [8.45230591e+02 9.68798645e+02 7.35151827e-01]
  [8.27596130e+02 9.57164246e+02 7.64695227e-01]
  [8.57006531e+02 9.51142456e+02 7.76354253e-01]]]