[[[9.77673218e+02 3.65479309e+02 9.58003402e-01]
  [9.74808411e+02 4.59763367e+02 9.30669785e-01]
  [9.10013367e+02 4.56812317e+02 8.58960569e-01]
  [8.80598022e+02 5.47965515e+02 9.11664128e-01]
  [9.04032532e+02 6.09752319e+02 8.98519576e-01]
  [1.03648987e+03 4.65548431e+02 7.75668740e-01]
  [1.09234131e+03 5.30284668e+02 8.20785522e-01]
  [1.07188525e+03 4.80361389e+02 7.83290148e-01]
  [9.71745667e+02 6.36262634e+02 7.70772815e-01]
  [9.27741516e+02 6.36265564e+02 7.86874235e-01]
  [9.07109314e+02 7.89290100e+02 9.06109333e-01]
  [8.83403748e+02 9.27558960e+02 8.94373894e-01]
  [1.01000464e+03 6.36256104e+02 7.33583272e-01]
  [1.10426453e+03 7.15787903e+02 8.58480573e-01]
  [1.09229688e+03 8.60005737e+02 8.46993744e-01]
  [9.65905884e+02 3.62380859e+02 8.78540993e-01]
  [9.95348083e+02 3.62433380e+02 9.16305900e-01]
  [9.48194824e+02 3.85938049e+02 8.36793900e-01]
  [1.01005786e+03 3.86034210e+02 8.05202127e-01]
  [1.11601929e+03 9.24569580e+02 7.27009058e-01]
  [1.12198853e+03 9.07105164e+02 7.12116838e-01]
  [1.06898010e+03 8.71665771e+02 7.48397410e-01]
  [8.80412598e+02 9.54063538e+02 8.14896822e-01]
  [8.59815613e+02 9.51102661e+02 8.37673366e-01]
  [8.86459290e+02 9.36533020e+02 7.05006063e-01]]]