[[[9.5398334e+02 3.8590063e+02 9.0234673e-01]
  [9.9536792e+02 4.3912683e+02 7.1717930e-01]
  [9.9534753e+02 4.3617883e+02 6.5460396e-01]
  [9.0419061e+02 4.8310883e+02 9.1288114e-01]
  [8.5989221e+02 4.3021494e+02 8.3763313e-01]
  [9.9527039e+02 4.4493588e+02 7.7394837e-01]
  [9.6879822e+02 5.4786517e+02 8.4539592e-01]
  [9.2460962e+02 5.9798480e+02 8.8052952e-01]
  [9.7175439e+02 6.2445508e+02 6.6075766e-01]
  [9.5417322e+02 6.2158112e+02 6.3920480e-01]
  [9.4813684e+02 7.7166931e+02 7.8144830e-01]
  [9.7782239e+02 9.1590552e+02 7.9173505e-01]
  [9.7774182e+02 6.2453534e+02 6.8203896e-01]
  [9.7774811e+02 7.8924640e+02 9.0548235e-01]
  [1.0100170e+03 9.3940692e+02 7.8166366e-01]
  [0.0000000e+00 0.0000000e+00 0.0000000e+00]
  [9.6298761e+02 3.7137347e+02 7.8185403e-01]
  [0.0000000e+00 0.0000000e+00 0.0000000e+00]
  [9.9521729e+02 3.8595227e+02 7.8627700e-01]
  [9.5411102e+02 9.5110114e+02 7.9219353e-01]
  [9.7179535e+02 9.5701160e+02 7.2036296e-01]
  [1.0247266e+03 9.5703821e+02 8.0149376e-01]
  [9.4233374e+02 9.3351276e+02 6.5864521e-01]
  [9.4239362e+02 9.3053088e+02 5.8974326e-01]
  [9.8939081e+02 9.3045862e+02 3.1927991e-01]]]