[[[1.1629243e+03 3.6844763e+02 9.0345293e-01]
  [1.1277190e+03 4.3024716e+02 8.1308699e-01]
  [1.0835862e+03 4.3316486e+02 8.0892217e-01]
  [1.0689008e+03 3.2142233e+02 8.6689734e-01]
  [1.0452190e+03 2.5656555e+02 8.3733189e-01]
  [1.1690310e+03 4.3011414e+02 7.4741662e-01]
  [1.2013455e+03 3.5667401e+02 7.7452278e-01]
  [1.2366246e+03 2.9490134e+02 8.8533622e-01]
  [1.1366246e+03 6.2147162e+02 7.0566404e-01]
  [1.1159921e+03 6.2156232e+02 6.8068939e-01]
  [1.1631814e+03 7.7454492e+02 8.2923031e-01]
  [1.0483604e+03 8.6880945e+02 7.8464186e-01]
  [1.1571891e+03 6.2142108e+02 6.2228346e-01]
  [1.1424882e+03 7.8330487e+02 7.7778816e-01]
  [1.1159823e+03 9.1586127e+02 8.0572087e-01]
  [1.1425399e+03 3.6237555e+02 9.3029118e-01]
  [1.1660302e+03 3.6253467e+02 9.2912865e-01]
  [1.1158302e+03 3.6553342e+02 7.7850598e-01]
  [0.0000000e+00 0.0000000e+00 0.0000000e+00]
  [1.1425933e+03 9.5400092e+02 6.6519970e-01]
  [1.1425219e+03 9.5104358e+02 6.4953798e-01]
  [1.0983269e+03 9.3045410e+02 7.4327117e-01]
  [1.0659480e+03 9.2757587e+02 7.6862013e-01]
  [1.0424484e+03 9.1878827e+02 6.6461849e-01]
  [1.0277720e+03 8.6289734e+02 6.4260995e-01]]]