[[[8.5392450e+02 3.6264069e+02 9.3300009e-01]
  [7.9521527e+02 4.3019778e+02 8.5070813e-01]
  [7.4214471e+02 4.0955539e+02 8.6838198e-01]
  [7.1852765e+02 2.7712988e+02 7.2234297e-01]
  [6.9814380e+02 2.0654532e+02 8.1764698e-01]
  [8.5686084e+02 4.5082611e+02 8.4801507e-01]
  [8.7763519e+02 5.4792505e+02 8.7156850e-01]
  [8.3936395e+02 6.2151416e+02 8.9264870e-01]
  [7.6578436e+02 6.2155139e+02 7.3857522e-01]
  [7.2458911e+02 6.1852026e+02 6.5157926e-01]
  [6.8334821e+02 7.8917255e+02 8.3778930e-01]
  [6.4202570e+02 9.3649463e+02 7.9993832e-01]
  [8.0984741e+02 6.2737183e+02 7.2693443e-01]
  [9.0692120e+02 7.6286066e+02 8.9351618e-01]
  [8.8066205e+02 9.4525739e+02 8.2505631e-01]
  [8.3649579e+02 3.4488147e+02 9.2621464e-01]
  [8.5704938e+02 3.5946497e+02 7.2362399e-01]
  [8.0102478e+02 3.4204587e+02 8.2509500e-01]
  [0.0000000e+00 0.0000000e+00 0.0000000e+00]
  [9.5406390e+02 9.7474030e+02 6.8932891e-01]
  [9.4821332e+02 9.6298340e+02 5.9052205e-01]
  [8.5990137e+02 9.5995392e+02 7.8993398e-01]
  [6.3919714e+02 9.7180695e+02 7.5762939e-01]
  [6.1850690e+02 9.6590308e+02 7.5204307e-01]
  [6.4216815e+02 9.5413843e+02 6.9961518e-01]]]