[[[7.3629303e+02 4.1558896e+02 8.9192021e-01]
  [7.6585242e+02 4.8332297e+02 8.4472072e-01]
  [7.3934821e+02 4.8311740e+02 7.8800803e-01]
  [7.0978052e+02 5.5093396e+02 3.6708954e-01]
  [6.7162238e+02 5.3323370e+02 6.9111758e-01]
  [7.9522961e+02 4.8619632e+02 7.9381090e-01]
  [7.9812506e+02 5.9500598e+02 8.0639577e-01]
  [7.8328497e+02 6.8621558e+02 8.1532800e-01]
  [6.8623169e+02 6.4212488e+02 6.5834481e-01]
  [6.9509271e+02 6.4505933e+02 5.9469414e-01]
  [6.5104211e+02 7.9234131e+02 7.8019488e-01]
  [7.2450500e+02 9.3071295e+02 7.8982431e-01]
  [6.7164404e+02 6.3918719e+02 5.7134408e-01]
  [5.7749530e+02 7.6871387e+02 8.3968115e-01]
  [5.0383258e+02 9.2766022e+02 8.9414990e-01]
  [7.2165729e+02 4.0961505e+02 9.1726935e-01]
  [7.4508392e+02 4.0944427e+02 8.9372504e-01]
  [0.0000000e+00 0.0000000e+00 0.0000000e+00]
  [7.8044476e+02 4.0974008e+02 7.5857484e-01]
  [4.4494400e+02 9.4231702e+02 7.0595932e-01]
  [4.5954584e+02 9.5107471e+02 8.1931347e-01]
  [5.1264825e+02 9.4820917e+02 7.7377093e-01]
  [6.7743958e+02 9.4230804e+02 6.9212532e-01]
  [6.8917578e+02 9.3355060e+02 6.4631194e-01]
  [7.4218927e+02 9.5110089e+02 7.9647833e-01]]]