[[[1.0247953e+03 3.6245905e+02 9.3382335e-01]
  [1.0276737e+03 4.3615073e+02 8.8492841e-01]
  [9.7472198e+02 4.5658905e+02 8.4455335e-01]
  [9.3055823e+02 5.5387170e+02 8.8924962e-01]
  [9.6879144e+02 5.0084570e+02 8.0162746e-01]
  [1.0865396e+03 4.2430164e+02 7.6362962e-01]
  [1.1130516e+03 3.1542953e+02 8.3734179e-01]
  [1.0983364e+03 2.2419185e+02 8.7658799e-01]
  [1.0158899e+03 5.9790845e+02 6.8206578e-01]
  [9.7470111e+02 5.9804205e+02 7.1051615e-01]
  [9.7475555e+02 7.8629492e+02 8.9928651e-01]
  [9.8942468e+02 9.3056055e+02 8.1096983e-01]
  [1.0484636e+03 5.9503668e+02 6.9460380e-01]
  [1.0629542e+03 6.6853949e+02 7.5387132e-01]
  [1.0689739e+03 7.8628302e+02 8.6067909e-01]
  [1.0071555e+03 3.5372141e+02 8.3614576e-01]
  [1.0394886e+03 3.4494363e+02 8.4949845e-01]
  [9.9527814e+02 3.7434085e+02 7.8667313e-01]
  [1.0542137e+03 3.6542386e+02 6.8577784e-01]
  [1.0923439e+03 8.3040015e+02 6.7972481e-01]
  [1.0983236e+03 8.1295148e+02 7.0914507e-01]
  [1.0542072e+03 7.8935992e+02 7.2439325e-01]
  [9.7757880e+02 9.6584668e+02 7.0806694e-01]
  [9.5997803e+02 9.5712103e+02 7.5133526e-01]
  [1.0011185e+03 9.4817407e+02 7.7050686e-01]]]