[[[1.00714221e+03 3.39088715e+02 9.17068362e-01]
  [9.83495239e+02 4.36266357e+02 8.88313651e-01]
  [9.21760620e+02 4.39115173e+02 8.29482079e-01]
  [9.07161499e+02 5.33201599e+02 8.77359748e-01]
  [9.21759338e+02 6.12726501e+02 8.37113976e-01]
  [1.04827673e+03 4.36183990e+02 9.00023282e-01]
  [1.06881519e+03 5.36135742e+02 8.58656287e-01]
  [1.09251624e+03 6.03975525e+02 8.74435723e-01]
  [1.01006396e+03 6.33291992e+02 6.96704328e-01]
  [9.68834412e+02 6.39151550e+02 6.97605789e-01]
  [9.04015503e+02 7.86375244e+02 9.13532495e-01]
  [8.77533569e+02 9.33587708e+02 8.11669409e-01]
  [1.05414587e+03 6.27441956e+02 7.03265727e-01]
  [1.09230640e+03 7.71651611e+02 8.49318027e-01]
  [1.11612097e+03 9.30712585e+02 8.49309921e-01]
  [9.95285095e+02 3.30142487e+02 8.58145773e-01]
  [1.02173694e+03 3.36061981e+02 8.78308475e-01]
  [9.57159302e+02 3.59462006e+02 7.97941208e-01]
  [1.02487183e+03 3.65446655e+02 3.00577164e-01]
  [1.12195703e+03 9.71798950e+02 7.41719604e-01]
  [1.14251367e+03 9.62931091e+02 7.77339935e-01]
  [1.11014099e+03 9.51113831e+02 6.67113960e-01]
  [8.30474731e+02 9.62968750e+02 7.12232709e-01]
  [8.27539124e+02 9.54115173e+02 7.41634190e-01]
  [8.83561768e+02 9.54153687e+02 8.37736130e-01]]]