[[[9.48116760e+02 3.88973999e+02 9.32433844e-01]
  [9.53983765e+02 4.59680298e+02 9.15023029e-01]
  [8.98202759e+02 4.56624664e+02 8.19266915e-01]
  [8.57073547e+02 3.74333618e+02 8.79708767e-01]
  [8.83416443e+02 2.94778564e+02 9.00558174e-01]
  [1.00423364e+03 4.68501648e+02 7.94716537e-01]
  [1.01001874e+03 5.53718628e+02 8.55794072e-01]
  [9.74651306e+02 6.27521729e+02 8.75756264e-01]
  [9.33593323e+02 6.27495239e+02 7.17257142e-01]
  [9.04141541e+02 6.27387939e+02 7.34619200e-01]
  [9.09947449e+02 7.86283447e+02 8.75047445e-01]
  [9.33555359e+02 9.10025391e+02 8.43976796e-01]
  [9.71828735e+02 6.33264709e+02 6.90306544e-01]
  [9.60061584e+02 7.92325623e+02 8.36528838e-01]
  [9.74631348e+02 9.10052246e+02 8.53101134e-01]
  [9.30721680e+02 3.77223938e+02 8.81361067e-01]
  [9.57146423e+02 3.80219727e+02 8.61739635e-01]
  [9.15882568e+02 3.86173187e+02 4.16976273e-01]
  [9.86449951e+02 3.91961121e+02 6.73982680e-01]
  [9.62986084e+02 9.45261414e+02 7.16298580e-01]
  [9.77778381e+02 9.39402588e+02 7.65770972e-01]
  [9.74765381e+02 9.27639648e+02 6.85200214e-01]
  [9.21761780e+02 9.45243652e+02 7.19011962e-01]
  [9.07055298e+02 9.33634827e+02 7.79749334e-01]
  [9.48246338e+02 9.27555115e+02 6.91089392e-01]]]