[[[6.9222327e+02 3.1843005e+02 9.7301108e-01]
  [6.7148376e+02 4.1265479e+02 8.9817762e-01]
  [6.2746600e+02 4.0969623e+02 8.5659683e-01]
  [5.9795551e+02 5.0969244e+02 9.1003889e-01]
  [6.9511871e+02 5.2434387e+02 8.4762937e-01]
  [7.1275366e+02 4.1850275e+02 8.1422442e-01]
  [7.1875885e+02 5.0688171e+02 8.5235578e-01]
  [7.1870105e+02 5.7734473e+02 9.0026933e-01]
  [6.5397650e+02 6.0100360e+02 7.4232316e-01]
  [6.3040698e+02 6.0094147e+02 7.1689171e-01]
  [6.9220325e+02 7.3335034e+02 8.7276822e-01]
  [6.7159515e+02 9.1004956e+02 7.6340610e-01]
  [6.8038287e+02 6.0384692e+02 6.9930214e-01]
  [6.3628839e+02 7.6571735e+02 7.7949339e-01]
  [5.8035333e+02 9.2472705e+02 8.1136036e-01]
  [6.7454553e+02 3.0957156e+02 8.7899464e-01]
  [7.0687128e+02 3.1531821e+02 8.6321104e-01]
  [6.4812018e+02 3.2426062e+02 8.3429933e-01]
  [7.1859039e+02 3.3882684e+02 5.9362304e-01]
  [6.4210663e+02 9.5414166e+02 5.7564074e-01]
  [6.2458582e+02 9.5114740e+02 5.3002775e-01]
  [5.5978284e+02 9.3358258e+02 7.7629614e-01]
  [7.0096313e+02 9.5998505e+02 6.4037061e-01]
  [6.9500989e+02 9.5710632e+02 6.7892706e-01]
  [6.5690204e+02 9.3053906e+02 7.1674877e-01]]]