[[[6.1852234e+02 3.9495355e+02 8.8696206e-01]
  [5.9804431e+02 4.7733334e+02 7.5463057e-01]
  [6.2443604e+02 4.6851450e+02 8.2395136e-01]
  [6.8913947e+02 5.6559869e+02 8.2689613e-01]
  [7.3631268e+02 6.4809247e+02 8.8079172e-01]
  [5.6857068e+02 4.7723007e+02 5.0376767e-01]
  [6.2447559e+02 5.7744104e+02 8.7449506e-02]
  [6.6265338e+02 6.0095752e+02 5.8043651e-02]
  [5.8034412e+02 6.6271222e+02 6.5925568e-01]
  [5.8913422e+02 6.6565582e+02 6.4540410e-01]
  [6.4796802e+02 7.9521741e+02 7.8901267e-01]
  [5.3914545e+02 9.5417578e+02 8.0810958e-01]
  [5.7735510e+02 6.5979968e+02 5.0781584e-01]
  [6.4515228e+02 7.9221973e+02 7.7995986e-01]
  [5.9499200e+02 9.2767609e+02 8.4076458e-01]
  [5.9781580e+02 3.9788284e+02 8.8996732e-01]
  [6.0974603e+02 3.8315686e+02 8.7637877e-01]
  [5.7429242e+02 4.3025061e+02 7.7236807e-01]
  [0.0000000e+00 0.0000000e+00 0.0000000e+00]
  [6.4210663e+02 9.3938605e+02 6.2874806e-01]
  [6.3031299e+02 9.3052252e+02 6.1504334e-01]
  [5.8333582e+02 9.3357385e+02 4.1836536e-01]
  [6.0681262e+02 9.9230737e+02 7.2776461e-01]
  [5.8912683e+02 9.9818933e+02 7.1134245e-01]
  [5.2149609e+02 9.7172241e+02 8.2353133e-01]]]