[[[1.1660264e+03 3.3901959e+02 9.8728287e-01]
  [1.1867212e+03 4.2139798e+02 8.9770460e-01]
  [1.1248043e+03 4.2432516e+02 7.8332454e-01]
  [1.1365265e+03 5.2147485e+02 4.6467984e-01]
  [1.1395438e+03 5.1266028e+02 8.7410390e-02]
  [1.2484821e+03 4.1845209e+02 7.8757733e-01]
  [1.2573069e+03 5.2437823e+02 8.8525802e-01]
  [1.1955385e+03 5.9201959e+02 7.8311157e-01]
  [1.1777880e+03 6.0100818e+02 7.4226660e-01]
  [1.1394946e+03 6.0095776e+02 7.7244949e-01]
  [1.1012451e+03 7.6563965e+02 8.6048430e-01]
  [1.0659586e+03 9.2470441e+02 8.4044027e-01]
  [1.2132595e+03 6.0388513e+02 7.5000256e-01]
  [1.2131438e+03 7.4809961e+02 8.4286422e-01]
  [1.2572144e+03 7.9520337e+02 7.5868046e-01]
  [1.1601542e+03 3.2716232e+02 8.5426134e-01]
  [1.1865573e+03 3.2426782e+02 9.2169082e-01]
  [0.0000000e+00 0.0000000e+00 0.0000000e+00]
  [1.2132455e+03 3.4179092e+02 9.0027446e-01]
  [1.2720074e+03 8.3650378e+02 6.6169912e-01]
  [1.2838079e+03 8.2756201e+02 6.9189608e-01]
  [1.2543846e+03 7.9223059e+02 5.9566694e-01]
  [1.0395098e+03 9.5701691e+02 7.2130674e-01]
  [1.0247798e+03 9.5111176e+02 7.8546429e-01]
  [1.0717837e+03 9.3649084e+02 8.0908614e-01]]]