[[[9.77539124e+02 3.62394379e+02 9.07831132e-01]
  [9.74819885e+02 4.12724609e+02 9.19838428e-01]
  [9.18793701e+02 4.18508636e+02 7.62284279e-01]
  [9.15863586e+02 4.36177429e+02 8.25322568e-01]
  [9.77660217e+02 3.94928345e+02 7.19338238e-01]
  [1.02770312e+03 4.09731140e+02 8.49428177e-01]
  [1.01877490e+03 4.33020874e+02 8.18412304e-01]
  [9.83562500e+02 3.92040436e+02 7.16336787e-01]
  [9.74716431e+02 6.03853027e+02 7.54482508e-01]
  [9.30727234e+02 6.03886169e+02 7.18775272e-01]
  [9.45242126e+02 7.65891968e+02 8.53753269e-01]
  [9.51261719e+02 9.27610474e+02 8.85674715e-01]
  [1.01301544e+03 6.03824463e+02 6.80740297e-01]
  [1.00123120e+03 7.65787292e+02 8.71701002e-01]
  [9.98177979e+02 9.24604126e+02 8.54950547e-01]
  [9.59974976e+02 3.44864777e+02 8.82355452e-01]
  [9.95282959e+02 3.47862457e+02 8.54026437e-01]
  [9.30727966e+02 3.62416992e+02 8.38054180e-01]
  [1.00716699e+03 3.65537231e+02 6.83669388e-01]
  [9.95199097e+02 9.57132324e+02 7.24471688e-01]
  [1.00711780e+03 9.54178040e+02 7.87270904e-01]
  [9.92390625e+02 9.30655090e+02 6.52384222e-01]
  [9.59978943e+02 9.57134338e+02 7.06977427e-01]
  [9.39376831e+02 9.57081055e+02 7.31969953e-01]
  [9.54115906e+02 9.33603760e+02 7.09266841e-01]]]