[[[7.6579083e+02 3.0071899e+02 9.0785939e-01]
  [7.6564410e+02 4.0972357e+02 9.4098842e-01]
  [6.9516937e+02 4.0666049e+02 8.7179327e-01]
  [6.7454706e+02 5.0665439e+02 8.5369492e-01]
  [7.0390723e+02 5.9803070e+02 8.7991148e-01]
  [8.3341534e+02 4.1268243e+02 8.4244728e-01]
  [8.5985956e+02 5.1849011e+02 8.6772811e-01]
  [7.9227673e+02 5.7745856e+02 8.7361050e-01]
  [7.6286786e+02 6.0094403e+02 8.0520868e-01]
  [7.1862604e+02 6.0099677e+02 7.9689366e-01]
  [7.1852216e+02 7.6562158e+02 8.9250028e-01]
  [7.2162921e+02 9.3938794e+02 7.9243171e-01]
  [8.0984723e+02 6.0085779e+02 7.8503311e-01]
  [8.4818530e+02 7.5981000e+02 8.1968898e-01]
  [9.0691278e+02 9.2754309e+02 8.1939852e-01]
  [7.5104633e+02 2.9482352e+02 8.8673884e-01]
  [7.8621063e+02 2.9469708e+02 9.4868380e-01]
  [7.3629871e+02 3.2141760e+02 7.3629296e-01]
  [8.0698303e+02 3.1847736e+02 8.2087499e-01]
  [8.8941925e+02 9.7479913e+02 7.4983978e-01]
  [9.1587653e+02 9.7459625e+02 7.3890501e-01]
  [9.0713068e+02 9.3645447e+02 6.1734921e-01]
  [6.8630200e+02 9.6589014e+02 6.9343436e-01]
  [6.8035907e+02 9.5423694e+02 7.2543454e-01]
  [7.3923645e+02 9.5420093e+02 8.1739008e-01]]]