[[[9.6883051e+02 3.8607883e+02 9.2538315e-01]
  [9.5421246e+02 4.8020398e+02 9.2519021e-01]
  [9.0112769e+02 4.7728543e+02 8.1435019e-01]
  [8.7758838e+02 5.5676276e+02 8.4531200e-01]
  [8.5979730e+02 4.8028445e+02 9.4373965e-01]
  [1.0187989e+03 4.8319797e+02 8.6057007e-01]
  [1.0277134e+03 5.7450983e+02 8.8722754e-01]
  [1.0630165e+03 4.9793707e+02 8.3081961e-01]
  [9.7780347e+02 6.4504004e+02 7.9433548e-01]
  [9.4237030e+02 6.4514539e+02 7.4931800e-01]
  [9.3065009e+02 7.8340369e+02 8.7247920e-01]
  [9.5409991e+02 9.2471649e+02 8.6942482e-01]
  [1.0217875e+03 6.4495831e+02 7.6122642e-01]
  [1.0216896e+03 7.8623407e+02 8.5140884e-01]
  [1.0011103e+03 9.2747144e+02 8.8541645e-01]
  [9.5124963e+02 3.7143018e+02 9.0432650e-01]
  [9.7768286e+02 3.8301779e+02 8.9412647e-01]
  [9.2745074e+02 3.9200162e+02 8.3752888e-01]
  [9.8653467e+02 4.0948560e+02 5.1518190e-01]
  [9.9821619e+02 9.6293298e+02 7.6436526e-01]
  [1.0187850e+03 9.5703589e+02 7.8689492e-01]
  [9.9815955e+02 9.3073157e+02 7.3352498e-01]
  [9.5420911e+02 9.6293750e+02 7.7972281e-01]
  [9.3644702e+02 9.5710010e+02 8.0721444e-01]
  [9.6297186e+02 9.3072858e+02 7.1079218e-01]]]