[[[9.2460254e+02 3.8910117e+02 7.1798429e-02]
  [9.2760229e+02 4.5653693e+02 8.6139554e-01]
  [8.5981311e+02 4.5375497e+02 8.0096912e-01]
  [8.3044299e+02 5.3915759e+02 8.2798976e-01]
  [8.4810986e+02 6.3622437e+02 8.1397045e-01]
  [9.9520923e+02 4.5657950e+02 7.9517955e-01]
  [1.0188335e+03 5.5097125e+02 9.1367507e-01]
  [9.9520868e+02 6.4203796e+02 8.3656466e-01]
  [9.2769696e+02 6.2444989e+02 8.0473131e-01]
  [8.8932867e+02 6.2161383e+02 7.2175694e-01]
  [8.8638452e+02 7.6879218e+02 8.5870081e-01]
  [8.8050928e+02 9.3346112e+02 8.4679902e-01]
  [9.6589740e+02 6.2455811e+02 7.1107817e-01]
  [9.5417578e+02 7.7756354e+02 8.4348786e-01]
  [9.5128040e+02 9.3051184e+02 8.6908358e-01]
  [0.0000000e+00 0.0000000e+00 0.0000000e+00]
  [9.3348608e+02 3.8599960e+02 8.1091486e-02]
  [9.0397552e+02 3.9196628e+02 1.0278781e-01]
  [9.5123102e+02 3.8611307e+02 1.7713481e-01]
  [9.4817310e+02 9.7166815e+02 6.8899840e-01]
  [9.6881427e+02 9.6589923e+02 7.0173621e-01]
  [9.4526727e+02 9.4531049e+02 6.3758260e-01]
  [8.8055066e+02 9.7177216e+02 8.1376398e-01]
  [8.5996393e+02 9.6301349e+02 7.8679150e-01]
  [8.8355096e+02 9.5112994e+02 7.5036389e-01]]]