[[[9.71683228e+02 3.38995697e+02 8.95511985e-01]
  [9.71681274e+02 4.12726715e+02 8.78986955e-01]
  [9.07110718e+02 4.12615540e+02 8.67390752e-01]
  [8.71711243e+02 3.18515656e+02 8.77111793e-01]
  [9.48200623e+02 2.83056915e+02 8.12813640e-01]
  [1.02471130e+03 4.15469360e+02 8.56871963e-01]
  [1.07197095e+03 3.39032745e+02 9.31716800e-01]
  [1.00708600e+03 2.74314514e+02 8.11042786e-01]
  [9.62944946e+02 6.09770569e+02 6.89816177e-01]
  [9.27541809e+02 6.09776184e+02 6.98352456e-01]
  [8.98150879e+02 7.74547119e+02 8.22315991e-01]
  [8.51022766e+02 9.27542725e+02 8.25924635e-01]
  [1.00124243e+03 6.09745361e+02 7.15957642e-01]
  [1.02181586e+03 7.71680298e+02 8.72914672e-01]
  [1.04527942e+03 9.27487305e+02 8.53128195e-01]
  [9.54177979e+02 3.33080078e+02 7.94574678e-01]
  [9.83518433e+02 3.35929138e+02 8.23012888e-01]
  [9.39401794e+02 3.59618347e+02 5.96013308e-01]
  [1.00128497e+03 3.62649109e+02 7.88050532e-01]
  [1.04820007e+03 9.57069214e+02 7.69557059e-01]
  [1.06879797e+03 9.54037720e+02 8.09981585e-01]
  [1.03361865e+03 9.33556213e+02 6.84062123e-01]
  [8.51096863e+02 9.54217468e+02 7.60794938e-01]
  [8.30504456e+02 9.51232788e+02 7.96586215e-01]
  [8.48116150e+02 9.36426270e+02 6.95889890e-01]]]