[[[9.95250793e+02 3.85989594e+02 9.23490405e-01]
  [9.71687378e+02 4.77274200e+02 8.80247772e-01]
  [9.07011169e+02 4.65521423e+02 8.62733066e-01]
  [8.98124939e+02 5.53832520e+02 7.77689278e-01]
  [9.01151550e+02 6.33293091e+02 8.56501937e-01]
  [1.02466650e+03 4.80336060e+02 9.01345253e-01]
  [1.04528015e+03 5.74350586e+02 8.92300129e-01]
  [1.06298499e+03 6.53871704e+02 7.84384012e-01]
  [9.74781616e+02 6.45109863e+02 8.28201890e-01]
  [9.36432129e+02 6.45163330e+02 7.55467415e-01]
  [9.33622009e+02 7.86199036e+02 8.89127731e-01]
  [9.45327454e+02 9.10044434e+02 8.21509302e-01]
  [1.01297241e+03 6.45109741e+02 7.44673908e-01]
  [1.00137555e+03 7.74585999e+02 8.45353365e-01]
  [9.83618042e+02 9.07130859e+02 8.14093113e-01]
  [9.77759521e+02 3.74306488e+02 8.93576145e-01]
  [1.00134326e+03 3.83017731e+02 8.96051407e-01]
  [9.57131287e+02 3.97821259e+02 8.37459445e-01]
  [1.01876227e+03 4.09522919e+02 8.22012067e-01]
  [9.77554565e+02 9.42381775e+02 7.15177894e-01]
  [9.98165771e+02 9.39423096e+02 7.25575328e-01]
  [9.80572449e+02 9.24636108e+02 6.89807415e-01]
  [9.27688843e+02 9.45273926e+02 7.60859430e-01]
  [9.15809448e+02 9.33619812e+02 7.54047513e-01]
  [9.54012573e+02 9.27555664e+02 8.11070383e-01]]]