[[[1.0690120e+03 5.2441754e+02 9.3087912e-01]
  [1.0483831e+03 5.8036182e+02 8.1752431e-01]
  [1.0218733e+03 5.8028644e+02 8.2286000e-01]
  [9.7763361e+02 6.6559857e+02 9.2074364e-01]
  [1.0129618e+03 7.1583868e+02 8.7000096e-01]
  [1.0806886e+03 5.8041412e+02 7.7330542e-01]
  [1.0748765e+03 6.5679529e+02 8.1024170e-01]
  [1.0688761e+03 7.2169403e+02 9.1773754e-01]
  [9.3643835e+02 7.1557050e+02 7.7142739e-01]
  [9.0696179e+02 6.9814935e+02 7.6836532e-01]
  [8.5710321e+02 8.1876343e+02 8.7668920e-01]
  [8.3047662e+02 9.2761298e+02 8.5784423e-01]
  [9.7180011e+02 7.2154590e+02 7.1665734e-01]
  [1.0689937e+03 7.8330182e+02 9.0246236e-01]
  [1.0865045e+03 9.2465869e+02 8.3520520e-01]
  [1.0629469e+03 5.0660043e+02 9.2619866e-01]
  [1.0894501e+03 5.1260065e+02 8.6620623e-01]
  [1.0393909e+03 5.0389343e+02 8.0058360e-01]
  [1.0983096e+03 5.2735516e+02 6.4632213e-01]
  [1.1336218e+03 9.4823767e+02 7.9059291e-01]
  [1.1307516e+03 9.3359753e+02 7.4946713e-01]
  [1.0690145e+03 9.3358923e+02 8.4494066e-01]
  [8.0689996e+02 9.5115198e+02 7.7610981e-01]
  [7.8944110e+02 9.4521606e+02 7.9981375e-01]
  [8.3627533e+02 9.3944196e+02 7.6778150e-01]]]