[[[1.2571974e+03 3.2125565e+02 9.4285107e-01]
  [1.2838141e+03 4.0961734e+02 7.5439334e-01]
  [1.2749591e+03 4.0665509e+02 6.0220468e-01]
  [0.0000000e+00 0.0000000e+00 0.0000000e+00]
  [0.0000000e+00 0.0000000e+00 0.0000000e+00]
  [1.2955372e+03 4.1243741e+02 8.1820184e-01]
  [1.3073179e+03 5.0672992e+02 9.1102672e-01]
  [1.2367310e+03 5.5396753e+02 8.7601763e-01]
  [1.3013500e+03 5.9503265e+02 6.2802011e-01]
  [1.2837595e+03 5.9502759e+02 5.7253468e-01]
  [1.3043110e+03 7.6574988e+02 6.5902036e-01]
  [1.3307416e+03 9.2465088e+02 6.8004775e-01]
  [1.3073925e+03 5.9506696e+02 6.7143607e-01]
  [1.3073992e+03 7.6587885e+02 7.7711946e-01]
  [1.3309965e+03 9.4527655e+02 7.7856684e-01]
  [1.2543778e+03 3.1246677e+02 8.8568246e-01]
  [1.2749768e+03 3.1546255e+02 9.1901803e-01]
  [0.0000000e+00 0.0000000e+00 0.0000000e+00]
  [1.3071913e+03 3.3883844e+02 9.1242421e-01]
  [1.2748904e+03 9.5702606e+02 6.9185352e-01]
  [1.2838011e+03 9.7176361e+02 7.3040032e-01]
  [1.3514768e+03 9.5709381e+02 8.1504768e-01]
  [1.2809321e+03 9.2771643e+02 6.1238045e-01]
  [1.2838522e+03 9.2758917e+02 5.4929668e-01]
  [1.3485138e+03 9.3354572e+02 1.8912154e-01]]]