[[[1.01879395e+03 3.62541168e+02 9.44758773e-01]
  [1.02192688e+03 4.36089020e+02 9.10200119e-01]
  [9.86514404e+02 4.39103180e+02 7.98424482e-01]
  [9.74603149e+02 5.27399963e+02 8.41582894e-01]
  [9.51119934e+02 5.98030518e+02 9.30109143e-01]
  [1.05716382e+03 4.33091949e+02 8.40180278e-01]
  [1.04835657e+03 5.27198669e+02 8.65657330e-01]
  [1.01001178e+03 6.01001404e+02 8.26158106e-01]
  [1.00709576e+03 6.24425659e+02 7.12345600e-01]
  [9.77650146e+02 6.21611511e+02 7.25514948e-01]
  [9.39383850e+02 7.80455078e+02 8.17239761e-01]
  [9.03936646e+02 9.27693298e+02 8.59300971e-01]
  [1.04235486e+03 6.24460632e+02 6.93424702e-01]
  [1.04834583e+03 7.86194458e+02 8.83550763e-01]
  [1.09253650e+03 9.27684753e+02 8.84753823e-01]
  [1.00124951e+03 3.56562866e+02 9.13179815e-01]
  [1.02490540e+03 3.50778198e+02 8.67255688e-01]
  [9.89466736e+02 3.68474976e+02 6.44959271e-01]
  [1.04835254e+03 3.65569458e+02 8.05785537e-01]
  [1.04540942e+03 9.53997498e+02 8.41611087e-01]
  [1.06600708e+03 9.54247375e+02 8.10117424e-01]
  [1.11296082e+03 9.42391541e+02 8.11748087e-01]
  [8.51141174e+02 9.54098450e+02 7.51193404e-01]
  [8.51046204e+02 9.48218628e+02 7.21631825e-01]
  [9.09966675e+02 9.48217346e+02 7.81249046e-01]]]