[[[8.8646783e+02 5.7153784e+02 6.9713479e-01]
  [9.2473267e+02 5.5371985e+02 8.8272840e-01]
  [8.5990375e+02 5.5099500e+02 8.4228158e-01]
  [7.8928229e+02 6.2443958e+02 9.4661868e-01]
  [8.0110406e+02 7.1558234e+02 8.4730494e-01]
  [9.8643903e+02 5.5098260e+02 7.8857076e-01]
  [1.0690234e+03 6.3628772e+02 8.7029374e-01]
  [1.0719508e+03 7.1880884e+02 9.0873253e-01]
  [9.3060309e+02 6.9515704e+02 8.0970377e-01]
  [8.8057861e+02 6.9500696e+02 7.8966701e-01]
  [8.0690985e+02 7.8040503e+02 8.3668065e-01]
  [7.8329926e+02 9.3646368e+02 8.0442536e-01]
  [9.8060406e+02 6.9514917e+02 7.8332472e-01]
  [1.0687964e+03 7.8339160e+02 8.6665595e-01]
  [1.0836013e+03 9.3642761e+02 8.0418348e-01]
  [8.8061993e+02 5.5677417e+02 4.9934235e-01]
  [9.0105725e+02 5.5395142e+02 6.5185302e-01]
  [0.0000000e+00 0.0000000e+00 0.0000000e+00]
  [9.2472314e+02 5.3329883e+02 6.4679551e-01]
  [1.1306896e+03 9.7168701e+02 7.6936162e-01]
  [1.1365057e+03 9.5700995e+02 7.7027643e-01]
  [1.0688950e+03 9.5410852e+02 8.5721362e-01]
  [7.4224915e+02 9.7174628e+02 7.5545013e-01]
  [7.3911255e+02 9.5710199e+02 7.5792432e-01]
  [7.8927460e+02 9.5414410e+02 8.5067087e-01]]]