[[[1.0484406e+03 3.1844446e+02 9.4333774e-01]
  [1.0451924e+03 4.0660898e+02 8.7773532e-01]
  [9.7765948e+02 3.8617499e+02 8.5710043e-01]
  [9.9238391e+02 4.8035178e+02 7.9022181e-01]
  [1.0659789e+03 4.9492920e+02 5.1845330e-01]
  [1.0983981e+03 4.1552649e+02 8.1321520e-01]
  [1.1395028e+03 5.3027911e+02 9.1542530e-01]
  [1.0719648e+03 5.9505652e+02 8.8509744e-01]
  [1.0306750e+03 5.9794855e+02 7.5375229e-01]
  [9.8645520e+02 5.9507825e+02 7.3005098e-01]
  [8.8647308e+02 7.1272113e+02 8.0833787e-01]
  [8.7761945e+02 8.8049591e+02 7.7277541e-01]
  [1.0777358e+03 6.0087689e+02 7.1476841e-01]
  [1.0923984e+03 7.6566943e+02 9.0878302e-01]
  [1.0922739e+03 9.2462482e+02 8.0775481e-01]
  [1.0453326e+03 3.0365347e+02 9.0017927e-01]
  [1.0717798e+03 3.1532428e+02 9.4174212e-01]
  [1.0246842e+03 3.1540695e+02 4.7902477e-01]
  [1.0953284e+03 3.3606613e+02 8.4516472e-01]
  [1.0719142e+03 9.7175543e+02 7.8888148e-01]
  [1.0954258e+03 9.6879272e+02 7.7225947e-01]
  [1.0895332e+03 9.3062433e+02 6.6774243e-01]
  [8.6876575e+02 9.4827032e+02 6.6271627e-01]
  [8.5689032e+02 9.3650983e+02 5.9850615e-01]
  [8.8640784e+02 8.8351764e+02 5.7854420e-01]]]