[[[8.8339996e+02 4.3602600e+02 7.8602010e-01]
  [8.9819977e+02 4.8018579e+02 8.7187213e-01]
  [8.3341913e+02 4.8310529e+02 8.3503932e-01]
  [8.3041919e+02 5.8913654e+02 8.1027484e-01]
  [8.1000677e+02 6.9515894e+02 9.4127619e-01]
  [9.5707013e+02 4.7721564e+02 8.1671107e-01]
  [9.7464374e+02 5.8037897e+02 8.5419744e-01]
  [9.8945215e+02 6.8627759e+02 8.1180882e-01]
  [9.0419739e+02 6.3922644e+02 8.0715752e-01]
  [8.6587708e+02 6.4208521e+02 7.2775501e-01]
  [8.7762567e+02 7.6583301e+02 8.9416158e-01]
  [8.6577264e+02 9.2768359e+02 8.2890010e-01]
  [9.4520673e+02 6.3914038e+02 7.2589993e-01]
  [9.5429114e+02 7.6273053e+02 9.1437823e-01]
  [9.4812396e+02 9.0705432e+02 8.3664870e-01]
  [8.6875861e+02 4.2140796e+02 7.0879215e-01]
  [8.9529559e+02 4.1839230e+02 7.4488640e-01]
  [8.5103955e+02 4.2720236e+02 3.9018238e-01]
  [9.2753662e+02 4.1244540e+02 9.1426080e-01]
  [9.4521259e+02 9.6886707e+02 7.8179955e-01]
  [9.6589526e+02 9.5996118e+02 7.2857571e-01]
  [9.3059784e+02 9.1882654e+02 6.9977021e-01]
  [8.6581750e+02 9.7472473e+02 8.2264537e-01]
  [8.4816064e+02 9.7167145e+02 7.7193546e-01]
  [8.7750348e+02 9.3646564e+02 6.8652821e-01]]]