[[[1.2689933e+03 3.7720187e+02 8.4600550e-01]
  [1.2572177e+03 4.3910992e+02 8.6208218e-01]
  [1.2161392e+03 4.4790750e+02 7.5616121e-01]
  [1.2042050e+03 3.8601035e+02 7.0967627e-01]
  [1.1925974e+03 3.3887180e+02 8.1789649e-01]
  [1.2867582e+03 4.3621805e+02 7.9889172e-01]
  [1.3190723e+03 3.5954480e+02 7.8168404e-01]
  [1.2571539e+03 3.3304733e+02 5.6533384e-01]
  [1.2661331e+03 6.2152673e+02 7.0695698e-01]
  [1.2484867e+03 6.2160510e+02 6.6871905e-01]
  [1.2777917e+03 7.8633887e+02 7.6790428e-01]
  [1.3073741e+03 9.3347766e+02 8.4214252e-01]
  [1.2867167e+03 6.2150342e+02 6.6134048e-01]
  [1.3248893e+03 7.8631738e+02 8.5257900e-01]
  [1.1925809e+03 8.6870813e+02 7.3288226e-01]
  [1.2543701e+03 3.6540149e+02 9.5590937e-01]
  [1.2806799e+03 3.6540125e+02 9.4745189e-01]
  [1.2249456e+03 3.8306866e+02 7.9481208e-01]
  [0.0000000e+00 0.0000000e+00 0.0000000e+00]
  [1.1629796e+03 9.3063043e+02 7.9554701e-01]
  [1.1661008e+03 9.2769836e+02 6.9378239e-01]
  [1.1689764e+03 8.5997089e+02 6.4743370e-01]
  [1.3779119e+03 9.5102606e+02 7.6278794e-01]
  [1.3573822e+03 9.5417151e+02 8.1572193e-01]
  [1.2984932e+03 9.5120416e+02 8.0116814e-01]]]