[[[7.8634796e+02 3.5364081e+02 8.9428324e-01]
  [7.8621759e+02 4.3621503e+02 9.1152847e-01]
  [7.2458850e+02 4.4488724e+02 7.9126585e-01]
  [6.9219507e+02 4.5682358e+02 9.2824471e-01]
  [6.9506714e+02 3.9493860e+02 8.7936217e-01]
  [8.3643903e+02 4.3601239e+02 8.8730288e-01]
  [8.6589667e+02 5.2727747e+02 8.8315856e-01]
  [8.2161560e+02 6.0970105e+02 8.2025552e-01]
  [7.6572693e+02 6.2452472e+02 7.4720418e-01]
  [7.2169397e+02 6.2454218e+02 7.1150041e-01]
  [6.5388867e+02 7.8343579e+02 8.6165512e-01]
  [6.3917157e+02 9.4522009e+02 7.6792169e-01]
  [8.0980719e+02 6.2457050e+02 6.9756621e-01]
  [8.5997388e+02 8.0394611e+02 8.6537647e-01]
  [9.0111005e+02 9.4231201e+02 7.9173970e-01]
  [7.7752429e+02 3.3909741e+02 9.0642893e-01]
  [8.0696277e+02 3.4787180e+02 8.7774312e-01]
  [7.5401160e+02 3.6241632e+02 6.1832935e-01]
  [8.1302179e+02 3.8301111e+02 8.6532658e-01]
  [8.8643304e+02 9.7474359e+02 7.3775202e-01]
  [9.0710229e+02 9.7459210e+02 7.5613970e-01]
  [9.0412488e+02 9.5409369e+02 6.2791610e-01]
  [6.0973499e+02 9.7478644e+02 7.6392120e-01]
  [5.9798651e+02 9.6886224e+02 7.9746675e-01]
  [6.4799884e+02 9.5716785e+02 7.8541011e-01]]]