[[[9.89422607e+02 3.44970673e+02 8.69889855e-01]
  [9.74803345e+02 4.33094971e+02 9.38853741e-01]
  [9.24660889e+02 4.36121918e+02 8.53677750e-01]
  [8.83448364e+02 4.00780487e+02 8.66127849e-01]
  [8.62997498e+02 3.18314697e+02 8.52938652e-01]
  [1.02768518e+03 4.27271881e+02 8.18937778e-01]
  [1.08655151e+03 4.06730682e+02 8.60326052e-01]
  [1.10127771e+03 3.38882721e+02 8.73719931e-01]
  [9.71731201e+02 6.18567322e+02 7.18533397e-01]
  [9.27734619e+02 6.18504211e+02 7.26400852e-01]
  [8.86487671e+02 7.74522278e+02 8.37537408e-01]
  [8.54020447e+02 9.30702698e+02 8.42042029e-01]
  [1.00999115e+03 6.18629150e+02 6.77571297e-01]
  [1.04846240e+03 7.89171021e+02 8.82018030e-01]
  [1.09554004e+03 9.30714783e+02 8.38651657e-01]
  [9.77617737e+02 3.39028046e+02 9.73491430e-01]
  [1.00131696e+03 3.44836792e+02 8.99838090e-01]
  [9.54026367e+02 3.62406403e+02 8.92914891e-01]
  [1.01593109e+03 3.77268066e+02 8.06231022e-01]
  [1.13943066e+03 9.65921875e+02 7.31405675e-01]
  [1.14262451e+03 9.54162415e+02 7.90346503e-01]
  [1.09231958e+03 9.54075012e+02 8.28486919e-01]
  [8.45237671e+02 9.68796936e+02 7.33808994e-01]
  [8.30387024e+02 9.57158997e+02 7.63612032e-01]
  [8.57009705e+02 9.51144897e+02 7.73823619e-01]]]