[[[9.2171722e+02 3.9198560e+02 8.9693260e-01]
  [9.6887274e+02 4.7437253e+02 8.3174562e-01]
  [9.0699231e+02 4.8330652e+02 8.5107130e-01]
  [8.4224152e+02 5.7436743e+02 8.7709284e-01]
  [9.1288495e+02 5.6260651e+02 8.0558646e-01]
  [1.0248579e+03 4.5678357e+02 8.8374442e-01]
  [1.1042107e+03 5.2728088e+02 8.7579519e-01]
  [1.0247838e+03 5.5681201e+02 8.8212079e-01]
  [9.4531720e+02 6.5686395e+02 6.9945526e-01]
  [9.0400806e+02 6.4812256e+02 7.4097019e-01]
  [8.4519708e+02 7.8922479e+02 8.5842800e-01]
  [7.8333966e+02 9.1586676e+02 7.9607433e-01]
  [9.8651276e+02 6.6562231e+02 6.8889058e-01]
  [1.0481959e+03 8.0998889e+02 9.2247313e-01]
  [1.0778074e+03 9.3347900e+02 8.1436580e-01]
  [9.0417450e+02 3.8907645e+02 9.6870422e-01]
  [9.2770953e+02 3.8301773e+02 9.1401654e-01]
  [9.0105188e+02 4.1263470e+02 5.5457115e-01]
  [9.5420264e+02 3.8611240e+02 8.7504590e-01]
  [1.0955179e+03 9.7170569e+02 7.6278043e-01]
  [1.1159652e+03 9.5715820e+02 7.9899299e-01]
  [1.0717576e+03 9.5115466e+02 7.8787673e-01]
  [7.8939801e+02 9.6876984e+02 7.6175070e-01]
  [7.6871985e+02 9.5712219e+02 7.5709349e-01]
  [7.6869965e+02 9.2762427e+02 6.8115836e-01]]]