[[[9.0706799e+02 3.4178714e+02 9.6764767e-01]
  [9.2177356e+02 4.2431290e+02 8.0547631e-01]
  [8.5992365e+02 4.1250104e+02 8.6349875e-01]
  [8.0990027e+02 4.7724478e+02 8.3725733e-01]
  [8.8349341e+02 4.3622104e+02 7.9326558e-01]
  [9.7768506e+02 4.3327203e+02 8.8186568e-01]
  [9.9536859e+02 5.3033063e+02 8.8124043e-01]
  [9.8644910e+02 6.0386536e+02 8.5573959e-01]
  [9.0999146e+02 6.2443799e+02 7.2371829e-01]
  [8.7167548e+02 6.2154395e+02 6.7057544e-01]
  [8.3054712e+02 7.8633911e+02 8.9043951e-01]
  [7.8935687e+02 9.2748212e+02 8.6979008e-01]
  [9.5407288e+02 6.2455670e+02 7.4096388e-01]
  [1.0247899e+03 7.8046851e+02 8.5107017e-01]
  [1.0394070e+03 9.3347369e+02 7.9075277e-01]
  [8.9811249e+02 3.3592532e+02 8.6739278e-01]
  [9.2748822e+02 3.3304108e+02 8.9191031e-01]
  [8.8056757e+02 3.5370416e+02 7.1805644e-01]
  [9.5105328e+02 3.4782928e+02 8.2656926e-01]
  [1.0600339e+03 9.7460223e+02 7.4349886e-01]
  [1.0719546e+03 9.6290631e+02 7.8009421e-01]
  [1.0246616e+03 9.5119922e+02 7.1650410e-01]
  [7.9817322e+02 9.6877985e+02 7.7179772e-01]
  [7.8039050e+02 9.5996466e+02 7.6115882e-01]
  [7.8927466e+02 9.3350360e+02 7.1726525e-01]]]