[[[9.5106366e+02 3.7723560e+02 9.0878111e-01]
  [9.6876318e+02 4.5962042e+02 8.5731560e-01]
  [9.1295880e+02 4.6268179e+02 7.8695667e-01]
  [9.0105817e+02 5.5097528e+02 5.3380775e-01]
  [9.1585907e+02 5.5093280e+02 9.8458946e-02]
  [1.0216489e+03 4.5670987e+02 8.6382192e-01]
  [1.0453070e+03 5.4786432e+02 8.6045474e-01]
  [1.0513262e+03 6.2463068e+02 8.5064101e-01]
  [9.5127942e+02 6.2451282e+02 7.9382086e-01]
  [9.1585535e+02 6.2444391e+02 7.1828669e-01]
  [9.2744617e+02 7.8932782e+02 8.4142464e-01]
  [9.3074127e+02 9.1585382e+02 7.9331291e-01]
  [9.8937250e+02 6.2736609e+02 7.2456682e-01]
  [9.5418372e+02 7.3930945e+02 8.9038599e-01]
  [9.7179047e+02 8.8357855e+02 8.3314294e-01]
  [9.3652600e+02 3.6539615e+02 9.2054224e-01]
  [9.6584320e+02 3.6548166e+02 8.9732462e-01]
  [9.2470496e+02 3.8610519e+02 1.7665772e-01]
  [9.9237158e+02 3.8606946e+02 8.4913301e-01]
  [9.5421246e+02 9.5404706e+02 7.6527452e-01]
  [9.7476740e+02 9.5105078e+02 7.4160039e-01]
  [9.7467706e+02 8.9520251e+02 6.6291797e-01]
  [9.3067139e+02 9.5400946e+02 7.6414019e-01]
  [9.1588281e+02 9.5112317e+02 7.1871471e-01]
  [9.4527661e+02 9.2758765e+02 6.3556099e-01]]]