[[[1.03656042e+03 3.68508453e+02 8.86611760e-01]
  [1.00713190e+03 4.59639832e+02 8.66122127e-01]
  [9.51286682e+02 4.50801147e+02 8.02191913e-01]
  [9.27685547e+02 5.50909912e+02 7.94578671e-01]
  [9.51196899e+02 5.56767151e+02 5.18867970e-01]
  [1.06882532e+03 4.74403168e+02 8.29027951e-01]
  [1.09830957e+03 5.47969238e+02 8.02269816e-01]
  [1.09255237e+03 5.68597778e+02 7.95169234e-01]
  [1.04540247e+03 6.42056824e+02 7.42040277e-01]
  [1.00416309e+03 6.42175720e+02 7.26792574e-01]
  [9.54146179e+02 7.68700378e+02 8.93209577e-01]
  [1.01000500e+03 8.42347778e+02 7.96324432e-01]
  [1.08363037e+03 6.39149841e+02 6.55206740e-01]
  [1.07190637e+03 7.83396545e+02 8.38989675e-01]
  [1.07179211e+03 9.33596558e+02 8.38172853e-01]
  [1.03948572e+03 3.62396057e+02 8.86676848e-01]
  [1.05413672e+03 3.80146423e+02 8.63681793e-01]
  [1.00139734e+03 3.74269867e+02 6.27217516e-02]
  [1.06597131e+03 4.09624939e+02 8.96935284e-01]
  [1.04230310e+03 9.65846130e+02 6.79197013e-01]
  [1.06300354e+03 9.71751038e+02 7.33946562e-01]
  [1.08065906e+03 9.51271790e+02 7.46516228e-01]
  [9.92331116e+02 8.89332031e+02 6.89926922e-01]
  [9.77802673e+02 8.80599731e+02 7.11619496e-01]
  [1.02488062e+03 8.42251831e+02 7.63257384e-01]]]