[[[1.1689857e+03 3.6251138e+02 8.5980445e-01]
  [1.1336864e+03 4.3305087e+02 8.2978153e-01]
  [1.0953124e+03 4.2726038e+02 7.4610639e-01]
  [1.0719468e+03 3.2426270e+02 5.1108235e-01]
  [1.0719696e+03 3.1547327e+02 7.4735069e-01]
  [1.1661073e+03 4.3326221e+02 8.3125395e-01]
  [1.1718895e+03 5.2733698e+02 6.7492640e-01]
  [1.1926274e+03 5.8624109e+02 7.0843828e-01]
  [1.1483850e+03 6.1850787e+02 6.6556609e-01]
  [1.1425878e+03 6.1853290e+02 6.3603437e-01]
  [1.2661619e+03 7.1567981e+02 8.6582732e-01]
  [1.1396584e+03 7.8625977e+02 8.5645449e-01]
  [1.1601190e+03 6.1565710e+02 5.5633098e-01]
  [1.1865608e+03 7.8633386e+02 7.8483212e-01]
  [1.1454385e+03 9.3047852e+02 8.5083431e-01]
  [1.1630521e+03 3.5079074e+02 8.2906735e-01]
  [0.0000000e+00 0.0000000e+00 0.0000000e+00]
  [1.1394324e+03 3.6536057e+02 8.6649197e-01]
  [0.0000000e+00 0.0000000e+00 0.0000000e+00]
  [1.2102573e+03 9.5708868e+02 7.5173569e-01]
  [1.2043118e+03 9.5404205e+02 6.9199282e-01]
  [1.1277533e+03 9.4236957e+02 7.5290418e-01]
  [1.1218711e+03 8.1586334e+02 4.5319587e-01]
  [1.1188942e+03 8.0995062e+02 5.5992949e-01]
  [1.1277571e+03 7.8049438e+02 6.5055203e-01]]]