[[[1.01001514e+03 3.44867828e+02 8.82402658e-01]
  [1.00120630e+03 4.36019257e+02 9.06719565e-01]
  [9.51089905e+02 4.18495697e+02 8.12336862e-01]
  [8.59952332e+02 4.33117432e+02 7.81491399e-01]
  [7.71656555e+02 4.30234344e+02 7.84427583e-01]
  [1.05714355e+03 4.53701172e+02 7.87990451e-01]
  [1.08943213e+03 5.30316650e+02 8.68700206e-01]
  [1.11012659e+03 4.71398499e+02 8.13942254e-01]
  [9.98113159e+02 6.21541565e+02 7.84322560e-01]
  [9.68799377e+02 6.21428284e+02 7.51395404e-01]
  [8.86374817e+02 7.42245667e+02 8.88258159e-01]
  [9.33557434e+02 8.95248779e+02 7.90586412e-01]
  [1.02188037e+03 6.24424500e+02 7.59758413e-01]
  [9.89482788e+02 7.71642456e+02 8.29578519e-01]
  [1.04522534e+03 9.24669617e+02 8.32735181e-01]
  [1.01293018e+03 3.33096222e+02 8.36741567e-01]
  [1.03061255e+03 3.42097595e+02 8.89456332e-01]
  [0.00000000e+00 0.00000000e+00 0.00000000e+00]
  [1.04846790e+03 3.74268921e+02 7.81074703e-01]
  [9.77625244e+02 9.54070374e+02 8.01339626e-01]
  [9.98289429e+02 9.57002808e+02 8.00090432e-01]
  [1.06010327e+03 9.33528320e+02 8.19169521e-01]
  [9.24604797e+02 9.51024536e+02 7.47083843e-01]
  [9.07094360e+02 9.36514954e+02 7.22050607e-01]
  [9.54119507e+02 9.01156738e+02 6.83750868e-01]]]