[[[9.8360760e+02 3.8602948e+02 9.1466755e-01]
  [9.8063202e+02 4.5665378e+02 9.1070700e-01]
  [9.2759979e+02 4.5663712e+02 8.8129717e-01]
  [9.2458258e+02 5.4785327e+02 8.0821764e-01]
  [9.0413019e+02 6.2742511e+02 9.0334189e-01]
  [1.0452079e+03 4.5666599e+02 8.8633198e-01]
  [1.0454314e+03 5.3618994e+02 8.7030172e-01]
  [9.8650061e+02 5.9503296e+02 8.3418536e-01]
  [9.7775317e+02 6.2440100e+02 7.8431171e-01]
  [9.4237665e+02 6.2442725e+02 7.2595513e-01]
  [9.0402429e+02 7.8634113e+02 9.2218459e-01]
  [8.8343781e+02 9.2760236e+02 8.9005733e-01]
  [1.0217293e+03 6.2159485e+02 7.7624571e-01]
  [1.0484199e+03 7.8640875e+02 9.1217875e-01]
  [1.0953906e+03 9.2171265e+02 8.5735047e-01]
  [9.7477557e+02 3.6851004e+02 9.3221092e-01]
  [9.9839606e+02 3.7142896e+02 9.0814233e-01]
  [9.5420697e+02 3.8314957e+02 8.4444100e-01]
  [1.0188396e+03 3.8611441e+02 7.9018021e-01]
  [1.0924213e+03 9.5128375e+02 8.1817847e-01]
  [1.1130229e+03 9.5106708e+02 8.1850880e-01]
  [1.0954974e+03 9.3045752e+02 7.2297418e-01]
  [8.5692682e+02 9.5401141e+02 7.7559286e-01]
  [8.4523993e+02 9.4817676e+02 7.4032509e-01]
  [8.9523224e+02 9.4232098e+02 7.7617186e-01]]]