[[[0.0000000e+00 0.0000000e+00 0.0000000e+00]
  [8.9823236e+02 5.3317749e+02 8.0179280e-01]
  [8.3346826e+02 5.3327863e+02 7.6709360e-01]
  [8.3337628e+02 6.5094257e+02 8.3351868e-01]
  [8.1285327e+02 7.5987762e+02 8.9050323e-01]
  [9.6587598e+02 5.3028290e+02 7.6561928e-01]
  [9.7459460e+02 6.4212622e+02 8.3873785e-01]
  [9.8060254e+02 7.4225824e+02 8.9993387e-01]
  [9.0421472e+02 6.6269061e+02 7.6547217e-01]
  [8.7164972e+02 6.5979639e+02 6.8894488e-01]
  [8.6009650e+02 7.6274554e+02 8.9770496e-01]
  [8.6287494e+02 9.0994501e+02 8.0863607e-01]
  [9.4229669e+02 6.6557831e+02 6.8433404e-01]
  [9.4820624e+02 7.8332239e+02 8.1991982e-01]
  [9.4530042e+02 9.2754266e+02 8.1175745e-01]
  [0.0000000e+00 0.0000000e+00 0.0000000e+00]
  [0.0000000e+00 0.0000000e+00 0.0000000e+00]
  [8.5990704e+02 5.5392407e+02 8.6910062e-02]
  [9.2466101e+02 5.5072272e+02 1.5364434e-01]
  [9.3358282e+02 9.7167328e+02 7.8773457e-01]
  [9.5708527e+02 9.6296899e+02 7.8346235e-01]
  [9.3642169e+02 9.3354626e+02 6.6653663e-01]
  [8.6583167e+02 9.6585278e+02 7.3547435e-01]
  [8.4810699e+02 9.5708594e+02 7.2575152e-01]
  [8.7466895e+02 9.2465265e+02 6.4508140e-01]]]