[[[9.07097351e+02 3.68490295e+02 9.23130333e-01]
  [9.42306580e+02 4.56583710e+02 8.47885668e-01]
  [8.80518799e+02 4.47883850e+02 7.96896935e-01]
  [8.33360596e+02 5.09661285e+02 8.11039865e-01]
  [8.51049744e+02 5.09705139e+02 7.65550077e-01]
  [1.00134015e+03 4.59534515e+02 8.59492004e-01]
  [1.03657532e+03 5.50926270e+02 8.58518362e-01]
  [1.00130420e+03 5.53875488e+02 8.66498530e-01]
  [9.51141663e+02 6.53863342e+02 7.20877171e-01]
  [9.04041199e+02 6.56825134e+02 6.93992019e-01]
  [7.77474426e+02 7.65736023e+02 8.57003272e-01]
  [8.06899780e+02 9.33587708e+02 7.77813256e-01]
  [9.98140381e+02 6.48113464e+02 7.05860853e-01]
  [1.06293201e+03 8.09873657e+02 8.42367649e-01]
  [1.07481677e+03 9.48140198e+02 7.99999118e-01]
  [8.95267639e+02 3.65324585e+02 8.94813895e-01]
  [9.24595337e+02 3.56606689e+02 8.62224698e-01]
  [8.83414612e+02 3.85974182e+02 2.03037798e-01]
  [9.54082275e+02 3.62419373e+02 8.53001833e-01]
  [1.09242761e+03 9.77685974e+02 7.58268178e-01]
  [1.11013916e+03 9.74691895e+02 7.56270885e-01]
  [1.06886682e+03 9.57149292e+02 7.36700594e-01]
  [7.39333313e+02 9.71825073e+02 6.86105251e-01]
  [7.42275085e+02 9.60023132e+02 6.24984920e-01]
  [8.21690247e+02 9.54176453e+02 7.60155499e-01]]]