[[[9.30619080e+02 3.42032684e+02 9.45880592e-01]
  [9.04105957e+02 4.27264496e+02 8.93498838e-01]
  [8.36488770e+02 4.12433105e+02 8.61918032e-01]
  [7.68726868e+02 4.83267792e+02 8.72088552e-01]
  [8.36489563e+02 4.36214050e+02 8.65543902e-01]
  [9.68878296e+02 4.36224548e+02 8.18788707e-01]
  [9.80655823e+02 5.30313843e+02 8.94325435e-01]
  [9.54268738e+02 6.00850647e+02 9.11641836e-01]
  [8.77470703e+02 6.09788147e+02 6.61920846e-01]
  [8.33356873e+02 6.06836975e+02 6.52527571e-01]
  [8.33268616e+02 7.92219788e+02 8.62715185e-01]
  [8.09969116e+02 9.42376465e+02 8.32769215e-01]
  [9.15874084e+02 6.15671692e+02 6.61874115e-01]
  [1.02480713e+03 7.62737061e+02 8.81382465e-01]
  [1.02463135e+03 9.30562073e+02 8.42583776e-01]
  [9.24733215e+02 3.30139984e+02 8.85168672e-01]
  [9.51166870e+02 3.41813171e+02 9.46766913e-01]
  [8.95234253e+02 3.38969238e+02 8.43373418e-01]
  [9.56995300e+02 3.65359100e+02 7.24161029e-01]
  [1.07776001e+03 9.74649414e+02 7.51987338e-01]
  [1.08366589e+03 9.60010132e+02 7.01538026e-01]
  [1.00129297e+03 9.51159729e+02 7.92822778e-01]
  [8.12893433e+02 9.74837280e+02 8.22468758e-01]
  [7.89425476e+02 9.74657837e+02 7.97514439e-01]
  [8.12929749e+02 9.54154053e+02 6.64954185e-01]]]