[[[7.1858514e+02 3.2135297e+02 9.3162668e-01]
  [7.1271313e+02 4.1548260e+02 8.8277304e-01]
  [6.4808661e+02 4.1246939e+02 8.8258004e-01]
  [6.2144977e+02 5.1270349e+02 8.9118445e-01]
  [6.7446082e+02 5.8043671e+02 8.7467122e-01]
  [7.6578632e+02 4.2429993e+02 8.3086622e-01]
  [7.7456628e+02 5.2737335e+02 7.9126960e-01]
  [7.6582892e+02 5.9210303e+02 8.8110530e-01]
  [7.0396863e+02 6.1856024e+02 7.2351396e-01]
  [6.6566748e+02 6.1859851e+02 7.0617700e-01]
  [6.9225494e+02 7.7751935e+02 8.5018033e-01]
  [7.1880841e+02 9.3943115e+02 8.0531377e-01]
  [7.4229773e+02 6.1568231e+02 7.5413579e-01]
  [7.8944739e+02 7.7755664e+02 8.3653027e-01]
  [6.9518109e+02 8.5394617e+02 7.2570205e-01]
  [7.0389752e+02 3.1535065e+02 8.9272845e-01]
  [7.3629816e+02 3.1550369e+02 9.2425132e-01]
  [6.8041486e+02 3.3602658e+02 8.1128371e-01]
  [7.4810394e+02 3.3895657e+02 8.1834012e-01]
  [6.9220465e+02 9.0110712e+02 2.3223290e-01]
  [0.0000000e+00 0.0000000e+00 0.0000000e+00]
  [6.7454114e+02 8.5104498e+02 4.9927098e-01]
  [7.1570612e+02 9.7468713e+02 7.1012259e-01]
  [6.9510992e+02 9.7457574e+02 7.4916595e-01]
  [7.3915759e+02 9.5414514e+02 7.3598814e-01]]]