[[[9.56999390e+02 3.36018005e+02 9.13237333e-01]
  [9.57157043e+02 4.27230438e+02 8.46311927e-01]
  [9.03921814e+02 4.30167206e+02 8.40340614e-01]
  [8.89325256e+02 5.27406860e+02 8.66066217e-01]
  [8.80419556e+02 6.09748840e+02 8.60369027e-01]
  [1.02190039e+03 4.18486084e+02 8.58851969e-01]
  [1.03950024e+03 5.24289124e+02 8.13050807e-01]
  [1.05128271e+03 5.98087830e+02 8.44279170e-01]
  [9.65931458e+02 6.03919373e+02 6.94290817e-01]
  [9.27627319e+02 6.06769897e+02 7.20556796e-01]
  [9.36491943e+02 7.65701782e+02 8.58665168e-01]
  [9.54000854e+02 9.24708374e+02 8.57086897e-01]
  [1.00409753e+03 6.03899780e+02 7.11272418e-01]
  [1.00119165e+03 7.65712402e+02 9.00479019e-01]
  [1.00121692e+03 9.18762817e+02 8.28563929e-01]
  [9.45326904e+02 3.18549713e+02 9.03329074e-01]
  [9.74681030e+02 3.21262421e+02 9.38556254e-01]
  [9.24664612e+02 3.41792236e+02 8.62854600e-01]
  [9.95271667e+02 3.41800690e+02 8.09713721e-01]
  [9.98181030e+02 9.62925720e+02 8.02869797e-01]
  [1.01885431e+03 9.57037109e+02 8.09062719e-01]
  [9.98281189e+02 9.30508545e+02 7.13754714e-01]
  [9.54187683e+02 9.62964661e+02 7.65947640e-01]
  [9.33575806e+02 9.57119324e+02 8.05945456e-01]
  [9.60038574e+02 9.30705872e+02 7.20852852e-01]]]