[[[8.09889465e+02 5.53906006e+02 2.03859344e-01]
  [8.65831482e+02 5.00876831e+02 6.79362118e-01]
  [8.24616394e+02 5.09693207e+02 3.95714402e-01]
  [7.71614868e+02 5.77376770e+02 9.40634385e-02]
  [7.42226135e+02 6.27374390e+02 9.82403457e-02]
  [9.09984253e+02 4.86140381e+02 7.36630201e-01]
  [1.01887775e+03 5.50731262e+02 8.28301787e-01]
  [1.10714587e+03 5.80438843e+02 7.89439023e-01]
  [9.74658997e+02 6.21451599e+02 7.47456312e-01]
  [9.36519348e+02 6.24526672e+02 7.02331543e-01]
  [8.83634216e+02 7.45113525e+02 8.43430579e-01]
  [9.06926941e+02 9.21687744e+02 8.06666732e-01]
  [1.00409692e+03 6.12660217e+02 6.69277787e-01]
  [9.77735107e+02 7.71692932e+02 8.66866708e-01]
  [1.02486804e+03 9.45257812e+02 8.24287891e-01]
  [8.04015625e+02 5.47948364e+02 6.89101368e-02]
  [8.09932129e+02 5.42019714e+02 2.27416202e-01]
  [0.00000000e+00 0.00000000e+00 0.00000000e+00]
  [8.33460510e+02 5.12646362e+02 2.95886666e-01]
  [9.60056274e+02 9.77667114e+02 7.81308949e-01]
  [9.80602905e+02 9.80635315e+02 7.95787811e-01]
  [1.04821277e+03 9.54255676e+02 8.30546677e-01]
  [8.56892578e+02 9.48177673e+02 4.78307515e-01]
  [8.56890259e+02 9.33528503e+02 4.62610215e-01]
  [9.21776794e+02 9.36452087e+02 7.61514902e-01]]]