[[[9.54188477e+02 4.06660522e+02 9.44545269e-01]
  [9.77622803e+02 4.65523407e+02 9.16845620e-01]
  [9.27529175e+02 4.71434387e+02 8.62146854e-01]
  [9.03951172e+02 5.42034241e+02 8.79848838e-01]
  [9.04169617e+02 6.01013000e+02 9.15115833e-01]
  [1.03069775e+03 4.59746796e+02 8.48235607e-01]
  [1.04236841e+03 5.36129578e+02 8.45368803e-01]
  [9.77772034e+02 5.92136902e+02 8.43498349e-01]
  [9.74665283e+02 6.33342041e+02 7.69914567e-01]
  [9.33610046e+02 6.33268127e+02 7.14369416e-01]
  [9.06898804e+02 7.80393799e+02 8.79890382e-01]
  [9.30549316e+02 9.06971252e+02 8.83343995e-01]
  [1.00425696e+03 6.33322327e+02 7.16073275e-01]
  [1.03064087e+03 7.86441528e+02 8.88225079e-01]
  [9.98302734e+02 9.07121033e+02 8.90894771e-01]
  [9.48189087e+02 3.92050842e+02 8.91220570e-01]
  [9.71762939e+02 3.89147339e+02 9.18742657e-01]
  [9.33464722e+02 4.12434845e+02 3.68632138e-01]
  [9.95347351e+02 4.06717987e+02 8.01384211e-01]
  [1.01006128e+03 9.45244934e+02 7.48066604e-01]
  [1.02478113e+03 9.36490662e+02 8.25892568e-01]
  [9.77809021e+02 9.24600220e+02 8.03294480e-01]
  [9.07085815e+02 9.39430542e+02 7.29988575e-01]
  [9.01057678e+02 9.30655457e+02 7.70020843e-01]
  [9.48123474e+02 9.18790283e+02 8.13058496e-01]]]