[[[9.65937927e+02 6.56815613e+02 8.47851038e-01]
  [9.48179626e+02 7.12736450e+02 8.45561028e-01]
  [8.92257019e+02 7.18796875e+02 7.81684220e-01]
  [9.01092896e+02 8.21647034e+02 8.06684852e-01]
  [9.04091125e+02 9.04201782e+02 9.76106346e-01]
  [1.00113184e+03 6.95004639e+02 8.56699049e-01]
  [1.02191919e+03 7.33360046e+02 7.14518070e-01]
  [1.00129944e+03 7.98114380e+02 5.59773386e-01]
  [9.36429260e+02 8.48118530e+02 7.01611459e-01]
  [9.01156067e+02 8.48148499e+02 6.54892564e-01]
  [8.09941589e+02 8.21650269e+02 8.46040368e-01]
  [8.95292358e+02 9.10001038e+02 6.51960075e-01]
  [9.74727173e+02 8.45171631e+02 7.00877428e-01]
  [1.03062769e+03 8.39309875e+02 8.54864657e-01]
  [9.54163391e+02 9.10054871e+02 7.09495246e-01]
  [9.51209473e+02 6.44976685e+02 9.76774037e-01]
  [9.74796875e+02 6.45065796e+02 9.40622926e-01]
  [9.15835754e+02 6.45132019e+02 8.36775005e-01]
  [0.00000000e+00 0.00000000e+00 0.00000000e+00]
  [9.98343079e+02 9.36408386e+02 6.76921368e-01]
  [9.98244019e+02 9.30582336e+02 6.98675752e-01]
  [9.36420471e+02 9.18825073e+02 3.97377163e-01]
  [8.59820435e+02 9.39389038e+02 5.31686425e-01]
  [8.57019409e+02 9.33491943e+02 5.81672132e-01]
  [9.06945007e+02 9.27495300e+02 4.96490210e-01]]]