[[[1.0129323e+03 3.6244180e+02 9.0375882e-01]
  [1.0129273e+03 4.5077554e+02 8.2016683e-01]
  [9.5416205e+02 4.4195706e+02 8.6642754e-01]
  [9.1002301e+02 4.1546356e+02 8.8194895e-01]
  [9.4818762e+02 3.3907516e+02 8.6091042e-01]
  [1.0687970e+03 4.5379800e+02 8.7869525e-01]
  [1.0925391e+03 5.4204291e+02 8.8466221e-01]
  [1.0452103e+03 5.7139667e+02 8.7392473e-01]
  [1.0012181e+03 6.2457916e+02 7.8564322e-01]
  [9.6293109e+02 6.2445471e+02 7.4814433e-01]
  [8.9529559e+02 7.5989490e+02 8.6599773e-01]
  [9.7456390e+02 9.0412738e+02 8.6138177e-01]
  [1.0424598e+03 6.2748828e+02 7.2522563e-01]
  [1.0395074e+03 7.8328754e+02 7.9204601e-01]
  [1.0453488e+03 9.2168774e+02 8.3652359e-01]
  [9.9814343e+02 3.4786856e+02 8.8642156e-01]
  [1.0246946e+03 3.4782928e+02 9.0409100e-01]
  [9.7483453e+02 3.6845096e+02 8.6644435e-01]
  [1.0424440e+03 3.6846924e+02 6.2931395e-01]
  [1.0246667e+03 9.5417804e+02 8.2040471e-01]
  [1.0453359e+03 9.5408313e+02 8.1824207e-01]
  [1.0454283e+03 9.3055432e+02 7.7345973e-01]
  [9.1296356e+02 9.4238763e+02 7.0516759e-01]
  [9.1881287e+02 9.3063452e+02 6.8189418e-01]
  [9.9229749e+02 9.1294794e+02 7.1900332e-01]]]