[[[8.8646393e+02 5.0380463e+02 4.3145177e-01]
  [9.0102313e+02 5.0374490e+02 8.4606075e-01]
  [8.3341803e+02 5.0664267e+02 7.9826772e-01]
  [8.3046179e+02 6.0978467e+02 7.9019964e-01]
  [8.1282996e+02 7.2169415e+02 8.5668343e-01]
  [9.6004388e+02 5.0087244e+02 7.9540575e-01]
  [9.7468256e+02 6.0098987e+02 8.6873019e-01]
  [9.8360303e+02 7.1270782e+02 8.2764709e-01]
  [9.0698639e+02 6.4501776e+02 8.2082832e-01]
  [8.6879651e+02 6.4502374e+02 7.5699902e-01]
  [8.6007544e+02 7.5978528e+02 8.8117248e-01]
  [8.5999084e+02 9.1881396e+02 8.2344437e-01]
  [9.4815656e+02 6.4507617e+02 7.5542098e-01]
  [9.5122876e+02 7.6868109e+02 8.7443799e-01]
  [9.5103339e+02 9.2752747e+02 8.3523738e-01]
  [8.7466498e+02 4.9198642e+02 3.9036840e-01]
  [9.0407861e+02 4.8325558e+02 3.9578915e-01]
  [8.5103894e+02 4.8013147e+02 4.4044921e-01]
  [9.2760675e+02 4.5973209e+02 6.1247480e-01]
  [9.3063757e+02 9.6884717e+02 7.6500005e-01]
  [9.5421576e+02 9.6587872e+02 7.4800098e-01]
  [9.4817987e+02 9.3361609e+02 6.5512127e-01]
  [8.7165601e+02 9.6880194e+02 7.9264671e-01]
  [8.4819647e+02 9.6289075e+02 7.5260878e-01]
  [8.6584528e+02 9.3062268e+02 6.3138837e-01]]]