[[[8.0690320e+02 3.2432986e+02 8.8423157e-01]
  [8.1299805e+02 4.1843130e+02 8.5270643e-01]
  [7.5692065e+02 4.3015094e+02 8.2240522e-01]
  [7.4521875e+02 5.2435327e+02 8.2613850e-01]
  [7.6571851e+02 5.8619885e+02 8.8794065e-01]
  [8.8047534e+02 4.1265439e+02 8.0714917e-01]
  [9.5701318e+02 5.0074243e+02 8.5139883e-01]
  [9.3047998e+02 4.3312344e+02 8.7715012e-01]
  [8.3054810e+02 6.1848798e+02 7.4239326e-01]
  [7.8642432e+02 6.1851343e+02 7.5004494e-01]
  [7.0096649e+02 7.6583673e+02 8.5637885e-01]
  [6.8918982e+02 9.3063391e+02 8.0957186e-01]
  [8.7457947e+02 6.1561755e+02 6.7946315e-01]
  [9.0413605e+02 7.6866553e+02 8.5431117e-01]
  [9.3943536e+02 9.3641473e+02 7.8147799e-01]
  [7.9220966e+02 3.1550256e+02 9.5067614e-01]
  [8.2161700e+02 3.1829239e+02 8.9508784e-01]
  [7.8329602e+02 3.3604999e+02 2.4758655e-01]
  [8.5104260e+02 3.3900421e+02 8.3558762e-01]
  [9.0692505e+02 9.7177429e+02 7.5089079e-01]
  [9.2769128e+02 9.7467804e+02 7.5550538e-01]
  [9.5404907e+02 9.5404126e+02 7.9550439e-01]
  [6.1561121e+02 9.6878320e+02 7.0461929e-01]
  [6.2143860e+02 9.5419836e+02 7.0102119e-01]
  [7.0097711e+02 9.5121899e+02 7.7579403e-01]]]