[[[8.1293500e+02 3.6836493e+02 3.0149224e-01]
  [8.6295923e+02 4.1243768e+02 7.0779151e-01]
  [8.8048535e+02 4.1255527e+02 4.6869123e-01]
  [7.7458130e+02 4.3014185e+02 5.4859960e-01]
  [6.9524359e+02 4.3309070e+02 7.9032087e-01]
  [8.5396021e+02 4.0966461e+02 7.4631596e-01]
  [7.5395160e+02 4.1244843e+02 5.0004488e-01]
  [6.5096698e+02 3.8614096e+02 8.4348500e-01]
  [9.2768274e+02 5.8623621e+02 5.5457348e-01]
  [9.2757068e+02 5.8913910e+02 4.0830615e-01]
  [8.8338800e+02 7.4510059e+02 8.0114728e-01]
  [9.0688727e+02 8.9814398e+02 7.9983544e-01]
  [9.3049396e+02 5.8917322e+02 5.6733358e-01]
  [9.0699146e+02 7.6270160e+02 8.4269136e-01]
  [9.8945996e+02 9.0399121e+02 7.9163516e-01]
  [0.0000000e+00 0.0000000e+00 0.0000000e+00]
  [8.2164935e+02 3.5961853e+02 3.1429881e-01]
  [8.8059009e+02 3.6243124e+02 1.3281277e-01]
  [8.3633105e+02 3.6535617e+02 6.5799385e-01]
  [9.5118451e+02 9.5711835e+02 7.9492611e-01]
  [9.7462695e+02 9.5419250e+02 7.5260723e-01]
  [1.0071550e+03 9.0698047e+02 6.8754935e-01]
  [8.5688892e+02 9.4820746e+02 7.6463711e-01]
  [8.5694092e+02 9.3348914e+02 6.9615752e-01]
  [9.2467358e+02 9.0703796e+02 7.5298285e-01]]]