[[[1.02477673e+03 3.42078125e+02 9.53782678e-01]
  [1.03939417e+03 4.30244598e+02 8.26080322e-01]
  [9.86521484e+02 4.12685364e+02 7.96631753e-01]
  [9.45287781e+02 3.18455536e+02 8.44464839e-01]
  [9.01153442e+02 2.50627335e+02 8.58532429e-01]
  [1.08361511e+03 4.39017395e+02 8.01139832e-01]
  [1.11009827e+03 5.33279968e+02 8.11109543e-01]
  [1.12184387e+03 6.15629395e+02 8.40735734e-01]
  [1.04244312e+03 6.09787720e+02 7.00145066e-01]
  [1.01886346e+03 6.06781006e+02 6.69422150e-01]
  [1.02193390e+03 7.62890869e+02 9.16071057e-01]
  [9.77578613e+02 9.27686523e+02 8.65868092e-01]
  [1.06878809e+03 6.18522156e+02 7.00199187e-01]
  [1.07196338e+03 7.83434631e+02 8.69482517e-01]
  [1.00412000e+03 9.21748535e+02 8.02619576e-01]
  [1.00710052e+03 3.39090454e+02 9.19266045e-01]
  [1.03942603e+03 3.36061829e+02 8.60528588e-01]
  [9.92344116e+02 3.62437195e+02 8.45211625e-01]
  [1.05423450e+03 3.47827667e+02 5.87513983e-01]
  [1.05133191e+03 9.71709900e+02 6.93560839e-01]
  [1.05419421e+03 9.54175720e+02 6.77583277e-01]
  [9.95321411e+02 9.27690308e+02 2.56084830e-01]
  [1.02479187e+03 9.77754761e+02 7.53975749e-01]
  [1.00122705e+03 9.77762756e+02 6.86400473e-01]
  [9.54187683e+02 9.33535950e+02 8.03508461e-01]]]