[[[9.68784607e+02 4.80311432e+02 9.21089411e-01]
  [9.54000305e+02 5.42057922e+02 9.14279699e-01]
  [9.01069824e+02 5.36219727e+02 8.31116259e-01]
  [8.80356384e+02 6.15625977e+02 8.79858255e-01]
  [8.74653748e+02 6.92153381e+02 8.60642672e-01]
  [1.01002484e+03 5.42098633e+02 8.05924416e-01]
  [1.02182861e+03 6.24614258e+02 8.96977663e-01]
  [9.54216858e+02 6.62649292e+02 8.26288819e-01]
  [9.48131592e+02 7.03904236e+02 7.57177532e-01]
  [9.06974182e+02 7.00950806e+02 7.81403363e-01]
  [8.10015564e+02 8.12735901e+02 9.70371306e-01]
  [9.03946533e+02 9.09972534e+02 8.02252650e-01]
  [9.77786743e+02 7.03983948e+02 7.59007692e-01]
  [1.07768884e+03 8.21658142e+02 8.14417660e-01]
  [9.77554993e+02 9.09969177e+02 8.45386028e-01]
  [9.51312744e+02 4.62698151e+02 9.46376979e-01]
  [9.77680481e+02 4.68443298e+02 8.89287829e-01]
  [9.27713684e+02 4.77254730e+02 8.81258786e-01]
  [9.95290771e+02 4.80243042e+02 4.69657868e-01]
  [1.02481396e+03 9.48276917e+02 7.77674198e-01]
  [1.02192584e+03 9.33606567e+02 7.13061512e-01]
  [9.54051514e+02 9.18781311e+02 8.01188707e-01]
  [8.56969482e+02 9.39432983e+02 7.78859496e-01]
  [8.57064026e+02 9.30684204e+02 7.85188138e-01]
  [9.21712036e+02 9.21739685e+02 7.62449443e-01]]]