[[[1.0894647e+03 3.6845068e+02 8.9584720e-01]
  [1.0984429e+03 4.4789032e+02 8.1134129e-01]
  [1.0542352e+03 4.5380627e+02 7.8091228e-01]
  [1.0218951e+03 5.2731537e+02 6.7252314e-01]
  [1.0129372e+03 5.0383508e+02 7.2843885e-01]
  [1.1454967e+03 4.3906738e+02 8.1624252e-01]
  [1.2161299e+03 5.0367044e+02 8.5872769e-01]
  [1.2836975e+03 4.5978418e+02 7.7045870e-01]
  [1.1130022e+03 6.0396307e+02 7.4814492e-01]
  [1.0895317e+03 6.0972968e+02 7.0180738e-01]
  [1.1807079e+03 7.3040942e+02 7.9188144e-01]
  [1.1512809e+03 9.0705780e+02 7.5093299e-01]
  [1.1364922e+03 6.0383740e+02 7.0716298e-01]
  [1.1395710e+03 7.6267841e+02 8.0366898e-01]
  [1.1012867e+03 9.0689685e+02 8.1912857e-01]
  [1.0688689e+03 3.6844583e+02 9.0878427e-01]
  [1.0894930e+03 3.5958405e+02 8.7904274e-01]
  [1.0484203e+03 3.9489911e+02 7.9262906e-01]
  [1.0984150e+03 3.6247867e+02 1.1531615e-01]
  [1.1218865e+03 9.3065649e+02 3.4123427e-01]
  [1.1218408e+03 9.3066492e+02 3.0655944e-01]
  [1.0923275e+03 9.1588031e+02 8.0048174e-01]
  [1.1660271e+03 9.5107697e+02 7.9328299e-01]
  [1.1542966e+03 9.4822534e+02 7.1273053e-01]
  [1.1424691e+03 9.2468427e+02 6.8322694e-01]]]