[[[7.3627325e+02 4.1846930e+02 2.8294581e-01]
  [7.8342950e+02 4.4495209e+02 6.7876345e-01]
  [7.6285553e+02 4.2433566e+02 5.0613117e-01]
  [6.9208484e+02 3.8896506e+02 7.9222286e-01]
  [5.9799915e+02 3.5668466e+02 8.6974353e-01]
  [7.9226276e+02 4.5971399e+02 5.9241617e-01]
  [6.9517737e+02 5.2140527e+02 8.2801878e-01]
  [6.1856982e+02 5.7444806e+02 8.7730169e-01]
  [8.2171063e+02 6.2738391e+02 6.5825254e-01]
  [8.0698926e+02 6.2741687e+02 6.4415944e-01]
  [7.5984863e+02 7.9226276e+02 8.3846939e-01]
  [6.9215222e+02 9.4523029e+02 8.3177125e-01]
  [8.3928674e+02 6.2738391e+02 6.5220797e-01]
  [8.3328662e+02 8.1289832e+02 9.1085476e-01]
  [9.3351630e+02 9.3356268e+02 8.1917751e-01]
  [7.3920911e+02 4.1258005e+02 1.0712913e-01]
  [7.4232312e+02 4.0955960e+02 2.8942335e-01]
  [0.0000000e+00 0.0000000e+00 0.0000000e+00]
  [7.7460437e+02 4.0956201e+02 3.8355964e-01]
  [9.0696368e+02 9.7475952e+02 8.0342889e-01]
  [9.2763330e+02 9.7473340e+02 8.1272209e-01]
  [9.5414484e+02 9.4815637e+02 7.9493594e-01]
  [6.2743658e+02 9.6884698e+02 7.4811614e-01]
  [6.3039636e+02 9.5422772e+02 7.2646624e-01]
  [6.9807623e+02 9.5999518e+02 7.2797418e-01]]]