[[[9.9523126e+02 4.0954230e+02 9.1488689e-01]
  [9.7167487e+02 4.7736420e+02 8.8277942e-01]
  [9.0712512e+02 4.7432181e+02 8.4953213e-01]
  [9.0114703e+02 5.6853162e+02 8.0938864e-01]
  [8.9822571e+02 6.3619855e+02 8.3339554e-01]
  [1.0246631e+03 4.8020029e+02 8.9654756e-01]
  [1.0452324e+03 5.7154407e+02 8.7816048e-01]
  [1.0629459e+03 6.5099896e+02 7.9977703e-01]
  [9.7758289e+02 6.4499933e+02 8.1045818e-01]
  [9.4230731e+02 6.4501990e+02 7.3777723e-01]
  [9.3355786e+02 7.8333435e+02 8.7543321e-01]
  [9.4818213e+02 9.1006122e+02 8.3453017e-01]
  [1.0159427e+03 6.4501056e+02 7.4489439e-01]
  [1.0013579e+03 7.7454608e+02 8.5140568e-01]
  [9.8645715e+02 9.0717218e+02 8.0250663e-01]
  [9.8055676e+02 3.8916675e+02 9.3510431e-01]
  [1.0041218e+03 3.9789743e+02 8.4642714e-01]
  [9.5702679e+02 4.0073672e+02 8.2448709e-01]
  [1.0188370e+03 4.1253403e+02 4.8460522e-01]
  [9.7467786e+02 9.4530597e+02 7.2060561e-01]
  [9.9528046e+02 9.4524652e+02 7.3468405e-01]
  [9.8352863e+02 9.2748846e+02 6.8953019e-01]
  [9.2765833e+02 9.4524060e+02 7.5700849e-01]
  [9.1297791e+02 9.3357526e+02 7.5860870e-01]
  [9.5410809e+02 9.2758575e+02 8.0512345e-01]]]