[[[9.80678284e+02 3.89126587e+02 9.39014971e-01]
  [9.98272766e+02 4.65512451e+02 9.01082993e-01]
  [9.48157410e+02 4.59772552e+02 8.59086871e-01]
  [8.89376465e+02 5.36239441e+02 8.36659670e-01]
  [8.83410034e+02 6.21383057e+02 9.18720722e-01]
  [1.04842847e+03 4.74384369e+02 8.24052691e-01]
  [1.04826489e+03 5.74425232e+02 8.82698178e-01]
  [1.02193042e+03 6.24640320e+02 9.10072029e-01]
  [9.77649536e+02 6.33309692e+02 7.38648653e-01]
  [9.45305115e+02 6.27458679e+02 6.62840426e-01]
  [9.48105774e+02 7.89204224e+02 8.63940477e-01]
  [9.27732178e+02 9.27532104e+02 8.82984519e-01]
  [1.01591815e+03 6.39171204e+02 6.94344401e-01]
  [1.06902576e+03 7.83345764e+02 8.92572284e-01]
  [1.07200720e+03 9.15839417e+02 8.28636706e-01]
  [9.74589111e+02 3.85946625e+02 9.42569554e-01]
  [9.98313416e+02 3.83091675e+02 9.27575469e-01]
  [9.54279663e+02 3.94923645e+02 4.68227893e-01]
  [1.02185406e+03 3.89166107e+02 8.25752556e-01]
  [1.11899255e+03 9.48180176e+02 7.52794921e-01]
  [1.12191882e+03 9.30720215e+02 7.34904110e-01]
  [1.06584497e+03 9.30525391e+02 7.83275306e-01]
  [9.27574524e+02 9.54141968e+02 8.31069350e-01]
  [9.06987732e+02 9.51194397e+02 8.66176665e-01]
  [9.33509888e+02 9.33614563e+02 6.94597602e-01]]]