[[[9.83626221e+02 4.12666107e+02 9.02426958e-01]
  [9.74632141e+02 4.80104370e+02 9.26977813e-01]
  [9.12929260e+02 4.74347412e+02 8.12149346e-01]
  [9.01162720e+02 5.53951782e+02 8.21502805e-01]
  [9.03991333e+02 6.33248657e+02 8.76594901e-01]
  [1.02767432e+03 4.80275543e+02 8.75418663e-01]
  [1.04522217e+03 5.74467285e+02 8.68692338e-01]
  [1.04827258e+03 6.45165710e+02 6.11460149e-01]
  [9.74816101e+02 6.42045532e+02 7.84718573e-01]
  [9.36485657e+02 6.39193115e+02 7.17030525e-01]
  [9.36472717e+02 7.83428223e+02 8.71297896e-01]
  [9.48159119e+02 9.09976746e+02 8.33803296e-01]
  [1.01300916e+03 6.42096863e+02 7.07516670e-01]
  [1.00411353e+03 7.74594360e+02 8.47561240e-01]
  [9.83571106e+02 9.09910278e+02 8.01800013e-01]
  [9.74788147e+02 4.03689392e+02 9.27688122e-01]
  [1.00108502e+03 4.06587097e+02 8.99788022e-01]
  [9.54017151e+02 4.03749451e+02 8.64024639e-01]
  [1.01888306e+03 4.09617157e+02 5.77462077e-01]
  [9.74674622e+02 9.45242126e+02 7.00332999e-01]
  [9.95312439e+02 9.42325989e+02 7.16052294e-01]
  [9.80660645e+02 9.24707153e+02 6.76076651e-01]
  [9.30497681e+02 9.45308228e+02 7.51214325e-01]
  [9.15877686e+02 9.33629333e+02 7.46434987e-01]
  [9.54032715e+02 9.27505737e+02 7.69092202e-01]]]