[[[9.74771667e+02 4.00789520e+02 9.14306104e-01]
  [9.98284241e+02 4.77193634e+02 9.15962696e-01]
  [9.30705566e+02 4.65556274e+02 8.29456568e-01]
  [8.80523010e+02 5.42062195e+02 8.71124387e-01]
  [9.30571472e+02 5.97908997e+02 8.69731069e-01]
  [1.06012061e+03 4.80118317e+02 8.24624300e-01]
  [1.06875317e+03 5.56772522e+02 8.71281207e-01]
  [1.02172437e+03 6.24535767e+02 9.04916465e-01]
  [9.57063721e+02 6.42115295e+02 7.87759542e-01]
  [9.15900757e+02 6.27497253e+02 7.17587352e-01]
  [8.60014038e+02 7.86375244e+02 8.95359099e-01]
  [8.56849731e+02 9.30710510e+02 8.30802739e-01]
  [1.00118134e+03 6.48021240e+02 7.89160013e-01]
  [1.07192615e+03 8.06855408e+02 8.48639071e-01]
  [1.14237622e+03 9.33507019e+02 8.42660487e-01]
  [9.62914307e+02 3.86101349e+02 9.08492923e-01]
  [9.92356323e+02 3.86159485e+02 8.65677357e-01]
  [9.51134399e+02 3.91947571e+02 1.59960046e-01]
  [1.02169794e+03 3.92042755e+02 7.62829661e-01]
  [1.16604688e+03 9.62893005e+02 6.99918985e-01]
  [1.18360938e+03 9.54054443e+02 7.52089977e-01]
  [1.13949011e+03 9.54105713e+02 7.38162994e-01]
  [8.30474609e+02 9.60077820e+02 6.90881968e-01]
  [8.12957214e+02 9.54143616e+02 7.81976402e-01]
  [8.62859924e+02 9.51167908e+02 8.35210443e-01]]]