[[[8.5992603e+02 3.7137506e+02 8.9892650e-01]
  [8.7760229e+02 4.5372418e+02 8.8851434e-01]
  [8.1872540e+02 4.5376703e+02 8.2590926e-01]
  [8.0107806e+02 4.2136026e+02 7.7222431e-01]
  [7.9515710e+02 3.5961761e+02 8.1426239e-01]
  [9.3054022e+02 4.5083765e+02 8.5375249e-01]
  [9.4816272e+02 5.3022382e+02 8.7728918e-01]
  [9.0402161e+02 6.0973279e+02 8.7077200e-01]
  [8.5393695e+02 6.2159406e+02 7.5509226e-01]
  [8.1287878e+02 6.2144000e+02 7.6966596e-01]
  [8.1271362e+02 7.8334271e+02 8.8076836e-01]
  [8.1572827e+02 9.2465869e+02 8.5333943e-01]
  [8.8346179e+02 6.2741022e+02 7.2743237e-01]
  [8.5393182e+02 7.8335107e+02 8.7422669e-01]
  [9.0711963e+02 9.0996613e+02 8.4496927e-01]
  [8.4221967e+02 3.6560696e+02 9.0061229e-01]
  [8.7466083e+02 3.6260379e+02 9.0527689e-01]
  [8.3339685e+02 3.9490842e+02 8.3532268e-01]
  [8.9229810e+02 3.8318085e+02 8.2064843e-01]
  [8.8057672e+02 9.5128033e+02 8.1431019e-01]
  [9.0395233e+02 9.5118164e+02 7.9074502e-01]
  [9.2752655e+02 9.2466846e+02 7.3338127e-01]
  [8.0981134e+02 9.5122699e+02 8.1736898e-01]
  [7.8935901e+02 9.5101239e+02 8.2463431e-01]
  [8.3041785e+02 9.3348322e+02 7.7997720e-01]]]