[[[9.4236255e+02 3.6266177e+02 9.1137147e-01]
  [9.3937231e+02 4.4783606e+02 8.1912810e-01]
  [8.8342047e+02 4.3914478e+02 8.4641206e-01]
  [8.5698035e+02 5.3330878e+02 8.5091770e-01]
  [8.5998987e+02 4.9495071e+02 8.5278940e-01]
  [9.9818103e+02 4.5378333e+02 8.4806108e-01]
  [1.0541921e+03 5.0665536e+02 8.9383489e-01]
  [1.1424171e+03 5.0973898e+02 8.4139174e-01]
  [9.3347241e+02 6.1264752e+02 7.2548127e-01]
  [9.1294824e+02 6.0977673e+02 6.6084099e-01]
  [1.0218484e+03 7.1876746e+02 9.2684960e-01]
  [9.8055164e+02 8.8349561e+02 8.0713058e-01]
  [9.5406836e+02 6.1268713e+02 7.1602678e-01]
  [9.3351178e+02 7.6574286e+02 8.7394655e-01]
  [8.8040930e+02 9.0707318e+02 8.5350609e-01]
  [9.2746564e+02 3.6248703e+02 9.3904102e-01]
  [9.4813544e+02 3.4787851e+02 8.5188550e-01]
  [9.0412518e+02 3.8317386e+02 8.8633943e-01]
  [9.5414502e+02 3.5962772e+02 8.4663302e-02]
  [9.3052191e+02 9.3945270e+02 6.9300002e-01]
  [9.2171930e+02 9.3360266e+02 5.9840858e-01]
  [8.5703290e+02 9.2169092e+02 8.0393857e-01]
  [1.0189149e+03 9.3945728e+02 6.9787115e-01]
  [1.0012406e+03 9.3644678e+02 7.3297322e-01]
  [9.6297791e+02 8.9234570e+02 6.1544359e-01]]]