[[[1.14248889e+03 3.94882446e+02 9.16435122e-01]
  [1.18672791e+03 4.41982697e+02 8.00872386e-01]
  [1.20421594e+03 4.36244995e+02 7.12561786e-01]
  [0.00000000e+00 0.00000000e+00 0.00000000e+00]
  [0.00000000e+00 0.00000000e+00 0.00000000e+00]
  [1.17481360e+03 4.47861084e+02 7.92912006e-01]
  [1.16894238e+03 5.39102600e+02 8.20705473e-01]
  [1.16300085e+03 6.27457642e+02 8.29442322e-01]
  [1.21312646e+03 6.27415161e+02 6.82583570e-01]
  [1.23366797e+03 6.27415649e+02 6.02045178e-01]
  [1.23068823e+03 7.92224365e+02 8.22306454e-01]
  [1.28379541e+03 9.27742737e+02 8.64371181e-01]
  [1.19548486e+03 6.27412109e+02 6.51263297e-01]
  [1.13948047e+03 7.68762451e+02 8.41505945e-01]
  [1.07172534e+03 9.27578308e+02 8.79269540e-01]
  [1.13659802e+03 3.86180328e+02 9.48402166e-01]
  [1.16003406e+03 3.85970612e+02 9.11436319e-01]
  [0.00000000e+00 0.00000000e+00 0.00000000e+00]
  [1.18944421e+03 3.86111664e+02 9.43937123e-01]
  [1.00416626e+03 9.45297729e+02 7.06380665e-01]
  [1.01887207e+03 9.51108765e+02 7.92874932e-01]
  [1.08066772e+03 9.48267456e+02 7.28131533e-01]
  [1.23965710e+03 9.45208252e+02 7.03289866e-01]
  [1.25135168e+03 9.33620728e+02 6.45475507e-01]
  [1.30422754e+03 9.45292664e+02 7.82974005e-01]]]