[[[9.77598694e+02 3.47753815e+02 9.23649311e-01]
  [9.77621277e+02 4.53709076e+02 9.09700394e-01]
  [9.27596436e+02 4.44955627e+02 8.22605073e-01]
  [8.74620789e+02 5.24294922e+02 8.12510967e-01]
  [9.01141602e+02 5.53823853e+02 8.64399076e-01]
  [1.02481738e+03 4.56565674e+02 8.87516975e-01]
  [1.04543945e+03 5.50833191e+02 8.13350558e-01]
  [1.04233826e+03 6.21618164e+02 7.72130370e-01]
  [9.77784790e+02 6.21547791e+02 7.48722911e-01]
  [9.54042419e+02 6.21540466e+02 7.27197289e-01]
  [1.01298737e+03 7.68731079e+02 7.95524120e-01]
  [1.01886884e+03 9.39373962e+02 7.98440397e-01]
  [1.00710779e+03 6.21572083e+02 6.96344435e-01]
  [1.02186572e+03 7.80408997e+02 7.46243834e-01]
  [9.01125122e+02 9.04055542e+02 7.75627732e-01]
  [9.57138916e+02 3.42033997e+02 9.02547061e-01]
  [9.89428528e+02 3.41813782e+02 8.93530130e-01]
  [9.42307678e+02 3.71351562e+02 8.07452679e-01]
  [1.00411841e+03 3.65531952e+02 6.17995322e-01]
  [9.24611511e+02 9.57067505e+02 7.30504453e-01]
  [9.21704529e+02 9.51223022e+02 6.82554841e-01]
  [8.68755554e+02 9.07068054e+02 6.67025566e-01]
  [1.06296057e+03 9.65836060e+02 7.40030587e-01]
  [1.04526172e+03 9.71741516e+02 7.99774766e-01]
  [1.00131964e+03 9.54123352e+02 7.74851024e-01]]]