[[[0.0000000e+00 0.0000000e+00 0.0000000e+00]
  [9.2174786e+02 5.5383252e+02 4.7245905e-01]
  [1.0129666e+03 5.8033649e+02 3.6139816e-01]
  [1.0690225e+03 6.5091864e+02 7.4136609e-01]
  [1.0482369e+03 7.3911810e+02 7.1527761e-01]
  [0.0000000e+00 0.0000000e+00 0.0000000e+00]
  [0.0000000e+00 0.0000000e+00 0.0000000e+00]
  [0.0000000e+00 0.0000000e+00 0.0000000e+00]
  [9.0713129e+02 7.0393011e+02 5.1417524e-01]
  [9.7173077e+02 7.0684692e+02 4.0926531e-01]
  [1.0483169e+03 7.8637103e+02 7.2763443e-01]
  [1.0748544e+03 9.4531757e+02 7.0382583e-01]
  [8.5409552e+02 6.9513226e+02 5.1750886e-01]
  [7.7166809e+02 7.8640717e+02 8.4823906e-01]
  [7.4237067e+02 9.4234161e+02 8.0783558e-01]
  [0.0000000e+00 0.0000000e+00 0.0000000e+00]
  [0.0000000e+00 0.0000000e+00 0.0000000e+00]
  [9.7769049e+02 5.4501141e+02 6.6273883e-02]
  [0.0000000e+00 0.0000000e+00 0.0000000e+00]
  [7.0096783e+02 9.7764215e+02 7.1963233e-01]
  [7.1269940e+02 9.7759381e+02 8.0084443e-01]
  [7.5976068e+02 9.5714276e+02 7.6953828e-01]
  [1.1189463e+03 9.7769397e+02 5.9411073e-01]
  [1.1188862e+03 9.7758026e+02 6.4513665e-01]
  [1.0689103e+03 9.5717627e+02 7.0021856e-01]]]