[[[0.0000000e+00 0.0000000e+00 0.0000000e+00]
  [6.4518195e+02 4.3012903e+02 8.8716990e-01]
  [6.9521124e+02 4.3899091e+02 7.8630728e-01]
  [7.3620068e+02 3.5960086e+02 7.2524309e-01]
  [7.4806824e+02 2.9182239e+02 7.9308879e-01]
  [5.9784497e+02 4.1265005e+02 8.3058727e-01]
  [5.5370764e+02 3.4184216e+02 8.1478071e-01]
  [5.4503003e+02 2.7718646e+02 6.7995900e-01]
  [6.2160187e+02 5.9806085e+02 7.3535740e-01]
  [6.5391711e+02 6.0384723e+02 6.5096772e-01]
  [6.2437701e+02 7.4221686e+02 8.8770413e-01]
  [6.1855383e+02 8.7757489e+02 6.8171698e-01]
  [5.8913129e+02 5.9507605e+02 6.5461093e-01]
  [5.7447552e+02 7.6274164e+02 8.4132415e-01]
  [6.0081775e+02 9.2750177e+02 8.0474794e-01]
  [0.0000000e+00 0.0000000e+00 0.0000000e+00]
  [0.0000000e+00 0.0000000e+00 0.0000000e+00]
  [6.8912976e+02 3.8309653e+02 4.7578815e-01]
  [6.2157941e+02 3.6546295e+02 3.6528987e-01]
  [5.6267212e+02 9.5998639e+02 6.1979413e-01]
  [5.7439307e+02 9.5713861e+02 7.5148106e-01]
  [6.1270270e+02 9.3937738e+02 7.8737086e-01]
  [6.2151685e+02 9.1877997e+02 1.1016096e-01]
  [0.0000000e+00 0.0000000e+00 0.0000000e+00]
  [6.2164795e+02 8.8934918e+02 4.9588090e-01]]]