[[[1.03062646e+03 3.41901062e+02 9.22176778e-01]
  [9.89442566e+02 4.33222412e+02 8.83925080e-01]
  [9.30594666e+02 4.12505127e+02 8.63614142e-01]
  [8.62838074e+02 4.33255249e+02 8.71395171e-01]
  [8.80505066e+02 4.65606812e+02 8.39648962e-01]
  [1.04532520e+03 4.56642426e+02 8.84147048e-01]
  [1.04529163e+03 5.50936890e+02 8.48786175e-01]
  [1.02182251e+03 6.03880371e+02 8.79931569e-01]
  [9.62933167e+02 6.12728943e+02 7.01660275e-01]
  [9.27503601e+02 6.06834717e+02 6.88460886e-01]
  [8.95222717e+02 7.86381104e+02 8.37199688e-01]
  [8.56963684e+02 9.33489136e+02 8.55614305e-01]
  [1.00120416e+03 6.18533813e+02 7.43548036e-01]
  [1.11307068e+03 7.15589050e+02 8.72254491e-01]
  [1.09834924e+03 8.83409851e+02 8.15213799e-01]
  [1.01876941e+03 3.36062408e+02 8.86610985e-01]
  [1.03950024e+03 3.39004852e+02 7.10541129e-01]
  [9.80585938e+02 3.59544739e+02 8.61600697e-01]
  [1.04240063e+03 3.80133362e+02 9.26578268e-02]
  [1.15133643e+03 9.07066528e+02 3.80041420e-01]
  [1.14838501e+03 9.03987366e+02 4.06842530e-01]
  [1.08362878e+03 9.03944092e+02 7.10882306e-01]
  [8.39371765e+02 9.68804688e+02 7.37399399e-01]
  [8.27517456e+02 9.57074341e+02 7.77334690e-01]
  [8.59994324e+02 9.51236938e+02 7.92806268e-01]]]