[[[1.1483531e+03 4.4792346e+02 8.3743644e-01]
  [1.0952708e+03 5.0086636e+02 8.5369802e-01]
  [1.0512169e+03 4.5974677e+02 7.1083170e-01]
  [1.0484137e+03 4.5664261e+02 8.2724035e-01]
  [1.1158851e+03 4.3606638e+02 5.6334698e-01]
  [1.1393982e+03 5.3330396e+02 7.7727091e-01]
  [1.1483474e+03 6.3918848e+02 8.1331885e-01]
  [1.0954581e+03 6.6268811e+02 8.5983545e-01]
  [1.0218735e+03 6.6572046e+02 7.1475124e-01]
  [9.7767133e+02 6.5099957e+02 6.8891054e-01]
  [8.8356854e+02 7.9224036e+02 8.7249458e-01]
  [8.5699146e+02 9.3357520e+02 8.4411502e-01]
  [1.0688770e+03 6.7457037e+02 6.9851422e-01]
  [1.1425309e+03 7.9220410e+02 8.6502844e-01]
  [1.1161033e+03 9.3052191e+02 9.0785652e-01]
  [1.1455222e+03 4.3020636e+02 8.4863651e-01]
  [1.1660330e+03 4.5373761e+02 9.0710342e-01]
  [1.1188423e+03 4.1550400e+02 6.6801578e-01]
  [1.1632123e+03 4.8014984e+02 5.4677778e-01]
  [1.1600769e+03 9.7166241e+02 7.7873892e-01]
  [1.1630579e+03 9.5700311e+02 8.1503755e-01]
  [1.0983280e+03 9.4523853e+02 7.7213103e-01]
  [8.0978973e+02 9.6584570e+02 7.0415825e-01]
  [8.0692297e+02 9.5410602e+02 7.4897110e-01]
  [8.6584790e+02 9.5405237e+02 7.8873914e-01]]]