[[[1.02184320e+03 6.00794678e+02 8.38213027e-01]
  [9.80575989e+02 6.42034668e+02 7.90733218e-01]
  [9.30549683e+02 6.86249939e+02 5.79378426e-01]
  [9.12904785e+02 7.89379761e+02 5.65404713e-01]
  [8.98232361e+02 8.56900757e+02 4.24536675e-01]
  [1.02484143e+03 5.92141052e+02 8.56557667e-01]
  [1.05135229e+03 6.68704895e+02 8.68503511e-01]
  [1.08653052e+03 7.39216064e+02 8.46412659e-01]
  [1.01887976e+03 7.33380371e+02 5.78214467e-01]
  [9.74793457e+02 7.45151184e+02 5.34752190e-01]
  [8.83367737e+02 7.68681458e+02 8.57333064e-01]
  [8.74623291e+02 9.33537842e+02 7.80402899e-01]
  [1.05124133e+03 7.15721069e+02 5.26105702e-01]
  [1.11899255e+03 7.71666077e+02 8.53951395e-01]
  [1.11894128e+03 9.30640015e+02 8.57515693e-01]
  [1.00712817e+03 5.98068115e+02 6.41817093e-01]
  [1.01295343e+03 5.89121887e+02 2.77764350e-01]
  [9.77593201e+02 6.27501343e+02 4.54146236e-01]
  [0.00000000e+00 0.00000000e+00 0.00000000e+00]
  [1.12480054e+03 9.71717834e+02 7.29216576e-01]
  [1.14256885e+03 9.62996399e+02 7.59845674e-01]
  [1.11009167e+03 9.48189514e+02 7.13127851e-01]
  [8.33479492e+02 9.60053833e+02 7.28848755e-01]
  [8.27570068e+02 9.54058777e+02 7.58366883e-01]
  [8.83460510e+02 9.54075134e+02 8.37565899e-01]]]