[[[9.6588385e+02 3.5076727e+02 8.5506892e-01]
  [9.5125043e+02 4.5086630e+02 8.7173468e-01]
  [8.9816211e+02 4.4786530e+02 7.8780973e-01]
  [8.3342407e+02 5.0385983e+02 9.0034741e-01]
  [7.5692279e+02 4.6266177e+02 8.1529647e-01]
  [1.0041958e+03 4.5655325e+02 8.1170481e-01]
  [1.0453264e+03 5.3622711e+02 8.6323470e-01]
  [1.0658535e+03 4.9204483e+02 8.0617952e-01]
  [9.5422772e+02 6.4211835e+02 7.6340389e-01]
  [9.1884296e+02 6.3916693e+02 7.1120334e-01]
  [7.9524200e+02 7.1566003e+02 8.8155371e-01]
  [8.6291541e+02 8.5997314e+02 8.2390881e-01]
  [9.9535718e+02 6.4500891e+02 7.2275782e-01]
  [9.7455597e+02 7.8628748e+02 8.9827418e-01]
  [1.0099987e+03 9.3644391e+02 7.9129010e-01]
  [9.6290649e+02 3.3883096e+02 8.9159364e-01]
  [9.8359491e+02 3.4788226e+02 8.3351290e-01]
  [9.4230585e+02 3.4188864e+02 1.2084798e-01]
  [1.0011000e+03 3.8305911e+02 8.7335420e-01]
  [9.5111945e+02 9.6299200e+02 8.2393861e-01]
  [9.6887256e+02 9.7175897e+02 8.0119598e-01]
  [1.0248854e+03 9.5407996e+02 8.7680870e-01]
  [8.1867926e+02 9.1289526e+02 7.1457696e-01]
  [8.1579547e+02 9.0414410e+02 7.0178336e-01]
  [8.8641553e+02 8.7172955e+02 7.2469682e-01]]]