[[[1.0276830e+03 3.6252954e+02 7.4262965e-01]
  [1.0718604e+03 4.1546652e+02 6.6023880e-01]
  [1.0806636e+03 4.2139774e+02 4.2450419e-01]
  [1.0012029e+03 3.4184250e+02 1.4144033e-01]
  [0.0000000e+00 0.0000000e+00 0.0000000e+00]
  [1.0687819e+03 4.0962024e+02 7.8864765e-01]
  [9.9827112e+02 3.3309555e+02 8.6814833e-01]
  [9.5702832e+02 2.5947031e+02 8.3964270e-01]
  [1.0453409e+03 5.9497009e+02 5.6725705e-01]
  [1.0482404e+03 5.9209314e+02 4.7176328e-01]
  [1.0248354e+03 7.6865967e+02 6.1965311e-01]
  [1.0687499e+03 9.2168854e+02 5.6945109e-01]
  [1.0424071e+03 5.9504065e+02 5.7166809e-01]
  [1.0277241e+03 7.8040155e+02 7.6205307e-01]
  [1.0717706e+03 9.3048853e+02 8.2891941e-01]
  [1.0335507e+03 3.5365829e+02 2.7666187e-01]
  [1.0452301e+03 3.5657068e+02 8.3068484e-01]
  [0.0000000e+00 0.0000000e+00 0.0000000e+00]
  [1.0717546e+03 3.6847690e+02 5.8892357e-01]
  [1.0071540e+03 9.4522382e+02 7.1830666e-01]
  [1.0218728e+03 9.5118341e+02 7.7893811e-01]
  [1.0894576e+03 9.4815198e+02 8.0871993e-01]
  [1.0188374e+03 9.3050995e+02 3.9856601e-01]
  [1.0218891e+03 9.2762787e+02 3.7943041e-01]
  [1.0865900e+03 9.3346588e+02 1.7011072e-01]]]