[[[1.0099892e+03 3.6258185e+02 9.0445423e-01]
  [9.7172601e+02 4.5074805e+02 7.8378212e-01]
  [9.5106763e+02 4.3618130e+02 8.7960297e-01]
  [9.3071368e+02 5.4203284e+02 8.0883741e-01]
  [9.5112360e+02 6.4495245e+02 8.5484040e-01]
  [9.8944666e+02 4.5665720e+02 7.3045373e-01]
  [1.0453329e+03 4.8327692e+02 3.5638022e-01]
  [1.0246425e+03 4.1552802e+02 4.0575352e-01]
  [9.3345490e+02 6.3920862e+02 7.2687835e-01]
  [9.1003217e+02 6.3626263e+02 6.7479396e-01]
  [8.8343207e+02 7.8638489e+02 8.8213682e-01]
  [7.9806976e+02 9.3046179e+02 8.2614022e-01]
  [9.5420984e+02 6.4214062e+02 7.0131785e-01]
  [9.9240717e+02 7.8639502e+02 8.5165453e-01]
  [9.9533344e+02 9.2471265e+02 8.5207969e-01]
  [9.9530383e+02 3.5373599e+02 8.7077743e-01]
  [1.0188718e+03 3.5947931e+02 8.2429606e-01]
  [9.6005548e+02 3.7725641e+02 8.2784212e-01]
  [1.0217356e+03 3.8910526e+02 1.4737646e-01]
  [1.0483053e+03 9.4525378e+02 7.7308738e-01]
  [1.0454429e+03 9.3068359e+02 7.5663525e-01]
  [9.7771222e+02 9.3357635e+02 7.8141600e-01]
  [8.5403436e+02 9.6589545e+02 7.6820147e-01]
  [8.3349493e+02 9.6882623e+02 7.7334744e-01]
  [7.8038385e+02 9.3649060e+02 7.7926427e-01]]]