[[[9.51258972e+02 5.92108276e+02 9.40535069e-01]
  [9.77608032e+02 6.71526123e+02 9.05100107e-01]
  [9.30570068e+02 6.68600098e+02 8.42652678e-01]
  [8.77476135e+02 7.24603455e+02 7.77214885e-01]
  [7.98118164e+02 7.89390442e+02 8.43368173e-01]
  [1.02191559e+03 6.74511108e+02 8.55692685e-01]
  [9.98122742e+02 7.86370911e+02 8.49197149e-01]
  [9.15862976e+02 8.83585815e+02 7.30934441e-01]
  [9.68843567e+02 8.51108521e+02 7.43115783e-01]
  [9.36418213e+02 8.33462891e+02 7.43548036e-01]
  [8.12852112e+02 8.09977783e+02 8.66586804e-01]
  [9.04127930e+02 9.24638123e+02 4.68684494e-01]
  [9.98168579e+02 8.60038208e+02 6.92471385e-01]
  [8.80550598e+02 9.60063354e+02 8.50937605e-01]
  [1.02184106e+03 9.27580200e+02 7.55439520e-01]
  [9.36457520e+02 5.80280457e+02 8.90412748e-01]
  [9.62937561e+02 5.74483582e+02 8.97318721e-01]
  [9.27636414e+02 6.00897827e+02 1.17557704e-01]
  [9.98193604e+02 5.77460815e+02 8.40915680e-01]
  [1.04523181e+03 9.71753906e+02 7.93269575e-01]
  [1.05119629e+03 9.54218262e+02 7.96501815e-01]
  [1.03947839e+03 9.01176086e+02 4.40447718e-01]
  [0.00000000e+00 0.00000000e+00 0.00000000e+00]
  [0.00000000e+00 0.00000000e+00 0.00000000e+00]
  [0.00000000e+00 0.00000000e+00 0.00000000e+00]]]