[[[9.98331970e+02 3.59621033e+02 9.49763775e-01]
  [1.01586810e+03 4.39145966e+02 8.30082297e-01]
  [9.51173523e+02 4.39100647e+02 8.49102557e-01]
  [9.10012451e+02 5.27395935e+02 9.22637105e-01]
  [9.45268250e+02 5.97923096e+02 8.96263003e-01]
  [1.07198560e+03 4.39151459e+02 7.89659560e-01]
  [1.16591101e+03 4.94982574e+02 8.84905517e-01]
  [1.16900671e+03 4.53755829e+02 8.61300349e-01]
  [1.01303156e+03 6.21539917e+02 7.31388927e-01]
  [9.74619568e+02 6.21496277e+02 7.61187911e-01]
  [8.89381531e+02 7.65724060e+02 8.55056286e-01]
  [8.83344543e+02 9.27616272e+02 8.55320215e-01]
  [1.05126257e+03 6.21550842e+02 7.16421604e-01]
  [1.07197791e+03 7.83284058e+02 8.48092079e-01]
  [1.11002942e+03 9.24715271e+02 8.22462916e-01]
  [9.86478027e+02 3.44969971e+02 8.68945003e-01]
  [1.01593359e+03 3.44921143e+02 8.60022485e-01]
  [9.74702759e+02 3.65576935e+02 4.09251869e-01]
  [1.04246155e+03 3.65516022e+02 8.23468983e-01]
  [1.09248547e+03 9.54012878e+02 7.80150771e-01]
  [1.11591602e+03 9.51285278e+02 8.23118806e-01]
  [1.11308789e+03 9.33467407e+02 7.19640911e-01]
  [8.12946533e+02 9.54039795e+02 7.29114354e-01]
  [8.15874878e+02 9.48164429e+02 6.69598341e-01]
  [9.01131104e+02 9.42369812e+02 7.48098254e-01]]]