[[[1.0041492e+03 2.9785321e+02 8.8980150e-01]
  [9.8350616e+02 3.8013345e+02 8.3707666e-01]
  [9.3050629e+02 3.6562061e+02 8.8137615e-01]
  [8.8361584e+02 4.6844958e+02 8.5998654e-01]
  [8.6587933e+02 5.7451019e+02 8.8658625e-01]
  [1.0423138e+03 3.8608643e+02 8.2366371e-01]
  [1.0277712e+03 4.6551166e+02 6.2263334e-01]
  [1.0306860e+03 5.0677582e+02 8.0334300e-01]
  [9.7772211e+02 5.6268774e+02 7.3848712e-01]
  [9.4521356e+02 5.6562067e+02 6.7059398e-01]
  [9.5414056e+02 7.6567682e+02 8.8350046e-01]
  [9.6590680e+02 9.5125195e+02 8.0044270e-01]
  [1.0188244e+03 5.6264764e+02 7.0288736e-01]
  [1.0894381e+03 6.9801837e+02 8.5052544e-01]
  [1.0248579e+03 8.3346521e+02 8.6296237e-01]
  [9.9239014e+02 2.9179584e+02 9.1429675e-01]
  [1.0218200e+03 2.9193796e+02 9.5229310e-01]
  [9.6589337e+02 3.0370117e+02 7.9730177e-01]
  [1.0394290e+03 3.1527988e+02 6.8261880e-01]
  [1.0482817e+03 9.0698010e+02 7.6610827e-01]
  [1.0600679e+03 8.9526855e+02 6.8532819e-01]
  [1.0012926e+03 8.3350543e+02 8.0571926e-01]
  [9.6294305e+02 9.9238538e+02 6.9790041e-01]
  [9.4526331e+02 9.8648340e+02 7.2021520e-01]
  [9.7481323e+02 9.6884796e+02 7.0657772e-01]]]