[[[1.1188790e+03 3.3893875e+02 9.5337665e-01]
  [1.1218992e+03 4.3307907e+02 8.8592666e-01]
  [1.0688090e+03 4.3911185e+02 8.0308133e-01]
  [9.9237958e+02 5.3019684e+02 8.6794972e-01]
  [9.8058197e+02 4.6842566e+02 8.4495419e-01]
  [1.1866233e+03 4.1546475e+02 8.3198559e-01]
  [1.2719692e+03 3.6249899e+02 8.9015234e-01]
  [1.2307413e+03 3.3893390e+02 8.9143175e-01]
  [1.1278199e+03 6.2151819e+02 7.0605254e-01]
  [1.0922924e+03 6.2445984e+02 7.0964563e-01]
  [1.0895548e+03 7.8621521e+02 8.7035203e-01]
  [1.0718657e+03 9.3644812e+02 8.3195585e-01]
  [1.1689375e+03 6.1860059e+02 7.1528411e-01]
  [1.2808591e+03 7.4513062e+02 8.7571514e-01]
  [1.3013766e+03 9.0996722e+02 7.8221810e-01]
  [1.1042003e+03 3.2722336e+02 8.3935446e-01]
  [1.1365461e+03 3.3306067e+02 8.6965299e-01]
  [1.0865028e+03 3.5080157e+02 7.6015764e-01]
  [1.1454865e+03 3.5950330e+02 7.6006126e-01]
  [1.3278949e+03 9.7171448e+02 7.4340606e-01]
  [1.3367148e+03 9.5421252e+02 7.2624481e-01]
  [1.2806974e+03 9.2752924e+02 7.0858204e-01]
  [1.0924757e+03 9.7456299e+02 8.0176336e-01]
  [1.0717340e+03 9.7457178e+02 7.9126084e-01]
  [1.0689467e+03 9.5121466e+02 7.0426857e-01]]]