[[[9.98155334e+02 3.62369476e+02 9.46149290e-01]
  [9.92306274e+02 4.33262451e+02 8.69040608e-01]
  [9.39361755e+02 4.39104034e+02 8.11580598e-01]
  [8.56972229e+02 4.65600922e+02 8.68111849e-01]
  [9.03926331e+02 4.03710236e+02 7.96643734e-01]
  [1.04524304e+03 4.27233490e+02 8.40736508e-01]
  [1.06004443e+03 5.06824921e+02 8.45446587e-01]
  [1.02177124e+03 5.97982239e+02 9.04582918e-01]
  [9.77794556e+02 6.12699280e+02 7.21112013e-01]
  [9.45270935e+02 6.12700378e+02 6.79815233e-01]
  [8.89422180e+02 7.68702148e+02 8.44565809e-01]
  [8.74678711e+02 9.15899353e+02 8.03789496e-01]
  [1.02172931e+03 6.12707947e+02 6.95870161e-01]
  [1.02178302e+03 7.86323303e+02 9.02706504e-01]
  [1.06883643e+03 9.27718933e+02 8.69364381e-01]
  [9.80638000e+02 3.44895416e+02 9.16454852e-01]
  [1.00713409e+03 3.50694550e+02 8.50943327e-01]
  [9.62930908e+02 3.62539734e+02 8.29106212e-01]
  [1.02461694e+03 3.65566193e+02 8.12283933e-01]
  [1.03946472e+03 9.57145264e+02 7.19466329e-01]
  [1.06011108e+03 9.59965454e+02 7.39863992e-01]
  [1.08070984e+03 9.45243408e+02 7.20895827e-01]
  [8.56935120e+02 9.54145020e+02 8.33231390e-01]
  [8.36480469e+02 9.51051025e+02 8.23779762e-01]
  [8.83388123e+02 9.30605164e+02 8.83065283e-01]]]