[[[8.56960144e+02 3.86036163e+02 8.48006368e-01]
  [8.77602783e+02 4.80229218e+02 9.11445618e-01]
  [8.15807312e+02 4.83353210e+02 8.39779615e-01]
  [8.30449829e+02 5.80381348e+02 6.81816339e-01]
  [8.74664062e+02 5.89144653e+02 8.68073851e-02]
  [9.30681519e+02 4.74343781e+02 8.24911535e-01]
  [9.68809692e+02 5.59703247e+02 7.87577868e-01]
  [1.02484302e+03 6.00791870e+02 7.91629195e-01]
  [9.27661743e+02 6.42172668e+02 7.60987759e-01]
  [8.83603699e+02 6.48035217e+02 7.45367169e-01]
  [8.60017456e+02 7.92309814e+02 8.75862360e-01]
  [8.18803650e+02 9.27607117e+02 8.33415985e-01]
  [9.68861694e+02 6.33259094e+02 6.81014359e-01]
  [1.01876404e+03 7.89216980e+02 8.88262331e-01]
  [1.04522449e+03 9.27483521e+02 8.51227403e-01]
  [8.42310242e+02 3.77246155e+02 7.58256078e-01]
  [8.71652771e+02 3.71357208e+02 7.89966166e-01]
  [8.33456055e+02 4.03672424e+02 5.39644241e-01]
  [8.98148499e+02 3.89095825e+02 8.12119424e-01]
  [1.04541602e+03 9.57108887e+02 7.87059367e-01]
  [1.06875549e+03 9.54066223e+02 8.25130820e-01]
  [1.03362073e+03 9.33595520e+02 6.85833633e-01]
  [8.24622314e+02 9.54118286e+02 7.62749255e-01]
  [8.06920959e+02 9.51226685e+02 7.93130636e-01]
  [8.21635681e+02 9.36421326e+02 6.63180470e-01]]]