[[[1.0953877e+03 3.3883078e+02 8.8854444e-01]
  [1.1042511e+03 4.0967807e+02 7.5369108e-01]
  [1.0893975e+03 4.0962247e+02 7.9550362e-01]
  [1.0865565e+03 5.0679697e+02 8.3026785e-01]
  [1.0925288e+03 6.0104541e+02 8.5637623e-01]
  [1.1219519e+03 4.0966129e+02 6.8963015e-01]
  [1.1395709e+03 5.2149158e+02 5.1437747e-01]
  [1.1629125e+03 6.0685504e+02 5.8333588e-01]
  [1.1100330e+03 6.1558588e+02 6.7768753e-01]
  [1.0865447e+03 6.1561292e+02 6.4838022e-01]
  [1.0984152e+03 7.5398206e+02 7.8523284e-01]
  [1.1101173e+03 9.2768292e+02 7.4386835e-01]
  [1.1306896e+03 6.1271759e+02 6.5114826e-01]
  [1.1365833e+03 7.5103912e+02 8.0024445e-01]
  [1.0924976e+03 9.2173608e+02 7.3852557e-01]
  [1.0719951e+03 3.3312695e+02 8.6936182e-01]
  [1.0983453e+03 3.1835599e+02 8.8688385e-01]
  [1.0571226e+03 3.5659348e+02 6.8706048e-01]
  [1.1189630e+03 3.2141898e+02 2.1738088e-01]
  [1.1453827e+03 9.7168585e+02 1.8146548e-01]
  [0.0000000e+00 0.0000000e+00 0.0000000e+00]
  [1.0690050e+03 9.3359521e+02 6.5186620e-01]
  [1.1629592e+03 9.7459418e+02 8.2488501e-01]
  [1.1424218e+03 9.7474854e+02 7.7818871e-01]
  [1.0923788e+03 9.4826422e+02 6.3067096e-01]]]