[[[1.05419617e+03 3.77217743e+02 6.49143994e-01]
  [1.02771985e+03 4.59632812e+02 8.75931919e-01]
  [9.71747925e+02 4.39131256e+02 7.91077673e-01]
  [9.24703674e+02 5.30231628e+02 9.10942793e-01]
  [9.48270264e+02 6.24353455e+02 9.29349899e-01]
  [1.09253723e+03 4.80292023e+02 8.76417994e-01]
  [1.07191907e+03 5.80303284e+02 8.78282607e-01]
  [1.01298486e+03 6.45082947e+02 8.80224943e-01]
  [9.71820312e+02 6.24498901e+02 7.73990095e-01]
  [9.27561035e+02 6.15677002e+02 7.37891436e-01]
  [8.86459473e+02 7.74598206e+02 8.35788310e-01]
  [8.42229492e+02 9.30684692e+02 8.19799781e-01]
  [1.01875189e+03 6.39142090e+02 7.31917322e-01]
  [1.06876111e+03 7.86225769e+02 8.79231155e-01]
  [1.09828687e+03 9.30677063e+02 8.46195817e-01]
  [1.04525659e+03 3.62568634e+02 7.37738371e-01]
  [1.06886133e+03 3.65382416e+02 7.23523080e-01]
  [1.01293604e+03 3.77184937e+02 6.87904954e-01]
  [1.07777551e+03 3.88917847e+02 4.03491735e-01]
  [1.13947827e+03 9.68797852e+02 7.87709951e-01]
  [1.14263892e+03 9.54203796e+02 8.20811331e-01]
  [1.09230566e+03 9.53991028e+02 8.43874276e-01]
  [8.15729431e+02 9.62984558e+02 7.09722042e-01]
  [8.06956482e+02 9.54110413e+02 7.87285149e-01]
  [8.53969360e+02 9.51239624e+02 8.29317391e-01]]]