[[[1.1867150e+03 6.2164465e+02 9.0884817e-01]
  [1.1600402e+03 6.9505640e+02 7.4673009e-01]
  [1.1425592e+03 6.9519525e+02 7.6359719e-01]
  [1.1984451e+03 8.0397595e+02 7.8493387e-01]
  [1.2543263e+03 8.8341724e+02 8.3202010e-01]
  [1.1661050e+03 6.9214258e+02 6.8755847e-01]
  [1.2308040e+03 7.8043213e+02 8.1865442e-01]
  [1.3044320e+03 8.5409351e+02 8.8628066e-01]
  [1.0453882e+03 8.5686365e+02 5.3235316e-01]
  [1.0423329e+03 8.5989374e+02 6.5455002e-01]
  [1.1925764e+03 8.4223199e+02 8.3414358e-01]
  [1.0895604e+03 9.4821814e+02 8.0592644e-01]
  [1.0542133e+03 8.4231390e+02 4.0812102e-01]
  [1.1836628e+03 8.3041937e+02 4.7247860e-01]
  [1.0954719e+03 9.3643616e+02 4.1019472e-01]
  [1.1690221e+03 6.1266833e+02 8.0281639e-01]
  [1.1924857e+03 6.0681689e+02 8.0774081e-01]
  [1.1424467e+03 6.2433606e+02 7.5742030e-01]
  [0.0000000e+00 0.0000000e+00 0.0000000e+00]
  [1.1483312e+03 9.5709192e+02 2.8912985e-01]
  [1.1425874e+03 9.5408679e+02 2.4185926e-01]
  [1.0689685e+03 9.4529590e+02 1.1885870e-01]
  [1.1512770e+03 9.6886517e+02 7.6375771e-01]
  [1.1394191e+03 9.7465076e+02 7.8483516e-01]
  [1.0688042e+03 9.5413733e+02 8.0176860e-01]]]