[[[1.1396713e+03 4.3903964e+02 9.6344149e-01]
  [1.1396648e+03 5.2721326e+02 9.2250007e-01]
  [1.0952897e+03 5.2724384e+02 8.8976026e-01]
  [1.0895044e+03 6.0395367e+02 7.3797882e-01]
  [1.0923689e+03 6.7150482e+02 8.9343798e-01]
  [1.1866433e+03 5.2725848e+02 8.8923573e-01]
  [1.2367438e+03 5.9811517e+02 9.2544639e-01]
  [1.1600653e+03 6.1863904e+02 8.5207433e-01]
  [1.1513167e+03 6.9502252e+02 7.4177527e-01]
  [1.1219336e+03 6.9518872e+02 7.5121582e-01]
  [1.0424226e+03 7.8636096e+02 9.0501130e-01]
  [1.0955145e+03 9.2177686e+02 8.2703805e-01]
  [1.1807488e+03 6.9217456e+02 7.1037865e-01]
  [1.1190746e+03 8.1274005e+02 9.4434202e-01]
  [1.2072797e+03 9.3044189e+02 8.8173175e-01]
  [1.1336299e+03 4.3025165e+02 8.9615816e-01]
  [1.1601409e+03 4.3322394e+02 9.2048717e-01]
  [1.1160575e+03 4.3621017e+02 2.4647838e-01]
  [1.1836058e+03 4.5085355e+02 7.1155530e-01]
  [1.1600402e+03 9.5128058e+02 8.1672847e-01]
  [1.1719497e+03 9.5418982e+02 7.8246152e-01]
  [1.2277747e+03 9.3652448e+02 7.6247674e-01]
  [1.0452681e+03 9.4522577e+02 8.1505537e-01]
  [1.0481849e+03 9.3350830e+02 8.1464142e-01]
  [1.1161252e+03 9.3070117e+02 8.3617991e-01]]]