[[[1.02168280e+03 3.91975616e+02 9.23126936e-01]
  [1.00715234e+03 4.59663177e+02 8.82255673e-01]
  [9.60001038e+02 4.41961578e+02 7.99376726e-01]
  [9.48134827e+02 3.38939087e+02 9.18859005e-01]
  [1.01303345e+03 3.12489807e+02 8.42523336e-01]
  [1.05425781e+03 4.80227692e+02 8.41352820e-01]
  [1.08660889e+03 5.56741577e+02 8.13837588e-01]
  [1.08657153e+03 5.92041443e+02 8.10000420e-01]
  [1.03062927e+03 6.47935791e+02 7.62738466e-01]
  [9.98131531e+02 6.47971863e+02 7.66938090e-01]
  [9.48202698e+02 7.92225464e+02 8.57888222e-01]
  [8.83476746e+02 9.27482178e+02 8.75010729e-01]
  [1.06898730e+03 6.45163635e+02 7.95626462e-01]
  [1.08648584e+03 7.71588135e+02 8.20151210e-01]
  [1.11002942e+03 9.24675842e+02 8.30020547e-01]
  [1.00125903e+03 3.86018250e+02 9.66031134e-01]
  [1.02769275e+03 3.86075195e+02 9.14434731e-01]
  [9.77720398e+02 3.94942505e+02 8.05063605e-01]
  [1.04538232e+03 4.00784088e+02 3.89294773e-01]
  [1.09231250e+03 9.51101074e+02 7.61713505e-01]
  [1.11298792e+03 9.51160400e+02 7.75351346e-01]
  [1.11308899e+03 9.33460327e+02 7.49059796e-01]
  [8.65803772e+02 9.51210632e+02 7.55397975e-01]
  [8.54052002e+02 9.45216003e+02 7.67990351e-01]
  [8.86417480e+02 9.36514343e+02 7.36614585e-01]]]