[[[8.0688763e+02 3.2428665e+02 8.7953210e-01]
  [8.1299457e+02 4.3018341e+02 8.8113225e-01]
  [7.5691705e+02 4.3597354e+02 8.6570835e-01]
  [7.4515619e+02 5.2720471e+02 8.7144023e-01]
  [7.4213660e+02 5.8617480e+02 8.9540178e-01]
  [8.8049463e+02 4.1558600e+02 8.1855732e-01]
  [9.3057812e+02 4.8609015e+02 9.0489143e-01]
  [9.1294116e+02 4.0974045e+02 8.5312384e-01]
  [8.1870483e+02 6.2161383e+02 7.5001770e-01]
  [7.8039490e+02 6.2159161e+02 7.4927801e-01]
  [6.9224475e+02 7.6566083e+02 9.0043211e-01]
  [6.8622290e+02 9.3056519e+02 7.8312504e-01]
  [8.6003003e+02 6.2156750e+02 7.5786614e-01]
  [8.9813800e+02 7.8639490e+02 8.4817111e-01]
  [9.3937463e+02 9.3355365e+02 7.9909253e-01]
  [7.8933887e+02 3.1552524e+02 9.6510065e-01]
  [8.1870270e+02 3.1832874e+02 9.0219522e-01]
  [7.7452887e+02 3.3900955e+02 7.3256028e-01]
  [8.3931982e+02 3.4192041e+02 8.3240920e-01]
  [9.0695813e+02 9.7172797e+02 7.4547619e-01]
  [9.2768665e+02 9.7459650e+02 7.5600439e-01]
  [9.5406049e+02 9.5122223e+02 8.0659604e-01]
  [6.0971893e+02 9.6880798e+02 6.7527211e-01]
  [6.1851672e+02 9.5423993e+02 6.4804399e-01]
  [6.9804291e+02 9.5104602e+02 7.8292733e-01]]]