[[[1.2103021e+03 3.4487967e+02 9.2703217e-01]
  [1.2072897e+03 4.1264386e+02 8.4993762e-01]
  [1.1571578e+03 4.1248300e+02 8.2140660e-01]
  [1.1719833e+03 4.3018558e+02 7.4213576e-01]
  [1.2602255e+03 4.2726773e+02 7.6175433e-01]
  [1.2573085e+03 4.1845590e+02 6.6088980e-01]
  [1.2836395e+03 4.5669510e+02 5.9124219e-01]
  [1.2807671e+03 4.1252167e+02 2.4236634e-01]
  [1.2101788e+03 6.0686340e+02 7.1108204e-01]
  [1.1689939e+03 6.0681781e+02 6.7440486e-01]
  [1.1159197e+03 7.8626245e+02 9.1418326e-01]
  [1.0719480e+03 9.3353461e+02 8.2368541e-01]
  [1.2455139e+03 6.0686420e+02 6.5240937e-01]
  [1.3102893e+03 7.8635406e+02 8.8727641e-01]
  [1.3308120e+03 9.3066608e+02 8.6240387e-01]
  [1.1926204e+03 3.4184262e+02 9.0340561e-01]
  [1.2277987e+03 3.4179251e+02 8.9109069e-01]
  [1.1778195e+03 3.6544653e+02 8.2140088e-01]
  [1.2395862e+03 3.6542102e+02 7.6444978e-01]
  [1.3544990e+03 9.6887402e+02 7.0928425e-01]
  [1.3748826e+03 9.5708862e+02 7.7359235e-01]
  [1.3190529e+03 9.5121924e+02 7.6593709e-01]
  [1.0748621e+03 9.7174847e+02 6.9172740e-01]
  [1.0512607e+03 9.6297333e+02 6.8095911e-01]
  [1.0748175e+03 9.5114209e+02 6.7285109e-01]]]