[[[1.00122968e+03 4.21370605e+02 8.82757187e-01]
  [9.57098328e+02 4.80248444e+02 8.99768174e-01]
  [9.07146545e+02 4.53694305e+02 8.38160098e-01]
  [8.56825012e+02 5.15622009e+02 8.64050150e-01]
  [9.04167664e+02 5.95090881e+02 9.02072132e-01]
  [1.00424146e+03 5.06740417e+02 8.19456697e-01]
  [9.98108398e+02 5.98031860e+02 8.61508012e-01]
  [1.00714661e+03 6.77509705e+02 7.99708843e-01]
  [9.24696594e+02 6.36232971e+02 7.26008415e-01]
  [8.83454834e+02 6.24512146e+02 7.59858668e-01]
  [8.39284363e+02 7.89242981e+02 8.80600274e-01]
  [8.13013367e+02 9.21766907e+02 8.46482277e-01]
  [9.57171570e+02 6.45088440e+02 7.34376192e-01]
  [1.02178101e+03 7.86362244e+02 8.72939944e-01]
  [1.08657129e+03 9.12858337e+02 7.91966736e-01]
  [1.00118732e+03 4.09559906e+02 9.37997699e-01]
  [1.02177368e+03 4.24278534e+02 8.85453343e-01]
  [9.77673767e+02 4.06726471e+02 7.42053866e-01]
  [1.02483801e+03 4.47817657e+02 7.70842910e-01]
  [1.12780322e+03 9.51015625e+02 7.64378130e-01]
  [1.13651318e+03 9.36396362e+02 7.57764816e-01]
  [1.07189709e+03 9.27736389e+02 7.68986404e-01]
  [8.12940308e+02 9.51126892e+02 8.09626877e-01]
  [7.95134521e+02 9.48197693e+02 7.75612772e-01]
  [8.21627258e+02 9.30639221e+02 7.24643946e-01]]]