[[[1.1897292e+03 3.3302582e+02 8.9258027e-01]
  [1.2102725e+03 4.1266232e+02 9.1781336e-01]
  [1.1455172e+03 4.0963452e+02 8.1714916e-01]
  [1.0422955e+03 4.0970966e+02 9.0415668e-01]
  [1.0071122e+03 4.8028143e+02 8.6955696e-01]
  [1.2748887e+03 4.2433167e+02 7.7411211e-01]
  [1.3042454e+03 5.1264423e+02 7.6460546e-01]
  [1.3043016e+03 5.7735907e+02 8.7736946e-01]
  [1.2335896e+03 6.2738824e+02 7.3255223e-01]
  [1.1867039e+03 6.2739679e+02 7.3040062e-01]
  [1.1542705e+03 7.8638367e+02 8.6218607e-01]
  [1.0953306e+03 9.1291351e+02 8.3700246e-01]
  [1.2778220e+03 6.2450604e+02 7.1873224e-01]
  [1.3072874e+03 7.7460339e+02 8.4694505e-01]
  [1.3308392e+03 9.3063562e+02 8.5706937e-01]
  [1.1778281e+03 3.2141138e+02 8.5335499e-01]
  [1.2072609e+03 3.1823367e+02 9.3776363e-01]
  [1.1659791e+03 3.4497894e+02 6.3145238e-01]
  [1.2337211e+03 3.3312015e+02 8.1161064e-01]
  [1.3573502e+03 9.7169690e+02 6.9888836e-01]
  [1.3749521e+03 9.5994861e+02 7.6690918e-01]
  [1.3191001e+03 9.5119025e+02 7.8901637e-01]
  [1.0953672e+03 9.6589465e+02 7.9075265e-01]
  [1.0719349e+03 9.5419702e+02 8.1388682e-01]
  [1.0923480e+03 9.2468915e+02 6.8657380e-01]]]