[[[1.03647192e+03 3.89142975e+02 9.04226542e-01]
  [1.01293805e+03 4.68458862e+02 8.00608158e-01]
  [9.57090820e+02 4.53765533e+02 7.90292561e-01]
  [9.71793823e+02 3.41971985e+02 8.99252236e-01]
  [9.92380920e+02 2.65423187e+02 8.80338848e-01]
  [1.06305359e+03 4.83338806e+02 8.03567946e-01]
  [1.06889185e+03 5.80380493e+02 8.93838942e-01]
  [1.09238635e+03 5.12589905e+02 8.85528922e-01]
  [1.02466101e+03 6.50921021e+02 7.95757651e-01]
  [9.86460388e+02 6.48064331e+02 7.36702323e-01]
  [1.00415540e+03 7.15597290e+02 8.38081956e-01]
  [9.86530884e+02 8.56946167e+02 7.83231497e-01]
  [1.06305286e+03 6.53870789e+02 7.06111670e-01]
  [1.04538867e+03 8.01061401e+02 8.72211814e-01]
  [1.04536768e+03 9.30471008e+02 8.65897954e-01]
  [1.03648657e+03 3.83050934e+02 8.53999853e-01]
  [1.05128125e+03 3.92065216e+02 8.70905995e-01]
  [1.01006335e+03 3.85989227e+02 1.61910787e-01]
  [1.06305298e+03 4.30125427e+02 7.99907029e-01]
  [1.04545105e+03 9.59966553e+02 7.55273938e-01]
  [1.06877942e+03 9.54270569e+02 8.39998901e-01]
  [1.03359741e+03 9.36492126e+02 6.52715862e-01]
  [9.80679138e+02 9.10049316e+02 7.27062464e-01]
  [9.68829346e+02 9.04172607e+02 7.16086805e-01]
  [9.92419495e+02 8.59879944e+02 6.19381726e-01]]]