[[[1.04835767e+03 3.24271851e+02 8.39152396e-01]
  [1.00416956e+03 3.91940186e+02 8.37695479e-01]
  [9.68843567e+02 3.62619263e+02 8.19451571e-01]
  [9.80707458e+02 4.15597168e+02 7.68125713e-01]
  [1.04837463e+03 4.56652710e+02 7.34967470e-01]
  [1.04825159e+03 4.24369171e+02 6.34695530e-01]
  [9.98309814e+02 5.42094055e+02 6.52934849e-01]
  [1.04542041e+03 5.86217773e+02 7.13589191e-01]
  [9.33568481e+02 5.77426758e+02 7.02737629e-01]
  [9.07068237e+02 5.74385254e+02 6.86975420e-01]
  [9.42323059e+02 7.68635376e+02 7.95540214e-01]
  [9.04130981e+02 9.65928894e+02 8.47110510e-01]
  [9.65870300e+02 5.83300964e+02 6.38483346e-01]
  [9.57169189e+02 7.71648499e+02 7.79651165e-01]
  [9.48166138e+02 9.45311401e+02 7.45239854e-01]
  [1.03948389e+03 3.12368286e+02 7.98147559e-01]
  [1.06883716e+03 3.18427734e+02 8.01228404e-01]
  [1.00114520e+03 3.15456940e+02 7.58636475e-01]
  [1.07488135e+03 3.41947296e+02 1.37171686e-01]
  [9.95258728e+02 9.80671448e+02 4.21154618e-01]
  [9.92395691e+02 9.74700928e+02 4.14039016e-01]
  [9.39399353e+02 9.51280518e+02 2.81675935e-01]
  [9.80667969e+02 9.92304138e+02 6.86497569e-01]
  [9.62924805e+02 9.98198364e+02 6.78909481e-01]
  [8.83611145e+02 9.80558716e+02 8.37476850e-01]]]