[[[1.11302209e+03 3.59547272e+02 9.03548121e-01]
  [1.12187561e+03 4.33087463e+02 7.59067357e-01]
  [1.11595264e+03 4.30152466e+02 6.48208857e-01]
  [1.09533228e+03 5.27281006e+02 4.13412511e-01]
  [1.06298230e+03 4.62585785e+02 7.17351735e-01]
  [1.13657141e+03 4.33126984e+02 8.37572157e-01]
  [1.12482605e+03 5.27273865e+02 5.21916747e-01]
  [1.13360559e+03 6.18623535e+02 3.80534410e-01]
  [1.11008887e+03 6.30397278e+02 6.40923619e-01]
  [1.09530273e+03 6.27472473e+02 6.15334392e-01]
  [1.02189484e+03 7.59778992e+02 8.22426140e-01]
  [1.14538293e+03 8.30420837e+02 7.26718247e-01]
  [1.11899805e+03 6.36279846e+02 6.85279787e-01]
  [1.10130005e+03 7.89388000e+02 7.80430138e-01]
  [1.08941479e+03 9.36469116e+02 7.94573367e-01]
  [1.10426428e+03 3.41961731e+02 9.08746481e-01]
  [1.12778333e+03 3.44940216e+02 8.58699620e-01]
  [0.00000000e+00 0.00000000e+00 0.00000000e+00]
  [1.15715808e+03 3.65484833e+02 7.61138082e-01]
  [1.02465466e+03 9.51084412e+02 8.35339665e-01]
  [1.03948926e+03 9.57012695e+02 8.15171063e-01]
  [1.09827759e+03 9.54238525e+02 8.00122380e-01]
  [1.18367200e+03 8.74651062e+02 1.16293900e-01]
  [0.00000000e+00 0.00000000e+00 0.00000000e+00]
  [1.16896790e+03 8.27580078e+02 5.84226608e-01]]]