[[[1.02175714e+03 3.91902771e+02 9.47938263e-01]
  [1.01006360e+03 4.59735352e+02 8.65217090e-01]
  [9.65889526e+02 4.47863678e+02 7.83898234e-01]
  [9.48178833e+02 3.36077881e+02 9.06942129e-01]
  [1.01591565e+03 2.97724335e+02 8.72484446e-01]
  [1.05712805e+03 4.80285248e+02 8.42949390e-01]
  [1.08944202e+03 5.56815918e+02 8.30939651e-01]
  [1.08944019e+03 5.92138794e+02 8.19938481e-01]
  [1.03061768e+03 6.45140320e+02 7.50150859e-01]
  [9.98138367e+02 6.45145996e+02 7.54027128e-01]
  [9.48203186e+02 7.89462769e+02 8.58416855e-01]
  [8.83476929e+02 9.27496460e+02 8.75394702e-01]
  [1.06898706e+03 6.45131165e+02 7.84724712e-01]
  [1.08657703e+03 7.74621643e+02 8.10308039e-01]
  [1.10423450e+03 9.24668579e+02 8.23702574e-01]
  [1.00133252e+03 3.85919952e+02 9.40734327e-01]
  [1.02773413e+03 3.85966644e+02 8.95555735e-01]
  [9.77829956e+02 3.92019867e+02 8.22501123e-01]
  [1.04538831e+03 3.94865753e+02 3.50861847e-01]
  [1.09233838e+03 9.51201294e+02 7.86951184e-01]
  [1.11302783e+03 9.51217468e+02 8.07117105e-01]
  [1.11010632e+03 9.33451782e+02 7.36668169e-01]
  [8.62931335e+02 9.51230774e+02 7.48011053e-01]
  [8.54007141e+02 9.45225708e+02 7.54322052e-01]
  [8.86436890e+02 9.39365417e+02 7.40511358e-01]]]