[[[9.27563049e+02 5.77457153e+02 9.67657149e-01]
  [9.48263367e+02 6.65610474e+02 8.59906673e-01]
  [8.98206116e+02 6.53950928e+02 7.84596801e-01]
  [8.51045593e+02 7.24577332e+02 7.79322267e-01]
  [7.89168518e+02 7.95165039e+02 8.64509225e-01]
  [9.98195923e+02 6.68681396e+02 8.91924977e-01]
  [9.77705750e+02 7.71667236e+02 8.40559006e-01]
  [9.21683777e+02 8.59803284e+02 8.36345494e-01]
  [9.54222717e+02 8.33527466e+02 7.39232421e-01]
  [9.27534302e+02 8.24592224e+02 6.67025685e-01]
  [8.12782776e+02 8.12713013e+02 9.28078294e-01]
  [8.95259766e+02 9.24639160e+02 5.12362242e-01]
  [9.86524414e+02 8.42302673e+02 6.43526435e-01]
  [8.80648193e+02 9.51117126e+02 8.64603877e-01]
  [1.01597626e+03 9.24577942e+02 7.55654454e-01]
  [9.07095154e+02 5.74393738e+02 9.43817198e-01]
  [9.33633667e+02 5.65579102e+02 8.50334227e-01]
  [9.03941223e+02 5.94985229e+02 5.67041337e-01]
  [9.65879089e+02 5.74557068e+02 8.68544400e-01]
  [1.04242517e+03 9.71746948e+02 8.18536043e-01]
  [1.04836731e+03 9.54212280e+02 8.13258290e-01]
  [1.02483508e+03 9.01172852e+02 4.99436677e-01]
  [0.00000000e+00 0.00000000e+00 0.00000000e+00]
  [0.00000000e+00 0.00000000e+00 0.00000000e+00]
  [9.24692566e+02 9.30675964e+02 1.17870979e-01]]]