[[[1.1571675e+03 3.8608063e+02 9.0977681e-01]
  [1.1188994e+03 4.5677280e+02 9.2931014e-01]
  [1.0687775e+03 4.3601932e+02 8.2738531e-01]
  [1.0687988e+03 3.2725696e+02 8.2522631e-01]
  [1.0865774e+03 2.4770428e+02 8.8408554e-01]
  [1.1690270e+03 4.8031293e+02 8.4386832e-01]
  [1.2131240e+03 5.6555334e+02 8.0661559e-01]
  [1.1631250e+03 5.7145337e+02 6.8767017e-01]
  [1.1659897e+03 6.4805304e+02 5.4646176e-01]
  [1.1248940e+03 6.4798303e+02 2.9884931e-01]
  [1.0246525e+03 7.6291229e+02 2.0296226e-01]
  [1.0247006e+03 9.2172479e+02 8.3802626e-02]
  [1.1718960e+03 6.4795398e+02 4.5920220e-01]
  [1.0217489e+03 7.6286407e+02 8.0959177e-01]
  [1.0247776e+03 9.2773474e+02 8.0990827e-01]
  [1.1571584e+03 3.6559521e+02 8.8146347e-01]
  [1.1748145e+03 3.8908926e+02 8.8788974e-01]
  [1.1189569e+03 3.6841943e+02 4.0587971e-01]
  [1.1778240e+03 4.2722449e+02 7.9685748e-01]
  [9.6291718e+02 9.5710712e+02 7.8857148e-01]
  [9.7779047e+02 9.6589825e+02 8.1746745e-01]
  [1.0454299e+03 9.4236041e+02 7.1768284e-01]
  [0.0000000e+00 0.0000000e+00 0.0000000e+00]
  [0.0000000e+00 0.0000000e+00 0.0000000e+00]
  [0.0000000e+00 0.0000000e+00 0.0000000e+00]]]