[[[7.1874841e+02 3.6845572e+02 3.4603637e-01]
  [8.0985596e+02 3.9489822e+02 6.8721163e-01]
  [8.1280664e+02 3.8612930e+02 5.7074845e-01]
  [7.0104120e+02 4.8312723e+02 1.6814427e-01]
  [6.4510736e+02 5.1263049e+02 2.6532552e-01]
  [8.0698096e+02 4.0664352e+02 6.9846016e-01]
  [7.1271710e+02 4.6559940e+02 6.3089311e-01]
  [6.3326172e+02 5.1265155e+02 6.6203785e-01]
  [8.3634277e+02 5.7732098e+02 6.9110060e-01]
  [8.3050958e+02 5.7730951e+02 5.3672737e-01]
  [8.0972705e+02 7.6568732e+02 7.5628275e-01]
  [8.1299194e+02 9.2170221e+02 8.0294144e-01]
  [8.3648932e+02 5.7739532e+02 7.0656413e-01]
  [8.0987140e+02 7.6287695e+02 8.8301545e-01]
  [9.0715680e+02 9.0700800e+02 8.3980727e-01]
  [0.0000000e+00 0.0000000e+00 0.0000000e+00]
  [7.2158813e+02 3.5659915e+02 3.8283256e-01]
  [0.0000000e+00 0.0000000e+00 0.0000000e+00]
  [7.6286688e+02 3.5072382e+02 6.0190701e-01]
  [8.5689532e+02 9.4819464e+02 6.1958802e-01]
  [8.7466040e+02 9.4824701e+02 6.1265612e-01]
  [9.3066205e+02 9.1874658e+02 7.4995387e-01]
  [7.6278467e+02 9.5414905e+02 7.3197693e-01]
  [7.6566406e+02 9.5104053e+02 7.0617574e-01]
  [8.3352258e+02 9.3059644e+02 7.1911043e-01]]]