[[[8.9817706e+02 5.5686334e+02 7.8785920e-01]
  [9.2746399e+02 5.5677258e+02 8.7964648e-01]
  [8.5702911e+02 5.5385400e+02 8.8380599e-01]
  [7.9812976e+02 6.2453119e+02 8.8204932e-01]
  [8.1580841e+02 7.1574591e+02 8.9634931e-01]
  [9.9526501e+02 5.6262482e+02 7.6101625e-01]
  [1.0689282e+03 6.3922375e+02 8.9098167e-01]
  [1.0717939e+03 7.2156665e+02 9.2050493e-01]
  [9.3646924e+02 6.9213733e+02 7.8757918e-01]
  [8.8940314e+02 6.8921991e+02 7.3688853e-01]
  [8.1576672e+02 7.7753308e+02 8.3121115e-01]
  [7.8328723e+02 9.3358850e+02 8.1130821e-01]
  [9.8644073e+02 6.9224506e+02 7.6426882e-01]
  [1.0513185e+03 7.8330646e+02 8.3386523e-01]
  [1.0835693e+03 9.3359155e+02 8.1276506e-01]
  [8.8346967e+02 5.4500964e+02 7.5963527e-01]
  [9.1289331e+02 5.4795270e+02 8.0625612e-01]
  [8.6577417e+02 5.1554376e+02 1.2121138e-01]
  [9.4826062e+02 5.2433344e+02 8.0710042e-01]
  [1.1306681e+03 9.6884985e+02 7.5969994e-01]
  [1.1365251e+03 9.5422198e+02 7.8209746e-01]
  [1.0689235e+03 9.5407941e+02 8.6378014e-01]
  [7.4807294e+02 9.6885260e+02 7.1712226e-01]
  [7.3931531e+02 9.5702490e+02 7.7066010e-01]
  [7.8921021e+02 9.5409180e+02 8.5609686e-01]]]