[[[1.11892871e+03 3.35991516e+02 9.22225296e-01]
  [1.12484131e+03 4.33209717e+02 8.74039888e-01]
  [1.06879712e+03 4.39018341e+02 8.14673781e-01]
  [9.92375366e+02 5.27452393e+02 8.70699167e-01]
  [1.01302386e+03 4.65592834e+02 8.24726462e-01]
  [1.18672559e+03 4.27249634e+02 8.05438697e-01]
  [1.28681299e+03 3.83061829e+02 8.48184884e-01]
  [1.22784631e+03 3.83099213e+02 8.58088672e-01]
  [1.13659717e+03 6.21487976e+02 7.52102852e-01]
  [1.09528479e+03 6.21573120e+02 7.41436958e-01]
  [1.09250891e+03 7.80510559e+02 8.74638796e-01]
  [1.07189136e+03 9.36433105e+02 8.29591215e-01]
  [1.17480554e+03 6.21427429e+02 7.11368263e-01]
  [1.28377100e+03 7.42223389e+02 8.86127114e-01]
  [1.30146179e+03 9.07038330e+02 8.08827639e-01]
  [1.10710364e+03 3.24221588e+02 8.52097213e-01]
  [1.13652478e+03 3.24301910e+02 8.65068674e-01]
  [1.08654895e+03 3.50791473e+02 7.73663521e-01]
  [1.14539001e+03 3.53735352e+02 7.24520802e-01]
  [1.32797192e+03 9.71687927e+02 7.45271742e-01]
  [1.33966663e+03 9.54164856e+02 7.24563599e-01]
  [1.28074963e+03 9.21748901e+02 7.20166385e-01]
  [1.09244666e+03 9.74668457e+02 8.22658181e-01]
  [1.06897192e+03 9.74619568e+02 8.10822606e-01]
  [1.06896191e+03 9.51193481e+02 7.19967008e-01]]]