[[[9.5401849e+02 3.1529541e+02 9.4252187e-01]
  [9.4522455e+02 3.9193390e+02 8.4782302e-01]
  [8.8641644e+02 3.8917563e+02 8.3347237e-01]
  [8.3339532e+02 4.3023920e+02 8.4336549e-01]
  [8.8341132e+02 4.5953995e+02 8.0921263e-01]
  [9.9829034e+02 3.9200699e+02 8.5977060e-01]
  [1.0219087e+03 4.8624088e+02 8.7275583e-01]
  [1.0071356e+03 5.7746948e+02 8.4901363e-01]
  [9.5418512e+02 5.9212268e+02 7.2896618e-01]
  [9.1586945e+02 5.9508319e+02 6.6982722e-01]
  [9.2759259e+02 7.6280103e+02 8.9834106e-01]
  [9.3066107e+02 9.2751740e+02 8.5534734e-01]
  [9.9821967e+02 5.8622028e+02 7.0684862e-01]
  [1.0423907e+03 7.5105212e+02 8.0836987e-01]
  [1.0749072e+03 8.9819238e+02 7.9525119e-01]
  [9.4826556e+02 2.9776205e+02 8.7857026e-01]
  [9.7462811e+02 3.1239505e+02 9.1171002e-01]
  [9.2459906e+02 3.1834964e+02 3.5533744e-01]
  [9.8944489e+02 3.3607434e+02 7.9718167e-01]
  [1.0660027e+03 9.1882074e+02 6.8038070e-01]
  [1.0836399e+03 9.1874829e+02 6.6237581e-01]
  [1.0865205e+03 9.0692236e+02 6.8523747e-01]
  [9.1583215e+02 9.6583740e+02 6.9685447e-01]
  [9.0411090e+02 9.5428162e+02 7.7193880e-01]
  [9.5103638e+02 9.3360046e+02 8.0633134e-01]]]