[[[9.68791748e+02 3.41902832e+02 9.24159825e-01]
  [9.54239746e+02 4.33171906e+02 9.32082891e-01]
  [8.98182007e+02 4.36239044e+02 8.41037810e-01]
  [8.83565491e+02 5.21416382e+02 8.69658768e-01]
  [8.53955078e+02 5.80367371e+02 8.56916487e-01]
  [1.02169928e+03 4.24310303e+02 8.41057837e-01]
  [1.04244019e+03 5.03691467e+02 8.60892117e-01]
  [1.06899414e+03 5.59748474e+02 8.48417938e-01]
  [9.68821167e+02 6.15659851e+02 7.21617818e-01]
  [9.27723572e+02 6.18546997e+02 7.54098415e-01]
  [9.42292847e+02 7.68741272e+02 8.42422366e-01]
  [9.54125427e+02 9.24711853e+02 8.54016483e-01]
  [1.00137146e+03 6.15605774e+02 7.18909740e-01]
  [1.00119141e+03 7.68738831e+02 8.75629902e-01]
  [1.00114075e+03 9.24717712e+02 8.61756086e-01]
  [9.51207214e+02 3.33113861e+02 9.15456355e-01]
  [9.77714722e+02 3.36010223e+02 9.09314394e-01]
  [9.27662292e+02 3.47786499e+02 8.74498665e-01]
  [9.95325989e+02 3.53648804e+02 6.30807936e-01]
  [9.98168274e+02 9.63000427e+02 8.00689459e-01]
  [1.01883301e+03 9.57096497e+02 7.92334557e-01]
  [9.98213135e+02 9.30713745e+02 6.96272731e-01]
  [9.54228455e+02 9.62926086e+02 7.88090110e-01]
  [9.36451233e+02 9.57070557e+02 8.08922052e-01]
  [9.62902710e+02 9.30715759e+02 7.04981625e-01]]]