[[[9.5411273e+02 3.1838278e+02 9.5217979e-01]
  [9.5701807e+02 3.8917358e+02 8.8867986e-01]
  [9.0409717e+02 3.8595786e+02 8.7327486e-01]
  [8.8050745e+02 2.9198346e+02 8.4631532e-01]
  [8.7753278e+02 2.0361201e+02 8.6989361e-01]
  [1.0129388e+03 4.0655777e+02 8.0336118e-01]
  [1.0454299e+03 4.8325510e+02 9.4919395e-01]
  [9.9831757e+02 5.3324902e+02 9.0986073e-01]
  [9.4826575e+02 5.8032501e+02 7.7243364e-01]
  [9.0707446e+02 5.7743500e+02 7.8219628e-01]
  [9.0696063e+02 7.4225745e+02 9.1741914e-01]
  [9.2753455e+02 8.8360406e+02 8.3022833e-01]
  [9.8062744e+02 5.8329810e+02 7.4085671e-01]
  [9.7768976e+02 7.4214453e+02 9.0836734e-01]
  [9.7767871e+02 8.8644830e+02 8.2149369e-01]
  [9.4817163e+02 3.0665216e+02 8.6591393e-01]
  [9.7458313e+02 3.1526727e+02 8.9903289e-01]
  [9.2755743e+02 3.1546552e+02 7.8604501e-01]
  [9.9526331e+02 3.3590372e+02 7.7779895e-01]
  [9.7462018e+02 9.3357153e+02 7.3699367e-01]
  [9.9238214e+02 9.3053424e+02 7.6613122e-01]
  [9.7475763e+02 9.0409613e+02 6.9742948e-01]
  [9.3050708e+02 9.3052094e+02 6.5624827e-01]
  [9.0703491e+02 9.2763818e+02 6.7448646e-01]
  [9.3066986e+02 9.0115704e+02 6.8354905e-01]]]