[[[1.12200146e+03 3.44988831e+02 8.70960712e-01]
  [1.11891541e+03 4.33164886e+02 9.35714602e-01]
  [1.06585559e+03 4.44920074e+02 7.88163960e-01]
  [1.00137146e+03 5.30241821e+02 9.13801014e-01]
  [9.30480713e+02 4.94992706e+02 8.65708470e-01]
  [1.16907031e+03 4.18413239e+02 7.96416759e-01]
  [1.22200330e+03 3.18485809e+02 8.65622878e-01]
  [1.21002649e+03 2.44639526e+02 9.06360328e-01]
  [1.12196216e+03 6.24378235e+02 7.51219332e-01]
  [1.08651843e+03 6.24541565e+02 7.03260481e-01]
  [1.08356006e+03 7.83347107e+02 8.02700460e-01]
  [1.07181140e+03 9.36432861e+02 8.34561646e-01]
  [1.16603967e+03 6.21517822e+02 7.57947206e-01]
  [1.27781116e+03 7.48071777e+02 8.16746593e-01]
  [1.30139185e+03 9.10043213e+02 7.74509490e-01]
  [1.11587292e+03 3.38907379e+02 9.41569805e-01]
  [1.13963049e+03 3.41825836e+02 9.58853185e-01]
  [1.09233704e+03 3.50721161e+02 8.08034658e-01]
  [1.15715479e+03 3.62585114e+02 7.14652538e-01]
  [1.32790027e+03 9.71810059e+02 7.23752499e-01]
  [1.33378784e+03 9.57091492e+02 7.03334033e-01]
  [1.28070898e+03 9.27589172e+02 7.00352728e-01]
  [1.09252405e+03 9.71833313e+02 8.00566077e-01]
  [1.07176709e+03 9.74584839e+02 7.77043581e-01]
  [1.06889490e+03 9.51213135e+02 7.03026652e-01]]]