[[[1.0688881e+03 3.5951187e+02 9.3648797e-01]
  [1.0718687e+03 4.3020389e+02 8.5751367e-01]
  [1.0454714e+03 4.3608063e+02 8.2932568e-01]
  [1.0189193e+03 5.2147687e+02 8.1519300e-01]
  [9.5120441e+02 5.2435663e+02 8.7426156e-01]
  [1.0982944e+03 4.1556534e+02 8.2585686e-01]
  [1.1423873e+03 4.8030188e+02 9.0712452e-01]
  [1.2130215e+03 5.3032648e+02 8.8644624e-01]
  [1.0660067e+03 6.1266766e+02 7.3755234e-01]
  [1.0306290e+03 6.1561230e+02 6.9146365e-01]
  [1.0306573e+03 7.7454413e+02 8.2095045e-01]
  [1.0306901e+03 9.2473126e+02 8.0981505e-01]
  [1.0953629e+03 6.0970782e+02 7.2863311e-01]
  [1.1396185e+03 7.6572748e+02 9.0648192e-01]
  [1.2130016e+03 9.0694318e+02 8.6681414e-01]
  [1.0570725e+03 3.4206418e+02 9.0419978e-01]
  [1.0865466e+03 3.4207053e+02 8.9165109e-01]
  [1.0424591e+03 3.6534421e+02 2.9174209e-01]
  [1.1129753e+03 3.6537778e+02 8.4043461e-01]
  [1.1897107e+03 9.5410590e+02 8.1418127e-01]
  [1.2131370e+03 9.5113995e+02 8.0746782e-01]
  [1.2306727e+03 9.1293658e+02 7.0068967e-01]
  [9.8065466e+02 9.5105957e+02 7.5960040e-01]
  [9.8064484e+02 9.3938660e+02 6.9371372e-01]
  [1.0482301e+03 9.3936310e+02 8.2749730e-01]]]