[[[1.00410107e+03 3.39053070e+02 9.58599806e-01]
  [1.00710510e+03 4.27251984e+02 8.32272053e-01]
  [9.54041443e+02 4.30221313e+02 8.58887017e-01]
  [9.62939026e+02 5.15540833e+02 7.95999646e-01]
  [9.71828186e+02 4.33036163e+02 8.51040065e-01]
  [1.06881543e+03 4.18432251e+02 8.27161133e-01]
  [1.11008716e+03 3.65609650e+02 8.87322426e-01]
  [1.07177454e+03 2.94898315e+02 9.17987704e-01]
  [1.00121466e+03 6.12701599e+02 7.27272511e-01]
  [9.62965027e+02 6.15602051e+02 6.52926743e-01]
  [9.80623901e+02 7.77475464e+02 8.47779214e-01]
  [1.01302441e+03 9.30507629e+02 8.20068121e-01]
  [1.04246667e+03 6.09763123e+02 7.01887429e-01]
  [1.07193225e+03 7.71677856e+02 8.81177425e-01]
  [1.07171692e+03 9.04143127e+02 8.77403140e-01]
  [9.86474670e+02 3.38803619e+02 8.77176642e-01]
  [1.01876636e+03 3.27190094e+02 8.62647712e-01]
  [9.71687988e+02 3.62356018e+02 8.22149158e-01]
  [1.03650085e+03 3.42034119e+02 4.07559425e-01]
  [1.07770947e+03 9.54192932e+02 8.02030981e-01]
  [1.09545825e+03 9.51102600e+02 8.20752740e-01]
  [1.05413989e+03 9.09969177e+02 6.88850343e-01]
  [1.01300427e+03 9.62896606e+02 6.90862715e-01]
  [9.95366150e+02 9.57151855e+02 7.37046957e-01]
  [1.02190924e+03 9.39382629e+02 7.51884937e-01]]]