[[[9.54120483e+02 4.09563538e+02 9.86125827e-01]
  [9.77615479e+02 4.65514252e+02 9.16680217e-01]
  [9.27625366e+02 4.71437134e+02 8.63063276e-01]
  [9.03932617e+02 5.39075623e+02 8.71959567e-01]
  [9.07012756e+02 5.97927673e+02 9.27659750e-01]
  [1.02775720e+03 4.59732391e+02 8.58087063e-01]
  [1.02479614e+03 5.39138794e+02 8.41763377e-01]
  [9.71736694e+02 6.03948364e+02 8.01348329e-01]
  [9.71775940e+02 6.30359436e+02 7.27332771e-01]
  [9.30674988e+02 6.27454102e+02 7.43975759e-01]
  [9.24672424e+02 7.80439636e+02 8.39550793e-01]
  [9.24699463e+02 9.04177979e+02 8.63995075e-01]
  [1.00135559e+03 6.30360291e+02 7.11650252e-01]
  [1.02462378e+03 7.89294617e+02 9.20630395e-01]
  [1.00118268e+03 9.09928162e+02 8.70416105e-01]
  [9.48154236e+02 3.94907104e+02 8.82210791e-01]
  [9.71765686e+02 3.92073608e+02 8.78687859e-01]
  [9.30706299e+02 4.09663666e+02 2.65103906e-01]
  [9.98129333e+02 4.09510651e+02 8.19763303e-01]
  [1.00134546e+03 9.42375244e+02 7.63902426e-01]
  [1.02191534e+03 9.39366760e+02 8.14200640e-01]
  [9.92333008e+02 9.24702026e+02 7.08232105e-01]
  [9.07153320e+02 9.39409485e+02 7.45203078e-01]
  [8.98128113e+02 9.30650146e+02 7.49813616e-01]
  [9.30592163e+02 9.15831970e+02 8.13352764e-01]]]