[[[1.01875391e+03 3.80180115e+02 8.84917736e-01]
  [1.00709753e+03 4.56659424e+02 9.07110214e-01]
  [9.51293274e+02 4.56677673e+02 9.06173468e-01]
  [9.33565857e+02 5.39067383e+02 8.53840053e-01]
  [9.10058716e+02 6.18624084e+02 8.91392112e-01]
  [1.06890283e+03 4.56585724e+02 9.12068009e-01]
  [1.07490942e+03 5.47853271e+02 8.39304745e-01]
  [1.07198218e+03 6.15628601e+02 8.52371514e-01]
  [9.98359314e+02 6.15592773e+02 7.51047552e-01]
  [9.59990601e+02 6.09708984e+02 7.05224693e-01]
  [9.21701477e+02 7.59871338e+02 8.58280957e-01]
  [9.30478638e+02 8.83476135e+02 8.97353113e-01]
  [1.03654504e+03 6.18561401e+02 6.97065949e-01]
  [1.02173352e+03 7.68746704e+02 8.72288406e-01]
  [1.02486169e+03 9.12901550e+02 8.51043403e-01]
  [1.00117010e+03 3.65580933e+02 9.71309245e-01]
  [1.02476453e+03 3.65534973e+02 9.48184371e-01]
  [9.80696411e+02 3.86020630e+02 8.69644105e-01]
  [1.04528125e+03 3.85900146e+02 7.42318988e-01]
  [9.74763916e+02 9.33623779e+02 7.97090888e-01]
  [9.92371704e+02 9.42395813e+02 7.57778347e-01]
  [1.04521948e+03 9.30458862e+02 8.81754756e-01]
  [9.01105652e+02 9.27510864e+02 7.72550464e-01]
  [8.92254150e+02 9.10072998e+02 7.27066636e-01]
  [9.45219482e+02 8.98145691e+02 7.61176348e-01]]]