[[[9.83524048e+02 3.39087708e+02 9.17544484e-01]
  [9.59982361e+02 4.24302795e+02 8.14084530e-01]
  [9.01063965e+02 4.33031921e+02 8.27574134e-01]
  [8.68776855e+02 5.50762817e+02 8.08962822e-01]
  [8.57096802e+02 6.50999451e+02 7.40841568e-01]
  [1.02465601e+03 4.12702606e+02 8.54791701e-01]
  [1.07171362e+03 5.06646332e+02 9.14929986e-01]
  [1.03948743e+03 5.62629700e+02 8.23867321e-01]
  [9.74629883e+02 6.00955322e+02 7.45405495e-01]
  [9.30518127e+02 6.03848816e+02 7.09340990e-01]
  [9.54149048e+02 7.86409912e+02 9.03888106e-01]
  [9.68859192e+02 9.54038086e+02 8.15844655e-01]
  [1.01588971e+03 6.00885376e+02 6.95729136e-01]
  [1.04547961e+03 7.45101929e+02 8.82706225e-01]
  [9.77598145e+02 8.62947693e+02 7.95275033e-01]
  [9.74566956e+02 3.21295319e+02 9.19329226e-01]
  [1.00108093e+03 3.33019043e+02 8.95250082e-01]
  [9.39358826e+02 3.36041016e+02 8.31607580e-01]
  [1.01005530e+03 3.44918976e+02 3.25024664e-01]
  [1.00131824e+03 9.04163757e+02 3.67032528e-01]
  [1.00127710e+03 9.01163513e+02 4.82114971e-01]
  [9.62912598e+02 8.62913452e+02 3.87699515e-01]
  [9.60009399e+02 9.92392456e+02 7.17554092e-01]
  [9.42381775e+02 9.83593872e+02 7.42524683e-01]
  [9.77587708e+02 9.68824341e+02 7.05333412e-01]]]