[[[1.00107660e+03 3.59571228e+02 9.39918876e-01]
  [9.92413086e+02 4.39016541e+02 8.85407805e-01]
  [9.27619446e+02 4.36019928e+02 8.90722394e-01]
  [9.04167847e+02 5.27189697e+02 9.13408518e-01]
  [9.09916931e+02 6.00943542e+02 8.92097175e-01]
  [1.05122241e+03 4.44994354e+02 8.24786901e-01]
  [1.06901758e+03 5.47963135e+02 9.09437418e-01]
  [1.12191980e+03 5.77263184e+02 8.75454962e-01]
  [1.02163794e+03 6.30330566e+02 7.27005064e-01]
  [9.74753601e+02 6.33342407e+02 7.43854523e-01]
  [9.24589783e+02 7.89431213e+02 8.50863338e-01]
  [8.60096863e+02 9.30622314e+02 8.57734382e-01]
  [1.06012891e+03 6.24496216e+02 6.92652762e-01]
  [1.09239514e+03 7.74582642e+02 8.48345399e-01]
  [1.11612769e+03 9.33460571e+02 8.49715352e-01]
  [9.83520142e+02 3.44850159e+02 8.96443009e-01]
  [1.01590723e+03 3.44841949e+02 8.77400279e-01]
  [9.62957031e+02 3.65446472e+02 8.24235678e-01]
  [1.02774573e+03 3.65446045e+02 7.71965563e-01]
  [1.12189709e+03 9.71786926e+02 7.30457723e-01]
  [1.14247595e+03 9.62941711e+02 7.61643350e-01]
  [1.11295691e+03 9.51095947e+02 6.69699311e-01]
  [8.51046692e+02 9.60056458e+02 7.09879041e-01]
  [8.33464294e+02 9.54067200e+02 8.15613031e-01]
  [8.68734497e+02 9.51046326e+02 7.19038606e-01]]]