[[[9.98145203e+02 3.09567352e+02 9.09727335e-01]
  [9.98210876e+02 3.89065735e+02 8.78572941e-01]
  [9.48177673e+02 3.86036804e+02 8.11471343e-01]
  [9.42308655e+02 4.33203125e+02 8.22333455e-01]
  [9.59978210e+02 3.42061920e+02 8.47780883e-01]
  [1.04825659e+03 3.97819427e+02 8.28589141e-01]
  [1.09526660e+03 4.39097870e+02 8.58020425e-01]
  [1.10713660e+03 3.44946198e+02 8.02132010e-01]
  [9.74645081e+02 5.80353088e+02 7.30924308e-01]
  [9.33496948e+02 5.77395447e+02 7.06553221e-01]
  [9.54220886e+02 7.39314331e+02 9.01688278e-01]
  [9.45305786e+02 8.89424377e+02 7.85915613e-01]
  [1.00707898e+03 5.86212219e+02 6.77985549e-01]
  [9.98213745e+02 7.65700623e+02 9.12399948e-01]
  [9.74557068e+02 9.18797791e+02 7.57253170e-01]
  [9.77605225e+02 2.94990204e+02 9.12880957e-01]
  [1.00713086e+03 2.94904633e+02 8.83522034e-01]
  [9.54058777e+02 3.18371307e+02 7.38936722e-01]
  [1.02771887e+03 3.18321442e+02 7.53397107e-01]
  [9.74794800e+02 9.60016663e+02 6.22316003e-01]
  [9.95365723e+02 9.57046448e+02 6.87210083e-01]
  [9.62887512e+02 9.30516602e+02 5.31090617e-01]
  [9.51237122e+02 9.45255615e+02 7.47783780e-01]
  [9.30520996e+02 9.33572205e+02 7.30703413e-01]
  [9.39454041e+02 9.04026917e+02 5.64056277e-01]]]