[[[7.5105939e+02 4.1558569e+02 8.7373859e-01]
  [7.8048846e+02 5.0078815e+02 8.2450330e-01]
  [7.4525677e+02 4.9201733e+02 7.5710464e-01]
  [6.9806317e+02 5.6857843e+02 5.4904628e-01]
  [6.8039508e+02 5.5075214e+02 7.4102360e-01]
  [8.0988531e+02 5.0378101e+02 8.8061613e-01]
  [8.1273218e+02 6.0979327e+02 8.3126295e-01]
  [8.3338165e+02 7.0688062e+02 8.2874680e-01]
  [6.8631702e+02 6.5395538e+02 6.6923654e-01]
  [6.8625690e+02 6.5389270e+02 5.7487237e-01]
  [6.4800635e+02 8.0106842e+02 8.3430445e-01]
  [7.2449176e+02 9.3349768e+02 7.9280370e-01]
  [6.8624237e+02 6.5978290e+02 6.1112982e-01]
  [5.7738757e+02 7.6877002e+02 8.5066485e-01]
  [5.0389737e+02 9.2768256e+02 8.9176494e-01]
  [7.4219226e+02 4.0964511e+02 9.7660238e-01]
  [7.6569800e+02 4.0952249e+02 9.4563007e-01]
  [0.0000000e+00 0.0000000e+00 0.0000000e+00]
  [7.9236029e+02 4.1546259e+02 7.5942284e-01]
  [4.3908557e+02 9.4531750e+02 7.2561216e-01]
  [4.5671289e+02 9.5120343e+02 8.0995232e-01]
  [5.1557581e+02 9.5101538e+02 7.6801348e-01]
  [6.7744177e+02 9.4526410e+02 7.0867765e-01]
  [6.8913861e+02 9.3644299e+02 6.4499396e-01]
  [7.4220032e+02 9.5110077e+02 8.0305707e-01]]]