[[[9.2471741e+02 3.6249774e+02 9.4335711e-01]
  [8.8651111e+02 4.3914822e+02 7.8076595e-01]
  [8.6003516e+02 4.4196204e+02 8.0233026e-01]
  [8.5989124e+02 5.4785895e+02 8.1278026e-01]
  [8.6588947e+02 6.4791333e+02 8.3623755e-01]
  [9.1882416e+02 4.3912860e+02 7.1239698e-01]
  [9.3051776e+02 5.5088531e+02 1.0132076e-01]
  [9.3072223e+02 6.2445844e+02 8.5395969e-02]
  [8.8359113e+02 6.2440643e+02 7.1370828e-01]
  [8.5401111e+02 6.2745673e+02 6.6178358e-01]
  [8.3054138e+02 8.0404395e+02 8.6224031e-01]
  [7.8646991e+02 9.3361627e+02 8.4580868e-01]
  [9.2464502e+02 6.2142914e+02 6.8284738e-01]
  [1.0452432e+03 6.4205377e+02 8.5276532e-01]
  [1.0484114e+03 8.1284735e+02 8.1151623e-01]
  [9.0405322e+02 3.5667795e+02 9.0501136e-01]
  [9.2468427e+02 3.4207486e+02 8.5788876e-01]
  [8.7469427e+02 3.7723007e+02 7.8109461e-01]
  [0.0000000e+00 0.0000000e+00 0.0000000e+00]
  [1.0865710e+03 8.6284991e+02 5.9082490e-01]
  [1.0953972e+03 8.5401074e+02 6.3389850e-01]
  [1.0364796e+03 8.2752258e+02 6.3914204e-01]
  [7.6868475e+02 9.7177936e+02 7.4346912e-01]
  [7.5686816e+02 9.5998352e+02 7.6762456e-01]
  [7.9218732e+02 9.5125812e+02 7.7496755e-01]]]