[[[1.06872925e+03 3.41805176e+02 7.12293506e-01]
  [1.07486890e+03 4.09604431e+02 7.68875003e-01]
  [1.05417798e+03 4.09521149e+02 6.39936924e-01]
  [1.03065967e+03 3.50724091e+02 2.42345035e-01]
  [1.06879541e+03 3.03687836e+02 1.96139574e-01]
  [1.09841833e+03 4.12465363e+02 8.03939342e-01]
  [1.04231531e+03 3.44943817e+02 8.05986524e-01]
  [1.06892700e+03 2.97816254e+02 7.12929666e-01]
  [1.04539734e+03 6.00890015e+02 7.23672867e-01]
  [1.01301099e+03 5.97917603e+02 6.61708832e-01]
  [9.86522461e+02 7.45205322e+02 8.21632385e-01]
  [1.00112408e+03 8.98138611e+02 8.57139766e-01]
  [1.07485400e+03 6.03921692e+02 6.49376214e-01]
  [1.07170752e+03 7.65816223e+02 9.13616598e-01]
  [1.06591589e+03 9.21773438e+02 8.08599174e-01]
  [1.06596143e+03 3.38862518e+02 2.80319571e-01]
  [1.07187769e+03 3.36088593e+02 7.53105760e-01]
  [0.00000000e+00 0.00000000e+00 0.00000000e+00]
  [1.09534912e+03 3.42008728e+02 7.19884813e-01]
  [1.04232788e+03 9.54235901e+02 8.01296413e-01]
  [1.06299829e+03 9.54274902e+02 7.94325411e-01]
  [1.06594189e+03 9.30594849e+02 7.44946361e-01]
  [9.71729065e+02 9.45271057e+02 7.93319821e-01]
  [9.57057800e+02 9.30607483e+02 7.74900913e-01]
  [1.01876385e+03 9.04206482e+02 8.24357569e-01]]]