[[[9.80666382e+02 4.50837280e+02 8.80073547e-01]
  [9.54256531e+02 5.24410828e+02 9.10675049e-01]
  [9.04055176e+02 5.12686462e+02 8.57248187e-01]
  [8.80552124e+02 6.12743896e+02 8.92780781e-01]
  [8.60080505e+02 6.92118713e+02 9.16262865e-01]
  [1.01294769e+03 5.30177429e+02 8.45643401e-01]
  [1.02779138e+03 6.27376282e+02 8.65544677e-01]
  [1.01885522e+03 5.97851013e+02 8.86280060e-01]
  [9.71684082e+02 6.92111633e+02 8.22601378e-01]
  [9.30498474e+02 6.92143250e+02 8.41662884e-01]
  [9.27458313e+02 8.15864685e+02 8.89017403e-01]
  [8.86383728e+02 9.21719116e+02 8.50629866e-01]
  [1.00134595e+03 6.92134583e+02 8.12409163e-01]
  [9.98210876e+02 8.12745605e+02 9.59074438e-01]
  [1.02181775e+03 9.18841064e+02 8.78782213e-01]
  [9.74566833e+02 4.36055634e+02 9.69707847e-01]
  [9.98200623e+02 4.39000549e+02 9.32053030e-01]
  [9.48135620e+02 4.50745636e+02 8.29418957e-01]
  [1.00135510e+03 4.59535645e+02 4.85027432e-01]
  [9.98381714e+02 9.39386902e+02 7.84787297e-01]
  [1.02170264e+03 9.42384460e+02 7.71413505e-01]
  [1.02487695e+03 9.27670837e+02 7.44208276e-01]
  [8.95256775e+02 9.48204346e+02 7.89543569e-01]
  [8.77605103e+02 9.42375549e+02 7.70255208e-01]
  [8.83571106e+02 9.27706360e+02 7.49185085e-01]]]