[[[1.0955261e+03 3.3309973e+02 8.9947730e-01]
  [1.1158743e+03 4.1254959e+02 8.7215459e-01]
  [1.0688920e+03 4.3019083e+02 8.1543744e-01]
  [1.0718383e+03 5.1847632e+02 6.6541421e-01]
  [1.0335856e+03 5.5673889e+02 7.7367663e-01]
  [1.1601549e+03 4.0074124e+02 7.6433277e-01]
  [1.1662040e+03 4.7729620e+02 8.7387508e-01]
  [1.1012623e+03 5.3016895e+02 8.5783094e-01]
  [1.0982776e+03 6.0391486e+02 7.5662535e-01]
  [1.0660138e+03 6.0394995e+02 7.2938454e-01]
  [1.0660157e+03 7.6573645e+02 8.9199781e-01]
  [1.0923651e+03 9.0403149e+02 8.7790501e-01]
  [1.1366469e+03 6.0385822e+02 7.3719990e-01]
  [1.1453647e+03 7.6267584e+02 8.7482905e-01]
  [1.1661713e+03 9.2764044e+02 8.4548539e-01]
  [1.0924519e+03 3.1831281e+02 9.6595573e-01]
  [1.1160807e+03 3.1842886e+02 9.5014346e-01]
  [0.0000000e+00 0.0000000e+00 0.0000000e+00]
  [1.1453750e+03 3.3908185e+02 8.9344764e-01]
  [1.1189631e+03 9.7179840e+02 8.3797240e-01]
  [1.1424335e+03 9.7461456e+02 8.0233753e-01]
  [1.1866975e+03 9.4237622e+02 8.1936455e-01]
  [1.0484130e+03 9.4531586e+02 7.6043767e-01]
  [1.0454052e+03 9.3063623e+02 7.7389604e-01]
  [1.1013226e+03 9.1285962e+02 7.6027894e-01]]]