[[[1.1423607e+03 3.6255121e+02 9.4547653e-01]
  [1.1307136e+03 4.5078699e+02 7.9892308e-01]
  [1.0776820e+03 4.3307013e+02 8.0171895e-01]
  [1.0513514e+03 4.1544852e+02 7.4530888e-01]
  [1.0836461e+03 3.6540585e+02 7.3662770e-01]
  [1.1864969e+03 4.6845624e+02 8.1673932e-01]
  [1.2249059e+03 5.6554230e+02 8.0881453e-01]
  [1.1483423e+03 6.0085480e+02 8.6336803e-01]
  [1.1129862e+03 6.2745862e+02 7.7899170e-01]
  [1.0687701e+03 6.2435645e+02 7.9649556e-01]
  [9.5122418e+02 6.9520471e+02 8.9378381e-01]
  [9.7174969e+02 8.5709222e+02 8.3751440e-01]
  [1.1542167e+03 6.3913678e+02 7.2271568e-01]
  [1.1572478e+03 7.8629016e+02 8.6466491e-01]
  [1.1455161e+03 9.3062518e+02 8.2640022e-01]
  [1.1393760e+03 3.4201303e+02 9.3504822e-01]
  [1.1630927e+03 3.5946161e+02 8.6684793e-01]
  [1.1160778e+03 3.4786365e+02 3.2566226e-01]
  [1.1894768e+03 3.8309494e+02 7.8082258e-01]
  [1.1629561e+03 9.6877136e+02 7.5243360e-01]
  [1.1777522e+03 9.5997089e+02 7.6748860e-01]
  [1.1395278e+03 9.4820837e+02 7.7470577e-01]
  [9.5702618e+02 9.1883099e+02 6.9126743e-01]
  [9.4231036e+02 9.0991083e+02 7.0082819e-01]
  [9.8357465e+02 8.6290057e+02 7.1594667e-01]]]