[[[9.83517334e+02 4.09640076e+02 9.16775346e-01]
  [9.71797424e+02 4.80115570e+02 9.08730090e-01]
  [9.12879578e+02 4.77315765e+02 8.35635424e-01]
  [9.04198120e+02 5.68581604e+02 8.66766393e-01]
  [9.01160461e+02 6.36205933e+02 8.66553485e-01]
  [1.02468103e+03 4.80153412e+02 8.98126006e-01]
  [1.04520520e+03 5.71540649e+02 8.77302349e-01]
  [1.06295984e+03 6.50917786e+02 8.03243995e-01]
  [9.77570190e+02 6.44992554e+02 7.95303345e-01]
  [9.42364380e+02 6.45016357e+02 7.23143458e-01]
  [9.33565063e+02 7.80506897e+02 8.66896987e-01]
  [9.48170288e+02 9.12875977e+02 8.32305253e-01]
  [1.01586328e+03 6.44961365e+02 7.23850131e-01]
  [1.00135034e+03 7.74619019e+02 8.51895452e-01]
  [9.83603760e+02 9.09926147e+02 8.08408856e-01]
  [9.74810730e+02 3.91950623e+02 9.53291297e-01]
  [9.98382324e+02 4.00768951e+02 8.83765757e-01]
  [9.54026184e+02 4.00724213e+02 8.47450674e-01]
  [1.01593066e+03 4.12450073e+02 5.78237176e-01]
  [9.74676514e+02 9.45257812e+02 7.19760060e-01]
  [9.95272400e+02 9.42371704e+02 7.29527414e-01]
  [9.83503235e+02 9.27476807e+02 6.97406471e-01]
  [9.27644043e+02 9.45266113e+02 7.57788062e-01]
  [9.12972900e+02 9.33592896e+02 7.54242837e-01]
  [9.54101685e+02 9.27598755e+02 8.08042884e-01]]]