[[[1.00422174e+03 3.65399506e+02 9.42695916e-01]
  [1.00424231e+03 4.44901398e+02 8.42734396e-01]
  [9.54013672e+02 4.36251678e+02 8.63436878e-01]
  [8.98123230e+02 3.94878693e+02 8.16955507e-01]
  [9.27673340e+02 3.24221710e+02 8.13400090e-01]
  [1.06590540e+03 4.56559326e+02 8.19346726e-01]
  [1.14243140e+03 4.36050476e+02 9.21090066e-01]
  [1.12779126e+03 3.65415039e+02 8.44292641e-01]
  [1.01297736e+03 6.12677612e+02 7.27956772e-01]
  [9.77658325e+02 6.09798401e+02 7.14491308e-01]
  [1.06878760e+03 6.68666443e+02 8.99893701e-01]
  [9.98334351e+02 8.15803711e+02 8.43762279e-01]
  [1.04541687e+03 6.12678650e+02 7.34846115e-01]
  [1.04834570e+03 7.89234619e+02 8.28371704e-01]
  [1.00119244e+03 9.27479919e+02 8.63498509e-01]
  [9.92353821e+02 3.62398621e+02 8.99323344e-01]
  [1.02164246e+03 3.56574432e+02 8.81573856e-01]
  [9.74591125e+02 3.83018951e+02 8.53644967e-01]
  [1.03948376e+03 3.74288605e+02 4.96639371e-01]
  [1.03941125e+03 9.60052673e+02 7.50845730e-01]
  [1.03943103e+03 9.54178589e+02 7.65796840e-01]
  [9.83595276e+02 9.33491760e+02 8.11955273e-01]
  [1.00422986e+03 8.65772339e+02 4.58799541e-01]
  [9.98187256e+02 8.59962708e+02 5.29152393e-01]
  [9.80580750e+02 8.24607971e+02 6.95590794e-01]]]