[[[9.68880005e+02 5.97842651e+02 8.92011881e-01]
  [9.30689514e+02 6.53947876e+02 8.75851572e-01]
  [8.80637695e+02 6.62682678e+02 8.06912243e-01]
  [8.92310730e+02 7.48149170e+02 8.08492124e-01]
  [9.21727661e+02 8.39422607e+02 8.62921953e-01]
  [9.83523499e+02 6.48140808e+02 8.44046474e-01]
  [1.04844604e+03 6.68566040e+02 8.81934881e-01]
  [1.02775793e+03 7.18559387e+02 8.53020251e-01]
  [9.71725098e+02 7.74558838e+02 7.40497589e-01]
  [9.30642090e+02 7.83316467e+02 7.40622401e-01]
  [8.39285706e+02 7.86355774e+02 9.36900496e-01]
  [9.01151001e+02 9.21725037e+02 8.22483540e-01]
  [1.00704944e+03 7.65879395e+02 7.58917868e-01]
  [9.57159668e+02 8.42243286e+02 8.66783857e-01]
  [1.01300879e+03 9.07077026e+02 8.72695327e-01]
  [9.54118591e+02 5.77442566e+02 9.68462348e-01]
  [9.77573608e+02 5.80407227e+02 8.93813491e-01]
  [9.24712646e+02 5.80436768e+02 8.16650212e-01]
  [0.00000000e+00 0.00000000e+00 0.00000000e+00]
  [1.00125195e+03 9.51232666e+02 8.36313367e-01]
  [1.02179871e+03 9.48160339e+02 7.94810355e-01]
  [1.02187604e+03 9.07065613e+02 7.45306551e-01]
  [8.51123474e+02 9.39383179e+02 7.28896320e-01]
  [8.54015808e+02 9.30638123e+02 7.47438252e-01]
  [9.15841125e+02 9.30566284e+02 8.15109491e-01]]]