[[[8.6876794e+02 6.1855505e+02 6.0927546e-01]
  [9.0109552e+02 5.9509204e+02 8.2718956e-01]
  [8.3347516e+02 5.9500031e+02 7.8149080e-01]
  [7.6287933e+02 6.1862671e+02 9.1460115e-01]
  [7.8626453e+02 6.9504944e+02 9.3273497e-01]
  [9.7174280e+02 5.9781805e+02 7.5434446e-01]
  [1.0718580e+03 6.4798981e+02 9.4612026e-01]
  [1.0512181e+03 7.3619354e+02 8.6422205e-01]
  [9.0416528e+02 6.9806415e+02 7.1771401e-01]
  [8.5687579e+02 6.9506927e+02 7.2894722e-01]
  [7.8339185e+02 7.8934039e+02 8.5665804e-01]
  [7.4516608e+02 9.4232324e+02 8.0160654e-01]
  [9.5707495e+02 6.9813013e+02 6.2973702e-01]
  [1.0512383e+03 7.8040619e+02 8.2267481e-01]
  [1.0749012e+03 9.4815741e+02 8.0077982e-01]
  [8.5709503e+02 6.0097443e+02 4.9070892e-01]
  [8.8050983e+02 6.0085468e+02 4.8573640e-01]
  [8.3935168e+02 5.8325696e+02 1.7016417e-01]
  [9.0417059e+02 5.8029010e+02 4.4143316e-01]
  [1.1189078e+03 9.7779321e+02 7.9270840e-01]
  [1.1248469e+03 9.7460504e+02 7.7868724e-01]
  [1.0659867e+03 9.6005908e+02 8.0144840e-01]
  [7.1865936e+02 9.7765039e+02 7.8732342e-01]
  [7.0976459e+02 9.7177881e+02 7.5410938e-01]
  [7.5984790e+02 9.5703418e+02 7.7652258e-01]]]