[[[9.68777527e+02 3.50701843e+02 8.70858490e-01]
  [9.74840149e+02 4.39053680e+02 9.31375325e-01]
  [9.12893005e+02 4.36178070e+02 8.58545542e-01]
  [8.95227173e+02 5.27348206e+02 8.62227321e-01]
  [8.83359314e+02 6.12695312e+02 8.95750582e-01]
  [1.03950989e+03 4.42039612e+02 8.09828103e-01]
  [1.04529358e+03 5.45050964e+02 8.32034707e-01]
  [1.02469177e+03 6.21418274e+02 8.96374822e-01]
  [9.62955139e+02 6.30411804e+02 7.21590638e-01]
  [9.27566528e+02 6.30332764e+02 7.54391491e-01]
  [9.27732910e+02 7.83318115e+02 8.94843578e-01]
  [9.62927063e+02 9.12981262e+02 8.07939410e-01]
  [1.00116608e+03 6.33313477e+02 7.48576164e-01]
  [9.98328857e+02 7.62872681e+02 9.29339528e-01]
  [1.00708264e+03 9.15853088e+02 7.93278217e-01]
  [9.53995789e+02 3.41869995e+02 9.83880162e-01]
  [9.80569885e+02 3.39086304e+02 9.37130690e-01]
  [9.39419373e+02 3.62641113e+02 5.72147965e-01]
  [1.00709955e+03 3.62370392e+02 8.47489178e-01]
  [9.98107361e+02 9.62978760e+02 8.79321098e-01]
  [1.01591180e+03 9.57146912e+02 8.23114574e-01]
  [1.01004065e+03 9.27726318e+02 7.35663176e-01]
  [9.24589783e+02 9.51187378e+02 8.06088984e-01]
  [9.18763977e+02 9.42313354e+02 7.21807957e-01]
  [9.74846802e+02 9.27673157e+02 8.72776210e-01]]]