[[[8.6291956e+02 3.5080438e+02 8.6571527e-01]
  [8.7172687e+02 4.2730386e+02 8.1589216e-01]
  [8.1292468e+02 4.2435791e+02 8.1446421e-01]
  [7.5691101e+02 3.5662704e+02 7.9024059e-01]
  [8.1580499e+02 3.4781253e+02 7.3717785e-01]
  [9.2759467e+02 4.3306415e+02 8.3467507e-01]
  [9.9813147e+02 3.6551114e+02 8.1730253e-01]
  [9.5709955e+02 3.5949631e+02 7.6006353e-01]
  [8.6294989e+02 6.1264783e+02 6.9685102e-01]
  [8.3055322e+02 6.0974420e+02 6.7788464e-01]
  [8.3356885e+02 7.8046411e+02 8.6448371e-01]
  [8.5395874e+02 9.1587744e+02 8.1236029e-01]
  [9.0413080e+02 6.1268793e+02 7.2292662e-01]
  [9.0111932e+02 7.7754791e+02 8.1522751e-01]
  [9.0108319e+02 9.2174127e+02 8.0815387e-01]
  [8.5409930e+02 3.4203918e+02 9.2312849e-01]
  [8.8057465e+02 3.4195914e+02 9.8356658e-01]
  [8.3641400e+02 3.6559692e+02 7.3748630e-01]
  [9.0399652e+02 3.6554584e+02 8.9570320e-01]
  [8.5996393e+02 9.4532037e+02 6.8378627e-01]
  [8.8047827e+02 9.5106476e+02 7.3842770e-01]
  [9.0697589e+02 9.3354657e+02 8.0152851e-01]
  [8.3044824e+02 9.4531049e+02 7.1784616e-01]
  [8.1579755e+02 9.3644684e+02 6.9960207e-01]
  [8.5999158e+02 9.2770929e+02 6.9546163e-01]]]