[[[9.3053473e+02 3.1841013e+02 9.7290254e-01]
  [9.0119330e+02 3.8593149e+02 8.7972826e-01]
  [8.3649951e+02 3.6264212e+02 8.2382047e-01]
  [8.3935199e+02 4.0972751e+02 8.7892872e-01]
  [9.3053656e+02 4.1257288e+02 8.6857486e-01]
  [9.5699988e+02 3.9789270e+02 8.0886811e-01]
  [9.6879071e+02 4.8329056e+02 7.8167218e-01]
  [9.6881940e+02 5.5073352e+02 8.3911818e-01]
  [8.9823932e+02 5.8032904e+02 6.4636081e-01]
  [8.5693640e+02 5.7741986e+02 6.5509486e-01]
  [8.3629688e+02 7.6580267e+02 8.9315408e-01]
  [8.1276239e+02 9.3049664e+02 8.7251979e-01]
  [9.3938635e+02 5.8324634e+02 6.4200085e-01]
  [9.9831769e+02 7.6276520e+02 8.8674951e-01]
  [1.0248958e+03 9.2758539e+02 8.3388782e-01]
  [9.2473706e+02 3.0071402e+02 8.9572847e-01]
  [9.5104822e+02 3.1555518e+02 9.3395340e-01]
  [8.9231299e+02 3.0950162e+02 7.6854289e-01]
  [9.5131494e+02 3.3900665e+02 4.7633716e-01]
  [1.0718755e+03 9.7467102e+02 8.1784189e-01]
  [1.0806661e+03 9.5998584e+02 7.5792760e-01]
  [1.0071246e+03 9.3652588e+02 7.7633053e-01]
  [8.1284271e+02 9.7478998e+02 8.3195239e-01]
  [7.8936487e+02 9.7172375e+02 7.9630756e-01]
  [8.1582019e+02 9.4523779e+02 6.5836066e-01]]]