[[[9.54242004e+02 3.50772461e+02 8.93551946e-01]
  [9.54121216e+02 4.36122772e+02 9.31284904e-01]
  [9.04093628e+02 4.33174957e+02 8.52807462e-01]
  [8.80525696e+02 5.24310364e+02 8.26464176e-01]
  [8.83361694e+02 4.83323822e+02 9.03333426e-01]
  [1.00423865e+03 4.39028931e+02 8.27764928e-01]
  [1.09235364e+03 4.80309723e+02 8.80978525e-01]
  [1.17486743e+03 5.09655701e+02 8.03832948e-01]
  [9.36436951e+02 6.00856140e+02 7.50323176e-01]
  [9.18810181e+02 6.00833557e+02 7.08230674e-01]
  [1.00135443e+03 7.39174866e+02 8.87028337e-01]
  [9.74743286e+02 9.07099426e+02 7.64241636e-01]
  [9.54218445e+02 6.00922729e+02 7.37216055e-01]
  [9.51152161e+02 7.62665588e+02 8.46506715e-01]
  [8.86486145e+02 9.01151184e+02 7.94412017e-01]
  [9.39393188e+02 3.42065582e+02 8.94882321e-01]
  [9.65937866e+02 3.39061707e+02 9.00518894e-01]
  [9.18782166e+02 3.65602448e+02 8.28640759e-01]
  [9.80642761e+02 3.56675171e+02 3.42839956e-01]
  [9.30612366e+02 9.45302734e+02 6.27082467e-01]
  [9.24665161e+02 9.42310608e+02 5.07964432e-01]
  [8.65838562e+02 9.07101440e+02 7.44986475e-01]
  [1.01005859e+03 9.60003113e+02 6.56497657e-01]
  [9.98142029e+02 9.57090210e+02 6.92911088e-01]
  [9.54221130e+02 9.24645386e+02 6.88753664e-01]]]