[[[1.01881146e+03 3.80219513e+02 8.89473557e-01]
  [1.03061328e+03 4.62592255e+02 8.40038717e-01]
  [9.92367737e+02 4.71449219e+02 7.88391590e-01]
  [9.62904297e+02 5.56848633e+02 8.28918517e-01]
  [9.12858887e+02 6.24478638e+02 8.91040921e-01]
  [1.07187366e+03 4.59562500e+02 8.74396920e-01]
  [1.04842542e+03 5.33277344e+02 8.43448639e-01]
  [1.04826990e+03 6.24383972e+02 8.82942557e-01]
  [1.03942334e+03 6.21520020e+02 8.00661206e-01]
  [1.00128571e+03 6.18625000e+02 8.16517651e-01]
  [9.03997559e+02 7.27533325e+02 8.60085368e-01]
  [9.04104248e+02 8.80610474e+02 8.56982231e-01]
  [1.07175549e+03 6.24422913e+02 7.96179712e-01]
  [1.07197400e+03 7.86284546e+02 8.73501301e-01]
  [1.10710596e+03 9.27620361e+02 8.25612903e-01]
  [1.00704529e+03 3.65379089e+02 9.32808340e-01]
  [1.03070093e+03 3.65598267e+02 8.63304079e-01]
  [9.98311279e+02 3.74293671e+02 6.47365078e-02]
  [1.06301660e+03 3.86174042e+02 7.84063756e-01]
  [1.09243359e+03 9.54067505e+02 7.63644218e-01]
  [1.11308618e+03 9.54070190e+02 8.06327164e-01]
  [1.11306860e+03 9.36459900e+02 7.04410434e-01]
  [8.56967285e+02 9.12972717e+02 7.54056036e-01]
  [8.54071838e+02 9.06902222e+02 7.71707058e-01]
  [9.21699280e+02 8.95220703e+02 7.32618213e-01]]]