[[[1.00122913e+03 3.18234985e+02 9.47405994e-01]
  [9.98236755e+02 4.24371246e+02 8.74251246e-01]
  [9.30645325e+02 4.21443726e+02 8.17192852e-01]
  [9.33460876e+02 5.15555664e+02 7.35511363e-01]
  [9.24706360e+02 5.03655182e+02 8.27279031e-01]
  [1.05711230e+03 4.24350952e+02 8.08733165e-01]
  [1.09525891e+03 5.21379028e+02 8.78940880e-01]
  [1.08072571e+03 5.95071106e+02 8.51939380e-01]
  [1.00423193e+03 6.01007141e+02 7.30344951e-01]
  [9.68824585e+02 6.00970825e+02 7.14507937e-01]
  [9.57031372e+02 7.18625244e+02 8.77761185e-01]
  [9.48227844e+02 8.39289978e+02 8.41417313e-01]
  [1.04828491e+03 6.01027527e+02 7.50190735e-01]
  [1.06591443e+03 7.83406555e+02 8.11024189e-01]
  [1.06888416e+03 9.33508118e+02 8.32812130e-01]
  [9.83614868e+02 3.09514282e+02 8.40989947e-01]
  [1.02164685e+03 3.12441040e+02 8.93189192e-01]
  [9.62924255e+02 3.35926300e+02 8.12284350e-01]
  [1.03065576e+03 3.38884949e+02 7.98072457e-01]
  [1.07184949e+03 9.74565979e+02 6.91392243e-01]
  [1.09249219e+03 9.65923767e+02 7.25002527e-01]
  [1.05709705e+03 9.51214600e+02 6.69978499e-01]
  [9.48226135e+02 9.01156494e+02 7.83573449e-01]
  [9.27624817e+02 8.89368958e+02 7.37196445e-01]
  [9.51093872e+02 8.51072998e+02 7.10618615e-01]]]