[[[9.5405591e+02 3.4777844e+02 9.3059647e-01]
  [9.8942780e+02 4.0966382e+02 7.3394573e-01]
  [9.9819543e+02 4.0967142e+02 5.9704334e-01]
  [9.3048724e+02 5.0664954e+02 7.9892623e-01]
  [8.5397052e+02 5.5391486e+02 8.5241681e-01]
  [9.7757172e+02 4.0949789e+02 8.2774615e-01]
  [9.6298804e+02 5.0083417e+02 8.1514645e-01]
  [9.3344794e+02 5.8039758e+02 8.2352757e-01]
  [9.7478729e+02 6.0096307e+02 7.0858306e-01]
  [9.6590912e+02 6.0102582e+02 5.8371043e-01]
  [9.4824451e+02 7.6281726e+02 8.0303603e-01]
  [9.7468524e+02 9.0704370e+02 8.6109668e-01]
  [9.8058154e+02 6.0095105e+02 6.9988626e-01]
  [9.8057526e+02 7.7747858e+02 8.0727190e-01]
  [1.0187619e+03 9.5122931e+02 8.1642556e-01]
  [9.5125983e+02 3.3903043e+02 9.1286856e-01]
  [9.7177307e+02 3.3907187e+02 9.3887997e-01]
  [0.0000000e+00 0.0000000e+00 0.0000000e+00]
  [1.0012673e+03 3.5365613e+02 7.3771143e-01]
  [9.4237323e+02 9.7467957e+02 7.6567906e-01]
  [9.6000903e+02 9.8068427e+02 7.6762283e-01]
  [1.0278145e+03 9.6885535e+02 7.6890957e-01]
  [9.1589886e+02 9.3353973e+02 7.4288672e-01]
  [9.2175708e+02 9.2764075e+02 6.9640112e-01]
  [9.7780182e+02 9.2464343e+02 6.6994584e-01]]]