[[[1.06596094e+03 5.06775604e+02 9.29761887e-01]
  [1.04546924e+03 5.56755737e+02 8.35143387e-01]
  [1.02764636e+03 5.50750000e+02 8.58892560e-01]
  [1.00412573e+03 6.36212463e+02 8.57702374e-01]
  [1.01880188e+03 7.12733765e+02 8.70039165e-01]
  [1.06593823e+03 5.71528381e+02 7.90171146e-01]
  [1.08361279e+03 6.48134460e+02 8.21019351e-01]
  [1.08649927e+03 7.18788208e+02 8.57858896e-01]
  [9.51107544e+02 7.09751770e+02 7.73242116e-01]
  [9.18776123e+02 6.98002319e+02 7.26839304e-01]
  [8.36505920e+02 8.18694092e+02 8.62906873e-01]
  [8.33275574e+02 9.27553223e+02 8.67523193e-01]
  [9.77770020e+02 7.15723938e+02 7.54665732e-01]
  [1.08939807e+03 7.83396423e+02 8.45444918e-01]
  [1.08364783e+03 9.21779114e+02 8.00044179e-01]
  [1.05418738e+03 4.89120300e+02 8.58008027e-01]
  [1.08072644e+03 5.03719391e+02 8.83508682e-01]
  [1.03944983e+03 4.91969879e+02 7.65847027e-01]
  [1.09546313e+03 5.18516785e+02 8.17006767e-01]
  [1.13069006e+03 9.48266113e+02 7.78878808e-01]
  [1.13066138e+03 9.36433472e+02 7.33055949e-01]
  [1.06896631e+03 9.30737854e+02 8.51640821e-01]
  [8.06951050e+02 9.51212219e+02 7.78596103e-01]
  [7.92210938e+02 9.45327820e+02 7.93186188e-01]
  [8.36494080e+02 9.39353210e+02 7.82731771e-01]]]