[[[9.86537903e+02 4.09572968e+02 9.00327563e-01]
  [9.71744141e+02 4.80103668e+02 8.99191976e-01]
  [9.10030090e+02 4.77229279e+02 8.39300156e-01]
  [9.04072632e+02 5.71427673e+02 8.63930881e-01]
  [9.01114380e+02 6.39115112e+02 8.58317494e-01]
  [1.02465247e+03 4.80181732e+02 8.96116853e-01]
  [1.04522498e+03 5.71527161e+02 8.77074480e-01]
  [1.06294458e+03 6.48132874e+02 8.02760303e-01]
  [9.77546692e+02 6.45029175e+02 8.06305110e-01]
  [9.42288086e+02 6.45068787e+02 7.33240724e-01]
  [9.33567566e+02 7.83351135e+02 8.75004232e-01]
  [9.48220581e+02 9.12869751e+02 8.35916221e-01]
  [1.01586523e+03 6.45015198e+02 7.35815644e-01]
  [1.00135956e+03 7.74594727e+02 8.52524638e-01]
  [9.86468201e+02 9.07168945e+02 8.02996695e-01]
  [9.77637573e+02 3.89157318e+02 9.65752900e-01]
  [1.00119757e+03 4.00724915e+02 8.74823630e-01]
  [9.54135010e+02 3.94935669e+02 8.53496909e-01]
  [1.01592651e+03 4.12451202e+02 4.70850319e-01]
  [9.74671875e+02 9.45285583e+02 7.08273947e-01]
  [9.95259705e+02 9.45220825e+02 7.21965730e-01]
  [9.83569763e+02 9.27486389e+02 6.89120352e-01]
  [9.27624390e+02 9.45248291e+02 7.55723417e-01]
  [9.12971985e+02 9.33573853e+02 7.59379387e-01]
  [9.54145081e+02 9.27608093e+02 8.07064176e-01]]]