[[[9.86522888e+02 4.12545471e+02 9.11673248e-01]
  [9.74849243e+02 4.80155609e+02 9.43893850e-01]
  [9.18814636e+02 4.71441223e+02 8.05861175e-01]
  [9.06998901e+02 5.56869995e+02 8.51811349e-01]
  [9.04066040e+02 6.30396545e+02 9.14563537e-01]
  [1.03354504e+03 4.83180756e+02 8.51149023e-01]
  [1.04816846e+03 5.77436707e+02 9.02689457e-01]
  [1.05718652e+03 6.59742310e+02 7.68268704e-01]
  [9.77658936e+02 6.44979797e+02 7.78209388e-01]
  [9.42395325e+02 6.42091858e+02 6.97333574e-01]
  [9.36460632e+02 7.86175964e+02 8.77307177e-01]
  [9.48139832e+02 9.10009583e+02 8.28176916e-01]
  [1.01880725e+03 6.45049683e+02 7.35824406e-01]
  [1.00412555e+03 7.74606812e+02 8.40120435e-01]
  [9.83578613e+02 9.09988403e+02 7.93680429e-01]
  [9.74830750e+02 4.00764435e+02 9.19681311e-01]
  [1.00113544e+03 4.03688354e+02 8.90595257e-01]
  [9.54094421e+02 4.03747009e+02 8.65298867e-01]
  [1.02166852e+03 4.09521027e+02 6.78304791e-01]
  [9.74652161e+02 9.45305969e+02 6.96365833e-01]
  [9.95269287e+02 9.45235107e+02 7.07023203e-01]
  [9.80665588e+02 9.27516235e+02 6.81457102e-01]
  [9.30513123e+02 9.45284241e+02 7.53577888e-01]
  [9.15873901e+02 9.33625305e+02 7.46576130e-01]
  [9.54008850e+02 9.27537720e+02 7.69992232e-01]]]