[[[9.5103143e+02 3.6848538e+02 9.2444104e-01]
  [9.0714410e+02 4.5969156e+02 8.7284946e-01]
  [8.8059161e+02 4.6259949e+02 8.3949614e-01]
  [8.6002411e+02 5.7453040e+02 8.9696288e-01]
  [8.8650427e+02 6.6860022e+02 8.9906126e-01]
  [9.3644720e+02 4.5682297e+02 8.2391119e-01]
  [9.6297144e+02 5.5095026e+02 7.3901689e-01]
  [9.9825092e+02 6.2157825e+02 6.0651231e-01]
  [9.1288818e+02 6.3626935e+02 6.8736881e-01]
  [8.8053613e+02 6.4512390e+02 7.1058899e-01]
  [8.5404120e+02 8.0994971e+02 8.8384211e-01]
  [8.1587439e+02 9.3351868e+02 8.3496130e-01]
  [9.5105084e+02 6.2450195e+02 7.2071290e-01]
  [1.0689733e+03 6.2460059e+02 9.0813857e-01]
  [1.0749028e+03 8.0695349e+02 7.8547931e-01]
  [9.2770630e+02 3.6539371e+02 9.8419040e-01]
  [9.4824554e+02 3.5958826e+02 8.2242376e-01]
  [8.9814032e+02 3.8893091e+02 8.4461832e-01]
  [0.0000000e+00 0.0000000e+00 0.0000000e+00]
  [1.1336096e+03 8.4815082e+02 5.5185807e-01]
  [1.1365907e+03 8.3635034e+02 5.8873516e-01]
  [1.0658540e+03 8.1870764e+02 7.0835614e-01]
  [7.8923651e+02 9.7175751e+02 7.7202868e-01]
  [7.8046674e+02 9.5705951e+02 7.6313150e-01]
  [8.3039264e+02 9.5116241e+02 7.9055434e-01]]]