[[[9.06996826e+02 4.06568298e+02 9.38645303e-01]
  [9.51009338e+02 4.86156677e+02 8.84478271e-01]
  [8.83453064e+02 4.94983093e+02 8.14397633e-01]
  [8.71742493e+02 5.86224487e+02 7.90651560e-01]
  [8.09898193e+02 6.18563232e+02 8.68285656e-01]
  [1.01008563e+03 4.83190735e+02 8.27158511e-01]
  [1.02779907e+03 5.97880981e+02 8.51413608e-01]
  [1.02767505e+03 6.92277100e+02 8.81940603e-01]
  [9.30577515e+02 6.83327454e+02 7.10154831e-01]
  [8.83552734e+02 6.80371033e+02 6.93480551e-01]
  [7.39270203e+02 7.77512878e+02 8.59453559e-01]
  [8.12722168e+02 9.27652771e+02 8.40006948e-01]
  [9.77535156e+02 6.86289185e+02 7.02110112e-01]
  [1.08953125e+03 8.09761292e+02 8.45710695e-01]
  [1.07485828e+03 9.45332397e+02 7.73002386e-01]
  [8.89391113e+02 3.92038910e+02 8.65132749e-01]
  [9.21788147e+02 3.86041473e+02 8.96984041e-01]
  [8.83363525e+02 4.18436920e+02 3.63538682e-01]
  [9.53994568e+02 3.89099518e+02 8.50339890e-01]
  [1.09248535e+03 9.77766357e+02 7.07892120e-01]
  [1.11295728e+03 9.74808105e+02 7.38985419e-01]
  [1.06594934e+03 9.57069763e+02 6.96482301e-01]
  [7.48057495e+02 9.71753906e+02 7.31487095e-01]
  [7.53928894e+02 9.57081482e+02 6.63674474e-01]
  [8.36304382e+02 9.36483948e+02 7.60139048e-01]]]