[[[9.04112061e+02 3.42081421e+02 9.58963692e-01]
  [9.24596313e+02 4.39089569e+02 8.62191439e-01]
  [8.57030090e+02 4.36114777e+02 8.46014798e-01]
  [7.62813049e+02 4.89110962e+02 8.51547718e-01]
  [8.04034302e+02 4.36201599e+02 8.54794443e-01]
  [9.83566895e+02 4.50754242e+02 7.96727657e-01]
  [9.95232910e+02 5.44935364e+02 8.14924657e-01]
  [9.77542175e+02 6.12638611e+02 8.83759737e-01]
  [8.95207581e+02 6.24517456e+02 7.06002235e-01]
  [8.54029907e+02 6.21528442e+02 6.91051960e-01]
  [8.27500183e+02 7.86312744e+02 8.56975913e-01]
  [7.92226807e+02 9.27699402e+02 8.59982491e-01]
  [9.33569336e+02 6.30337952e+02 7.11570203e-01]
  [1.02176245e+03 7.65867249e+02 8.63959312e-01]
  [1.00703925e+03 9.33523987e+02 8.04409862e-01]
  [8.86403137e+02 3.39020325e+02 9.25178289e-01]
  [9.18757446e+02 3.36091003e+02 8.66488099e-01]
  [8.77528503e+02 3.62514557e+02 7.54747391e-01]
  [9.39434814e+02 3.47870667e+02 7.80695796e-01]
  [1.06880774e+03 9.74721008e+02 8.40956211e-01]
  [1.06881226e+03 9.62938660e+02 7.49425530e-01]
  [9.92290649e+02 9.51118591e+02 7.85084605e-01]
  [8.01076477e+02 9.62972412e+02 7.42244899e-01]
  [7.80496216e+02 9.57131531e+02 7.50332057e-01]
  [7.92298035e+02 9.36523010e+02 6.92795634e-01]]]