[[[1.0952957e+03 4.0370645e+02 9.1493279e-01]
  [1.0688016e+03 4.8328253e+02 9.2203319e-01]
  [1.0011732e+03 4.6265265e+02 8.6526567e-01]
  [9.5118506e+02 5.4793951e+02 9.0262210e-01]
  [9.8939197e+02 6.2462128e+02 8.5625929e-01]
  [1.1307113e+03 5.0671222e+02 8.1372470e-01]
  [1.1426406e+03 6.0686218e+02 8.3350366e-01]
  [1.0777646e+03 6.7145966e+02 8.6298078e-01]
  [1.0158762e+03 6.4493750e+02 7.7575719e-01]
  [9.7179675e+02 6.2458386e+02 7.4816096e-01]
  [9.2458984e+02 7.7158838e+02 8.3822268e-01]
  [8.1872858e+02 9.0411017e+02 8.5136247e-01]
  [1.0542245e+03 6.5103271e+02 7.4404842e-01]
  [1.1189185e+03 7.8644507e+02 9.1360188e-01]
  [1.0954625e+03 9.3067535e+02 8.7411612e-01]
  [1.0807227e+03 3.8620392e+02 9.1540676e-01]
  [1.1130934e+03 3.9193610e+02 9.0030551e-01]
  [1.0541979e+03 4.0367188e+02 7.8744519e-01]
  [1.1218801e+03 4.1267191e+02 7.6117194e-01]
  [1.1365499e+03 9.7456128e+02 8.1511199e-01]
  [1.1396554e+03 9.5999683e+02 8.3340317e-01]
  [1.0806237e+03 9.4821503e+02 7.8538275e-01]
  [8.1295013e+02 9.6588263e+02 7.7221990e-01]
  [7.9231036e+02 9.5410828e+02 7.8032774e-01]
  [8.0982208e+02 9.0693512e+02 6.9220978e-01]]]