[[[8.0690442e+02 3.5963782e+02 9.0921175e-01]
  [8.2166626e+02 4.3302850e+02 8.5632861e-01]
  [7.7753625e+02 4.3622006e+02 7.7563506e-01]
  [7.1566974e+02 4.1269165e+02 8.1725913e-01]
  [7.6575757e+02 3.5953204e+02 5.7678455e-01]
  [8.6878668e+02 4.1560220e+02 7.7244842e-01]
  [9.3050665e+02 3.9198044e+02 8.4531718e-01]
  [9.1875134e+02 3.6847144e+02 6.4327568e-01]
  [8.4813153e+02 6.3621222e+02 6.9330901e-01]
  [8.1297681e+02 6.4207367e+02 7.2150874e-01]
  [7.5684491e+02 7.8936334e+02 8.4543395e-01]
  [6.9211713e+02 9.3647577e+02 8.1983852e-01]
  [8.8044513e+02 6.3035217e+02 6.8059468e-01]
  [9.0396771e+02 7.8921069e+02 8.9095014e-01]
  [9.4822461e+02 9.3944409e+02 8.0187720e-01]
  [7.8934192e+02 3.4206812e+02 9.3725270e-01]
  [8.1880206e+02 3.4203589e+02 8.7760174e-01]
  [7.7165411e+02 3.6251752e+02 3.9213216e-01]
  [8.4820740e+02 3.6246884e+02 7.7593815e-01]
  [9.0417792e+02 9.7178204e+02 7.7105534e-01]
  [9.2757361e+02 9.7470563e+02 7.8339159e-01]
  [9.5998383e+02 9.5417157e+02 7.9222262e-01]
  [6.3333234e+02 9.6876685e+02 6.9507730e-01]
  [6.3624817e+02 9.5413770e+02 7.0325488e-01]
  [6.9803436e+02 9.5704620e+02 7.6639831e-01]]]