[[[1.3190483e+03 2.9500397e+02 8.8661170e-01]
  [1.3249824e+03 3.6545258e+02 8.8554013e-01]
  [1.2778070e+03 3.5078952e+02 7.8694046e-01]
  [1.2336675e+03 2.9185321e+02 8.2112235e-01]
  [1.1807694e+03 2.2427821e+02 8.6405909e-01]
  [1.3748625e+03 3.8310138e+02 8.2851416e-01]
  [1.3720594e+03 4.7434732e+02 8.2088149e-01]
  [1.3161672e+03 5.5378265e+02 8.3045095e-01]
  [1.3132256e+03 5.5675354e+02 6.8663150e-01]
  [1.2836716e+03 5.5381622e+02 7.3434615e-01]
  [1.2867866e+03 7.3337299e+02 8.2639849e-01]
  [1.3307205e+03 8.9522778e+02 8.1113017e-01]
  [1.3513318e+03 5.5969263e+02 6.9154626e-01]
  [1.3514828e+03 7.1872931e+02 8.7986052e-01]
  [1.3750803e+03 8.8645874e+02 8.2304955e-01]
  [1.3131385e+03 2.8604492e+02 8.7000144e-01]
  [1.3367734e+03 2.9473926e+02 9.1084057e-01]
  [0.0000000e+00 0.0000000e+00 0.0000000e+00]
  [1.3602689e+03 3.1844385e+02 8.2903147e-01]
  [1.3514866e+03 9.4530267e+02 7.6400483e-01]
  [1.3748781e+03 9.3653387e+02 7.5166363e-01]
  [1.3867333e+03 9.0407800e+02 6.7089856e-01]
  [1.2867051e+03 9.3642181e+02 7.5051665e-01]
  [1.2836599e+03 9.2771698e+02 7.7248466e-01]
  [1.3454958e+03 9.0992419e+02 6.4406312e-01]]]