[[[1.00123340e+03 3.65373627e+02 9.73807275e-01]
  [9.98125000e+02 4.50754028e+02 8.64292741e-01]
  [9.36420166e+02 4.39033661e+02 8.68498266e-01]
  [9.30579773e+02 5.06783722e+02 8.84006023e-01]
  [9.57090515e+02 4.18495209e+02 8.29033136e-01]
  [1.04818628e+03 4.56670746e+02 8.78302336e-01]
  [1.09250940e+03 5.27273010e+02 8.96054566e-01]
  [1.09233813e+03 4.41975159e+02 8.31933677e-01]
  [1.00712433e+03 6.21480286e+02 7.50072777e-01]
  [9.74821594e+02 6.21572083e+02 7.57242918e-01]
  [1.04829175e+03 7.15744141e+02 8.91062021e-01]
  [9.68812378e+02 8.33316284e+02 8.23674321e-01]
  [1.04527014e+03 6.21435608e+02 7.54996538e-01]
  [1.04530005e+03 7.89352112e+02 8.68296087e-01]
  [1.00117676e+03 9.27577759e+02 8.69595647e-01]
  [9.83548035e+02 3.59602203e+02 8.97308230e-01]
  [1.01874518e+03 3.56664124e+02 8.52127850e-01]
  [9.62916626e+02 3.83014465e+02 8.13176811e-01]
  [1.02781262e+03 3.80093262e+02 5.78334749e-01]
  [1.03064990e+03 9.65894470e+02 7.14897156e-01]
  [1.03947339e+03 9.54268494e+02 7.63900876e-01]
  [9.80698181e+02 9.36423523e+02 7.46442020e-01]
  [9.71769470e+02 8.86400330e+02 7.10416913e-01]
  [9.54091553e+02 8.80520386e+02 7.17943490e-01]
  [9.51228149e+02 8.33311707e+02 6.90556765e-01]]]