[[[9.74594971e+02 3.59568878e+02 9.32241023e-01]
  [9.74617676e+02 4.39012726e+02 9.19111431e-01]
  [9.30571106e+02 4.36169586e+02 8.89742672e-01]
  [9.21789185e+02 5.30262207e+02 8.29102397e-01]
  [9.15899170e+02 6.01025879e+02 8.57315302e-01]
  [1.01009302e+03 4.42049438e+02 7.90824652e-01]
  [9.51104126e+02 5.21469971e+02 8.38399351e-01]
  [9.57140503e+02 4.42055939e+02 8.18143427e-01]
  [9.74728455e+02 5.98053711e+02 7.69868493e-01]
  [9.45276550e+02 6.00894348e+02 7.22008884e-01]
  [9.36518555e+02 7.71651428e+02 8.38275433e-01]
  [9.30521179e+02 9.27499634e+02 8.90954137e-01]
  [1.00132855e+03 5.97939636e+02 7.31966019e-01]
  [1.01879871e+03 7.39167969e+02 8.83552551e-01]
  [1.09236133e+03 8.54075439e+02 7.89537430e-01]
  [9.74676270e+02 3.41980530e+02 9.59120035e-01]
  [9.92312927e+02 3.56613953e+02 8.61742675e-01]
  [0.00000000e+00 0.00000000e+00 0.00000000e+00]
  [1.01301416e+03 3.74324310e+02 7.48075247e-01]
  [1.11888647e+03 9.03938538e+02 7.42163718e-01]
  [1.12779346e+03 8.86388794e+02 7.15815842e-01]
  [1.09243384e+03 8.62836914e+02 6.02775514e-01]
  [9.12897949e+02 9.54122803e+02 8.12350929e-01]
  [9.03932861e+02 9.51056335e+02 8.50717366e-01]
  [9.42294495e+02 9.36450073e+02 7.55840063e-01]]]