[[[8.1574213e+02 4.5082318e+02 7.1456802e-01]
  [8.8343073e+02 4.8033777e+02 9.2527694e-01]
  [8.3354877e+02 5.2141779e+02 8.0062050e-01]
  [8.7760211e+02 6.1265643e+02 8.2169253e-01]
  [8.7748767e+02 6.9522223e+02 7.4520344e-01]
  [9.3056512e+02 4.3907098e+02 8.6316466e-01]
  [9.9536029e+02 5.0667236e+02 9.1883183e-01]
  [1.0307057e+03 5.8327759e+02 8.1409585e-01]
  [9.5400391e+02 6.3917133e+02 7.2564578e-01]
  [9.1294318e+02 6.4804797e+02 7.1988463e-01]
  [8.8344580e+02 7.8925848e+02 9.1889089e-01]
  [8.3038129e+02 9.2757648e+02 8.3780372e-01]
  [9.9524231e+02 6.2442102e+02 6.7645317e-01]
  [1.0246458e+03 7.8638727e+02 9.3583977e-01]
  [1.0512755e+03 9.1880084e+02 8.1241465e-01]
  [8.0688489e+02 4.5674161e+02 6.2243235e-01]
  [8.1277673e+02 4.3326706e+02 7.0537448e-01]
  [8.0692706e+02 4.8009680e+02 3.7991133e-01]
  [8.3638257e+02 4.2434564e+02 6.1786455e-01]
  [1.0452256e+03 9.5425873e+02 7.9836476e-01]
  [1.0659189e+03 9.5411731e+02 8.1179118e-01]
  [1.0542130e+03 9.2771655e+02 7.3080719e-01]
  [8.3040430e+02 9.5424988e+02 7.5004470e-01]
  [8.0981476e+02 9.5125031e+02 8.2204282e-01]
  [8.2457300e+02 9.3648529e+02 6.9150209e-01]]]