[[[7.5988983e+02 3.5959769e+02 3.5261613e-01]
  [8.0399634e+02 4.1251566e+02 6.1999291e-01]
  [7.9810254e+02 4.2430524e+02 3.8586232e-01]
  [6.9502972e+02 4.1252386e+02 6.6186875e-02]
  [0.0000000e+00 0.0000000e+00 0.0000000e+00]
  [8.0108844e+02 3.9204053e+02 6.8759286e-01]
  [6.8914142e+02 4.0375949e+02 8.3088386e-01]
  [6.3332489e+02 3.6257367e+02 8.3395141e-01]
  [8.1284216e+02 6.2738818e+02 6.4544135e-01]
  [7.9813129e+02 6.2746704e+02 5.3863114e-01]
  [7.4806226e+02 7.8926947e+02 8.3597088e-01]
  [6.9225653e+02 9.4233917e+02 8.1164992e-01]
  [8.2755115e+02 6.2740521e+02 6.1071664e-01]
  [8.5981335e+02 7.9810126e+02 8.0421281e-01]
  [9.4812006e+02 9.3939056e+02 7.7516687e-01]
  [0.0000000e+00 0.0000000e+00 0.0000000e+00]
  [7.6875903e+02 3.4784937e+02 3.2426983e-01]
  [0.0000000e+00 0.0000000e+00 0.0000000e+00]
  [8.0684717e+02 3.6247379e+02 6.0405833e-01]
  [9.0412219e+02 9.7463788e+02 7.7351969e-01]
  [9.2469073e+02 9.7474792e+02 7.6568747e-01]
  [9.6002051e+02 9.5122485e+02 7.4177814e-01]
  [6.3042053e+02 9.7174011e+02 7.2920907e-01]
  [6.3623920e+02 9.5708472e+02 6.8989289e-01]
  [7.0099677e+02 9.5996832e+02 6.8746591e-01]]]