[[[9.7754205e+02 3.5656253e+02 9.1994846e-01]
  [9.8055145e+02 4.3301773e+02 8.6308408e-01]
  [9.5116895e+02 4.3324850e+02 8.0161613e-01]
  [9.4530078e+02 5.2736523e+02 2.1403633e-01]
  [9.2457452e+02 5.7731921e+02 2.0506677e-01]
  [1.0129971e+03 4.2726761e+02 8.0091339e-01]
  [1.0129505e+03 5.0669354e+02 8.5665256e-01]
  [9.3345251e+02 5.5385388e+02 8.5868454e-01]
  [9.6884399e+02 6.1562012e+02 6.5804738e-01]
  [9.5110095e+02 6.1853455e+02 6.3653034e-01]
  [9.5108478e+02 7.8043396e+02 8.1005478e-01]
  [9.6882074e+02 9.1879919e+02 7.5830954e-01]
  [9.8355206e+02 6.1269751e+02 6.2936121e-01]
  [9.7480029e+02 7.8043567e+02 8.5052001e-01]
  [9.9835590e+02 9.5110229e+02 8.3594537e-01]
  [9.7454645e+02 3.3904831e+02 9.5760989e-01]
  [9.9821893e+02 3.4207578e+02 9.4359046e-01]
  [0.0000000e+00 0.0000000e+00 0.0000000e+00]
  [1.0218952e+03 3.6545462e+02 8.5312557e-01]
  [9.2470654e+02 9.7463757e+02 7.9662842e-01]
  [9.4233374e+02 9.8059229e+02 7.0064652e-01]
  [1.0188015e+03 9.6589557e+02 8.2315111e-01]
  [9.2457605e+02 9.4814148e+02 6.1287969e-01]
  [9.2754388e+02 9.3352551e+02 5.4492927e-01]
  [9.7471075e+02 9.3043805e+02 4.6403226e-01]]]