[[[7.6562903e+02 3.3608340e+02 8.9937913e-01]
  [7.9514966e+02 4.2435983e+02 7.2378755e-01]
  [7.8636859e+02 4.2722867e+02 6.5634036e-01]
  [7.1280219e+02 4.9788541e+02 7.2440773e-01]
  [6.6850647e+02 4.3017126e+02 7.3730278e-01]
  [8.0976782e+02 4.2134512e+02 7.8686565e-01]
  [7.1872913e+02 4.8909094e+02 3.1482503e-01]
  [6.7142401e+02 4.3025595e+02 1.8808752e-01]
  [8.1273798e+02 6.3628088e+02 6.9079185e-01]
  [7.9219171e+02 6.3914020e+02 6.2465107e-01]
  [7.4516260e+02 7.8925299e+02 8.6515522e-01]
  [6.9222894e+02 9.4236139e+02 8.2574081e-01]
  [8.3052643e+02 6.3914697e+02 6.4418578e-01]
  [8.5983807e+02 8.0398346e+02 8.4613234e-01]
  [9.4819501e+02 9.4521411e+02 7.8636318e-01]
  [0.0000000e+00 0.0000000e+00 0.0000000e+00]
  [7.8050159e+02 3.2719559e+02 8.1743562e-01]
  [0.0000000e+00 0.0000000e+00 0.0000000e+00]
  [8.0689465e+02 3.5368002e+02 8.4778845e-01]
  [9.0410791e+02 9.7460284e+02 7.8869003e-01]
  [9.2466425e+02 9.7477301e+02 7.7740335e-01]
  [9.6583984e+02 9.5414581e+02 7.4241978e-01]
  [6.3326508e+02 9.7169330e+02 7.3530531e-01]
  [6.3624402e+02 9.5702771e+02 7.1326625e-01]
  [7.0102747e+02 9.5995380e+02 7.1314323e-01]]]