[[[1.0894929e+03 3.8607431e+02 9.5133936e-01]
  [1.0953633e+03 4.5952264e+02 9.4412833e-01]
  [1.0394431e+03 4.5973227e+02 8.1145006e-01]
  [9.7777057e+02 3.8901770e+02 8.5477483e-01]
  [9.5425098e+02 3.1826694e+02 8.7226796e-01]
  [1.1542419e+03 4.5666397e+02 8.4448069e-01]
  [1.1749117e+03 5.3907233e+02 8.0318552e-01]
  [1.1629551e+03 6.2458868e+02 9.1802424e-01]
  [1.0952833e+03 6.2456049e+02 7.3080504e-01]
  [1.0512274e+03 6.2456311e+02 6.9503069e-01]
  [1.0013535e+03 7.8634052e+02 8.9081204e-01]
  [9.3358972e+02 9.2460907e+02 8.1610990e-01]
  [1.1366173e+03 6.2742273e+02 6.9171083e-01]
  [1.2100923e+03 7.8943677e+02 8.8376868e-01]
  [1.1426169e+03 9.3051013e+02 8.8025850e-01]
  [1.0718358e+03 3.7722330e+02 9.0577406e-01]
  [1.0954874e+03 3.7135193e+02 8.8122565e-01]
  [1.0571132e+03 3.8911743e+02 7.2506040e-01]
  [1.1160956e+03 3.8606873e+02 7.9838783e-01]
  [1.2101876e+03 9.6003339e+02 7.5156343e-01]
  [1.2043212e+03 9.5407446e+02 6.9487590e-01]
  [1.1219456e+03 9.3943311e+02 7.3560780e-01]
  [9.2175610e+02 9.6004840e+02 7.6000112e-01]
  [9.0415973e+02 9.5401593e+02 8.2378501e-01]
  [9.3938965e+02 9.3067352e+02 7.2203654e-01]]]