[[[9.6584534e+02 4.3301135e+02 8.7573302e-01]
  [9.7457556e+02 4.8907599e+02 8.9305085e-01]
  [9.1006647e+02 4.9793683e+02 8.2465309e-01]
  [8.8041064e+02 5.7429291e+02 8.9919525e-01]
  [9.2771997e+02 6.0093896e+02 9.1425121e-01]
  [1.0248116e+03 4.8329568e+02 9.0704060e-01]
  [1.0542147e+03 5.6853491e+02 8.3358312e-01]
  [1.0484210e+03 6.4798059e+02 9.4345671e-01]
  [9.7177570e+02 6.5973700e+02 7.2035074e-01]
  [9.3060321e+02 6.5682831e+02 7.4516565e-01]
  [9.0391553e+02 8.0393469e+02 8.4024924e-01]
  [9.0118280e+02 9.1006305e+02 8.5218668e-01]
  [1.0041645e+03 6.5977332e+02 7.1827680e-01]
  [1.0393878e+03 8.0995551e+02 8.5710651e-01]
  [1.0012775e+03 9.1290424e+02 8.5302782e-01]
  [9.5409589e+02 4.1267822e+02 9.7087866e-01]
  [9.7772791e+02 4.1851215e+02 8.6579704e-01]
  [9.3359540e+02 4.2729868e+02 7.9286945e-01]
  [9.9832019e+02 4.3613007e+02 8.1976253e-01]
  [1.0159225e+03 9.4237018e+02 7.5001341e-01]
  [1.0248202e+03 9.3652411e+02 8.1241399e-01]
  [9.8942932e+02 9.2757819e+02 7.3439872e-01]
  [9.0700464e+02 9.3942920e+02 8.0683476e-01]
  [8.8647278e+02 9.3645972e+02 7.8480870e-01]
  [9.0408203e+02 9.2473431e+02 7.3751426e-01]]]