[[[9.74692688e+02 3.38993347e+02 9.26463842e-01]
  [1.02186060e+03 4.44947205e+02 8.26683342e-01]
  [9.83538147e+02 4.30137329e+02 7.46140242e-01]
  [9.59982117e+02 5.27255737e+02 1.93765283e-01]
  [9.33559387e+02 5.97933960e+02 8.01961124e-02]
  [1.05422742e+03 4.62619202e+02 7.48804867e-01]
  [1.05425671e+03 5.71444702e+02 8.22717607e-01]
  [1.01591449e+03 6.65581726e+02 8.10859621e-01]
  [1.00421545e+03 6.24487488e+02 7.14957774e-01]
  [9.74626343e+02 6.09752686e+02 6.84742987e-01]
  [8.33549011e+02 6.18575684e+02 8.61094534e-01]
  [8.62866760e+02 7.86255188e+02 8.26120138e-01]
  [1.04534363e+03 6.42040405e+02 6.89306259e-01]
  [1.04831897e+03 7.92204895e+02 8.62037122e-01]
  [1.06903040e+03 9.51166077e+02 8.70950699e-01]
  [0.00000000e+00 0.00000000e+00 0.00000000e+00]
  [9.86516174e+02 3.27216980e+02 7.87275493e-01]
  [0.00000000e+00 0.00000000e+00 0.00000000e+00]
  [1.01891852e+03 3.50743347e+02 7.43845463e-01]
  [1.07774573e+03 9.86476379e+02 7.49475241e-01]
  [1.09553687e+03 9.77781067e+02 8.31509590e-01]
  [1.06295178e+03 9.60029053e+02 6.87946975e-01]
  [8.36534912e+02 8.54004395e+02 7.51638055e-01]
  [8.27488281e+02 8.39285217e+02 6.90877199e-01]
  [8.86394714e+02 7.89297363e+02 7.67298579e-01]]]