[[[1.00118939e+03 6.89221069e+02 9.28663135e-01]
  [9.51190308e+02 7.42103882e+02 7.60076582e-01]
  [9.51251587e+02 7.42082886e+02 8.95098388e-01]
  [9.30710449e+02 8.45230469e+02 8.08983207e-01]
  [9.07108215e+02 9.45227661e+02 8.63874316e-01]
  [9.48221558e+02 7.42099304e+02 5.79495430e-01]
  [9.36487366e+02 8.45254089e+02 1.02682479e-01]
  [9.07128235e+02 9.42340637e+02 6.99168071e-02]
  [9.95299927e+02 9.39407715e+02 5.55896938e-01]
  [9.98149170e+02 9.48208984e+02 6.54871106e-01]
  [1.13075403e+03 8.33558716e+02 8.26279879e-01]
  [1.25142139e+03 9.54166077e+02 7.55772889e-01]
  [9.95296082e+02 9.30646790e+02 4.38019127e-01]
  [1.12191797e+03 8.33543701e+02 5.59950709e-01]
  [1.17482642e+03 9.18791504e+02 5.33887506e-01]
  [9.92414551e+02 6.71435974e+02 9.22707498e-01]
  [1.01584595e+03 6.74554260e+02 8.61453772e-01]
  [9.54195496e+02 6.71483398e+02 8.20286751e-01]
  [0.00000000e+00 0.00000000e+00 0.00000000e+00]
  [1.18662280e+03 9.42249207e+02 7.04146773e-02]
  [0.00000000e+00 0.00000000e+00 0.00000000e+00]
  [1.16315210e+03 9.30611816e+02 5.01079559e-01]
  [1.32786621e+03 9.74816223e+02 7.18656957e-01]
  [1.30734729e+03 9.80679688e+02 7.06374943e-01]
  [1.23955994e+03 9.77593628e+02 7.17239618e-01]]]