[[[1.01875586e+03 3.86108612e+02 9.01094437e-01]
  [9.80693604e+02 4.62587616e+02 8.61762583e-01]
  [9.30655762e+02 4.30257477e+02 8.28724980e-01]
  [8.89376587e+02 3.44921539e+02 7.62321115e-01]
  [8.83588867e+02 2.62403290e+02 7.50989199e-01]
  [1.03656836e+03 5.03680725e+02 8.04405093e-01]
  [1.02194031e+03 6.00859558e+02 8.83080304e-01]
  [1.01301318e+03 6.80418152e+02 8.13807905e-01]
  [9.30608582e+02 6.42088440e+02 7.11695910e-01]
  [8.83546204e+02 6.27414673e+02 7.05749452e-01]
  [7.86186890e+02 7.86217407e+02 9.01625037e-01]
  [7.42084106e+02 9.30693298e+02 8.38199794e-01]
  [9.77666687e+02 6.48052063e+02 6.99986100e-01]
  [1.05414258e+03 7.86450500e+02 8.53163958e-01]
  [1.07474670e+03 9.48229187e+02 8.40841711e-01]
  [1.00708716e+03 3.68406494e+02 8.32674026e-01]
  [1.03361597e+03 3.85954834e+02 8.46474528e-01]
  [9.80568970e+02 3.77252777e+02 5.55820167e-01]
  [1.04545996e+03 4.09657593e+02 8.47171903e-01]
  [1.11892871e+03 9.80573975e+02 7.91038156e-01]
  [1.12483972e+03 9.74606995e+02 7.80861199e-01]
  [1.06588953e+03 9.60053833e+02 8.29194069e-01]
  [7.21614868e+02 9.77552856e+02 7.76690602e-01]
  [7.09812439e+02 9.71711182e+02 7.54070282e-01]
  [7.48056213e+02 9.51171204e+02 7.07237899e-01]]]