[[[1.02770239e+03 3.65614929e+02 9.21892107e-01]
  [1.04528857e+03 4.33127075e+02 9.25789475e-01]
  [9.86445679e+02 4.33045868e+02 8.07064295e-01]
  [8.98155457e+02 3.85920227e+02 8.03388357e-01]
  [8.15870728e+02 3.50762970e+02 8.25993538e-01]
  [1.09536780e+03 4.33212799e+02 8.65116179e-01]
  [1.17780835e+03 3.86094727e+02 8.14118862e-01]
  [1.22788757e+03 3.35971954e+02 8.20679247e-01]
  [1.02480847e+03 6.21451233e+02 7.95762837e-01]
  [9.95300598e+02 6.12699585e+02 7.04547763e-01]
  [1.00112097e+03 7.62848633e+02 8.77269626e-01]
  [9.77583679e+02 9.39426758e+02 8.29753578e-01]
  [1.06303601e+03 6.24509766e+02 7.28309274e-01]
  [1.08366418e+03 7.95251099e+02 7.85942435e-01]
  [1.03947986e+03 9.18759155e+02 7.78072298e-01]
  [1.01596265e+03 3.62514740e+02 9.19967294e-01]
  [1.04519568e+03 3.59490173e+02 8.91362548e-01]
  [9.98385559e+02 3.80115479e+02 7.90849805e-01]
  [1.06592749e+03 3.65527374e+02 7.74464607e-01]
  [1.04838208e+03 9.71721863e+02 7.47111559e-01]
  [1.06875623e+03 9.59969360e+02 7.53928006e-01]
  [1.02463879e+03 9.27616272e+02 7.29896486e-01]
  [1.02169525e+03 9.77744019e+02 8.63833904e-01]
  [9.98148621e+02 9.80646667e+02 7.82733679e-01]
  [9.68842957e+02 9.54032654e+02 7.77446568e-01]]]