[[[1.08950537e+03 4.47847473e+02 8.67888212e-01]
  [1.02473413e+03 5.03813721e+02 9.24077749e-01]
  [9.92346436e+02 4.71400208e+02 7.93703914e-01]
  [9.21724670e+02 5.18469666e+02 8.08962166e-01]
  [8.56899475e+02 5.53891296e+02 8.71922076e-01]
  [1.06305371e+03 5.33307007e+02 7.56836355e-01]
  [1.02776465e+03 6.15645996e+02 7.63910532e-01]
  [1.08063831e+03 5.97997437e+02 8.19847465e-01]
  [9.71775330e+02 6.44941162e+02 7.43053794e-01]
  [9.48140198e+02 6.27488586e+02 6.70964062e-01]
  [1.05419287e+03 6.95247192e+02 8.77783835e-01]
  [1.02178149e+03 8.48135498e+02 8.08489144e-01]
  [9.95366394e+02 6.48117798e+02 7.26637900e-01]
  [1.00708514e+03 8.01005615e+02 7.85754800e-01]
  [9.60026123e+02 9.24690857e+02 8.29105616e-01]
  [1.08955176e+03 4.30176514e+02 8.62522781e-01]
  [1.10129846e+03 4.53754181e+02 8.45461011e-01]
  [1.06298486e+03 4.15465668e+02 6.65430665e-01]
  [1.09836548e+03 4.77356049e+02 4.75533605e-01]
  [1.02466138e+03 9.39389099e+02 7.27255404e-01]
  [1.01297284e+03 9.33476135e+02 6.14393055e-01]
  [9.48129333e+02 9.30647583e+02 8.13278079e-01]
  [1.04230847e+03 9.12941895e+02 4.49554712e-01]
  [1.03355823e+03 9.07053040e+02 4.25168991e-01]
  [1.00704486e+03 8.56844177e+02 7.21538067e-01]]]