[[[9.57093079e+02 4.09506195e+02 8.65759611e-01]
  [9.95295471e+02 4.68540955e+02 8.11441243e-01]
  [9.68819214e+02 4.71389313e+02 7.47003973e-01]
  [8.86429260e+02 4.71384216e+02 7.90147841e-01]
  [8.12888489e+02 4.36254517e+02 8.90062809e-01]
  [1.01890570e+03 4.71400970e+02 8.26496780e-01]
  [9.98246521e+02 5.77534241e+02 8.94058824e-01]
  [9.54034363e+02 6.50908569e+02 8.28191817e-01]
  [9.68818970e+02 6.65606995e+02 7.22140551e-01]
  [9.45328064e+02 6.56892334e+02 6.75925910e-01]
  [9.15815247e+02 7.89386475e+02 8.48990858e-01]
  [9.74805054e+02 9.24629761e+02 8.20875883e-01]
  [9.92337769e+02 6.68546753e+02 6.91343725e-01]
  [9.71670288e+02 7.86266296e+02 8.83993626e-01]
  [1.00420801e+03 9.51208862e+02 8.30903292e-01]
  [9.57152466e+02 4.00759766e+02 1.18382573e-01]
  [9.74554382e+02 3.97829376e+02 8.35154831e-01]
  [0.00000000e+00 0.00000000e+00 0.00000000e+00]
  [1.00112787e+03 4.09615295e+02 8.25276673e-01]
  [9.48208191e+02 9.77600464e+02 8.29565227e-01]
  [9.65871765e+02 9.86482117e+02 7.76017487e-01]
  [1.02469214e+03 9.71707703e+02 8.33020210e-01]
  [9.27618835e+02 9.39436523e+02 7.07617521e-01]
  [9.30559265e+02 9.30637939e+02 6.69321358e-01]
  [9.77824768e+02 9.33456360e+02 4.11499411e-01]]]