[[[1.2602648e+03 3.6851953e+02 9.0929633e-01]
  [1.2543668e+03 4.6262167e+02 8.9365590e-01]
  [1.1894630e+03 4.5971237e+02 8.7903827e-01]
  [1.1129667e+03 4.8909256e+02 8.3867246e-01]
  [1.0423940e+03 4.8609344e+02 8.5361797e-01]
  [1.3131787e+03 4.6553101e+02 7.9607201e-01]
  [1.3720981e+03 5.2740558e+02 7.3910934e-01]
  [1.3926766e+03 5.0681107e+02 7.3799479e-01]
  [1.2778511e+03 6.5979407e+02 6.8387365e-01]
  [1.2337598e+03 6.6568951e+02 7.2913498e-01]
  [1.1335784e+03 7.7754803e+02 8.1144398e-01]
  [1.1101494e+03 9.4527759e+02 7.7129364e-01]
  [1.3161093e+03 6.5389270e+02 6.1512053e-01]
  [1.3279036e+03 8.0107550e+02 8.3210665e-01]
  [1.3309780e+03 9.3348755e+02 8.2898867e-01]
  [1.2484922e+03 3.6265509e+02 9.0690565e-01]
  [1.2806702e+03 3.6534402e+02 9.4132632e-01]
  [1.2307372e+03 3.8617630e+02 8.4111035e-01]
  [1.2984186e+03 3.8618137e+02 8.2528222e-01]
  [1.3425902e+03 9.7170569e+02 7.1932411e-01]
  [1.3573716e+03 9.6294043e+02 7.5687307e-01]
  [1.3278428e+03 9.4826935e+02 7.1832180e-01]
  [1.0305909e+03 9.6886530e+02 6.8542874e-01]
  [1.0394004e+03 9.5707501e+02 6.4460588e-01]
  [1.1218853e+03 9.6293207e+02 7.1271265e-01]]]