[[[1.02163367e+03 3.62378723e+02 9.42781210e-01]
  [1.01888483e+03 4.36070862e+02 8.92391741e-01]
  [9.74679688e+02 4.39085083e+02 8.48442674e-01]
  [9.74746521e+02 5.24399963e+02 6.59279108e-01]
  [9.65908386e+02 5.74502747e+02 8.24602187e-01]
  [1.06007874e+03 4.33104401e+02 8.54237854e-01]
  [1.10422876e+03 5.03808411e+02 8.96578789e-01]
  [1.04826648e+03 5.74422546e+02 9.36796844e-01]
  [1.02194525e+03 6.24531128e+02 8.01855922e-01]
  [9.95250610e+02 6.24599121e+02 7.72579432e-01]
  [9.30627808e+02 7.65809387e+02 8.92813146e-01]
  [9.01191223e+02 9.27572632e+02 8.44600797e-01]
  [1.05128760e+03 6.24453674e+02 7.28555560e-01]
  [1.04527148e+03 7.86342651e+02 9.33975577e-01]
  [1.09247388e+03 9.27688416e+02 8.83307815e-01]
  [1.00706885e+03 3.44928955e+02 8.82707417e-01]
  [1.03353210e+03 3.47870514e+02 8.35834444e-01]
  [9.95302795e+02 3.62617401e+02 3.73454928e-01]
  [1.05416125e+03 3.65512939e+02 8.29309046e-01]
  [1.04541467e+03 9.53991638e+02 8.42486978e-01]
  [1.06876599e+03 9.54221069e+02 8.15330327e-01]
  [1.11011926e+03 9.45220764e+02 8.07766676e-01]
  [8.39321472e+02 9.57061951e+02 7.22019672e-01]
  [8.39338928e+02 9.51107544e+02 7.17496693e-01]
  [9.12902466e+02 9.42328430e+02 7.38440275e-01]]]