[[[1.04834680e+03 3.47830414e+02 9.03759897e-01]
  [1.06900854e+03 4.33057434e+02 8.35222900e-01]
  [1.03652014e+03 4.36014404e+02 7.15958953e-01]
  [1.04239685e+03 5.27385071e+02 7.95486420e-02]
  [1.02181519e+03 5.62680908e+02 1.15345836e-01]
  [1.10124878e+03 4.27207916e+02 7.09890485e-01]
  [1.18958655e+03 4.36165314e+02 8.79660606e-01]
  [1.10716626e+03 4.27209991e+02 7.29603767e-01]
  [1.06584521e+03 6.24563599e+02 7.05357730e-01]
  [1.03654089e+03 6.24539001e+02 6.70474410e-01]
  [1.02490955e+03 8.03955872e+02 8.49086702e-01]
  [1.11309241e+03 9.27687317e+02 8.23958218e-01]
  [1.09231970e+03 6.27396912e+02 6.84155583e-01]
  [1.07192664e+03 7.92248657e+02 8.86183023e-01]
  [1.14236145e+03 9.45248962e+02 8.45527053e-01]
  [1.04524976e+03 3.38872192e+02 9.36151028e-01]
  [1.06894409e+03 3.41878021e+02 9.49212313e-01]
  [1.02474512e+03 3.44917450e+02 1.15487218e-01]
  [1.09252368e+03 3.62565369e+02 7.80214012e-01]
  [1.08659290e+03 9.68861328e+02 6.87452853e-01]
  [1.09838550e+03 9.74599182e+02 6.85041368e-01]
  [1.16010706e+03 9.54212708e+02 8.55000138e-01]
  [1.06885986e+03 9.57034058e+02 7.97109008e-01]
  [1.06894641e+03 9.51207825e+02 7.29101062e-01]
  [1.12190015e+03 9.36462036e+02 2.95096457e-01]]]