[[[1.0483204e+03 3.9189383e+02 9.4578850e-01]
  [9.9819946e+02 4.8013412e+02 9.0980434e-01]
  [9.3355011e+02 4.5380627e+02 8.4873801e-01]
  [9.0102014e+02 5.5078302e+02 8.4160507e-01]
  [8.5700458e+02 6.3916199e+02 8.6441272e-01]
  [1.0541737e+03 5.0381277e+02 8.3417809e-01]
  [1.1159016e+03 5.8618604e+02 8.7180877e-01]
  [1.0719836e+03 6.9201019e+02 8.5884655e-01]
  [9.3346631e+02 6.3626764e+02 7.3201638e-01]
  [8.9528094e+02 6.2448572e+02 7.0117384e-01]
  [8.1584937e+02 7.8042523e+02 8.3075243e-01]
  [7.8042688e+02 9.3069104e+02 8.1715077e-01]
  [9.7483246e+02 6.4517133e+02 7.7761853e-01]
  [1.0482400e+03 7.8339716e+02 8.6093795e-01]
  [1.0866129e+03 9.3359387e+02 8.1500703e-01]
  [1.0452317e+03 3.8011240e+02 8.9386696e-01]
  [1.0687520e+03 3.8913467e+02 8.8090384e-01]
  [1.0071161e+03 3.8599835e+02 8.4277678e-01]
  [1.0688605e+03 4.1548315e+02 4.4432297e-01]
  [1.1453999e+03 9.5717548e+02 7.6265824e-01]
  [1.1426038e+03 9.5120911e+02 7.4908775e-01]
  [1.0689834e+03 9.5410638e+02 8.1704938e-01]
  [7.6271777e+02 9.6590491e+02 7.1894360e-01]
  [7.4223907e+02 9.5427612e+02 7.8860688e-01]
  [7.8633197e+02 9.5114783e+02 7.9540199e-01]]]