[[[1.02189807e+03 3.18466980e+02 9.87311244e-01]
  [1.03062781e+03 4.12652222e+02 8.69551659e-01]
  [9.74719849e+02 4.09652466e+02 8.83065283e-01]
  [9.01091919e+02 4.62677246e+02 8.42332542e-01]
  [8.15823486e+02 5.09653717e+02 7.83437133e-01]
  [1.09241992e+03 4.21378052e+02 8.20876360e-01]
  [1.10133313e+03 5.09743408e+02 8.16050649e-01]
  [1.12192737e+03 5.98077332e+02 8.81206155e-01]
  [1.00122516e+03 5.83279480e+02 7.31055737e-01]
  [9.65848938e+02 5.77437866e+02 6.83115602e-01]
  [9.36471191e+02 7.45106201e+02 8.51903498e-01]
  [9.27696533e+02 8.71693542e+02 8.68263960e-01]
  [1.04246021e+03 5.92050415e+02 7.03939617e-01]
  [1.03070154e+03 7.62819885e+02 8.65301490e-01]
  [1.00415887e+03 9.21748108e+02 8.15288305e-01]
  [1.00712836e+03 3.15279602e+02 8.97981644e-01]
  [1.03942798e+03 3.15280762e+02 8.68598521e-01]
  [9.95373413e+02 3.33109406e+02 6.83710873e-01]
  [0.00000000e+00 0.00000000e+00 0.00000000e+00]
  [1.04243665e+03 9.65836914e+02 7.38813877e-01]
  [1.04816919e+03 9.54091370e+02 8.28563988e-01]
  [9.89368286e+02 9.30541504e+02 8.07749510e-01]
  [9.27716003e+02 9.27505371e+02 8.48966122e-01]
  [9.07029785e+02 9.12949158e+02 7.75857866e-01]
  [9.30609314e+02 8.80511963e+02 7.30424643e-01]]]