[[[9.71805420e+02 4.09484497e+02 8.95453036e-01]
  [9.98289734e+02 4.77331635e+02 8.35741937e-01]
  [9.74806946e+02 4.80229218e+02 7.86705852e-01]
  [9.07046692e+02 4.80317688e+02 8.60792816e-01]
  [8.33485840e+02 4.59641235e+02 9.08825815e-01]
  [1.01888684e+03 4.74343903e+02 8.06375682e-01]
  [9.86457825e+02 5.74311890e+02 8.52980971e-01]
  [9.54130615e+02 6.53861389e+02 8.52223158e-01]
  [9.80568298e+02 6.68604248e+02 7.96065986e-01]
  [9.60030212e+02 6.68534607e+02 7.32490122e-01]
  [9.15873352e+02 7.89295532e+02 8.57321560e-01]
  [9.80684204e+02 9.21685059e+02 7.85251081e-01]
  [1.00116608e+03 6.68674744e+02 7.79656291e-01]
  [9.54110779e+02 7.86207031e+02 9.42338347e-01]
  [1.01881091e+03 9.54022461e+02 8.11388791e-01]
  [9.71646057e+02 3.94965179e+02 7.19364882e-01]
  [9.80657959e+02 3.94921692e+02 8.33536625e-01]
  [0.00000000e+00 0.00000000e+00 0.00000000e+00]
  [1.01883063e+03 4.09636139e+02 7.87846923e-01]
  [9.51244934e+02 9.77558716e+02 8.36705685e-01]
  [9.71733704e+02 9.83582886e+02 7.74227679e-01]
  [1.03069385e+03 9.71729431e+02 8.00959289e-01]
  [9.42277649e+02 9.42337402e+02 7.67880082e-01]
  [9.45306091e+02 9.30689331e+02 7.14420557e-01]
  [9.92345642e+02 9.30590454e+02 3.15805703e-01]]]