[[[9.6298865e+02 6.5977002e+02 8.4425211e-01]
  [9.4527563e+02 7.1577539e+02 8.4914529e-01]
  [8.8642871e+02 7.2457446e+02 7.8950489e-01]
  [8.9822906e+02 8.2162518e+02 8.0465537e-01]
  [9.0410315e+02 9.0411090e+02 9.4053864e-01]
  [9.9837756e+02 6.9808508e+02 8.3644658e-01]
  [1.0248486e+03 7.3047253e+02 7.7143937e-01]
  [1.0099907e+03 7.8940533e+02 7.5865155e-01]
  [9.3653137e+02 8.4526660e+02 6.8514842e-01]
  [9.0401990e+02 8.5105414e+02 6.6454554e-01]
  [8.1868976e+02 8.1291266e+02 8.7562621e-01]
  [9.2759412e+02 9.2755182e+02 5.7532036e-01]
  [9.7482794e+02 8.4516840e+02 7.1034747e-01]
  [1.0217482e+03 8.3652130e+02 9.0880924e-01]
  [9.0699225e+02 9.3054364e+02 5.9742463e-01]
  [9.5110095e+02 6.4506427e+02 9.8160851e-01]
  [9.7473438e+02 6.4517029e+02 9.4013762e-01]
  [9.1287720e+02 6.4791730e+02 8.4790963e-01]
  [0.0000000e+00 0.0000000e+00 0.0000000e+00]
  [8.5693549e+02 9.3353613e+02 5.7643777e-01]
  [8.6291138e+02 9.4238806e+02 4.8094642e-01]
  [9.0108142e+02 9.3361115e+02 3.1111002e-01]
  [9.9828912e+02 9.3640771e+02 4.6582219e-01]
  [9.8646851e+02 9.4527527e+02 3.8737220e-01]
  [0.0000000e+00 0.0000000e+00 0.0000000e+00]]]