[[[1.02184058e+03 5.83301331e+02 8.77735436e-01]
  [9.77743713e+02 6.39117126e+02 8.51852655e-01]
  [9.27570312e+02 6.71589050e+02 7.39024520e-01]
  [9.12922913e+02 7.80499451e+02 7.78374910e-01]
  [9.03983948e+02 8.45218567e+02 7.64481366e-01]
  [1.02768958e+03 5.97867310e+02 8.47561836e-01]
  [1.05415369e+03 6.71476501e+02 8.76789868e-01]
  [1.08366309e+03 7.39206787e+02 8.38792801e-01]
  [1.01889453e+03 7.39239868e+02 6.93312228e-01]
  [9.77711670e+02 7.51047485e+02 6.28403902e-01]
  [8.80535950e+02 7.65904419e+02 8.93311322e-01]
  [8.74610168e+02 9.33554810e+02 7.84547925e-01]
  [1.04841870e+03 7.21628174e+02 6.17511094e-01]
  [1.11897180e+03 7.68796692e+02 8.65815938e-01]
  [1.11894031e+03 9.30650635e+02 8.58766496e-01]
  [1.00413641e+03 5.86161377e+02 7.85978258e-01]
  [1.00714246e+03 5.74314087e+02 2.62391657e-01]
  [9.74684265e+02 6.18477295e+02 6.20490372e-01]
  [0.00000000e+00 0.00000000e+00 0.00000000e+00]
  [1.12478638e+03 9.71690796e+02 7.31983423e-01]
  [1.14255859e+03 9.62974182e+02 7.65821815e-01]
  [1.11010620e+03 9.48203674e+02 7.18742251e-01]
  [8.33418335e+02 9.59992493e+02 7.35819757e-01]
  [8.27567566e+02 9.54032715e+02 7.58199215e-01]
  [8.83459595e+02 9.54046936e+02 8.52657139e-01]]]