[[[9.0408405e+02 3.8908911e+02 9.2236662e-01]
  [9.6593347e+02 4.3313040e+02 8.2009232e-01]
  [9.1581885e+02 4.5675107e+02 7.1510243e-01]
  [9.3065753e+02 5.4793146e+02 3.8063076e-01]
  [8.8940906e+02 5.7433630e+02 5.8119428e-01]
  [1.0217346e+03 4.0953476e+02 8.3778214e-01]
  [1.0925142e+03 4.5979761e+02 8.4037292e-01]
  [1.1425890e+03 4.8008582e+02 8.7731433e-01]
  [9.9235175e+02 6.0976056e+02 7.0722795e-01]
  [9.5130133e+02 6.1266278e+02 7.4140406e-01]
  [8.7173389e+02 7.4523926e+02 8.1544089e-01]
  [9.1291388e+02 9.0115948e+02 7.9440153e-01]
  [1.0248823e+03 6.0974335e+02 6.9328743e-01]
  [1.0159283e+03 7.6589258e+02 8.4662050e-01]
  [1.0394561e+03 9.2770782e+02 8.4348893e-01]
  [8.8647919e+02 3.9486795e+02 8.3245146e-01]
  [9.0118622e+02 3.7434192e+02 8.3240801e-01]
  [8.8931390e+02 4.1552841e+02 4.7157812e-01]
  [9.2461951e+02 3.6258972e+02 8.0132627e-01]
  [9.8940295e+02 9.5714825e+02 8.0479115e-01]
  [1.0100064e+03 9.6294867e+02 7.4144113e-01]
  [1.0511880e+03 9.4529340e+02 8.1351787e-01]
  [8.6295837e+02 9.5399768e+02 7.5730741e-01]
  [8.6282990e+02 9.4527948e+02 6.8315411e-01]
  [9.3356952e+02 9.0997314e+02 7.5817549e-01]]]