[[[9.51112366e+02 3.36058746e+02 9.03818607e-01]
  [9.54090637e+02 4.09696350e+02 9.00613308e-01]
  [9.03977844e+02 4.12592682e+02 7.91889131e-01]
  [8.57002869e+02 4.80370453e+02 8.78829598e-01]
  [8.83639648e+02 3.92035278e+02 7.61018872e-01]
  [1.00714087e+03 4.06720856e+02 7.95804739e-01]
  [1.06591077e+03 3.38874908e+02 8.84944797e-01]
  [1.02170190e+03 2.47734222e+02 8.65851045e-01]
  [9.39450623e+02 5.83256042e+02 6.84112489e-01]
  [9.04162720e+02 5.83277649e+02 7.04754710e-01]
  [9.07165527e+02 7.65636047e+02 9.09731746e-01]
  [9.27502502e+02 9.09998352e+02 8.33342493e-01]
  [9.77562378e+02 5.83232178e+02 7.23015010e-01]
  [9.77793335e+02 7.18760986e+02 8.64577591e-01]
  [9.98299500e+02 8.65789307e+02 8.40898752e-01]
  [9.30447205e+02 3.33086914e+02 8.71768057e-01]
  [9.54013123e+02 3.18338715e+02 9.26572382e-01]
  [9.09946899e+02 3.53700195e+02 6.87209010e-01]
  [9.74825195e+02 3.33036316e+02 2.65272975e-01]
  [1.00410950e+03 9.27483704e+02 7.82638669e-01]
  [1.02186151e+03 9.10055969e+02 7.51496553e-01]
  [9.95230530e+02 8.77623779e+02 6.10767245e-01]
  [9.27719238e+02 9.54108704e+02 8.39779079e-01]
  [9.07165894e+02 9.51263977e+02 8.31115007e-01]
  [9.30617676e+02 9.24703308e+02 7.56210148e-01]]]