[[[1.0719921e+03 3.8609354e+02 9.7655678e-01]
  [1.0925011e+03 4.5378702e+02 9.0974265e-01]
  [1.0453605e+03 4.3912253e+02 8.2152122e-01]
  [9.9819531e+02 3.7725555e+02 8.4186184e-01]
  [1.0013017e+03 2.9477875e+02 8.5538399e-01]
  [1.1423726e+03 4.5958899e+02 8.8921255e-01]
  [1.1630631e+03 5.5370435e+02 9.3636698e-01]
  [1.0923353e+03 6.0689276e+02 8.4825128e-01]
  [1.0719565e+03 6.2155817e+02 7.7283788e-01]
  [1.0452303e+03 6.1859015e+02 7.2251767e-01]
  [1.0394731e+03 7.8626782e+02 8.3882850e-01]
  [1.1130037e+03 9.1882159e+02 7.6463467e-01]
  [1.1101400e+03 6.2444012e+02 7.4100214e-01]
  [1.0924888e+03 7.5392401e+02 8.4892255e-01]
  [1.0688635e+03 9.1290479e+02 8.1885916e-01]
  [1.0659611e+03 3.7424826e+02 8.7679356e-01]
  [1.0923931e+03 3.6850348e+02 9.0082157e-01]
  [1.0484171e+03 3.8888840e+02 2.9087219e-01]
  [1.1188438e+03 3.8609149e+02 8.3036602e-01]
  [1.0688929e+03 9.7461877e+02 6.8003035e-01]
  [1.0865074e+03 9.6590680e+02 6.7709816e-01]
  [1.0484131e+03 9.2768976e+02 7.0491338e-01]
  [1.1100365e+03 9.5424530e+02 4.8333761e-01]
  [1.0925100e+03 9.5127551e+02 5.2539295e-01]
  [1.1248361e+03 9.3049701e+02 8.1178355e-01]]]