[[[9.95206543e+02 3.85977081e+02 9.16380346e-01]
  [9.71698669e+02 4.77294952e+02 8.85795116e-01]
  [9.07029724e+02 4.65499176e+02 8.63560140e-01]
  [8.95229126e+02 5.50887695e+02 7.92680383e-01]
  [9.01123352e+02 6.30401306e+02 8.54336858e-01]
  [1.02468286e+03 4.83076569e+02 8.95987153e-01]
  [1.04529163e+03 5.74392700e+02 8.95516157e-01]
  [1.06297510e+03 6.53898010e+02 7.83760190e-01]
  [9.74777405e+02 6.45128418e+02 8.28109443e-01]
  [9.36413879e+02 6.47918762e+02 7.55909383e-01]
  [9.33634827e+02 7.86193298e+02 8.86809945e-01]
  [9.48106628e+02 9.10055664e+02 8.21194589e-01]
  [1.01298486e+03 6.45134644e+02 7.47156441e-01]
  [1.00137714e+03 7.74595032e+02 8.46064031e-01]
  [9.83618225e+02 9.07130676e+02 8.13533485e-01]
  [9.77685242e+02 3.74293823e+02 8.99967849e-01]
  [1.00129602e+03 3.80189270e+02 8.99083495e-01]
  [9.57025452e+02 3.97834106e+02 8.51894200e-01]
  [1.01874365e+03 4.09504791e+02 8.03288460e-01]
  [9.77560852e+02 9.42369019e+02 7.14423299e-01]
  [9.98167114e+02 9.39414429e+02 7.25668788e-01]
  [9.80570007e+02 9.24632385e+02 6.89915419e-01]
  [9.27699036e+02 9.45263123e+02 7.57758021e-01]
  [9.15824219e+02 9.33612366e+02 7.53478825e-01]
  [9.54018372e+02 9.27563721e+02 8.11436892e-01]]]