[[[9.7175952e+02 3.4184149e+02 9.3558627e-01]
  [9.5426068e+02 4.2429221e+02 8.4142309e-01]
  [9.0409088e+02 4.1551837e+02 8.4466374e-01]
  [8.8049780e+02 5.2719714e+02 8.8524514e-01]
  [9.0415955e+02 5.9202777e+02 9.0555006e-01]
  [1.0158957e+03 4.3019312e+02 7.3790652e-01]
  [9.3646454e+02 5.0685226e+02 6.3508826e-01]
  [8.8362561e+02 4.8613049e+02 1.7727111e-01]
  [9.5995099e+02 6.0393951e+02 7.1106607e-01]
  [9.2169818e+02 6.0387305e+02 6.9506788e-01]
  [8.2752472e+02 7.3338312e+02 8.2353789e-01]
  [7.9233789e+02 8.7763794e+02 8.2761610e-01]
  [1.0012671e+03 6.0391150e+02 7.1147883e-01]
  [1.0454333e+03 7.6584540e+02 9.0238482e-01]
  [1.0718563e+03 9.3061298e+02 8.4377933e-01]
  [9.6877734e+02 3.2134818e+02 8.7989771e-01]
  [9.9242462e+02 3.3889996e+02 8.9816689e-01]
  [9.4829004e+02 3.2137460e+02 1.1921970e-01]
  [1.0187869e+03 3.5948328e+02 6.9839460e-01]
  [1.0923818e+03 9.7466254e+02 7.9795146e-01]
  [1.1100623e+03 9.6585468e+02 7.5598788e-01]
  [1.0659141e+03 9.4824341e+02 7.2877121e-01]
  [7.5392517e+02 9.2761816e+02 7.6698452e-01]
  [7.4221320e+02 9.1286133e+02 7.3699188e-01]
  [8.0985406e+02 8.8651971e+02 8.0763298e-01]]]