[[[1.0983616e+03 3.5664777e+02 8.6856169e-01]
  [1.0659419e+03 4.3327103e+02 9.1651857e-01]
  [1.0247155e+03 4.3011685e+02 8.6272663e-01]
  [9.6882983e+02 4.8021442e+02 8.7733030e-01]
  [8.9230115e+02 5.2737207e+02 8.6211121e-01]
  [1.0983783e+03 4.3908844e+02 8.4534347e-01]
  [1.1423826e+03 5.0690494e+02 8.9574081e-01]
  [1.1896666e+03 5.7447437e+02 8.7779242e-01]
  [1.0542336e+03 6.1561804e+02 7.3757684e-01]
  [1.0249109e+03 6.1568170e+02 7.3249120e-01]
  [1.0248904e+03 7.6576306e+02 8.9903682e-01]
  [9.8940009e+02 9.0115521e+02 8.0662227e-01]
  [1.0865645e+03 6.1561755e+02 7.0571381e-01]
  [1.1365048e+03 7.4520734e+02 8.4914660e-01]
  [1.0865775e+03 8.8637286e+02 8.2671762e-01]
  [1.0893949e+03 3.4180750e+02 9.3621796e-01]
  [1.1129446e+03 3.4486432e+02 8.2263964e-01]
  [1.0482386e+03 3.5076108e+02 8.3018374e-01]
  [0.0000000e+00 0.0000000e+00 0.0000000e+00]
  [1.1218641e+03 9.2754688e+02 8.1352019e-01]
  [1.1248380e+03 9.1292224e+02 7.3932540e-01]
  [1.0659686e+03 9.0116412e+02 7.7137434e-01]
  [1.0188029e+03 9.4817047e+02 8.0695796e-01]
  [9.9812885e+02 9.4236884e+02 7.6511061e-01]
  [9.7477533e+02 9.0696021e+02 7.9137498e-01]]]