[[[1.03947974e+03 3.41860016e+02 9.36390996e-01]
  [1.04518726e+03 4.15583069e+02 8.85888994e-01]
  [9.77646973e+02 4.15464569e+02 8.50138307e-01]
  [8.86423279e+02 4.44912659e+02 8.02025259e-01]
  [7.92265625e+02 4.80170410e+02 7.34628022e-01]
  [1.10420715e+03 4.18450867e+02 7.64354229e-01]
  [1.19252637e+03 4.47932434e+02 7.80106246e-01]
  [1.27781360e+03 4.74285187e+02 7.45029092e-01]
  [1.02490076e+03 5.98033081e+02 7.45883465e-01]
  [9.92311768e+02 5.97953186e+02 7.07838237e-01]
  [9.54101440e+02 7.33393127e+02 8.48650455e-01]
  [9.59984863e+02 8.92288818e+02 7.90446043e-01]
  [1.06888623e+03 6.00877258e+02 7.16982424e-01]
  [1.06599121e+03 7.77517578e+02 8.57715607e-01]
  [1.02776514e+03 9.24719238e+02 8.32632840e-01]
  [1.02472461e+03 3.30172424e+02 9.10605967e-01]
  [1.05128247e+03 3.35960480e+02 8.80821764e-01]
  [1.00710297e+03 3.42068787e+02 6.91342711e-01]
  [1.07196716e+03 3.53688782e+02 7.93071747e-01]
  [1.04542139e+03 9.60035645e+02 7.78706610e-01]
  [1.06304590e+03 9.54231018e+02 8.09558511e-01]
  [1.01877368e+03 9.30685547e+02 8.36168349e-01]
  [9.51061340e+02 9.45207275e+02 7.87804008e-01]
  [9.30471802e+02 9.30692017e+02 8.16150546e-01]
  [9.74754944e+02 9.06933777e+02 7.86708295e-01]]]