[[[9.74798706e+02 3.56624176e+02 9.29102361e-01]
  [1.00707385e+03 4.27204498e+02 7.29141831e-01]
  [1.02182678e+03 4.15605591e+02 5.76986432e-01]
  [9.98261047e+02 5.06764374e+02 9.58874300e-02]
  [9.42296082e+02 5.27322266e+02 1.31477758e-01]
  [9.98220581e+02 4.30118927e+02 8.13905954e-01]
  [9.77776428e+02 5.24320312e+02 8.17613602e-01]
  [9.30583801e+02 5.47899902e+02 8.63883674e-01]
  [9.98290649e+02 5.98021667e+02 7.31812477e-01]
  [1.01299469e+03 5.98052246e+02 6.28091335e-01]
  [1.01880005e+03 7.62929749e+02 8.47913861e-01]
  [1.01888892e+03 9.06933167e+02 7.12069750e-01]
  [9.80689331e+02 5.98000122e+02 6.79272294e-01]
  [9.92422913e+02 7.65728271e+02 8.41747463e-01]
  [1.02181104e+03 9.24589172e+02 7.75077701e-01]
  [9.74696350e+02 3.41779602e+02 9.69750881e-01]
  [9.95313171e+02 3.44829407e+02 9.12003160e-01]
  [0.00000000e+00 0.00000000e+00 0.00000000e+00]
  [1.02179993e+03 3.62487030e+02 8.40130150e-01]
  [9.59995117e+02 9.48278137e+02 7.28675961e-01]
  [9.74782715e+02 9.54062439e+02 7.73843527e-01]
  [1.04236255e+03 9.30702698e+02 7.54643738e-01]
  [9.59990601e+02 9.27666687e+02 4.50624704e-01]
  [9.68787659e+02 9.21764404e+02 4.09377158e-01]
  [1.04525549e+03 9.24563354e+02 2.43711323e-01]]]