[[[9.3062805e+02 2.9185031e+02 9.6890295e-01]
  [9.1290662e+02 3.8016147e+02 8.2382512e-01]
  [8.5108527e+02 3.7142084e+02 7.6769918e-01]
  [8.0976257e+02 4.6267160e+02 8.7215209e-01]
  [7.9809967e+02 5.7137891e+02 8.2635224e-01]
  [9.7764313e+02 3.8310724e+02 8.5758096e-01]
  [1.0217766e+03 4.6260818e+02 9.0325278e-01]
  [9.7778937e+02 5.2732251e+02 8.8340449e-01]
  [9.2463574e+02 5.7152545e+02 7.5020784e-01]
  [8.8064056e+02 5.7435431e+02 7.6125401e-01]
  [9.0116339e+02 7.6270844e+02 8.6478913e-01]
  [9.1590570e+02 9.0703815e+02 7.9464900e-01]
  [9.5997260e+02 5.7146777e+02 7.0915568e-01]
  [9.7171136e+02 7.3634930e+02 8.5312188e-01]
  [9.8648798e+02 9.0694922e+02 7.9369622e-01]
  [9.1581213e+02 2.7712851e+02 8.6553693e-01]
  [9.4826190e+02 2.8306580e+02 8.7498462e-01]
  [8.8348773e+02 2.9490131e+02 8.7364024e-01]
  [9.5424756e+02 3.0947888e+02 4.0981582e-01]
  [9.8651880e+02 9.5422998e+02 7.0767903e-01]
  [1.0013174e+03 9.5115576e+02 7.5363672e-01]
  [9.8060083e+02 9.1880988e+02 6.4842397e-01]
  [8.9528973e+02 9.4523242e+02 4.8794690e-01]
  [8.8350464e+02 9.3355652e+02 5.2506208e-01]
  [9.3047241e+02 9.2461987e+02 7.0873392e-01]]]