[[[1.02779089e+03 6.80436462e+02 8.49709928e-01]
  [9.77656799e+02 7.39096558e+02 7.34772503e-01]
  [9.77659363e+02 7.39219116e+02 8.72004509e-01]
  [9.54166565e+02 8.45179626e+02 8.34369838e-01]
  [9.27739868e+02 9.45258911e+02 8.67410898e-01]
  [9.74729004e+02 7.33415833e+02 5.48552990e-01]
  [9.74692810e+02 8.42252380e+02 9.14884582e-02]
  [9.30512390e+02 9.48138916e+02 7.74584115e-02]
  [9.98230896e+02 9.30664734e+02 5.85176408e-01]
  [9.98189575e+02 9.39436279e+02 6.47388518e-01]
  [1.13661011e+03 8.33481445e+02 8.60727429e-01]
  [1.25424695e+03 9.54164490e+02 7.86879599e-01]
  [1.00114075e+03 9.27602661e+02 4.75597292e-01]
  [1.12480237e+03 8.36408569e+02 5.31347692e-01]
  [1.17486426e+03 9.21726929e+02 5.72558105e-01]
  [1.02180609e+03 6.68480652e+02 9.31671500e-01]
  [1.04536060e+03 6.71621277e+02 9.59456146e-01]
  [9.86483032e+02 6.68617310e+02 7.43358970e-01]
  [0.00000000e+00 0.00000000e+00 0.00000000e+00]
  [0.00000000e+00 0.00000000e+00 0.00000000e+00]
  [0.00000000e+00 0.00000000e+00 0.00000000e+00]
  [1.16601135e+03 9.30666687e+02 5.15024662e-01]
  [1.32781360e+03 9.74813660e+02 7.43406773e-01]
  [1.30726758e+03 9.80690308e+02 7.32642233e-01]
  [1.23965015e+03 9.77614319e+02 7.00466096e-01]]]