[[[1.11584766e+03 3.36047058e+02 9.16303873e-01]
  [1.10129541e+03 4.33106781e+02 8.78620088e-01]
  [1.05712756e+03 4.33105377e+02 8.48157108e-01]
  [1.05118811e+03 5.06628571e+02 8.70569766e-01]
  [1.04527942e+03 5.68561707e+02 9.08659935e-01]
  [1.14550159e+03 4.33187622e+02 8.57431054e-01]
  [1.15430457e+03 5.36202759e+02 7.89169908e-01]
  [1.12182397e+03 6.36204407e+02 8.11582804e-01]
  [1.12480701e+03 6.15671204e+02 7.33968794e-01]
  [1.09257336e+03 6.09775269e+02 7.70761430e-01]
  [1.02466345e+03 7.65660583e+02 9.11521435e-01]
  [1.02190137e+03 9.06925415e+02 8.67341220e-01]
  [1.16295935e+03 6.18611450e+02 7.34124005e-01]
  [1.13939038e+03 7.80468506e+02 8.60314786e-01]
  [1.17196045e+03 9.42377380e+02 7.86670268e-01]
  [1.10718433e+03 3.18377136e+02 9.10622895e-01]
  [1.13647070e+03 3.33110535e+02 8.70415568e-01]
  [1.08941516e+03 3.38994568e+02 2.36350283e-01]
  [1.14539844e+03 3.62404175e+02 8.83798599e-01]
  [1.11897485e+03 9.71688965e+02 7.88241565e-01]
  [1.13960327e+03 9.74668457e+02 8.18816185e-01]
  [1.18965466e+03 9.57003479e+02 8.28100145e-01]
  [9.74643494e+02 9.45233765e+02 7.26606488e-01]
  [9.74621460e+02 9.30587036e+02 7.35031009e-01]
  [1.04231030e+03 9.18804321e+02 7.53988862e-01]]]