[[[9.71810547e+02 3.62547089e+02 9.35932994e-01]
  [9.68827637e+02 4.33260101e+02 8.85357738e-01]
  [9.10060242e+02 4.30205109e+02 8.06976557e-01]
  [8.83461121e+02 4.86191803e+02 9.07720566e-01]
  [9.18750427e+02 4.09656433e+02 7.93314219e-01]
  [1.02175446e+03 4.39015991e+02 8.51612031e-01]
  [1.03060303e+03 5.42086853e+02 8.31459522e-01]
  [9.83534485e+02 4.80255035e+02 8.36952567e-01]
  [9.57068909e+02 6.18543823e+02 7.24962354e-01]
  [9.21759949e+02 6.15598022e+02 6.79692447e-01]
  [9.07020447e+02 7.83418640e+02 9.16891456e-01]
  [9.54176697e+02 9.01163696e+02 8.28486800e-01]
  [9.98331787e+02 6.21470459e+02 7.37205446e-01]
  [9.86475769e+02 7.68765381e+02 8.18452060e-01]
  [9.57127686e+02 9.36517822e+02 7.87570059e-01]
  [9.57180115e+02 3.42012909e+02 9.24268484e-01]
  [9.92327393e+02 3.56592529e+02 8.54885340e-01]
  [9.42362488e+02 3.44972992e+02 6.99146271e-01]
  [1.00712476e+03 3.68420227e+02 7.87873268e-01]
  [9.06945190e+02 9.68761536e+02 7.77129471e-01]
  [9.27574951e+02 9.74689026e+02 7.94162810e-01]
  [9.71829285e+02 9.57043884e+02 7.68715084e-01]
  [9.21751709e+02 9.27639587e+02 5.54500222e-01]
  [9.21698425e+02 9.21728699e+02 5.51881313e-01]
  [9.68830505e+02 9.07017822e+02 2.92199731e-01]]]