[[[9.77771851e+02 3.41894348e+02 9.55939412e-01]
  [9.77596130e+02 4.12702332e+02 9.17009592e-01]
  [9.21703918e+02 4.09634644e+02 8.41429710e-01]
  [8.74587708e+02 3.33103119e+02 7.76445150e-01]
  [8.42226624e+02 2.68346527e+02 8.91224563e-01]
  [1.03941821e+03 4.30129852e+02 8.03613305e-01]
  [1.05131482e+03 5.00906616e+02 8.50113988e-01]
  [1.00127283e+03 5.77400269e+02 9.08533216e-01]
  [9.77811523e+02 6.00936157e+02 7.92681277e-01]
  [9.42358582e+02 6.00990356e+02 7.44878232e-01]
  [9.01138916e+02 7.62904480e+02 8.74690533e-01]
  [8.56921387e+02 9.12931580e+02 8.35772276e-01]
  [1.02184094e+03 6.00930115e+02 7.86779642e-01]
  [1.02779602e+03 7.62828674e+02 8.33638787e-01]
  [1.06599170e+03 9.18832703e+02 8.07868183e-01]
  [9.74600098e+02 3.30136749e+02 8.96551847e-01]
  [9.98311462e+02 3.38847748e+02 9.36907291e-01]
  [9.51169312e+02 3.39105011e+02 7.95532465e-01]
  [1.01889752e+03 3.59491974e+02 7.50991046e-01]
  [1.03950916e+03 9.57157043e+02 7.37826526e-01]
  [1.06585999e+03 9.57074158e+02 7.88408160e-01]
  [1.07197437e+03 9.30597717e+02 7.64975011e-01]
  [8.59966309e+02 9.57058228e+02 7.73797452e-01]
  [8.39392395e+02 9.54086792e+02 7.95988202e-01]
  [8.53986877e+02 9.27576782e+02 6.91855311e-01]]]